Archivos Guadalupe/Data/1410-32-X3/15-08/tek0013ALL.csv

Model,DPO3034
Firmware Version,2.16

Point Format,Y,
Horizontal Units,S,
Horizontal Scale,1,
Sample Interval,0.01,
Record Length,1000,
Gating,0.0% to 100.0%,0.0% to 100.0%
Probe Attenuation,1,1
Vertical Units,V,V
Vertical Offset,0,0
Vertical Scale,0.5,0.05
Label,,
TIME,CH1,CH2
-9.700e-01,0.01,0.006
-9.600e-01,0.01,-0.002
-9.500e-01,-0.01,-0.006
-9.400e-01,0.01,-0.004
-9.300e-01,-0.01,0.004
-9.200e-01,0.05,-0.01
-9.100e-01,0.01,0.006
-9.000e-01,0.03,0.004
-8.900e-01,0.01,-0.006
-8.800e-01,-0.01,-0.01
-8.700e-01,0.01,0.012
-8.600e-01,-0.01,0.004
-8.500e-01,-0.01,-0.004
-8.400e-01,0.01,0.016
-8.300e-01,0.03,0.01
-8.200e-01,-0.01,0.002
-8.100e-01,0.01,-0.004
-8.000e-01,0.01,0.004
-7.900e-01,0.05,0.002
-7.800e-01,-0.01,-0.004
-7.700e-01,-0.01,0
-7.600e-01,-0.01,-0.012
-7.500e-01,0.01,0.008
-7.400e-01,0.01,0.008
-7.300e-01,-0.01,0.008
-7.200e-01,0.01,0.004
-7.100e-01,-0.01,-0.004
-7.000e-01,0.05,-0.002
-6.900e-01,0.03,-0.002
-6.800e-01,0.01,0.036
-6.700e-01,0.01,0
-6.600e-01,0.03,0.012
-6.500e-01,0.03,0.014
-6.400e-01,0.01,-0.006
-6.300e-01,0.01,0.022
-6.200e-01,-0.01,-0.004
-6.100e-01,0.01,-0.006
-6.000e-01,0.01,-0.004
-5.900e-01,-0.01,0.01
-5.800e-01,0.01,-0.006
-5.700e-01,0.03,0.004
-5.600e-01,0.01,0.004
-5.500e-01,0.01,0
-5.400e-01,0.01,0.006
-5.300e-01,0.01,0.012
-5.200e-01,0.05,-0.006
-5.100e-01,-0.01,0.006
-5.000e-01,0.03,0.052
-4.900e-01,0.01,0
-4.800e-01,0.01,0.004
-4.700e-01,0.01,-0.002
-4.600e-01,0.03,-0.004
-4.500e-01,-0.01,0
-4.400e-01,0.03,0.002
-4.300e-01,-0.01,-0.008
-4.200e-01,-0.01,0.004
-4.100e-01,0.01,-0.006
-4.000e-01,0.01,-0.004
-3.900e-01,0.03,0.002
-3.800e-01,-0.01,-0.006
-3.700e-01,0.05,0.002
-3.600e-01,0.01,-0.002
-3.500e-01,0.03,-0.004
-3.400e-01,-0.01,-0.01
-3.300e-01,0.01,0.002
-3.200e-01,0.01,0.004
-3.100e-01,-0.01,-0.002
-3.000e-01,-0.01,0.004
-2.900e-01,-0.01,0.008
-2.800e-01,-0.01,0.01
-2.700e-01,-0.01,0
-2.600e-01,0.03,0.008
-2.500e-01,0.03,-0.008
-2.400e-01,0.01,-0.004
-2.300e-01,0.01,0.008
-2.200e-01,0.01,-0.008
-2.100e-01,0.03,0.004
-2.000e-01,-0.01,-0.002
-1.900e-01,0.05,0.006
-1.800e-01,0.05,0.014
-1.700e-01,0.09,0.022
-1.600e-01,0.09,0.014
-1.500e-01,0.11,0.004
-1.400e-01,0.13,0.008
-1.300e-01,0.17,0.032
-1.200e-01,0.17,0.018
-1.100e-01,0.21,0.018
-1.000e-01,0.21,0.028
-9.000e-02,0.27,0.048
-8.000e-02,0.27,0.024
-7.000e-02,0.29,0.042
-6.000e-02,0.31,0.048
-5.000e-02,0.35,0.042
-4.000e-02,0.37,0.048
-3.000e-02,0.39,0.066
-2.000e-02,0.45,0.066
-1.000e-02,0.45,0.082
9.749e-16,0.45,0.062
1.000e-02,0.51,0.072
2.000e-02,0.53,0.078
3.000e-02,0.53,0.076
4.000e-02,0.59,0.082
5.000e-02,0.57,0.09
6.000e-02,0.61,0.082
7.000e-02,0.69,0.1
8.000e-02,0.65,0.106
9.000e-02,0.71,0.094
1.000e-01,0.71,0.108
1.100e-01,0.75,0.106
1.200e-01,0.77,0.112
1.300e-01,0.79,0.118
1.400e-01,0.83,0.114
1.500e-01,0.83,0.13
1.600e-01,0.89,0.13
1.700e-01,0.91,0.144
1.800e-01,0.91,0.126
1.900e-01,0.99,0.186
2.000e-01,0.97,0.152
2.100e-01,1.01,0.156
2.200e-01,1.01,0.166
2.300e-01,1.03,0.164
2.400e-01,1.09,0.156
2.500e-01,1.07,0.17
2.600e-01,1.13,0.186
2.700e-01,1.17,0.172
2.800e-01,1.17,0.182
2.900e-01,1.17,0.194
3.000e-01,1.21,0.186
3.100e-01,1.23,0.192
3.200e-01,1.27,0.2
3.300e-01,1.25,0.194
3.400e-01,1.33,0.204
3.500e-01,1.31,0.218
3.600e-01,1.35,0.214
3.700e-01,1.39,0.224
3.800e-01,1.39,0.212
3.900e-01,1.41,0.216
4.000e-01,1.45,0.222
4.100e-01,1.45,0.228
4.200e-01,1.47,0.204
4.300e-01,1.51,0.242
4.400e-01,1.57,0.242
4.500e-01,1.57,0.26
4.600e-01,1.57,0.258
4.700e-01,1.59,0.216
4.800e-01,1.63,0.254
4.900e-01,1.63,0.258
5.000e-01,1.67,0.276
5.100e-01,1.71,0.274
5.200e-01,1.73,0.288
5.300e-01,1.73,0.284
5.400e-01,1.75,0.286
5.500e-01,1.79,0.3
5.600e-01,1.79,0.29
5.700e-01,1.87,0.306
5.800e-01,1.87,0.312
5.900e-01,1.87,0.312
6.000e-01,1.85,0.312
6.100e-01,1.93,0.326
6.200e-01,1.89,0.322
6.300e-01,1.93,0.318
6.400e-01,1.91,0.322
6.500e-01,1.91,0.324
6.600e-01,1.89,0.322
6.700e-01,1.87,0.314
6.800e-01,1.91,0.33
6.900e-01,1.91,0.312
7.000e-01,1.91,0.318
7.100e-01,1.91,0.314
7.200e-01,1.91,0.312
7.300e-01,1.91,0.308
7.400e-01,1.95,0.326
7.500e-01,1.93,0.312
7.600e-01,1.89,0.332
7.700e-01,1.91,0.31
7.800e-01,1.93,0.33
7.900e-01,1.93,0.322
8.000e-01,1.89,0.314
8.100e-01,1.91,0.31
8.200e-01,1.91,0.316
8.300e-01,1.93,0.314
8.400e-01,1.93,0.322
8.500e-01,1.93,0.32
8.600e-01,1.93,0.316
8.700e-01,1.93,0.314
8.800e-01,1.89,0.33
8.900e-01,1.89,0.304
9.000e-01,1.91,0.326
9.100e-01,1.95,0.316
9.200e-01,1.91,0.33
9.300e-01,1.93,0.328
9.400e-01,1.97,0.338
9.500e-01,1.87,0.334
9.600e-01,1.91,0.338
9.700e-01,1.95,0.336
9.800e-01,1.93,0.318
9.900e-01,1.89,0.328
1.000e+00,1.93,0.318
1.010e+00,1.93,0.316
1.020e+00,1.89,0.306
1.030e+00,1.93,0.328
1.040e+00,1.91,0.318
1.050e+00,1.95,0.358
1.060e+00,1.93,0.324
1.070e+00,1.93,0.334
1.080e+00,1.89,0.31
1.090e+00,1.91,0.326
1.100e+00,1.89,0.328
1.110e+00,1.91,0.332
1.120e+00,1.93,0.318
1.130e+00,1.91,0.328
1.140e+00,1.93,0.32
1.150e+00,1.93,0.31
1.160e+00,1.91,0.324
1.170e+00,1.91,0.33
1.180e+00,1.93,0.312
1.190e+00,1.91,0.312
1.200e+00,1.91,0.306
1.210e+00,1.89,0.3
1.220e+00,1.93,0.322
1.230e+00,1.91,0.318
1.240e+00,1.93,0.342
1.250e+00,1.91,0.31
1.260e+00,1.91,0.344
1.270e+00,1.91,0.328
1.280e+00,1.85,0.296
1.290e+00,1.91,0.326
1.300e+00,1.95,0.33
1.310e+00,1.93,0.318
1.320e+00,1.93,0.354
1.330e+00,1.91,0.314
1.340e+00,1.93,0.316
1.350e+00,1.93,0.324
1.360e+00,1.91,0.334
1.370e+00,1.91,0.334
1.380e+00,1.93,0.324
1.390e+00,1.91,0.322
1.400e+00,1.93,0.334
1.410e+00,1.87,0.328
1.420e+00,1.87,0.318
1.430e+00,1.87,0.312
1.440e+00,1.87,0.334
1.450e+00,1.81,0.294
1.460e+00,1.81,0.288
1.470e+00,1.77,0.312
1.480e+00,1.79,0.304
1.490e+00,1.77,0.34
1.500e+00,1.73,0.278
1.510e+00,1.69,0.294
1.520e+00,1.67,0.294
1.530e+00,1.65,0.26
1.540e+00,1.67,0.308
1.550e+00,1.61,0.268
1.560e+00,1.59,0.254
1.570e+00,1.57,0.264
1.580e+00,1.53,0.256
1.590e+00,1.53,0.26
1.600e+00,1.51,0.23
1.610e+00,1.51,0.248
1.620e+00,1.49,0.242
1.630e+00,1.47,0.234
1.640e+00,1.41,0.232
1.650e+00,1.41,0.232
1.660e+00,1.33,0.154
1.670e+00,1.33,0.214
1.680e+00,1.31,0.222
1.690e+00,1.31,0.214
1.700e+00,1.27,0.206
1.710e+00,1.29,0.224
1.720e+00,1.25,0.214
1.730e+00,1.25,0.182
1.740e+00,1.19,0.188
1.750e+00,1.19,0.176
1.760e+00,1.15,0.182
1.770e+00,1.15,0.188
1.780e+00,1.13,0.188
1.790e+00,1.11,0.174
1.800e+00,1.11,0.184
1.810e+00,1.01,0.158
1.820e+00,1.03,0.158
1.830e+00,0.99,0.152
1.840e+00,0.99,0.168
1.850e+00,1.01,0.158
1.860e+00,0.93,0.128
1.870e+00,0.91,0.154
1.880e+00,0.91,0.146
1.890e+00,0.89,0.146
1.900e+00,0.87,0.144
1.910e+00,0.83,0.124
1.920e+00,0.87,0.132
1.930e+00,0.81,0.13
1.940e+00,0.79,0.134
1.950e+00,0.77,0.126
1.960e+00,0.71,0.106
1.970e+00,0.69,0.118
1.980e+00,0.69,0.12
1.990e+00,0.69,0.108
2.000e+00,0.65,0.104
2.010e+00,0.63,0.106
2.020e+00,0.57,0.086
2.030e+00,0.59,0.082
2.040e+00,0.55,0.078
2.050e+00,0.55,0.082
2.060e+00,0.51,0.08
2.070e+00,0.49,0.084
2.080e+00,0.45,0.064
2.090e+00,0.47,0.076
2.100e+00,0.47,0.058
2.110e+00,0.37,0.076
2.120e+00,0.39,0.054
2.130e+00,0.35,0.046
2.140e+00,0.35,0.062
2.150e+00,0.29,0.008
2.160e+00,0.27,0.03
2.170e+00,0.27,0.036
2.180e+00,0.25,0.05
2.190e+00,0.21,0.036
2.200e+00,0.19,0.028
2.210e+00,0.17,0.03
2.220e+00,0.23,0.02
2.230e+00,0.21,0.026
2.240e+00,0.21,0.034
2.250e+00,0.19,0.016
2.260e+00,0.19,0.018
2.270e+00,0.19,0.05
2.280e+00,0.19,0.03
2.290e+00,0.19,0.034
2.300e+00,0.19,0.022
2.310e+00,0.21,0.022
2.320e+00,0.17,0.03
2.330e+00,0.21,0.034
2.340e+00,0.21,0.038
2.350e+00,0.15,0.042
2.360e+00,0.21,0.026
2.370e+00,0.19,0.042
2.380e+00,0.19,0.07
2.390e+00,0.21,0.028
2.400e+00,0.17,0.03
2.410e+00,0.19,0.018
2.420e+00,0.17,0.024
2.430e+00,0.19,0.024
2.440e+00,0.19,0.034
2.450e+00,0.21,0.028
2.460e+00,0.19,0.02
2.470e+00,0.21,0.042
2.480e+00,0.21,0.03
2.490e+00,0.21,0.034
2.500e+00,0.21,0.028
2.510e+00,0.19,0.03
2.520e+00,0.21,0.022
2.530e+00,0.19,0.016
2.540e+00,0.23,0.032
2.550e+00,0.25,0.028
2.560e+00,0.19,0.012
2.570e+00,0.19,0.016
2.580e+00,0.21,0.028
2.590e+00,0.17,0.026
2.600e+00,0.23,0.046
2.610e+00,0.21,0.032
2.620e+00,0.21,0.004
2.630e+00,0.21,0.048
2.640e+00,0.19,0.032
2.650e+00,0.17,0.032
2.660e+00,0.21,0.036
2.670e+00,0.21,0.026
2.680e+00,0.21,0.02
2.690e+00,0.15,-0.024
2.700e+00,0.21,0.018
2.710e+00,0.17,0.022
2.720e+00,0.21,0.028
2.730e+00,0.21,0.022
2.740e+00,0.19,0.016
2.750e+00,0.19,0.05
2.760e+00,0.19,0.014
2.770e+00,0.21,0.022
2.780e+00,0.21,0.056
2.790e+00,0.21,0.068
2.800e+00,0.21,0.038
2.810e+00,0.19,0.024
2.820e+00,0.21,0.028
2.830e+00,0.19,0.02
2.840e+00,0.19,0.036
2.850e+00,0.19,0.024
2.860e+00,0.21,0.04
2.870e+00,0.21,0.024
2.880e+00,0.21,0.028
2.890e+00,0.19,0.034
2.900e+00,0.21,0.022
2.910e+00,0.21,0.03
2.920e+00,0.17,0.022
2.930e+00,0.21,0.034
2.940e+00,0.19,0.038
2.950e+00,0.21,0.024
2.960e+00,0.19,0.02
2.970e+00,0.19,0.028
2.980e+00,0.21,0.014
2.990e+00,0.19,0.032
3.000e+00,0.17,0.03
3.010e+00,0.21,0.028
3.020e+00,0.21,0.026
3.030e+00,0.19,0.028
3.040e+00,0.21,0.028
3.050e+00,0.19,0.018
3.060e+00,0.17,0.032
3.070e+00,0.19,0.03
3.080e+00,0.19,0.026
3.090e+00,0.21,0.022
3.100e+00,0.21,0.026
3.110e+00,0.17,0.034
3.120e+00,0.19,0.028
3.130e+00,0.19,0.032
3.140e+00,0.19,0.04
3.150e+00,0.17,0.024
3.160e+00,0.21,0.032
3.170e+00,0.21,0.018
3.180e+00,0.17,0.03
3.190e+00,0.19,0.022
3.200e+00,0.21,0.026
3.210e+00,0.21,0.028
3.220e+00,0.19,0.034
3.230e+00,0.21,0.022
3.240e+00,0.19,0.026
3.250e+00,0.21,0.034
3.260e+00,0.19,0.024
3.270e+00,0.21,0.03
3.280e+00,0.19,0.034
3.290e+00,0.21,0.052
3.300e+00,0.21,0.044
3.310e+00,0.21,0.018
3.320e+00,0.21,0.04
3.330e+00,0.21,0.018
3.340e+00,0.21,0.032
3.350e+00,0.21,0.042
3.360e+00,0.19,0.004
3.370e+00,0.25,0.024
3.380e+00,0.21,0.022
3.390e+00,0.17,0.026
3.400e+00,0.19,0.022
3.410e+00,0.17,0.026
3.420e+00,0.19,0.026
3.430e+00,0.23,0.028
3.440e+00,0.21,0.024
3.450e+00,0.19,0.026
3.460e+00,0.21,0.034
3.470e+00,0.21,0.034
3.480e+00,0.23,0.026
3.490e+00,0.21,0.026
3.500e+00,0.19,0.022
3.510e+00,0.19,0.01
3.520e+00,0.23,0.054
3.530e+00,0.21,0.04
3.540e+00,0.21,0.024
3.550e+00,0.17,0.038
3.560e+00,0.21,0.02
3.570e+00,0.21,0.036
3.580e+00,0.23,0.018
3.590e+00,0.21,0.028
3.600e+00,0.21,0.038
3.610e+00,0.19,0.032
3.620e+00,0.21,0.032
3.630e+00,0.17,0.024
3.640e+00,0.17,0.038
3.650e+00,0.21,0.028
3.660e+00,0.21,0.02
3.670e+00,0.21,0.034
3.680e+00,0.21,0.034
3.690e+00,0.21,0.036
3.700e+00,0.21,0.032
3.710e+00,0.21,0.014
3.720e+00,0.17,0.014
3.730e+00,0.21,0.034
3.740e+00,0.17,-0.012
3.750e+00,0.21,0.024
3.760e+00,0.21,0.03
3.770e+00,0.21,0.03
3.780e+00,0.19,0.036
3.790e+00,0.19,0.026
3.800e+00,0.19,0.026
3.810e+00,0.21,0.034
3.820e+00,0.23,0.032
3.830e+00,0.21,0.03
3.840e+00,0.21,0.036
3.850e+00,0.17,0.036
3.860e+00,0.19,0.032
3.870e+00,0.21,0.034
3.880e+00,0.21,0.038
3.890e+00,0.19,0.024
3.900e+00,0.17,0.022
3.910e+00,0.21,0.036
3.920e+00,0.21,0.018
3.930e+00,0.21,0.04
3.940e+00,0.19,0.024
3.950e+00,0.21,0.028
3.960e+00,0.21,0.022
3.970e+00,0.21,0.034
3.980e+00,0.19,0.012
3.990e+00,0.19,0.028
4.000e+00,0.21,0.04
4.010e+00,0.21,0.03
4.020e+00,0.21,0.022
4.030e+00,0.23,0.026
4.040e+00,0.19,0.022
4.050e+00,0.19,0.042
4.060e+00,0.21,0.01
4.070e+00,0.21,0.028
4.080e+00,0.21,0.024
4.090e+00,0.19,0.022
4.100e+00,0.21,0.03
4.110e+00,0.19,0.03
4.120e+00,0.21,0.022
4.130e+00,0.21,0.022
4.140e+00,0.21,0.006
4.150e+00,0.21,0.03
4.160e+00,0.21,0.038
4.170e+00,0.19,0.028
4.180e+00,0.21,0.04
4.190e+00,0.19,0.016
4.200e+00,0.21,0.028
4.210e+00,0.21,0.02
4.220e+00,0.21,0.032
4.230e+00,0.21,0.04
4.240e+00,0.21,0.028
4.250e+00,0.19,0.028
4.260e+00,0.21,0.026
4.270e+00,0.17,0.04
4.280e+00,0.21,0.038
4.290e+00,0.19,0.026
4.300e+00,0.21,0.044
4.310e+00,0.21,0.038
4.320e+00,0.21,0.022
4.330e+00,0.21,0.028
4.340e+00,0.21,0.034
4.350e+00,0.19,0.03
4.360e+00,0.19,0.032
4.370e+00,0.21,0.018
4.380e+00,0.21,0.034
4.390e+00,0.21,0.028
4.400e+00,0.21,0.036
4.410e+00,0.21,0.032
4.420e+00,0.21,0.026
4.430e+00,0.19,0.028
4.440e+00,0.19,0.03
4.450e+00,0.19,0.038
4.460e+00,0.21,0.036
4.470e+00,0.21,0.05
4.480e+00,0.19,0.032
4.490e+00,0.21,0.026
4.500e+00,0.21,0.018
4.510e+00,0.21,0.018
4.520e+00,0.21,0.026
4.530e+00,0.19,0.032
4.540e+00,0.21,0.048
4.550e+00,0.19,0.03
4.560e+00,0.19,0.004
4.570e+00,0.19,0.022
4.580e+00,0.21,0.04
4.590e+00,0.21,0.012
4.600e+00,0.19,0.034
4.610e+00,0.19,0.02
4.620e+00,0.19,0.026
4.630e+00,0.21,0.036
4.640e+00,0.21,0.014
4.650e+00,0.21,0.036
4.660e+00,0.21,0.032
4.670e+00,0.21,0.022
4.680e+00,0.23,0.034
4.690e+00,0.19,0.03
4.700e+00,0.19,0.036
4.710e+00,0.21,0.022
4.720e+00,0.19,0.022
4.730e+00,0.23,0.034
4.740e+00,0.21,0.034
4.750e+00,0.19,0.05
4.760e+00,0.21,0.022
4.770e+00,0.21,0.024
4.780e+00,0.21,0.042
4.790e+00,0.21,0.04
4.800e+00,0.21,0.022
4.810e+00,0.19,0.03
4.820e+00,0.21,0.036
4.830e+00,0.19,0.022
4.840e+00,0.21,0.038
4.850e+00,0.21,0.024
4.860e+00,0.19,0.036
4.870e+00,0.21,0.024
4.880e+00,0.21,0.028
4.890e+00,0.21,0.02
4.900e+00,0.21,0.026
4.910e+00,0.17,0.03
4.920e+00,0.17,0.022
4.930e+00,0.21,0.034
4.940e+00,0.21,0.034
4.950e+00,0.21,0.028
4.960e+00,0.21,0.026
4.970e+00,0.17,0.036
4.980e+00,0.21,0.038
4.990e+00,0.23,0.034
5.000e+00,0.19,0.032
5.010e+00,0.21,0.024
5.020e+00,0.21,0.024
5.030e+00,0.21,0.024
5.040e+00,0.17,0.032
5.050e+00,0.19,0.028
5.060e+00,0.21,0.038
5.070e+00,0.19,0.028
5.080e+00,0.21,0.018
5.090e+00,0.21,0.016
5.100e+00,0.19,0.032
5.110e+00,0.21,0.028
5.120e+00,0.21,0.022
5.130e+00,0.19,0.02
5.140e+00,0.17,0.014
5.150e+00,0.19,0.024
5.160e+00,0.21,0.014
5.170e+00,0.21,0.02
5.180e+00,0.21,0.02
5.190e+00,0.21,0.024
5.200e+00,0.19,0.02
5.210e+00,0.19,0.024
5.220e+00,0.19,0.032
5.230e+00,0.21,0.018
5.240e+00,0.19,0.024
5.250e+00,0.21,0.036
5.260e+00,0.19,0.034
5.270e+00,0.19,0.04
5.280e+00,0.21,0.024
5.290e+00,0.19,0.048
5.300e+00,0.21,0.022
5.310e+00,0.17,0.032
5.320e+00,0.21,0.032
5.330e+00,0.21,0.034
5.340e+00,0.17,-0.014
5.350e+00,0.19,0.036
5.360e+00,0.21,0.042
5.370e+00,0.17,0.036
5.380e+00,0.19,0.03
5.390e+00,0.19,0.034
5.400e+00,0.21,0.024
5.410e+00,0.21,0.022
5.420e+00,0.21,0.03
5.430e+00,0.23,0.046
5.440e+00,0.21,0.026
5.450e+00,0.21,0.034
5.460e+00,0.19,0.038
5.470e+00,0.21,0.022
5.480e+00,0.21,0.046
5.490e+00,0.21,0.012
5.500e+00,0.21,0.024
5.510e+00,0.21,0.018
5.520e+00,0.21,0.028
5.530e+00,0.21,0.018
5.540e+00,0.21,0.016
5.550e+00,0.21,0.024
5.560e+00,0.21,0.024
5.570e+00,0.21,0.02
5.580e+00,0.19,0.034
5.590e+00,0.19,0.014
5.600e+00,0.21,0.036
5.610e+00,0.23,0.022
5.620e+00,0.19,0.032
5.630e+00,0.23,0.022
5.640e+00,0.21,0.03
5.650e+00,0.19,0.016
5.660e+00,0.23,0.02
5.670e+00,0.19,0.018
5.680e+00,0.17,0.026
5.690e+00,0.19,0.034
5.700e+00,0.19,0.036
5.710e+00,0.17,0.02
5.720e+00,0.17,0.032
5.730e+00,0.21,0.032
5.740e+00,0.19,0.026
5.750e+00,0.19,0.018
5.760e+00,0.21,0.028
5.770e+00,0.21,0.018
5.780e+00,0.19,0.022
5.790e+00,0.19,0.022
5.800e+00,0.19,0.004
5.810e+00,0.19,0.018
5.820e+00,0.23,0.07
5.830e+00,0.17,0.016
5.840e+00,0.21,0.034
5.850e+00,0.21,0.052
5.860e+00,0.21,0.032
5.870e+00,0.21,0.026
5.880e+00,0.21,0.03
5.890e+00,0.19,0.014
5.900e+00,0.17,0.022
5.910e+00,0.21,0.06
5.920e+00,0.21,0.018
5.930e+00,0.21,0.022
5.940e+00,0.17,0.028
5.950e+00,0.21,0.04
5.960e+00,0.19,0.024
5.970e+00,0.19,0.032
5.980e+00,0.21,0.032
5.990e+00,0.19,0.026
6.000e+00,0.19,0.028
6.010e+00,0.19,0.028
6.020e+00,0.21,0.038
6.030e+00,0.21,0.018
6.040e+00,0.17,0.032
6.050e+00,0.21,0.02
6.060e+00,0.21,0.04
6.070e+00,0.19,0.034
6.080e+00,0.19,0.016
6.090e+00,0.19,0.03
6.100e+00,0.21,0.028
6.110e+00,0.21,0.038
6.120e+00,0.23,0.036
6.130e+00,0.19,0.038
6.140e+00,0.21,0.028
6.150e+00,0.21,0.028
6.160e+00,0.19,0.028
6.170e+00,0.21,0.038
6.180e+00,0.21,0.038
6.190e+00,0.17,0.026
6.200e+00,0.21,0.032
6.210e+00,0.15,0.018
6.220e+00,0.19,0.026
6.230e+00,0.17,0.03
6.240e+00,0.21,0.02
6.250e+00,0.21,0.018
6.260e+00,0.23,0.028
6.270e+00,0.19,0.024
6.280e+00,0.19,0.03
6.290e+00,0.21,0.03
6.300e+00,0.19,0.024
6.310e+00,0.21,0.018
6.320e+00,0.19,0.034
6.330e+00,0.21,0.038
6.340e+00,0.19,0.03
6.350e+00,0.19,0.024
6.360e+00,0.21,0.024
6.370e+00,0.19,0.016
6.380e+00,0.19,-0.002
6.390e+00,0.21,0.026
6.400e+00,0.19,0.024
6.410e+00,0.21,0.028
6.420e+00,0.19,0.032
6.430e+00,0.21,0.024
6.440e+00,0.19,0.022
6.450e+00,0.21,0.034
6.460e+00,0.19,0.018
6.470e+00,0.19,0.024
6.480e+00,0.21,0.028
6.490e+00,0.21,0.026
6.500e+00,0.17,0.022
6.510e+00,0.19,0.02
6.520e+00,0.23,0.034
6.530e+00,0.21,0.024
6.540e+00,0.17,0
6.550e+00,0.23,0.036
6.560e+00,0.19,0.03
6.570e+00,0.19,0.03
6.580e+00,0.23,0.038
6.590e+00,0.19,0.032
6.600e+00,0.19,0.02
6.610e+00,0.21,0.028
6.620e+00,0.21,0.032
6.630e+00,0.19,0.02
6.640e+00,0.25,0.02
6.650e+00,0.17,0.032
6.660e+00,0.21,0.044
6.670e+00,0.21,0.032
6.680e+00,0.21,0.036
6.690e+00,0.21,0.012
6.700e+00,0.21,0.03
6.710e+00,0.19,0.03
6.720e+00,0.19,0.04
6.730e+00,0.21,0.05
6.740e+00,0.19,0.028
6.750e+00,0.21,0.022
6.760e+00,0.23,0.036
6.770e+00,0.21,0.04
6.780e+00,0.19,0.026
6.790e+00,0.19,0.036
6.800e+00,0.21,0.036
6.810e+00,0.21,0.022
6.820e+00,0.19,0.028
6.830e+00,0.19,0.022
6.840e+00,0.17,0.034
6.850e+00,0.17,0.028
6.860e+00,0.19,0.032
6.870e+00,0.21,0.002
6.880e+00,0.21,0.032
6.890e+00,0.19,0.008
6.900e+00,0.19,0.038
6.910e+00,0.21,0.018
6.920e+00,0.19,0.038
6.930e+00,0.17,0.022
6.940e+00,0.21,0.036
6.950e+00,0.21,0.048
6.960e+00,0.21,0.028
6.970e+00,0.21,0.028
6.980e+00,0.21,0.024
6.990e+00,0.19,0.026
7.000e+00,0.21,0.022
7.010e+00,0.21,0.016
7.020e+00,0.21,0.048
7.030e+00,0.23,0.03
7.040e+00,0.21,0.04
7.050e+00,0.19,0.024
7.060e+00,0.19,0.028
7.070e+00,0.21,0.036
7.080e+00,0.19,0.036
7.090e+00,0.23,0.038
7.100e+00,0.17,0.032
7.110e+00,0.23,0.03
7.120e+00,0.19,0.032
7.130e+00,0.21,0.046
7.140e+00,0.21,0.028
7.150e+00,0.21,0.022
7.160e+00,0.19,0.024
7.170e+00,0.21,0.04
7.180e+00,0.21,0.03
7.190e+00,0.19,0.016
7.200e+00,0.19,0.026
7.210e+00,0.21,0.034
7.220e+00,0.19,0.042
7.230e+00,0.17,0.036
7.240e+00,0.19,0.03
7.250e+00,0.21,0.032
7.260e+00,0.17,0.032
7.270e+00,0.23,0.024
7.280e+00,0.19,0.034
7.290e+00,0.19,0.018
7.300e+00,0.21,0.046
7.310e+00,0.21,0.024
7.320e+00,0.21,0.038
7.330e+00,0.21,0.036
7.340e+00,0.19,0.05
7.350e+00,0.19,0.03
7.360e+00,0.21,0.036
7.370e+00,0.21,0.022
7.380e+00,0.21,0.028
7.390e+00,0.21,0.032
7.400e+00,0.21,0.014
7.410e+00,0.17,-0.016
7.420e+00,0.19,0.026
7.430e+00,0.19,0.024
7.440e+00,0.19,0.026
7.450e+00,0.21,0.042
7.460e+00,0.17,0.04
7.470e+00,0.19,0.026
7.480e+00,0.17,0.03
7.490e+00,0.17,0.024
7.500e+00,0.17,0.03
7.510e+00,0.11,0.008
7.520e+00,0.15,0.036
7.530e+00,0.11,0.014
7.540e+00,0.13,0.028
7.550e+00,0.17,0.016
7.560e+00,0.15,0.028
7.570e+00,0.07,-0.014
7.580e+00,0.13,0.002
7.590e+00,0.09,0.012
7.600e+00,0.11,0.022
7.610e+00,0.11,0
7.620e+00,0.09,0.044
7.630e+00,0.09,0.008
7.640e+00,0.13,0.022
7.650e+00,0.09,0.02
7.660e+00,0.09,0
7.670e+00,0.07,-0.002
7.680e+00,0.07,0
7.690e+00,0.07,0.01
7.700e+00,0.05,0.01
7.710e+00,0.03,0.022
7.720e+00,0.03,0.022
7.730e+00,0.05,-0.006
7.740e+00,0.05,-0.004
7.750e+00,0.03,-0.002
7.760e+00,-0.01,0.006
7.770e+00,0.03,0.004
7.780e+00,0.03,-0.008
7.790e+00,-0.01,0.01
7.800e+00,0.03,0.004
7.810e+00,-0.01,0.01
7.820e+00,0.01,-0.002
7.830e+00,0.03,-0.01
7.840e+00,-0.03,0.006
7.850e+00,-0.03,0.018
7.860e+00,-0.01,-0.004
7.870e+00,0.01,-0.004
7.880e+00,0.05,0
7.890e+00,0.01,0.002
7.900e+00,-0.01,-0.006
7.910e+00,-0.01,-0.026
7.920e+00,-0.01,0
7.930e+00,0.03,0
7.940e+00,0.01,0.006
7.950e+00,0.01,-0.004
7.960e+00,0.01,0.004
7.970e+00,-0.01,-0.004
7.980e+00,0.01,0.002
7.990e+00,-0.01,-0.004
8.000e+00,0.01,0.01
8.010e+00,0.05,0.012
8.020e+00,0.01,-0.004
8.030e+00,0.01,-0.004
8.040e+00,0.03,0.002
8.050e+00,0.01,-0.004
8.060e+00,-0.03,-0.002
8.070e+00,0.01,-0.002
8.080e+00,0.01,0.014
8.090e+00,0.03,0.004
8.100e+00,0.03,0.01
8.110e+00,0.01,0.006
8.120e+00,-0.01,0.01
8.130e+00,-0.01,0.004
8.140e+00,0.03,0.008
8.150e+00,0.01,-0.004
8.160e+00,-0.03,0.002
8.170e+00,0.01,0
8.180e+00,0.01,-0.002
8.190e+00,0.03,0.022
8.200e+00,0.03,0.008
8.210e+00,0.01,-0.008
8.220e+00,0.01,-0.002
8.230e+00,0.01,-0.006
8.240e+00,0.01,-0.006
8.250e+00,0.01,-0.004
8.260e+00,0.01,-0.018
8.270e+00,0.03,-0.002
8.280e+00,-0.01,0.004
8.290e+00,0.01,0.006
8.300e+00,-0.01,0.02
8.310e+00,-0.01,-0.006
8.320e+00,0.03,0
8.330e+00,-0.01,-0.004
8.340e+00,0.01,0
8.350e+00,0.05,0.002
8.360e+00,0.01,0.002
8.370e+00,-0.01,-0.006
8.380e+00,0.01,-0.002
8.390e+00,0.01,-0.004
8.400e+00,0.03,0.008
8.410e+00,0.01,-0.01
