Archivos Guadalupe/Data/1410-32-X3/15-08/tek0007ALL.csv

Model,DPO3034
Firmware Version,2.16

Point Format,Y,
Horizontal Units,S,
Horizontal Scale,0.01,
Sample Interval,0.0001,
Record Length,1000,
Gating,0.0% to 100.0%,0.0% to 100.0%
Probe Attenuation,1,1
Vertical Units,V,V
Vertical Offset,0,0
Vertical Scale,0.5,0.05
Label,,
TIME,CH1,CH2
-1.050e-02,0.03,0.01
-1.040e-02,0.03,0.006
-1.030e-02,-0.01,-0.024
-1.020e-02,0.01,0.01
-1.010e-02,0.01,-0.004
-1.000e-02,0.01,-0.01
-9.900e-03,0.01,0
-9.800e-03,0.01,-0.014
-9.700e-03,0.01,0.006
-9.600e-03,0.01,-0.014
-9.500e-03,0.03,-0.022
-9.400e-03,0.03,0.004
-9.300e-03,-0.01,-0.014
-9.200e-03,0.01,0.002
-9.100e-03,0.01,-0.004
-9.000e-03,-0.03,-0.004
-8.900e-03,0.01,-0.004
-8.800e-03,-0.01,0.008
-8.700e-03,0.01,-0.014
-8.600e-03,-0.01,-0.008
-8.500e-03,-0.03,-0.008
-8.400e-03,0.01,0.004
-8.300e-03,0.03,0
-8.200e-03,0.01,-0.01
-8.100e-03,-0.01,0.002
-8.000e-03,-0.01,-0.002
-7.900e-03,0.01,-0.006
-7.800e-03,0.01,0
-7.700e-03,0.03,-0.008
-7.600e-03,-0.01,-0.008
-7.500e-03,0.01,0.004
-7.400e-03,-0.01,0.012
-7.300e-03,0.01,0.004
-7.200e-03,-0.01,0.008
-7.100e-03,0.01,-0.006
-7.000e-03,0.01,-0.012
-6.900e-03,-0.01,0.006
-6.800e-03,0.03,-0.008
-6.700e-03,0.01,-0.022
-6.600e-03,0.01,0.002
-6.500e-03,-0.01,0
-6.400e-03,-0.01,-0.004
-6.300e-03,0.01,-0.016
-6.200e-03,0.01,-0.004
-6.100e-03,0.01,-0.004
-6.000e-03,-0.01,-0.01
-5.900e-03,0.01,0.002
-5.800e-03,0.03,-0.014
-5.700e-03,0.01,0.006
-5.600e-03,-0.01,-0.026
-5.500e-03,-0.01,-0.018
-5.400e-03,0.01,0.002
-5.300e-03,-0.01,0.002
-5.200e-03,-0.01,-0.012
-5.100e-03,0.01,0.002
-5.000e-03,-0.01,-0.002
-4.900e-03,0.01,-0.008
-4.800e-03,-0.01,-0.024
-4.700e-03,-0.03,-0.004
-4.600e-03,-0.01,-0.012
-4.500e-03,0.05,0.004
-4.400e-03,0.05,-0.006
-4.300e-03,0.03,0.018
-4.200e-03,-0.01,-0.008
-4.100e-03,-0.03,0.026
-4.000e-03,0.01,0.002
-3.900e-03,-0.01,0.004
-3.800e-03,-0.01,-0.014
-3.700e-03,0.01,0.01
-3.600e-03,-0.01,0.008
-3.500e-03,0.03,0.01
-3.400e-03,-0.01,0
-3.300e-03,-0.03,-0.056
-3.200e-03,0.03,0.008
-3.100e-03,0.01,-0.006
-3.000e-03,0.01,-0.01
-2.900e-03,0.05,-0.002
-2.800e-03,0.01,0
-2.700e-03,-0.01,-0.026
-2.600e-03,-0.01,-0.002
-2.500e-03,-0.01,0.016
-2.400e-03,0.01,0.01
-2.300e-03,-0.01,-0.012
-2.200e-03,0.01,0.01
-2.100e-03,0.01,0.002
-2.000e-03,0.07,0.002
-1.900e-03,0.07,0.016
-1.800e-03,0.11,0.012
-1.700e-03,0.11,0.02
-1.600e-03,0.11,0.024
-1.500e-03,0.15,0.034
-1.400e-03,0.19,0.024
-1.300e-03,0.21,0.044
-1.200e-03,0.23,0.026
-1.100e-03,0.21,0.048
-1.000e-03,0.27,0.042
-9.000e-04,0.33,0.04
-8.000e-04,0.33,0.054
-7.000e-04,0.37,0.05
-6.000e-04,0.39,0.072
-5.000e-04,0.41,0.056
-4.000e-04,0.41,0.072
-3.000e-04,0.43,0.064
-2.000e-04,0.45,0.07
-1.000e-04,0.51,0.066
-1.065e-17,0.49,0.058
1.000e-04,0.55,0.082
2.000e-04,0.59,0.09
3.000e-04,0.59,0.088
4.000e-04,0.61,0.104
5.000e-04,0.61,0.092
6.000e-04,0.65,0.106
7.000e-04,0.71,0.124
8.000e-04,0.71,0.102
9.000e-04,0.75,0.096
1.000e-03,0.75,0.124
1.100e-03,0.81,0.116
1.200e-03,0.85,0.116
1.300e-03,0.89,0.13
1.400e-03,0.87,0.124
1.500e-03,0.89,0.146
1.600e-03,0.89,0.132
1.700e-03,0.95,0.148
1.800e-03,0.95,0.144
1.900e-03,0.95,0.158
2.000e-03,1.03,0.15
2.100e-03,1.05,0.162
2.200e-03,1.07,0.154
2.300e-03,1.07,0.162
2.400e-03,1.11,0.172
2.500e-03,1.11,0.182
2.600e-03,1.19,0.164
2.700e-03,1.19,0.19
2.800e-03,1.19,0.182
2.900e-03,1.21,0.194
3.000e-03,1.27,0.19
3.100e-03,1.31,0.214
3.200e-03,1.29,0.198
3.300e-03,1.31,0.204
3.400e-03,1.37,0.206
3.500e-03,1.37,0.218
3.600e-03,1.39,0.21
3.700e-03,1.41,0.21
3.800e-03,1.43,0.198
3.900e-03,1.47,0.228
4.000e-03,1.49,0.212
4.100e-03,1.51,0.242
4.200e-03,1.51,0.22
4.300e-03,1.55,0.238
4.400e-03,1.57,0.248
4.500e-03,1.57,0.248
4.600e-03,1.61,0.246
4.700e-03,1.63,0.252
4.800e-03,1.67,0.264
4.900e-03,1.69,0.274
5.000e-03,1.73,0.284
5.100e-03,1.73,0.27
5.200e-03,1.77,0.276
5.300e-03,1.79,0.284
5.400e-03,1.81,0.294
5.500e-03,1.83,0.292
5.600e-03,1.85,0.272
5.700e-03,1.89,0.29
5.800e-03,1.89,0.308
5.900e-03,1.91,0.292
6.000e-03,1.97,0.294
6.100e-03,1.93,0.302
6.200e-03,1.93,0.31
6.300e-03,1.91,0.298
6.400e-03,1.93,0.31
6.500e-03,1.91,0.294
6.600e-03,1.93,0.288
6.700e-03,1.91,0.29
6.800e-03,1.89,0.302
6.900e-03,1.91,0.294
7.000e-03,1.95,0.304
7.100e-03,1.91,0.31
7.200e-03,1.93,0.296
7.300e-03,1.91,0.296
7.400e-03,1.93,0.314
7.500e-03,1.95,0.3
7.600e-03,1.93,0.298
7.700e-03,1.91,0.306
7.800e-03,1.91,0.304
7.900e-03,1.89,0.304
8.000e-03,1.91,0.308
8.100e-03,1.91,0.298
8.200e-03,1.91,0.312
8.300e-03,1.91,0.306
8.400e-03,1.91,0.296
8.500e-03,1.95,0.298
8.600e-03,1.93,0.308
8.700e-03,1.95,0.292
8.800e-03,1.91,0.3
8.900e-03,1.91,0.3
9.000e-03,1.95,0.294
9.100e-03,1.91,0.294
9.200e-03,1.91,0.306
9.300e-03,1.89,0.294
9.400e-03,1.93,0.306
9.500e-03,1.95,0.304
9.600e-03,1.93,0.304
9.700e-03,1.89,0.298
9.800e-03,1.91,0.296
9.900e-03,1.93,0.312
1.000e-02,1.95,0.31
1.010e-02,1.93,0.302
1.020e-02,1.93,0.312
1.030e-02,1.93,0.298
1.040e-02,1.95,0.294
1.050e-02,1.93,0.3
1.060e-02,1.93,0.294
1.070e-02,1.91,0.308
1.080e-02,1.97,0.296
1.090e-02,1.93,0.308
1.100e-02,1.91,0.308
1.110e-02,1.95,0.3
1.120e-02,1.89,0.306
1.130e-02,1.89,0.304
1.140e-02,1.93,0.294
1.150e-02,1.93,0.314
1.160e-02,1.93,0.306
1.170e-02,1.89,0.298
1.180e-02,1.93,0.308
1.190e-02,1.91,0.296
1.200e-02,1.93,0.302
1.210e-02,1.93,0.308
1.220e-02,1.91,0.304
1.230e-02,1.93,0.304
1.240e-02,1.93,0.294
1.250e-02,1.95,0.292
1.260e-02,1.95,0.302
1.270e-02,1.93,0.312
1.280e-02,1.95,0.29
1.290e-02,1.89,0.292
1.300e-02,1.93,0.308
1.310e-02,1.89,0.302
1.320e-02,1.93,0.326
1.330e-02,1.95,0.296
1.340e-02,1.93,0.304
1.350e-02,1.95,0.322
1.360e-02,1.93,0.326
1.370e-02,1.93,0.304
1.380e-02,1.95,0.31
1.390e-02,1.89,0.3
1.400e-02,1.89,0.294
1.410e-02,1.89,0.28
1.420e-02,1.83,0.296
1.430e-02,1.79,0.278
1.440e-02,1.79,0.28
1.450e-02,1.77,0.27
1.460e-02,1.77,0.282
1.470e-02,1.71,0.268
1.480e-02,1.75,0.268
1.490e-02,1.69,0.262
1.500e-02,1.69,0.268
1.510e-02,1.67,0.262
1.520e-02,1.61,0.242
1.530e-02,1.61,0.242
1.540e-02,1.57,0.248
1.550e-02,1.55,0.24
1.560e-02,1.53,0.248
1.570e-02,1.53,0.238
1.580e-02,1.51,0.246
1.590e-02,1.49,0.216
1.600e-02,1.47,0.222
1.610e-02,1.43,0.22
1.620e-02,1.41,0.224
1.630e-02,1.43,0.23
1.640e-02,1.41,0.246
1.650e-02,1.35,0.212
1.660e-02,1.35,0.208
1.670e-02,1.33,0.192
1.680e-02,1.29,0.208
1.690e-02,1.27,0.188
1.700e-02,1.23,0.202
1.710e-02,1.25,0.204
1.720e-02,1.21,0.184
1.730e-02,1.19,0.176
1.740e-02,1.21,0.188
1.750e-02,1.15,0.17
1.760e-02,1.11,0.166
1.770e-02,1.13,0.158
1.780e-02,1.07,0.162
1.790e-02,1.07,0.164
1.800e-02,1.07,0.156
1.810e-02,1.01,0.156
1.820e-02,1.01,0.144
1.830e-02,0.95,0.136
1.840e-02,0.97,0.156
1.850e-02,0.91,0.142
1.860e-02,0.91,0.148
1.870e-02,0.89,0.14
1.880e-02,0.87,0.136
1.890e-02,0.83,0.11
1.900e-02,0.81,0.122
1.910e-02,0.83,0.128
1.920e-02,0.81,0.118
1.930e-02,0.73,0.116
1.940e-02,0.75,0.104
1.950e-02,0.69,0.102
1.960e-02,0.67,0.1
1.970e-02,0.67,0.1
1.980e-02,0.61,0.068
1.990e-02,0.63,0.08
2.000e-02,0.61,0.084
2.010e-02,0.55,0.078
2.020e-02,0.53,0.066
2.030e-02,0.57,0.084
2.040e-02,0.47,0.09
2.050e-02,0.47,0.08
2.060e-02,0.45,0.058
2.070e-02,0.43,0.058
2.080e-02,0.43,0.056
2.090e-02,0.41,0.066
2.100e-02,0.41,0.064
2.110e-02,0.37,0.044
2.120e-02,0.33,0.044
2.130e-02,0.31,0.052
2.140e-02,0.29,0.052
2.150e-02,0.29,0.034
2.160e-02,0.25,0.038
2.170e-02,0.21,0.028
2.180e-02,0.21,0.026
2.190e-02,0.21,0.028
2.200e-02,0.21,0.02
2.210e-02,0.21,0.034
2.220e-02,0.21,0.016
2.230e-02,0.21,0.032
2.240e-02,0.17,0.018
2.250e-02,0.21,0.036
2.260e-02,0.19,0.038
2.270e-02,0.19,0.036
2.280e-02,0.19,0.034
2.290e-02,0.21,0.044
2.300e-02,0.17,0.028
2.310e-02,0.19,0.03
2.320e-02,0.21,0.042
2.330e-02,0.21,0.028
2.340e-02,0.19,0.024
2.350e-02,0.23,0.028
2.360e-02,0.23,0.038
2.370e-02,0.19,0.04
2.380e-02,0.19,0.042
2.390e-02,0.19,0.032
2.400e-02,0.17,0.014
2.410e-02,0.19,0.016
2.420e-02,0.19,0.028
2.430e-02,0.21,0.026
2.440e-02,0.21,0.022
2.450e-02,0.19,0.018
2.460e-02,0.19,0.034
2.470e-02,0.21,0.05
2.480e-02,0.17,0.032
2.490e-02,0.17,0.018
2.500e-02,0.21,0.018
2.510e-02,0.21,0.016
2.520e-02,0.21,0.022
2.530e-02,0.21,0.022
2.540e-02,0.19,0.048
2.550e-02,0.19,0.04
2.560e-02,0.21,0.036
2.570e-02,0.19,0.024
2.580e-02,0.19,0.032
2.590e-02,0.21,0.014
2.600e-02,0.21,0.026
2.610e-02,0.21,0.018
2.620e-02,0.23,0.032
2.630e-02,0.17,0.03
2.640e-02,0.21,0.028
2.650e-02,0.21,0.036
2.660e-02,0.21,0.032
2.670e-02,0.21,0.018
2.680e-02,0.19,0.038
2.690e-02,0.21,0.028
2.700e-02,0.19,0.02
2.710e-02,0.19,0.038
2.720e-02,0.19,0.032
2.730e-02,0.19,0.022
2.740e-02,0.21,0.04
2.750e-02,0.21,0.036
2.760e-02,0.21,0.022
2.770e-02,0.17,0.002
2.780e-02,0.19,0.026
2.790e-02,0.19,0.04
2.800e-02,0.21,0.028
2.810e-02,0.21,0.024
2.820e-02,0.19,0.02
2.830e-02,0.19,0.032
2.840e-02,0.19,0.03
2.850e-02,0.17,0.03
2.860e-02,0.19,0.034
2.870e-02,0.19,0.034
2.880e-02,0.21,0.026
2.890e-02,0.17,0.044
2.900e-02,0.19,0.028
2.910e-02,0.19,0.04
2.920e-02,0.21,0.02
2.930e-02,0.21,0.026
2.940e-02,0.21,0.036
2.950e-02,0.21,0.03
2.960e-02,0.21,0.036
2.970e-02,0.19,0.024
2.980e-02,0.21,0.034
2.990e-02,0.21,0.04
3.000e-02,0.21,0.04
3.010e-02,0.21,0.036
3.020e-02,0.19,0.024
3.030e-02,0.21,0.038
3.040e-02,0.21,0.028
3.050e-02,0.21,0.038
3.060e-02,0.19,0.04
3.070e-02,0.19,0.042
3.080e-02,0.21,0.022
3.090e-02,0.23,0.03
3.100e-02,0.21,0.046
3.110e-02,0.21,0.022
3.120e-02,0.21,0.036
3.130e-02,0.19,0.016
3.140e-02,0.19,0.038
3.150e-02,0.21,0.028
3.160e-02,0.21,0.024
3.170e-02,0.17,0.022
3.180e-02,0.21,0.02
3.190e-02,0.19,0.028
3.200e-02,0.23,0.032
3.210e-02,0.21,0.038
3.220e-02,0.21,0.036
3.230e-02,0.19,0.024
3.240e-02,0.21,0.024
3.250e-02,0.17,0.022
3.260e-02,0.19,0.018
3.270e-02,0.21,0.03
3.280e-02,0.21,0.016
3.290e-02,0.21,0.034
3.300e-02,0.19,0.038
3.310e-02,0.21,0.028
3.320e-02,0.15,0.03
3.330e-02,0.21,0.04
3.340e-02,0.21,0.02
3.350e-02,0.17,0.02
3.360e-02,0.21,0.014
3.370e-02,0.21,0.068
3.380e-02,0.19,0.026
3.390e-02,0.21,0.022
3.400e-02,0.23,0.028
3.410e-02,0.23,0.03
3.420e-02,0.21,0.036
3.430e-02,0.21,0.032
3.440e-02,0.21,0.014
3.450e-02,0.19,0.022
3.460e-02,0.19,0.036
3.470e-02,0.19,0.024
3.480e-02,0.19,0.028
3.490e-02,0.21,0.032
3.500e-02,0.21,0.038
3.510e-02,0.19,0.01
3.520e-02,0.19,0.014
3.530e-02,0.19,0.024
3.540e-02,0.21,0.03
3.550e-02,0.21,0.022
3.560e-02,0.21,0.038
3.570e-02,0.21,0.036
3.580e-02,0.23,0.028
3.590e-02,0.19,0.014
3.600e-02,0.21,0.012
3.610e-02,0.19,0.046
3.620e-02,0.21,0.042
3.630e-02,0.21,0.028
3.640e-02,0.21,0.034
3.650e-02,0.21,0.026
3.660e-02,0.19,0.04
3.670e-02,0.19,0
3.680e-02,0.19,0.032
3.690e-02,0.21,0.032
3.700e-02,0.21,0.03
3.710e-02,0.17,0.036
3.720e-02,0.19,0.028
3.730e-02,0.21,0.03
3.740e-02,0.19,0.034
3.750e-02,0.21,0.012
3.760e-02,0.17,0.022
3.770e-02,0.21,0.03
3.780e-02,0.21,0.018
3.790e-02,0.21,0.022
3.800e-02,0.21,0.028
3.810e-02,0.21,0.032
3.820e-02,0.21,0.03
3.830e-02,0.21,0.038
3.840e-02,0.21,0.028
3.850e-02,0.21,0.028
3.860e-02,0.19,0.032
3.870e-02,0.21,0.03
3.880e-02,0.17,0.034
3.890e-02,0.19,0.042
3.900e-02,0.21,0.028
3.910e-02,0.21,0.03
3.920e-02,0.19,0.018
3.930e-02,0.17,0.042
3.940e-02,0.21,0.024
3.950e-02,0.19,0.034
3.960e-02,0.21,0.028
3.970e-02,0.21,0.03
3.980e-02,0.21,0.032
3.990e-02,0.15,0.016
4.000e-02,0.23,0.032
4.010e-02,0.23,0.126
4.020e-02,0.19,0.03
4.030e-02,0.19,0.032
4.040e-02,0.17,0.022
4.050e-02,0.19,0.026
4.060e-02,0.19,0.012
4.070e-02,0.23,0.03
4.080e-02,0.19,0.03
4.090e-02,0.21,0.032
4.100e-02,0.21,0.028
4.110e-02,0.19,0.042
4.120e-02,0.21,0.022
4.130e-02,0.21,0.016
4.140e-02,0.19,0.022
4.150e-02,0.19,0.022
4.160e-02,0.19,0.024
4.170e-02,0.19,0.014
4.180e-02,0.21,0.036
4.190e-02,0.21,0.022
4.200e-02,0.21,0.01
4.210e-02,0.19,0.024
4.220e-02,0.21,0.028
4.230e-02,0.21,0.04
4.240e-02,0.17,0.018
4.250e-02,0.19,0.03
4.260e-02,0.21,0.036
4.270e-02,0.21,0.026
4.280e-02,0.21,0.036
4.290e-02,0.21,0.022
4.300e-02,0.19,0.038
4.310e-02,0.21,0.022
4.320e-02,0.23,0.028
4.330e-02,0.17,-0.012
4.340e-02,0.21,0.042
4.350e-02,0.19,0.004
4.360e-02,0.23,0.024
4.370e-02,0.23,0.018
4.380e-02,0.21,0.028
4.390e-02,0.23,0.022
4.400e-02,0.21,0.02
4.410e-02,0.19,0.022
4.420e-02,0.21,0.046
4.430e-02,0.21,0.024
4.440e-02,0.21,0.038
4.450e-02,0.21,0.026
4.460e-02,0.19,0.02
4.470e-02,0.25,0.04
4.480e-02,0.21,0.036
4.490e-02,0.21,0.03
4.500e-02,0.19,0.034
4.510e-02,0.19,0.026
4.520e-02,0.21,0.016
4.530e-02,0.19,0.014
4.540e-02,0.25,0.038
4.550e-02,0.21,0.026
4.560e-02,0.21,0.028
4.570e-02,0.21,0.03
4.580e-02,0.21,0.03
4.590e-02,0.17,0.022
4.600e-02,0.21,0.022
4.610e-02,0.21,0.022
4.620e-02,0.21,0.028
4.630e-02,0.21,0.046
4.640e-02,0.21,0.022
4.650e-02,0.17,-0.01
4.660e-02,0.19,0.016
4.670e-02,0.21,0.014
4.680e-02,0.19,0.028
4.690e-02,0.19,0.026
4.700e-02,0.21,0.004
4.710e-02,0.17,0.036
4.720e-02,0.21,0.03
4.730e-02,0.21,0.02
4.740e-02,0.19,0.02
4.750e-02,0.21,0.016
4.760e-02,0.21,0.02
4.770e-02,0.21,0.028
4.780e-02,0.21,0.012
4.790e-02,0.21,0.022
4.800e-02,0.21,0.03
4.810e-02,0.21,0.02
4.820e-02,0.21,0.038
4.830e-02,0.19,0.016
4.840e-02,0.21,0.02
4.850e-02,0.21,0.034
4.860e-02,0.19,0.034
4.870e-02,0.21,0.022
4.880e-02,0.21,0.028
4.890e-02,0.19,0.028
4.900e-02,0.19,0.02
4.910e-02,0.21,0.032
4.920e-02,0.21,0.032
4.930e-02,0.21,0.018
4.940e-02,0.21,0.024
4.950e-02,0.19,0.034
4.960e-02,0.19,0.018
4.970e-02,0.19,0.034
4.980e-02,0.21,0.024
4.990e-02,0.21,0.02
5.000e-02,0.19,0.028
5.010e-02,0.19,0.034
5.020e-02,0.21,0.024
5.030e-02,0.21,0.016
5.040e-02,0.19,0.03
5.050e-02,0.19,0.028
5.060e-02,0.19,0.022
5.070e-02,0.21,0.03
5.080e-02,0.21,0.022
5.090e-02,0.17,0.024
5.100e-02,0.21,0.022
5.110e-02,0.21,0.03
5.120e-02,0.17,0.028
5.130e-02,0.21,0.032
5.140e-02,0.19,0.022
5.150e-02,0.19,0.02
5.160e-02,0.21,0.028
5.170e-02,0.17,0.028
5.180e-02,0.21,0.022
5.190e-02,0.17,0.022
5.200e-02,0.21,0.024
5.210e-02,0.21,0.028
5.220e-02,0.21,0.018
5.230e-02,0.19,0.026
5.240e-02,0.21,0.028
5.250e-02,0.19,0.024
5.260e-02,0.19,0.032
5.270e-02,0.21,0.028
5.280e-02,0.17,0.034
5.290e-02,0.21,0.028
5.300e-02,0.21,0.018
5.310e-02,0.19,0.02
5.320e-02,0.21,0.028
5.330e-02,0.21,0.04
5.340e-02,0.17,0.04
5.350e-02,0.21,0.028
5.360e-02,0.19,0.024
5.370e-02,0.21,0.036
5.380e-02,0.19,0.01
5.390e-02,0.21,0.024
5.400e-02,0.19,0.036
5.410e-02,0.17,0.038
5.420e-02,0.21,0.038
5.430e-02,0.21,0.038
5.440e-02,0.21,0.044
5.450e-02,0.21,0.024
5.460e-02,0.19,0.032
5.470e-02,0.21,0.02
5.480e-02,0.19,0.022
5.490e-02,0.23,0.028
5.500e-02,0.19,0.042
5.510e-02,0.21,0.034
5.520e-02,0.17,0.022
5.530e-02,0.19,0.028
5.540e-02,0.21,0.052
5.550e-02,0.21,0.03
5.560e-02,0.21,0.008
5.570e-02,0.19,0.018
5.580e-02,0.21,0.028
5.590e-02,0.19,0.038
5.600e-02,0.21,0.042
5.610e-02,0.17,0.008
5.620e-02,0.21,0.022
5.630e-02,0.19,0.028
5.640e-02,0.23,0.028
5.650e-02,0.21,0.03
5.660e-02,0.21,0.03
5.670e-02,0.19,0.024
5.680e-02,0.19,0.026
5.690e-02,0.19,0.018
5.700e-02,0.19,0.03
5.710e-02,0.21,-0.002
5.720e-02,0.21,0.04
5.730e-02,0.21,0.022
5.740e-02,0.19,0.044
5.750e-02,0.21,0.026
5.760e-02,0.21,0.026
5.770e-02,0.21,0.038
5.780e-02,0.21,0.034
5.790e-02,0.19,0.016
5.800e-02,0.19,0.016
5.810e-02,0.23,0.022
5.820e-02,0.17,0.032
5.830e-02,0.15,0.01
5.840e-02,0.19,0.026
5.850e-02,0.19,0.034
5.860e-02,0.19,0.034
5.870e-02,0.21,0.024
5.880e-02,0.19,0.028
5.890e-02,0.21,0.018
5.900e-02,0.21,0.024
5.910e-02,0.19,0.02
5.920e-02,0.17,0.036
5.930e-02,0.21,0.026
5.940e-02,0.21,0.042
5.950e-02,0.21,0.028
5.960e-02,0.19,0.032
5.970e-02,0.17,0.022
5.980e-02,0.17,0.022
5.990e-02,0.23,0.032
6.000e-02,0.19,0.028
6.010e-02,0.19,0.03
6.020e-02,0.23,0.086
6.030e-02,0.21,0.036
6.040e-02,0.19,0.03
6.050e-02,0.17,0.026
6.060e-02,0.21,0.028
6.070e-02,0.19,0.016
6.080e-02,0.17,0.016
6.090e-02,0.21,0.038
6.100e-02,0.19,0.03
6.110e-02,0.21,0.032
6.120e-02,0.21,0.034
6.130e-02,0.19,0.062
6.140e-02,0.21,0.024
6.150e-02,0.21,0.034
6.160e-02,0.19,0.032
6.170e-02,0.19,0.034
6.180e-02,0.21,0.024
6.190e-02,0.21,0.022
6.200e-02,0.21,0.03
6.210e-02,0.21,0.03
6.220e-02,0.19,0.036
6.230e-02,0.21,0.022
6.240e-02,0.17,0.032
6.250e-02,0.21,0.012
6.260e-02,0.21,0.032
6.270e-02,0.15,0.012
6.280e-02,0.21,0.024
6.290e-02,0.21,0.024
6.300e-02,0.19,0.032
6.310e-02,0.21,0.018
6.320e-02,0.21,0.074
6.330e-02,0.19,0.018
6.340e-02,0.17,-0.036
6.350e-02,0.21,0.018
6.360e-02,0.21,0.024
6.370e-02,0.19,0.042
6.380e-02,0.19,0.018
6.390e-02,0.21,0.026
6.400e-02,0.21,0.022
6.410e-02,0.21,0.016
6.420e-02,0.19,0.014
6.430e-02,0.19,0.032
6.440e-02,0.21,0.03
6.450e-02,0.21,0.028
6.460e-02,0.21,0.024
6.470e-02,0.21,0.038
6.480e-02,0.21,0.03
6.490e-02,0.21,0.032
6.500e-02,0.21,0.024
6.510e-02,0.21,0.018
6.520e-02,0.21,0.008
6.530e-02,0.21,0.042
6.540e-02,0.19,0.034
6.550e-02,0.21,0.022
6.560e-02,0.21,0.02
6.570e-02,0.21,0.014
6.580e-02,0.19,0.016
6.590e-02,0.23,0.016
6.600e-02,0.19,0.03
6.610e-02,0.21,0.026
6.620e-02,0.21,0.018
6.630e-02,0.21,0.016
6.640e-02,0.19,0.022
6.650e-02,0.21,0.028
6.660e-02,0.17,0.048
6.670e-02,0.21,0.024
6.680e-02,0.19,0.028
6.690e-02,0.21,0.024
6.700e-02,0.21,0.022
6.710e-02,0.21,0.032
6.720e-02,0.21,0.018
6.730e-02,0.17,0.022
6.740e-02,0.21,0.018
6.750e-02,0.19,0.02
6.760e-02,0.21,0.034
6.770e-02,0.21,0.038
6.780e-02,0.19,0.022
6.790e-02,0.21,0.022
6.800e-02,0.21,0.03
6.810e-02,0.21,0.028
6.820e-02,0.17,0.028
6.830e-02,0.19,0.03
6.840e-02,0.21,0.042
6.850e-02,0.19,0.03
6.860e-02,0.21,0.034
6.870e-02,0.19,0.028
6.880e-02,0.19,0.036
6.890e-02,0.17,0.024
6.900e-02,0.17,0.028
6.910e-02,0.21,0.022
6.920e-02,0.21,0.024
6.930e-02,0.21,0.036
6.940e-02,0.17,0.028
6.950e-02,0.21,0.024
6.960e-02,0.19,0.028
6.970e-02,0.19,0
6.980e-02,0.19,0.036
6.990e-02,0.19,0.036
7.000e-02,0.19,0.03
7.010e-02,0.21,0.028
7.020e-02,0.23,0.04
7.030e-02,0.19,0.016
7.040e-02,0.17,0.022
7.050e-02,0.17,0.026
7.060e-02,0.19,0.038
7.070e-02,0.19,0.032
7.080e-02,0.19,0.024
7.090e-02,0.21,0.034
7.100e-02,0.21,0.02
7.110e-02,0.21,0.02
7.120e-02,0.21,0.04
7.130e-02,0.21,0.036
7.140e-02,0.21,0.022
7.150e-02,0.21,0.018
7.160e-02,0.19,0.032
7.170e-02,0.19,0.02
7.180e-02,0.25,0.044
7.190e-02,0.21,0.03
7.200e-02,0.21,0.022
7.210e-02,0.21,0.018
7.220e-02,0.21,0.036
7.230e-02,0.21,0.022
7.240e-02,0.25,0.034
7.250e-02,0.21,0.022
7.260e-02,0.21,0.044
7.270e-02,0.21,0.038
7.280e-02,0.21,0.022
7.290e-02,0.21,0.03
7.300e-02,0.21,0.022
7.310e-02,0.21,0.03
7.320e-02,0.19,0.042
7.330e-02,0.19,0.032
7.340e-02,0.23,0.06
7.350e-02,0.21,0.034
7.360e-02,0.21,0.042
7.370e-02,0.19,0.036
7.380e-02,0.19,0.034
7.390e-02,0.19,0.03
7.400e-02,0.17,0.028
7.410e-02,0.17,0.022
7.420e-02,0.21,0.036
7.430e-02,0.17,0.024
7.440e-02,0.19,0.034
7.450e-02,0.17,0.03
7.460e-02,0.17,0.004
7.470e-02,0.17,0.038
7.480e-02,0.13,0.016
7.490e-02,0.13,0.026
7.500e-02,0.17,0.018
7.510e-02,0.17,0.028
7.520e-02,0.11,0.016
7.530e-02,0.09,0.012
7.540e-02,0.11,0.01
7.550e-02,0.13,0.028
7.560e-02,0.13,0.012
7.570e-02,0.15,0.042
7.580e-02,0.15,0.056
7.590e-02,0.11,0.008
7.600e-02,0.11,0.014
7.610e-02,0.07,0.018
7.620e-02,0.09,0.032
7.630e-02,0.07,0.012
7.640e-02,0.11,0.044
7.650e-02,0.11,0.016
7.660e-02,0.05,-0.002
7.670e-02,0.05,0.01
7.680e-02,0.05,0.012
7.690e-02,0.05,0.01
7.700e-02,0.05,-0.002
7.710e-02,0.01,0.014
7.720e-02,0.07,0.004
7.730e-02,0.03,-0.004
7.740e-02,0.05,0.008
7.750e-02,0.01,0
7.760e-02,0.03,-0.01
7.770e-02,-0.01,0
7.780e-02,0.01,0.004
7.790e-02,-0.01,-0.01
7.800e-02,0.01,0.008
7.810e-02,0.01,-0.002
7.820e-02,0.03,0.002
7.830e-02,0.01,0.002
7.840e-02,-0.03,0
7.850e-02,0.01,-0.002
7.860e-02,0.01,0.008
7.870e-02,0.03,0
7.880e-02,-0.01,-0.01
7.890e-02,0.01,0.008
7.900e-02,0.05,0.004
7.910e-02,0.01,0.028
7.920e-02,-0.01,-0.004
7.930e-02,0.03,0.01
7.940e-02,0.01,0.006
7.950e-02,0.01,-0.01
7.960e-02,0.01,0.004
7.970e-02,0.03,0.008
7.980e-02,0.01,-0.004
7.990e-02,-0.01,0
8.000e-02,0.01,-0.004
8.010e-02,-0.01,-0.006
8.020e-02,-0.03,-0.01
8.030e-02,-0.01,-0.03
8.040e-02,-0.01,-0.012
8.050e-02,-0.01,-0.006
8.060e-02,0.01,0.01
8.070e-02,0.01,-0.018
8.080e-02,0.01,0.006
8.090e-02,-0.01,-0.002
8.100e-02,0.05,0.008
8.110e-02,-0.01,0.004
8.120e-02,-0.01,-0.002
8.130e-02,0.03,0.004
8.140e-02,0.01,0.016
8.150e-02,0.01,-0.014
8.160e-02,0.03,0.008
8.170e-02,-0.01,-0.012
8.180e-02,0.01,-0.008
8.190e-02,-0.01,0
8.200e-02,0.03,0.006
8.210e-02,0.03,0.006
8.220e-02,0.03,-0.006
8.230e-02,0.01,-0.004
8.240e-02,0.01,0
8.250e-02,0.01,0.002
8.260e-02,0.03,0.016
8.270e-02,0.03,-0.008
8.280e-02,0.01,-0.008
8.290e-02,-0.01,0.012
8.300e-02,-0.01,0.002
8.310e-02,0.03,-0.012
8.320e-02,0.01,-0.004
