Archivos Guadalupe/Data/1410-32-X3/15-08/tek0009ALL.csv

Model,DPO3034
Firmware Version,2.16

Point Format,Y,
Horizontal Units,S,
Horizontal Scale,0.04,
Sample Interval,0.0004,
Record Length,1000,
Gating,0.0% to 100.0%,0.0% to 100.0%
Probe Attenuation,1,1
Vertical Units,V,V
Vertical Offset,0,0
Vertical Scale,0.5,0.05
Label,,
TIME,CH1,CH2
-4.280e-02,-0.01,-0.026
-4.240e-02,-0.01,-0.016
-4.200e-02,0.01,0
-4.160e-02,0.01,0.01
-4.120e-02,0.01,0.008
-4.080e-02,-0.01,0.008
-4.040e-02,-0.03,0.006
-4.000e-02,0.05,0.008
-3.960e-02,-0.01,0.014
-3.920e-02,0.01,0.004
-3.880e-02,0.01,0
-3.840e-02,0.03,-0.002
-3.800e-02,0.01,0.014
-3.760e-02,-0.01,0.014
-3.720e-02,0.01,0.01
-3.680e-02,0.01,0.002
-3.640e-02,0.01,0
-3.600e-02,-0.03,-0.002
-3.560e-02,-0.01,0
-3.520e-02,-0.03,0
-3.480e-02,0.01,-0.004
-3.440e-02,-0.01,0.012
-3.400e-02,-0.01,0.01
-3.360e-02,-0.01,0.002
-3.320e-02,0.01,0
-3.280e-02,0.01,-0.002
-3.240e-02,0.01,-0.006
-3.200e-02,0.01,0.004
-3.160e-02,0.01,0.016
-3.120e-02,-0.01,0.008
-3.080e-02,0.05,0.002
-3.040e-02,0.03,0.006
-3.000e-02,0.01,-0.006
-2.960e-02,-0.03,-0.004
-2.920e-02,0.01,0.006
-2.880e-02,0.01,0.014
-2.840e-02,0.03,-0.01
-2.800e-02,0.01,-0.008
-2.760e-02,-0.01,-0.014
-2.720e-02,0.01,-0.004
-2.680e-02,0.01,0.004
-2.640e-02,0.03,0.002
-2.600e-02,-0.05,-0.074
-2.560e-02,0.01,-0.01
-2.520e-02,0.03,0.002
-2.480e-02,0.03,-0.006
-2.440e-02,-0.01,-0.004
-2.400e-02,-0.05,-0.008
-2.360e-02,0.03,-0.016
-2.320e-02,0.01,-0.024
-2.280e-02,0.01,-0.006
-2.240e-02,-0.01,-0.012
-2.200e-02,0.01,0.004
-2.160e-02,0.01,0
-2.120e-02,0.01,-0.004
-2.080e-02,0.01,0.002
-2.040e-02,-0.01,0.016
-2.000e-02,0.03,0.012
-1.960e-02,0.01,0.002
-1.920e-02,0.01,0.002
-1.880e-02,-0.01,-0.002
-1.840e-02,-0.01,0.012
-1.800e-02,-0.01,0.012
-1.760e-02,0.01,0.008
-1.720e-02,-0.01,-0.002
-1.680e-02,0.03,-0.002
-1.640e-02,0.03,0.004
-1.600e-02,0.01,0.01
-1.560e-02,-0.01,0.01
-1.520e-02,-0.01,-0.002
-1.480e-02,0.03,0.008
-1.440e-02,-0.01,-0.024
-1.400e-02,0.01,0.004
-1.360e-02,-0.01,-0.016
-1.320e-02,0.03,0.016
-1.280e-02,-0.01,-0.004
-1.240e-02,0.03,0.036
-1.200e-02,-0.01,0.008
-1.160e-02,0.03,0
-1.120e-02,0.01,-0.004
-1.080e-02,0.03,-0.002
-1.040e-02,-0.05,-0.004
-1.000e-02,-0.01,-0.012
-9.600e-03,0.01,0.008
-9.200e-03,-0.01,-0.014
-8.800e-03,0.01,0.004
-8.400e-03,-0.01,-0.008
-8.000e-03,-0.05,-0.004
-7.600e-03,0.01,0.002
-7.200e-03,0.05,0.002
-6.800e-03,0.05,0.002
-6.400e-03,0.09,0.002
-6.000e-03,0.13,0.008
-5.600e-03,0.17,0.006
-5.200e-03,0.17,0.032
-4.800e-03,0.21,0.022
-4.400e-03,0.21,0.038
-4.000e-03,0.25,0.026
-3.600e-03,0.25,0.03
-3.200e-03,0.27,0.042
-2.800e-03,0.33,0.044
-2.400e-03,0.31,0.064
-2.000e-03,0.37,0.056
-1.600e-03,0.39,0.052
-1.200e-03,0.41,0.048
-8.000e-04,0.43,0.06
-4.000e-04,0.43,0.068
-4.261e-17,0.45,0.056
4.000e-04,0.49,0.08
8.000e-04,0.51,0.068
1.200e-03,0.55,0.072
1.600e-03,0.59,0.094
2.000e-03,0.59,0.086
2.400e-03,0.61,0.098
2.800e-03,0.67,0.108
3.200e-03,0.69,0.104
3.600e-03,0.71,0.114
4.000e-03,0.71,0.102
4.400e-03,0.73,0.12
4.800e-03,0.79,0.12
5.200e-03,0.79,0.114
5.600e-03,0.81,0.12
6.000e-03,0.87,0.126
6.400e-03,0.89,0.17
6.800e-03,0.89,0.128
7.200e-03,0.87,0.144
7.600e-03,0.95,0.148
8.000e-03,0.99,0.152
8.400e-03,0.97,0.138
8.800e-03,1.01,0.14
9.200e-03,1.03,0.162
9.600e-03,1.03,0.154
1.000e-02,1.07,0.172
1.040e-02,1.09,0.166
1.080e-02,1.15,0.164
1.120e-02,1.15,0.168
1.160e-02,1.23,0.184
1.200e-02,1.23,0.186
1.240e-02,1.23,0.186
1.280e-02,1.25,0.19
1.320e-02,1.29,0.192
1.360e-02,1.31,0.19
1.400e-02,1.29,0.166
1.440e-02,1.35,0.192
1.480e-02,1.41,0.214
1.520e-02,1.39,0.22
1.560e-02,1.43,0.216
1.600e-02,1.47,0.22
1.640e-02,1.49,0.214
1.680e-02,1.51,0.228
1.720e-02,1.51,0.238
1.760e-02,1.53,0.232
1.800e-02,1.55,0.234
1.840e-02,1.57,0.226
1.880e-02,1.61,0.246
1.920e-02,1.63,0.246
1.960e-02,1.65,0.27
2.000e-02,1.69,0.264
2.040e-02,1.73,0.258
2.080e-02,1.73,0.256
2.120e-02,1.79,0.28
2.160e-02,1.75,0.278
2.200e-02,1.79,0.296
2.240e-02,1.81,0.296
2.280e-02,1.85,0.29
2.320e-02,1.87,0.288
2.360e-02,1.87,0.306
2.400e-02,1.89,0.306
2.440e-02,1.93,0.3
2.480e-02,1.91,0.312
2.520e-02,1.93,0.3
2.560e-02,1.91,0.288
2.600e-02,1.93,0.3
2.640e-02,1.93,0.306
2.680e-02,1.91,0.306
2.720e-02,1.91,0.314
2.760e-02,1.91,0.28
2.800e-02,1.93,0.304
2.840e-02,1.89,0.302
2.880e-02,1.93,0.308
2.920e-02,1.93,0.306
2.960e-02,1.93,0.3
3.000e-02,1.93,0.298
3.040e-02,1.95,0.298
3.080e-02,1.95,0.312
3.120e-02,1.91,0.296
3.160e-02,1.93,0.3
3.200e-02,1.93,0.3
3.240e-02,1.91,0.3
3.280e-02,1.91,0.31
3.320e-02,1.89,0.294
3.360e-02,1.93,0.312
3.400e-02,1.93,0.31
3.440e-02,1.91,0.312
3.480e-02,1.95,0.354
3.520e-02,1.93,0.316
3.560e-02,1.93,0.316
3.600e-02,1.93,0.3
3.640e-02,1.89,0.304
3.680e-02,1.93,0.312
3.720e-02,1.93,0.3
3.760e-02,1.91,0.304
3.800e-02,1.93,0.318
3.840e-02,1.93,0.314
3.880e-02,1.91,0.298
3.920e-02,1.93,0.31
3.960e-02,1.93,0.316
4.000e-02,1.89,0.306
4.040e-02,1.89,0.302
4.080e-02,1.93,0.304
4.120e-02,1.93,0.32
4.160e-02,1.91,0.318
4.200e-02,1.91,0.308
4.240e-02,1.95,0.31
4.280e-02,1.93,0.312
4.320e-02,1.93,0.316
4.360e-02,1.93,0.314
4.400e-02,1.93,0.308
4.440e-02,1.91,0.316
4.480e-02,1.95,0.304
4.520e-02,1.97,0.306
4.560e-02,1.93,0.314
4.600e-02,1.95,0.294
4.640e-02,1.89,0.316
4.680e-02,1.93,0.312
4.720e-02,1.93,0.316
4.760e-02,1.91,0.314
4.800e-02,1.93,0.312
4.840e-02,1.93,0.306
4.880e-02,1.93,0.314
4.920e-02,1.95,0.318
4.960e-02,1.93,0.31
5.000e-02,1.89,0.306
5.040e-02,1.95,0.306
5.080e-02,1.93,0.298
5.120e-02,1.91,0.304
5.160e-02,1.93,0.312
5.200e-02,1.91,0.314
5.240e-02,1.93,0.306
5.280e-02,1.91,0.322
5.320e-02,1.93,0.316
5.360e-02,1.93,0.294
5.400e-02,1.91,0.304
5.440e-02,1.93,0.296
5.480e-02,1.93,0.306
5.520e-02,1.91,0.306
5.560e-02,1.91,0.316
5.600e-02,1.93,0.31
5.640e-02,1.91,0.314
5.680e-02,1.91,0.286
5.720e-02,1.87,0.338
5.760e-02,1.81,0.306
5.800e-02,1.83,0.29
5.840e-02,1.83,0.296
5.880e-02,1.79,0.294
5.920e-02,1.79,0.286
5.960e-02,1.73,0.29
6.000e-02,1.71,0.272
6.040e-02,1.69,0.274
6.080e-02,1.67,0.274
6.120e-02,1.65,0.268
6.160e-02,1.63,0.256
6.200e-02,1.59,0.252
6.240e-02,1.59,0.254
6.280e-02,1.53,0.26
6.320e-02,1.57,0.246
6.360e-02,1.51,0.248
6.400e-02,1.51,0.226
6.440e-02,1.49,0.24
6.480e-02,1.47,0.24
6.520e-02,1.45,0.224
6.560e-02,1.41,0.222
6.600e-02,1.41,0.22
6.640e-02,1.39,0.23
6.680e-02,1.39,0.222
6.720e-02,1.35,0.202
6.760e-02,1.29,0.188
6.800e-02,1.31,0.2
6.840e-02,1.29,0.194
6.880e-02,1.23,0.186
6.920e-02,1.23,0.172
6.960e-02,1.23,0.188
7.000e-02,1.17,0.168
7.040e-02,1.15,0.178
7.080e-02,1.11,0.176
7.120e-02,1.15,0.17
7.160e-02,1.13,0.168
7.200e-02,1.09,0.152
7.240e-02,1.05,0.166
7.280e-02,1.03,0.156
7.320e-02,1.01,0.164
7.360e-02,1.01,0.17
7.400e-02,0.97,0.15
7.440e-02,0.97,0.146
7.480e-02,0.97,0.134
7.520e-02,0.91,0.134
7.560e-02,0.87,0.138
7.600e-02,0.87,0.132
7.640e-02,0.87,0.124
7.680e-02,0.79,0.108
7.720e-02,0.83,0.132
7.760e-02,0.75,0.126
7.800e-02,0.77,0.106
7.840e-02,0.73,0.122
7.880e-02,0.69,0.114
7.920e-02,0.67,0.114
7.960e-02,0.69,0.112
8.000e-02,0.71,0.092
8.040e-02,0.61,0.094
8.080e-02,0.57,0.086
8.120e-02,0.59,0.1
8.160e-02,0.55,0.088
8.200e-02,0.51,0.08
8.240e-02,0.53,0.076
8.280e-02,0.49,0.08
8.320e-02,0.41,0.052
8.360e-02,0.45,0.058
8.400e-02,0.43,0.076
8.440e-02,0.41,0.058
8.480e-02,0.37,0.07
8.520e-02,0.37,0.05
8.560e-02,0.31,0.028
8.600e-02,0.31,0.044
8.640e-02,0.29,0.028
8.680e-02,0.27,0.054
8.720e-02,0.27,0.032
8.760e-02,0.27,0.08
8.800e-02,0.21,0.028
8.840e-02,0.21,0.026
8.880e-02,0.19,0.04
8.920e-02,0.21,0.034
8.960e-02,0.19,0.03
9.000e-02,0.21,0.026
9.040e-02,0.21,0.026
9.080e-02,0.21,0.04
9.120e-02,0.19,0.03
9.160e-02,0.19,0.034
9.200e-02,0.21,0.022
9.240e-02,0.19,0.04
9.280e-02,0.21,0.03
9.320e-02,0.21,0.034
9.360e-02,0.21,0.028
9.400e-02,0.21,0.028
9.440e-02,0.21,0.034
9.480e-02,0.19,0.022
9.520e-02,0.21,0.022
9.560e-02,0.21,0.024
9.600e-02,0.21,0.016
9.640e-02,0.21,0.036
9.680e-02,0.21,0.034
9.720e-02,0.21,0.036
9.760e-02,0.19,0.034
9.800e-02,0.21,0.042
9.840e-02,0.19,0.026
9.880e-02,0.19,0.026
9.920e-02,0.23,0.024
9.960e-02,0.21,0.034
1.000e-01,0.25,0.028
1.004e-01,0.19,0.024
1.008e-01,0.21,0.04
1.012e-01,0.21,0.024
1.016e-01,0.21,0.044
1.020e-01,0.21,0.028
1.024e-01,0.21,0.026
1.028e-01,0.19,0.03
1.032e-01,0.21,0.026
1.036e-01,0.21,0.028
1.040e-01,0.19,0.038
1.044e-01,0.19,0.026
1.048e-01,0.21,0.032
1.052e-01,0.21,0.048
1.056e-01,0.17,0.026
1.060e-01,0.21,0.022
1.064e-01,0.19,0.034
1.068e-01,0.19,-0.002
1.072e-01,0.23,0.058
1.076e-01,0.21,0.03
1.080e-01,0.21,0.032
1.084e-01,0.19,0.03
1.088e-01,0.17,0.034
1.092e-01,0.19,0.018
1.096e-01,0.21,0.03
1.100e-01,0.21,0.038
1.104e-01,0.17,0.034
1.108e-01,0.17,0.026
1.112e-01,0.21,0.03
1.116e-01,0.19,0.032
1.120e-01,0.17,0.038
1.124e-01,0.15,0.026
1.128e-01,0.19,0.014
1.132e-01,0.17,0.034
1.136e-01,0.17,0
1.140e-01,0.19,0.036
1.144e-01,0.17,0.028
1.148e-01,0.21,0.038
1.152e-01,0.19,0.024
1.156e-01,0.21,0.004
1.160e-01,0.21,0.02
1.164e-01,0.19,0.012
1.168e-01,0.19,0.036
1.172e-01,0.21,0.028
1.176e-01,0.21,0.03
1.180e-01,0.19,0.016
1.184e-01,0.17,0.034
1.188e-01,0.19,0.032
1.192e-01,0.19,0.01
1.196e-01,0.19,0.02
1.200e-01,0.19,0.024
1.204e-01,0.21,0.018
1.208e-01,0.21,0.018
1.212e-01,0.21,0.04
1.216e-01,0.21,0.03
1.220e-01,0.19,0.048
1.224e-01,0.21,0.038
1.228e-01,0.23,0.034
1.232e-01,0.21,0.022
1.236e-01,0.21,0.026
1.240e-01,0.21,0.034
1.244e-01,0.21,0.022
1.248e-01,0.21,0.03
1.252e-01,0.21,0.04
1.256e-01,0.21,0.032
1.260e-01,0.21,0.03
1.264e-01,0.19,0.026
1.268e-01,0.19,0.028
1.272e-01,0.21,0.034
1.276e-01,0.19,0.044
1.280e-01,0.19,0.024
1.284e-01,0.21,0.026
1.288e-01,0.21,0.02
1.292e-01,0.21,0.022
1.296e-01,0.21,0.02
1.300e-01,0.19,0.036
1.304e-01,0.21,0.036
1.308e-01,0.21,0.028
1.312e-01,0.19,0.028
1.316e-01,0.21,0.024
1.320e-01,0.21,0.022
1.324e-01,0.17,0.032
1.328e-01,0.19,0.036
1.332e-01,0.17,0.026
1.336e-01,0.21,0.038
1.340e-01,0.21,0.038
1.344e-01,0.19,0.038
1.348e-01,0.21,0.032
1.352e-01,0.19,0.04
1.356e-01,0.21,0.024
1.360e-01,0.21,0.03
1.364e-01,0.19,0.026
1.368e-01,0.19,0.022
1.372e-01,0.21,0.02
1.376e-01,0.21,0.036
1.380e-01,0.21,0.04
1.384e-01,0.23,0.016
1.388e-01,0.21,0.024
1.392e-01,0.17,0.018
1.396e-01,0.19,0.032
1.400e-01,0.21,0.02
1.404e-01,0.23,0.03
1.408e-01,0.19,0.014
1.412e-01,0.21,0.036
1.416e-01,0.19,0.036
1.420e-01,0.21,0.026
1.424e-01,0.19,0.022
1.428e-01,0.19,0.026
1.432e-01,0.21,0.036
1.436e-01,0.19,0.022
1.440e-01,0.21,0.038
1.444e-01,0.19,0.032
1.448e-01,0.19,0.032
1.452e-01,0.17,0.028
1.456e-01,0.19,0.016
1.460e-01,0.21,0.026
1.464e-01,0.21,0.038
1.468e-01,0.21,0.022
1.472e-01,0.19,0.018
1.476e-01,0.21,0.068
1.480e-01,0.19,0.034
1.484e-01,0.19,0.02
1.488e-01,0.17,0.036
1.492e-01,0.21,0.002
1.496e-01,0.17,0.018
1.500e-01,0.19,0.038
1.504e-01,0.21,0.036
1.508e-01,0.21,0.02
1.512e-01,0.19,0.022
1.516e-01,0.21,0.022
1.520e-01,0.21,0.034
1.524e-01,0.23,0.034
1.528e-01,0.21,0.028
1.532e-01,0.21,0.04
1.536e-01,0.19,0.022
1.540e-01,0.19,0.034
1.544e-01,0.21,0.02
1.548e-01,0.21,0.004
1.552e-01,0.21,0.048
1.556e-01,0.19,0.046
1.560e-01,0.19,0.03
1.564e-01,0.17,0.034
1.568e-01,0.17,0.024
1.572e-01,0.17,0.024
1.576e-01,0.21,0.036
1.580e-01,0.21,0.024
1.584e-01,0.21,0.04
1.588e-01,0.21,0.02
1.592e-01,0.21,0.034
1.596e-01,0.19,0.022
1.600e-01,0.21,0.036
1.604e-01,0.21,0.028
1.608e-01,0.19,0.032
1.612e-01,0.19,0.022
1.616e-01,0.21,0.03
1.620e-01,0.23,0.022
1.624e-01,0.21,0.026
1.628e-01,0.21,0.022
1.632e-01,0.21,0.028
1.636e-01,0.17,0.03
1.640e-01,0.21,0.036
1.644e-01,0.21,0.034
1.648e-01,0.19,0.042
1.652e-01,0.21,0.038
1.656e-01,0.21,0.038
1.660e-01,0.19,0.044
1.664e-01,0.21,0.036
1.668e-01,0.21,0.014
1.672e-01,0.19,0.036
1.676e-01,0.21,0.034
1.680e-01,0.19,0.04
1.684e-01,0.21,0.016
1.688e-01,0.19,0.016
1.692e-01,0.21,0.022
1.696e-01,0.19,0.024
1.700e-01,0.21,0.026
1.704e-01,0.21,0.028
1.708e-01,0.19,0.034
1.712e-01,0.19,0.02
1.716e-01,0.21,0.04
1.720e-01,0.21,0.03
1.724e-01,0.19,0.024
1.728e-01,0.19,0.02
1.732e-01,0.21,0.034
1.736e-01,0.19,0.026
1.740e-01,0.21,0
1.744e-01,0.19,0.024
1.748e-01,0.21,0.038
1.752e-01,0.17,0.024
1.756e-01,0.21,0.028
1.760e-01,0.21,0.028
1.764e-01,0.21,0.024
1.768e-01,0.21,0.018
1.772e-01,0.21,0.038
1.776e-01,0.21,0.018
1.780e-01,0.17,0.03
1.784e-01,0.19,0.048
1.788e-01,0.21,0.024
1.792e-01,0.21,0.056
1.796e-01,0.19,0.03
1.800e-01,0.17,0.026
1.804e-01,0.19,0.034
1.808e-01,0.21,0.028
1.812e-01,0.19,0.036
1.816e-01,0.19,0.026
1.820e-01,0.19,0.03
1.824e-01,0.21,0.04
1.828e-01,0.21,0.03
1.832e-01,0.19,0.032
1.836e-01,0.21,0.032
1.840e-01,0.19,0.036
1.844e-01,0.19,0.022
1.848e-01,0.21,0.052
1.852e-01,0.17,0.036
1.856e-01,0.17,0.034
1.860e-01,0.21,0.028
1.864e-01,0.21,0.018
1.868e-01,0.21,0.03
1.872e-01,0.21,0.018
1.876e-01,0.21,0.02
1.880e-01,0.21,0.048
1.884e-01,0.17,0.016
1.888e-01,0.17,0.028
1.892e-01,0.23,0.024
1.896e-01,0.21,0.034
1.900e-01,0.21,0.066
1.904e-01,0.19,0.018
1.908e-01,0.21,0.03
1.912e-01,0.21,0.022
1.916e-01,0.21,0.018
1.920e-01,0.19,0.038
1.924e-01,0.21,0.02
1.928e-01,0.19,0.022
1.932e-01,0.21,0.038
1.936e-01,0.19,0.04
1.940e-01,0.21,0.026
1.944e-01,0.21,0.028
1.948e-01,0.21,0.032
1.952e-01,0.21,0.038
1.956e-01,0.21,0.026
1.960e-01,0.21,0.034
1.964e-01,0.21,0.02
1.968e-01,0.21,0.034
1.972e-01,0.17,0.026
1.976e-01,0.19,0.012
1.980e-01,0.23,0.026
1.984e-01,0.17,0.028
1.988e-01,0.21,0.028
1.992e-01,0.21,-0.004
1.996e-01,0.17,0.024
2.000e-01,0.19,0.044
2.004e-01,0.21,0.022
2.008e-01,0.23,0.08
2.012e-01,0.21,0.038
2.016e-01,0.19,0.016
2.020e-01,0.21,0.022
2.024e-01,0.19,0.026
2.028e-01,0.19,0.034
2.032e-01,0.21,0.026
2.036e-01,0.21,0.028
2.040e-01,0.21,0.034
2.044e-01,0.21,0.024
2.048e-01,0.21,0.028
2.052e-01,0.19,0.034
2.056e-01,0.19,0.038
2.060e-01,0.17,0.01
2.064e-01,0.19,0.034
2.068e-01,0.21,0.03
2.072e-01,0.21,0.016
2.076e-01,0.19,0.016
2.080e-01,0.19,0.026
2.084e-01,0.19,0.022
2.088e-01,0.17,0.018
2.092e-01,0.21,0.024
2.096e-01,0.23,0.032
2.100e-01,0.19,0.026
2.104e-01,0.19,0.032
2.108e-01,0.21,0.028
2.112e-01,0.19,0.022
2.116e-01,0.17,0.02
2.120e-01,0.21,0.016
2.124e-01,0.19,0.024
2.128e-01,0.19,0.02
2.132e-01,0.19,0.022
2.136e-01,0.15,0.022
2.140e-01,0.21,0.05
2.144e-01,0.17,0.016
2.148e-01,0.19,0.026
2.152e-01,0.19,0.026
2.156e-01,0.21,0.028
2.160e-01,0.23,0.044
2.164e-01,0.21,0.006
2.168e-01,0.21,0.032
2.172e-01,0.19,0.02
2.176e-01,0.21,0.028
2.180e-01,0.21,0.022
2.184e-01,0.19,0.046
2.188e-01,0.21,0.036
2.192e-01,0.21,0.026
2.196e-01,0.21,0.022
2.200e-01,0.17,0.03
2.204e-01,0.21,0.022
2.208e-01,0.21,0.018
2.212e-01,0.21,0.03
2.216e-01,0.23,0.032
2.220e-01,0.21,0.03
2.224e-01,0.21,0.022
2.228e-01,0.21,0.036
2.232e-01,0.21,0.046
2.236e-01,0.21,0.022
2.240e-01,0.21,0.04
2.244e-01,0.21,0.032
2.248e-01,0.19,0.04
2.252e-01,0.19,0.042
2.256e-01,0.21,0.038
2.260e-01,0.21,0.028
2.264e-01,0.19,0.016
2.268e-01,0.19,0.022
2.272e-01,0.23,0.032
2.276e-01,0.21,0.052
2.280e-01,0.21,0.038
2.284e-01,0.17,0.04
2.288e-01,0.21,0.02
2.292e-01,0.21,0.034
2.296e-01,0.21,0.022
2.300e-01,0.19,0.018
2.304e-01,0.21,0.022
2.308e-01,0.19,0.018
2.312e-01,0.21,0.036
2.316e-01,0.19,0.028
2.320e-01,0.19,0.024
2.324e-01,0.17,0.026
2.328e-01,0.19,0.02
2.332e-01,0.21,0.014
2.336e-01,0.19,0.022
2.340e-01,0.19,0.018
2.344e-01,0.21,0.02
2.348e-01,0.19,0.002
2.352e-01,0.21,0.018
2.356e-01,0.19,0.026
2.360e-01,0.19,0.034
2.364e-01,0.19,0.028
2.368e-01,0.21,0.018
2.372e-01,0.23,0.034
2.376e-01,0.21,0.032
2.380e-01,0.19,0.034
2.384e-01,0.21,0.016
2.388e-01,0.19,0.032
2.392e-01,0.19,0.034
2.396e-01,0.21,0.036
2.400e-01,0.21,0.018
2.404e-01,0.21,0.032
2.408e-01,0.17,0.034
2.412e-01,0.21,0.032
2.416e-01,0.19,0.042
2.420e-01,0.19,0.024
2.424e-01,0.21,0.016
2.428e-01,0.19,0.04
2.432e-01,0.19,0.03
2.436e-01,0.21,0.038
2.440e-01,0.21,0.014
2.444e-01,0.21,0.044
2.448e-01,0.21,0.028
2.452e-01,0.15,0.036
2.456e-01,0.19,0.022
2.460e-01,0.19,0.03
2.464e-01,0.19,0.04
2.468e-01,0.19,0.036
2.472e-01,0.19,0.018
2.476e-01,0.21,0.024
2.480e-01,0.19,0.032
2.484e-01,0.19,0.028
2.488e-01,0.21,0.036
2.492e-01,0.19,0.036
2.496e-01,0.19,0.024
2.500e-01,0.23,0.016
2.504e-01,0.21,0.022
2.508e-01,0.21,0.042
2.512e-01,0.21,0.036
2.516e-01,0.21,0.02
2.520e-01,0.19,0.032
2.524e-01,0.21,0.024
2.528e-01,0.19,0.018
2.532e-01,0.21,0.038
2.536e-01,0.21,0.026
2.540e-01,0.23,0.018
2.544e-01,0.17,0.038
2.548e-01,0.19,0.018
2.552e-01,0.17,0.02
2.556e-01,0.21,0.016
2.560e-01,0.19,0.054
2.564e-01,0.21,0.026
2.568e-01,0.21,0.038
2.572e-01,0.21,0.026
2.576e-01,0.19,0.022
2.580e-01,0.21,0.034
2.584e-01,0.21,0.03
2.588e-01,0.21,0.016
2.592e-01,0.17,0.022
2.596e-01,0.21,0.036
2.600e-01,0.17,0.036
2.604e-01,0.23,0.024
2.608e-01,0.21,0.032
2.612e-01,0.19,0.024
2.616e-01,0.21,0.036
2.620e-01,0.19,0.032
2.624e-01,0.21,0.04
2.628e-01,0.15,0.024
2.632e-01,0.21,0.03
2.636e-01,0.23,0.038
2.640e-01,0.17,0.022
2.644e-01,0.21,0.022
2.648e-01,0.19,0.028
2.652e-01,0.19,0.03
2.656e-01,0.17,0.024
2.660e-01,0.21,0.04
2.664e-01,0.21,0.036
2.668e-01,0.21,0.024
2.672e-01,0.21,0.05
2.676e-01,0.21,0.026
2.680e-01,0.21,0.02
2.684e-01,0.17,0.046
2.688e-01,0.19,0.036
2.692e-01,0.17,0.028
2.696e-01,0.21,0.01
2.700e-01,0.21,0.036
2.704e-01,0.19,0.022
2.708e-01,0.21,0.024
2.712e-01,0.21,0.034
2.716e-01,0.21,0.02
2.720e-01,0.19,0.022
2.724e-01,0.17,0.02
2.728e-01,0.21,0.032
2.732e-01,0.21,0.022
2.736e-01,0.21,0.024
2.740e-01,0.19,0.034
2.744e-01,0.21,0.026
2.748e-01,0.19,0.02
2.752e-01,0.21,0.034
2.756e-01,0.17,0.018
2.760e-01,0.21,0.026
2.764e-01,0.17,0.024
2.768e-01,0.21,0.018
2.772e-01,0.19,0.038
2.776e-01,0.19,0.026
2.780e-01,0.21,0.028
2.784e-01,0.21,0.044
2.788e-01,0.19,0.022
2.792e-01,0.21,0.022
2.796e-01,0.21,0.032
2.800e-01,0.21,0.034
2.804e-01,0.19,0.034
2.808e-01,0.21,0.028
2.812e-01,0.21,0.022
2.816e-01,0.19,0.028
2.820e-01,0.17,0.022
2.824e-01,0.21,0.034
2.828e-01,0.19,0.024
2.832e-01,0.21,0.022
2.836e-01,0.19,0.026
2.840e-01,0.21,0.036
2.844e-01,0.19,0.026
2.848e-01,0.21,0.014
2.852e-01,0.21,0.024
2.856e-01,0.21,0.034
2.860e-01,0.23,0.022
2.864e-01,0.21,0.032
2.868e-01,0.21,0.03
2.872e-01,0.19,0.032
2.876e-01,0.19,0.032
2.880e-01,0.19,0.018
2.884e-01,0.21,0.022
2.888e-01,0.19,0.026
2.892e-01,0.17,0.034
2.896e-01,0.23,0.028
2.900e-01,0.21,0.044
2.904e-01,0.21,0.042
2.908e-01,0.21,0.042
2.912e-01,0.17,0.038
2.916e-01,0.21,0.034
2.920e-01,0.21,0.022
2.924e-01,0.21,0.02
2.928e-01,0.21,0.034
2.932e-01,0.21,0.026
2.936e-01,0.19,0.016
2.940e-01,0.19,0.028
2.944e-01,0.21,0.034
2.948e-01,0.19,0.034
2.952e-01,0.21,0.016
2.956e-01,0.21,0.028
2.960e-01,0.19,0.016
2.964e-01,0.19,0.03
2.968e-01,0.17,0.022
2.972e-01,0.21,0.012
2.976e-01,0.19,0.048
2.980e-01,0.17,0.012
2.984e-01,0.15,0.022
2.988e-01,0.17,0.022
2.992e-01,0.17,0.038
2.996e-01,0.17,0.022
3.000e-01,0.15,0.022
3.004e-01,0.13,0.024
3.008e-01,0.15,0.02
3.012e-01,0.13,0.026
3.016e-01,0.13,0.022
3.020e-01,0.13,0.018
3.024e-01,0.13,0.018
3.028e-01,0.11,0.01
3.032e-01,0.11,0.026
3.036e-01,0.13,0.01
3.040e-01,0.13,0.042
3.044e-01,0.11,0.018
3.048e-01,0.11,0.016
3.052e-01,0.09,0.022
3.056e-01,0.11,0.006
3.060e-01,0.05,0
3.064e-01,0.07,0.012
3.068e-01,0.09,0.006
3.072e-01,0.11,0.016
3.076e-01,0.05,0.008
3.080e-01,0.07,0.016
3.084e-01,0.03,-0.004
3.088e-01,0.05,0.002
3.092e-01,0.03,-0.004
3.096e-01,0.03,0.014
3.100e-01,0.03,0.01
3.104e-01,0.01,0.01
3.108e-01,0.03,0.008
3.112e-01,0.05,0.008
3.116e-01,0.01,0.01
3.120e-01,0.03,0.004
3.124e-01,0.03,0.014
3.128e-01,0.01,-0.004
3.132e-01,0.01,0.01
3.136e-01,-0.03,0.004
3.140e-01,-0.03,-0.01
3.144e-01,0.01,0.022
3.148e-01,0.01,-0.008
3.152e-01,0.01,0
3.156e-01,0.01,0.008
3.160e-01,0.03,0.006
3.164e-01,-0.01,-0.008
3.168e-01,-0.01,0.006
3.172e-01,0.01,0.004
3.176e-01,0.03,-0.004
3.180e-01,0.01,-0.004
3.184e-01,-0.01,0.014
3.188e-01,0.01,0.016
3.192e-01,-0.01,0.004
3.196e-01,0.01,0.01
3.200e-01,0.01,-0.002
3.204e-01,-0.01,0.012
3.208e-01,0.03,0.022
3.212e-01,-0.01,0.006
3.216e-01,0.03,0
3.220e-01,0.01,0.01
3.224e-01,-0.01,-0.008
3.228e-01,0.03,0.004
3.232e-01,-0.01,0.008
3.236e-01,0.03,0.008
3.240e-01,0.01,-0.01
3.244e-01,-0.01,0.01
3.248e-01,-0.01,-0.008
3.252e-01,-0.01,0.01
3.256e-01,-0.01,-0.002
3.260e-01,0.01,-0.012
3.264e-01,0.01,-0.002
3.268e-01,0.03,0
3.272e-01,0.01,-0.002
3.276e-01,0.01,-0.01
3.280e-01,0.01,0
3.284e-01,-0.03,-0.02
3.288e-01,0.01,-0.008
3.292e-01,0.01,-0.008
3.296e-01,-0.03,-0.01
3.300e-01,0.01,-0.006
3.304e-01,-0.01,-0.014
3.308e-01,-0.01,0.006
3.312e-01,0.01,0.004
3.316e-01,0.01,-0.004
3.320e-01,0.01,-0.006
3.324e-01,0.01,-0.004
