Archivos Guadalupe/Data/1410-32-X3/15-08/tek0018ALL.csv

Model,DPO3034
Firmware Version,2.16

Point Format,Y,
Horizontal Units,S,
Horizontal Scale,4,
Sample Interval,0.04,
Record Length,1000,
Gating,0.0% to 100.0%,0.0% to 100.0%
Probe Attenuation,1,1
Vertical Units,V,V
Vertical Offset,0,0
Vertical Scale,0.5,0.1
Label,,
TIME,CH1,CH2
-3.960e+00,-0.01,-0.004
-3.920e+00,-0.01,-0.004
-3.880e+00,-0.01,0.004
-3.840e+00,0.03,0.008
-3.800e+00,-0.01,0.004
-3.760e+00,0.01,-0.004
-3.720e+00,0.01,0.008
-3.680e+00,0.01,0.008
-3.640e+00,0.01,0
-3.600e+00,0.05,0.032
-3.560e+00,0.01,0.008
-3.520e+00,0.01,0
-3.480e+00,0.01,0.008
-3.440e+00,-0.01,-0.02
-3.400e+00,-0.01,-0.016
-3.360e+00,-0.05,0.004
-3.320e+00,-0.01,0.012
-3.280e+00,-0.01,0.004
-3.240e+00,0.01,0.004
-3.200e+00,0.01,0.008
-3.160e+00,0.01,0.004
-3.120e+00,0.05,-0.008
-3.080e+00,0.01,0.012
-3.040e+00,0.01,0.02
-3.000e+00,0.01,0.008
-2.960e+00,0.01,-0.004
-2.920e+00,0.01,-0.008
-2.880e+00,0.01,0.024
-2.840e+00,0.01,-0.008
-2.800e+00,-0.01,0.012
-2.760e+00,-0.01,-0.028
-2.720e+00,0.01,-0.004
-2.680e+00,-0.01,0
-2.640e+00,0.03,0.008
-2.600e+00,0.03,0.008
-2.560e+00,0.01,-0.024
-2.520e+00,0.01,0.008
-2.480e+00,-0.01,0.008
-2.440e+00,0.03,0
-2.400e+00,0.03,0.008
-2.360e+00,0.01,0.008
-2.320e+00,0.01,0
-2.280e+00,0.01,-0.008
-2.240e+00,-0.05,-0.072
-2.200e+00,0.01,0.012
-2.160e+00,0.01,0.008
-2.120e+00,-0.03,-0.004
-2.080e+00,0.01,0.004
-2.040e+00,0.01,-0.016
-2.000e+00,0.05,0.004
-1.960e+00,0.01,0
-1.920e+00,0.01,0
-1.880e+00,0.01,0.008
-1.840e+00,0.01,-0.012
-1.800e+00,-0.03,0.004
-1.760e+00,0.01,-0.008
-1.720e+00,0.01,-0.008
-1.680e+00,0.03,-0.004
-1.640e+00,0.03,0.02
-1.600e+00,0.03,0.008
-1.560e+00,0.03,-0.004
-1.520e+00,0.01,0
-1.480e+00,0.01,0.008
-1.440e+00,-0.01,0
-1.400e+00,0.01,-0.008
-1.360e+00,-0.05,-0.012
-1.320e+00,0.01,0.008
-1.280e+00,-0.01,0
-1.240e+00,0.01,0.008
-1.200e+00,0.01,0
-1.160e+00,-0.01,0
-1.120e+00,-0.01,-0.012
-1.080e+00,0.01,0
-1.040e+00,0.03,-0.004
-1.000e-00,0.01,0.016
-9.600e-01,0.01,0.004
-9.200e-01,0.01,-0.012
-8.800e-01,0.01,-0.008
-8.400e-01,0.01,-0.008
-8.000e-01,0.01,-0.004
-7.600e-01,0.01,-0.008
-7.200e-01,-0.01,-0.008
-6.800e-01,0.01,0.004
-6.400e-01,0.01,0.016
-6.000e-01,0.03,0.004
-5.600e-01,0.05,0.02
-5.200e-01,0.11,0.016
-4.800e-01,0.11,0.008
-4.400e-01,0.15,0.016
-4.000e-01,0.19,0.016
-3.600e-01,0.21,0.036
-3.200e-01,0.25,0.04
-2.800e-01,0.25,0.044
-2.400e-01,0.29,0.028
-2.000e-01,0.31,0.044
-1.600e-01,0.35,0.048
-1.200e-01,0.37,0.06
-8.000e-02,0.43,0.06
-4.000e-02,0.43,0.068
2.123e-15,0.49,0.064
4.000e-02,0.51,0.084
8.000e-02,0.53,0.076
1.200e-01,0.57,0.088
1.600e-01,0.61,0.096
2.000e-01,0.63,0.104
2.400e-01,0.67,0.108
2.800e-01,0.69,0.1
3.200e-01,0.73,0.132
3.600e-01,0.75,0.128
4.000e-01,0.81,0.128
4.400e-01,0.83,0.12
4.800e-01,0.87,0.132
5.200e-01,0.91,0.144
5.600e-01,0.91,0.14
6.000e-01,0.93,0.152
6.400e-01,0.95,0.112
6.800e-01,1.01,0.152
7.200e-01,0.99,0.148
7.600e-01,1.03,0.18
8.000e-01,1.09,0.18
8.400e-01,1.09,0.188
8.800e-01,1.15,0.172
9.200e-01,1.19,0.18
9.600e-01,1.21,0.196
1.000e+00,1.25,0.196
1.040e+00,1.25,0.2
1.080e+00,1.27,0.204
1.120e+00,1.33,0.22
1.160e+00,1.39,0.24
1.200e+00,1.39,0.212
1.240e+00,1.41,0.224
1.280e+00,1.43,0.252
1.320e+00,1.47,0.208
1.360e+00,1.51,0.248
1.400e+00,1.57,0.276
1.440e+00,1.57,0.256
1.480e+00,1.59,0.272
1.520e+00,1.63,0.288
1.560e+00,1.61,0.264
1.600e+00,1.67,0.288
1.640e+00,1.71,0.292
1.680e+00,1.71,0.304
1.720e+00,1.77,0.304
1.760e+00,1.79,0.312
1.800e+00,1.79,0.304
1.840e+00,1.87,0.336
1.880e+00,1.87,0.32
1.920e+00,1.91,0.324
1.960e+00,1.95,0.34
2.000e+00,1.97,0.352
2.040e+00,1.99,0.344
2.080e+00,2.03,0.352
2.120e+00,2.09,0.36
2.160e+00,2.09,0.368
2.200e+00,2.13,0.368
2.240e+00,2.13,0.364
2.280e+00,2.17,0.388
2.320e+00,2.21,0.412
2.360e+00,2.21,0.4
2.400e+00,2.23,0.392
2.440e+00,2.29,0.44
2.480e+00,2.35,0.432
2.520e+00,2.39,0.448
2.560e+00,2.39,0.444
2.600e+00,2.41,0.44
2.640e+00,2.41,0.432
2.680e+00,2.41,0.444
2.720e+00,2.37,0.444
2.760e+00,2.37,0.436
2.800e+00,2.41,0.46
2.840e+00,2.41,0.448
2.880e+00,2.39,0.46
2.920e+00,2.41,0.432
2.960e+00,2.37,0.448
3.000e+00,2.39,0.444
3.040e+00,2.41,0.456
3.080e+00,2.39,0.452
3.120e+00,2.41,0.444
3.160e+00,2.41,0.44
3.200e+00,2.39,0.44
3.240e+00,2.41,0.44
3.280e+00,2.41,0.448
3.320e+00,2.41,0.456
3.360e+00,2.41,0.436
3.400e+00,2.41,0.448
3.440e+00,2.41,0.432
3.480e+00,2.39,0.44
3.520e+00,2.41,0.44
3.560e+00,2.39,0.448
3.600e+00,2.41,0.46
3.640e+00,2.39,0.452
3.680e+00,2.39,0.44
3.720e+00,2.37,0.448
3.760e+00,2.41,0.44
3.800e+00,2.41,0.436
3.840e+00,2.41,0.456
3.880e+00,2.41,0.44
3.920e+00,2.37,0.452
3.960e+00,2.39,0.44
4.000e+00,2.39,0.432
4.040e+00,2.41,0.464
4.080e+00,2.41,0.46
4.120e+00,2.39,0.412
4.160e+00,2.43,0.464
4.200e+00,2.39,0.444
4.240e+00,2.41,0.452
4.280e+00,2.41,0.44
4.320e+00,2.37,0.444
4.360e+00,2.43,0.464
4.400e+00,2.37,0.448
4.440e+00,2.39,0.452
4.480e+00,2.41,0.464
4.520e+00,2.43,0.424
4.560e+00,2.39,0.44
4.600e+00,2.39,0.46
4.640e+00,2.39,0.444
4.680e+00,2.39,0.44
4.720e+00,2.39,0.452
4.760e+00,2.39,0.452
4.800e+00,2.41,0.444
4.840e+00,2.43,0.444
4.880e+00,2.43,0.456
4.920e+00,2.43,0.444
4.960e+00,2.41,0.408
5.000e+00,2.37,0.44
5.040e+00,2.41,0.444
5.080e+00,2.43,0.444
5.120e+00,2.37,0.424
5.160e+00,2.37,0.448
5.200e+00,2.37,0.448
5.240e+00,2.39,0.452
5.280e+00,2.39,0.44
5.320e+00,2.41,0.44
5.360e+00,2.41,0.468
5.400e+00,2.39,0.452
5.440e+00,2.39,0.448
5.480e+00,2.41,0.452
5.520e+00,2.41,0.432
5.560e+00,2.39,0.44
5.600e+00,2.37,0.448
5.640e+00,2.41,0.468
5.680e+00,2.39,0.452
5.720e+00,2.39,0.448
5.760e+00,2.37,0.444
5.800e+00,2.35,0.448
5.840e+00,2.31,0.444
5.880e+00,2.33,0.436
5.920e+00,2.25,0.428
5.960e+00,2.27,0.42
6.000e+00,2.19,0.428
6.040e+00,2.19,0.408
6.080e+00,2.19,0.388
6.120e+00,2.15,0.4
6.160e+00,2.13,0.4
6.200e+00,2.11,0.384
6.240e+00,2.05,0.396
6.280e+00,2.09,0.392
6.320e+00,1.99,0.36
6.360e+00,1.99,0.36
6.400e+00,1.95,0.356
6.440e+00,1.95,0.344
6.480e+00,1.91,0.344
6.520e+00,1.87,0.34
6.560e+00,1.83,0.34
6.600e+00,1.83,0.328
6.640e+00,1.81,0.332
6.680e+00,1.77,0.308
6.720e+00,1.73,0.304
6.760e+00,1.71,0.312
6.800e+00,1.71,0.3
6.840e+00,1.67,0.304
6.880e+00,1.65,0.304
6.920e+00,1.61,0.3
6.960e+00,1.59,0.284
7.000e+00,1.55,0.276
7.040e+00,1.55,0.284
7.080e+00,1.51,0.28
7.120e+00,1.49,0.26
7.160e+00,1.49,0.264
7.200e+00,1.45,0.248
7.240e+00,1.43,0.252
7.280e+00,1.39,0.244
7.320e+00,1.41,0.24
7.360e+00,1.33,0.24
7.400e+00,1.31,0.232
7.440e+00,1.29,0.22
7.480e+00,1.27,0.204
7.520e+00,1.25,0.224
7.560e+00,1.21,0.212
7.600e+00,1.17,0.216
7.640e+00,1.15,0.192
7.680e+00,1.13,0.192
7.720e+00,1.09,0.176
7.760e+00,1.07,0.192
7.800e+00,1.03,0.18
7.840e+00,0.99,0.172
7.880e+00,0.99,0.168
7.920e+00,0.97,0.16
7.960e+00,0.93,0.16
8.000e+00,0.91,0.16
8.040e+00,0.87,0.152
8.080e+00,0.85,0.152
8.120e+00,0.83,0.136
8.160e+00,0.75,0.132
8.200e+00,0.75,0.124
8.240e+00,0.79,0.128
8.280e+00,0.71,0.124
8.320e+00,0.69,0.112
8.360e+00,0.65,0.108
8.400e+00,0.65,0.1
8.440e+00,0.61,0.1
8.480e+00,0.53,0.084
8.520e+00,0.55,0.088
8.560e+00,0.49,0.096
8.600e+00,0.51,0.076
8.640e+00,0.47,0.092
8.680e+00,0.43,0.072
8.720e+00,0.43,0.064
8.760e+00,0.37,0.06
8.800e+00,0.41,0.064
8.840e+00,0.37,0.068
8.880e+00,0.27,0.016
8.920e+00,0.27,0.036
8.960e+00,0.27,0.044
9.000e+00,0.25,0.044
9.040e+00,0.21,0.028
9.080e+00,0.27,0.048
9.120e+00,0.27,0.036
9.160e+00,0.23,0.036
9.200e+00,0.23,0.048
9.240e+00,0.23,0.044
9.280e+00,0.27,0.044
9.320e+00,0.25,0.052
9.360e+00,0.23,0.036
9.400e+00,0.23,0.032
9.440e+00,0.25,0.032
9.480e+00,0.23,0.04
9.520e+00,0.23,0.036
9.560e+00,0.25,0.056
9.600e+00,0.23,0.028
9.640e+00,0.27,0.04
9.680e+00,0.25,0.044
9.720e+00,0.25,0.052
9.760e+00,0.27,0.036
9.800e+00,0.25,0.044
9.840e+00,0.21,0.04
9.880e+00,0.25,0.036
9.920e+00,0.25,0.048
9.960e+00,0.21,0.044
1.000e+01,0.23,0.04
1.004e+01,0.19,0.052
1.008e+01,0.27,0.052
1.012e+01,0.25,0.048
1.016e+01,0.25,0.036
1.020e+01,0.25,0.052
1.024e+01,0.25,0.044
1.028e+01,0.23,0.036
1.032e+01,0.25,0.044
1.036e+01,0.23,0.04
1.040e+01,0.23,0.04
1.044e+01,0.23,0.04
1.048e+01,0.25,0.04
1.052e+01,0.21,0.028
1.056e+01,0.23,0.036
1.060e+01,0.27,0.04
1.064e+01,0.23,0.028
1.068e+01,0.23,0.024
1.072e+01,0.21,0.044
1.076e+01,0.21,0.036
1.080e+01,0.27,0.048
1.084e+01,0.23,0.036
1.088e+01,0.23,0.04
1.092e+01,0.23,0.044
1.096e+01,0.25,0.052
1.100e+01,0.25,0.044
1.104e+01,0.21,0.044
1.108e+01,0.23,0.044
1.112e+01,0.23,0.044
1.116e+01,0.23,0.048
1.120e+01,0.23,0.032
1.124e+01,0.25,0.032
1.128e+01,0.23,0.052
1.132e+01,0.27,0.06
1.136e+01,0.27,0.04
1.140e+01,0.27,0.044
1.144e+01,0.23,0.036
1.148e+01,0.25,0.036
1.152e+01,0.27,0.044
1.156e+01,0.23,0.032
1.160e+01,0.23,0.036
1.164e+01,0.27,0.056
1.168e+01,0.25,0.088
1.172e+01,0.25,0.04
1.176e+01,0.25,0.04
1.180e+01,0.25,0.04
1.184e+01,0.27,0.036
1.188e+01,0.25,0.036
1.192e+01,0.23,0.044
1.196e+01,0.25,0.032
1.200e+01,0.23,0.032
1.204e+01,0.25,0.04
1.208e+01,0.23,0.04
1.212e+01,0.25,0.044
1.216e+01,0.25,0.036
1.220e+01,0.25,0.044
1.224e+01,0.27,0.08
1.228e+01,0.25,0.036
1.232e+01,0.25,0.052
1.236e+01,0.21,0.04
1.240e+01,0.25,0.052
1.244e+01,0.23,0.048
1.248e+01,0.23,0.052
1.252e+01,0.25,0.052
1.256e+01,0.23,0.028
1.260e+01,0.27,0.048
1.264e+01,0.25,0.048
1.268e+01,0.25,0.048
1.272e+01,0.27,0.044
1.276e+01,0.23,0.056
1.280e+01,0.23,0.028
1.284e+01,0.25,0.056
1.288e+01,0.25,0.044
1.292e+01,0.23,0.032
1.296e+01,0.23,0.032
1.300e+01,0.27,0.044
1.304e+01,0.23,0.048
1.308e+01,0.23,0.028
1.312e+01,0.21,0.044
1.316e+01,0.25,0.048
1.320e+01,0.25,0.048
1.324e+01,0.25,0.024
1.328e+01,0.23,0.016
1.332e+01,0.25,0.032
1.336e+01,0.25,0.048
1.340e+01,0.23,0.028
1.344e+01,0.23,0.044
1.348e+01,0.25,0.04
1.352e+01,0.23,0.032
1.356e+01,0.25,0.044
1.360e+01,0.25,0.032
1.364e+01,0.27,0.044
1.368e+01,0.25,0.048
1.372e+01,0.27,0.032
1.376e+01,0.29,0.04
1.380e+01,0.25,0.036
1.384e+01,0.25,0.036
1.388e+01,0.21,0.036
1.392e+01,0.23,0.044
1.396e+01,0.25,0.044
1.400e+01,0.27,0.04
1.404e+01,0.21,0.052
1.408e+01,0.23,0.032
1.412e+01,0.25,0.044
1.416e+01,0.25,0.032
1.420e+01,0.21,0.044
1.424e+01,0.23,0.048
1.428e+01,0.21,0.068
1.432e+01,0.25,0.04
1.436e+01,0.23,0.044
1.440e+01,0.25,0.024
1.444e+01,0.23,0.028
1.448e+01,0.21,0.052
1.452e+01,0.23,0.056
1.456e+01,0.21,0.044
1.460e+01,0.27,0.036
1.464e+01,0.23,0.056
1.468e+01,0.27,0.028
1.472e+01,0.25,0.04
1.476e+01,0.25,0.04
1.480e+01,0.23,0.052
1.484e+01,0.25,0.032
1.488e+01,0.23,0.052
1.492e+01,0.23,0.052
1.496e+01,0.23,0.052
1.500e+01,0.23,0.036
1.504e+01,0.21,0.044
1.508e+01,0.25,0.044
1.512e+01,0.27,0.036
1.516e+01,0.25,0.044
1.520e+01,0.23,0.036
1.524e+01,0.25,0.048
1.528e+01,0.23,0.036
1.532e+01,0.25,0.052
1.536e+01,0.23,0.068
1.540e+01,0.23,0.052
1.544e+01,0.23,0.036
1.548e+01,0.23,0.048
1.552e+01,0.23,0.048
1.556e+01,0.27,0.036
1.560e+01,0.25,0.052
1.564e+01,0.23,0.036
1.568e+01,0.23,0.032
1.572e+01,0.21,0.04
1.576e+01,0.25,0.036
1.580e+01,0.27,0.032
1.584e+01,0.23,0.052
1.588e+01,0.21,0.04
1.592e+01,0.27,0.044
1.596e+01,0.23,0.024
1.600e+01,0.23,0.032
1.604e+01,0.27,0.044
1.608e+01,0.25,0.032
1.612e+01,0.23,0.036
1.616e+01,0.21,0.044
1.620e+01,0.23,0.036
1.624e+01,0.27,0.044
1.628e+01,0.25,0.044
1.632e+01,0.21,0.056
1.636e+01,0.27,0.036
1.640e+01,0.25,0.052
1.644e+01,0.23,0.044
1.648e+01,0.23,0.04
1.652e+01,0.23,0.024
1.656e+01,0.25,0.044
1.660e+01,0.23,0.044
1.664e+01,0.23,0.028
1.668e+01,0.23,0.04
1.672e+01,0.25,0.032
1.676e+01,0.27,0.04
1.680e+01,0.25,0.04
1.684e+01,0.23,0.036
1.688e+01,0.19,0.052
1.692e+01,0.25,0.044
1.696e+01,0.25,0.068
1.700e+01,0.25,0.036
1.704e+01,0.27,0.032
1.708e+01,0.23,0.044
1.712e+01,0.25,0.036
1.716e+01,0.23,0.04
1.720e+01,0.25,0.036
1.724e+01,0.23,0.044
1.728e+01,0.23,0.044
1.732e+01,0.23,0.044
1.736e+01,0.23,0.044
1.740e+01,0.25,0.044
1.744e+01,0.25,0.036
1.748e+01,0.23,0.032
1.752e+01,0.25,0.044
1.756e+01,0.25,0.056
1.760e+01,0.25,0.028
1.764e+01,0.25,0.044
1.768e+01,0.25,0.036
1.772e+01,0.25,0.032
1.776e+01,0.23,0.036
1.780e+01,0.23,0.032
1.784e+01,0.25,0.044
1.788e+01,0.23,0.032
1.792e+01,0.25,0.036
1.796e+01,0.23,0.036
1.800e+01,0.25,0.036
1.804e+01,0.25,0.032
1.808e+01,0.25,0.044
1.812e+01,0.25,0.028
1.816e+01,0.21,0.032
1.820e+01,0.27,0.044
1.824e+01,0.23,0.044
1.828e+01,0.23,0.032
1.832e+01,0.21,0.036
1.836e+01,0.25,0.036
1.840e+01,0.27,0.036
1.844e+01,0.25,0.024
1.848e+01,0.23,0.048
1.852e+01,0.25,0.02
1.856e+01,0.23,0.048
1.860e+01,0.23,0.036
1.864e+01,0.25,0.024
1.868e+01,0.23,0.04
1.872e+01,0.27,0.048
1.876e+01,0.25,0.044
1.880e+01,0.23,0.048
1.884e+01,0.25,0.044
1.888e+01,0.21,0.044
1.892e+01,0.25,0.04
1.896e+01,0.23,0.036
1.900e+01,0.23,0.044
1.904e+01,0.27,0.048
1.908e+01,0.25,0.028
1.912e+01,0.23,0.036
1.916e+01,0.25,0.032
1.920e+01,0.25,0.056
1.924e+01,0.23,0.036
1.928e+01,0.23,0.044
1.932e+01,0.23,0.052
1.936e+01,0.23,0.044
1.940e+01,0.25,0.028
1.944e+01,0.27,0.048
1.948e+01,0.23,0.044
1.952e+01,0.23,0.04
1.956e+01,0.21,0.024
1.960e+01,0.23,0.048
1.964e+01,0.21,0.036
1.968e+01,0.27,0.028
1.972e+01,0.23,0.044
1.976e+01,0.25,0.044
1.980e+01,0.27,0.044
1.984e+01,0.25,0.036
1.988e+01,0.25,0.036
1.992e+01,0.23,0.032
1.996e+01,0.21,0.056
2.000e+01,0.23,0.024
2.004e+01,0.23,0.044
2.008e+01,0.25,0.044
2.012e+01,0.25,0.036
2.016e+01,0.25,0.04
2.020e+01,0.23,0.04
2.024e+01,0.25,0.036
2.028e+01,0.25,0.044
2.032e+01,0.25,0.044
2.036e+01,0.23,0.048
2.040e+01,0.25,0.04
2.044e+01,0.23,0.044
2.048e+01,0.23,0.048
2.052e+01,0.25,0.044
2.056e+01,0.21,0.028
2.060e+01,0.25,0.036
2.064e+01,0.23,0.052
2.068e+01,0.27,0.028
2.072e+01,0.27,0.088
2.076e+01,0.25,0.044
2.080e+01,0.23,0.028
2.084e+01,0.27,0.052
2.088e+01,0.25,0.048
2.092e+01,0.21,0.044
2.096e+01,0.23,0.044
2.100e+01,0.25,0.004
2.104e+01,0.25,0.032
2.108e+01,0.25,0.056
2.112e+01,0.23,0.032
2.116e+01,0.21,0.04
2.120e+01,0.25,0.04
2.124e+01,0.23,0.044
2.128e+01,0.21,0.044
2.132e+01,0.25,0.036
2.136e+01,0.25,0.04
2.140e+01,0.23,0.052
2.144e+01,0.25,0.056
2.148e+01,0.23,0.044
2.152e+01,0.25,0.036
2.156e+01,0.25,0.04
2.160e+01,0.27,0.04
2.164e+01,0.25,0.024
2.168e+01,0.25,0.02
2.172e+01,0.25,0.044
2.176e+01,0.25,0.028
2.180e+01,0.23,0.036
2.184e+01,0.23,0.024
2.188e+01,0.23,0.036
2.192e+01,0.23,0.032
2.196e+01,0.23,0.044
2.200e+01,0.23,0.032
2.204e+01,0.23,0.032
2.208e+01,0.23,0.036
2.212e+01,0.21,0.044
2.216e+01,0.27,0.036
2.220e+01,0.23,0.036
2.224e+01,0.23,0.036
2.228e+01,0.23,0.036
2.232e+01,0.23,0.048
2.236e+01,0.23,0.044
2.240e+01,0.21,0.048
2.244e+01,0.23,0.032
2.248e+01,0.23,0.048
2.252e+01,0.25,0.048
2.256e+01,0.25,0.02
2.260e+01,0.21,0.032
2.264e+01,0.25,0.044
2.268e+01,0.21,0.024
2.272e+01,0.25,0.036
2.276e+01,0.25,0.02
2.280e+01,0.25,0.036
2.284e+01,0.25,0.032
2.288e+01,0.25,0.04
2.292e+01,0.23,0.044
2.296e+01,0.23,0.04
2.300e+01,0.23,0.048
2.304e+01,0.23,0.036
2.308e+01,0.23,0.044
2.312e+01,0.23,0.04
2.316e+01,0.23,0.024
2.320e+01,0.25,0.036
2.324e+01,0.21,0.032
2.328e+01,0.25,0.036
2.332e+01,0.23,0.02
2.336e+01,0.25,0.04
2.340e+01,0.27,0.044
2.344e+01,0.25,0.04
2.348e+01,0.23,0.032
2.352e+01,0.23,0.052
2.356e+01,0.27,0.028
2.360e+01,0.21,0.016
2.364e+01,0.21,0.02
2.368e+01,0.25,0.032
2.372e+01,0.27,0.068
2.376e+01,0.23,0.036
2.380e+01,0.21,0.056
2.384e+01,0.25,0.044
2.388e+01,0.23,0.036
2.392e+01,0.23,0.028
2.396e+01,0.25,0.036
2.400e+01,0.23,0.032
2.404e+01,0.21,0.04
2.408e+01,0.25,0.036
2.412e+01,0.25,0.036
2.416e+01,0.23,0.028
2.420e+01,0.25,0.032
2.424e+01,0.21,0.036
2.428e+01,0.25,0.032
2.432e+01,0.29,0.04
2.436e+01,0.21,0.024
2.440e+01,0.25,0.052
2.444e+01,0.27,0.044
2.448e+01,0.27,0.028
2.452e+01,0.25,0.024
2.456e+01,0.25,0.04
2.460e+01,0.23,0.04
2.464e+01,0.23,0.04
2.468e+01,0.27,0.032
2.472e+01,0.25,0.036
2.476e+01,0.27,0.032
2.480e+01,0.25,0.032
2.484e+01,0.25,0.032
2.488e+01,0.23,0.04
2.492e+01,0.25,0.032
2.496e+01,0.25,0.052
2.500e+01,0.23,0.032
2.504e+01,0.25,0.032
2.508e+01,0.23,0.044
2.512e+01,0.21,0.056
2.516e+01,0.23,0.044
2.520e+01,0.23,0.044
2.524e+01,0.23,0.052
2.528e+01,0.25,0.036
2.532e+01,0.27,0.044
2.536e+01,0.23,0.028
2.540e+01,0.25,0.04
2.544e+01,0.23,0.036
2.548e+01,0.25,0.036
2.552e+01,0.25,0.036
2.556e+01,0.23,0.036
2.560e+01,0.23,0.048
2.564e+01,0.25,0.048
2.568e+01,0.23,0.044
2.572e+01,0.25,0.02
2.576e+01,0.23,0.04
2.580e+01,0.27,0.044
2.584e+01,0.25,0.048
2.588e+01,0.25,0.044
2.592e+01,0.23,0.044
2.596e+01,0.23,0.032
2.600e+01,0.25,0.04
2.604e+01,0.27,0.044
2.608e+01,0.25,0.036
2.612e+01,0.25,0.04
2.616e+01,0.25,0.032
2.620e+01,0.21,0.044
2.624e+01,0.23,0.048
2.628e+01,0.27,0.044
2.632e+01,0.23,0.044
2.636e+01,0.25,0.044
2.640e+01,0.23,0.02
2.644e+01,0.25,0.056
2.648e+01,0.25,0.044
2.652e+01,0.25,0.052
2.656e+01,0.25,0.028
2.660e+01,0.23,0.044
2.664e+01,0.23,0.04
2.668e+01,0.29,0.024
2.672e+01,0.23,0.048
2.676e+01,0.23,0.032
2.680e+01,0.23,0.036
2.684e+01,0.25,0.044
2.688e+01,0.25,0.032
2.692e+01,0.23,0.036
2.696e+01,0.21,0.016
2.700e+01,0.25,0.028
2.704e+01,0.23,0.032
2.708e+01,0.25,0.048
2.712e+01,0.25,0.044
2.716e+01,0.25,0.036
2.720e+01,0.25,0.044
2.724e+01,0.21,0.044
2.728e+01,0.25,0.032
2.732e+01,0.23,0.036
2.736e+01,0.23,0.032
2.740e+01,0.25,0.028
2.744e+01,0.25,0.036
2.748e+01,0.21,0.044
2.752e+01,0.25,0.036
2.756e+01,0.23,0.052
2.760e+01,0.23,0.044
2.764e+01,0.25,0.016
2.768e+01,0.25,0.028
2.772e+01,0.27,0.044
2.776e+01,0.23,0.056
2.780e+01,0.21,0.04
2.784e+01,0.27,0.044
2.788e+01,0.25,0.048
2.792e+01,0.23,0.04
2.796e+01,0.25,0.044
2.800e+01,0.23,0.036
2.804e+01,0.25,0.036
2.808e+01,0.23,0.036
2.812e+01,0.21,0.036
2.816e+01,0.27,0.036
2.820e+01,0.21,0.024
2.824e+01,0.27,0.024
2.828e+01,0.27,0.036
2.832e+01,0.25,0.06
2.836e+01,0.27,0.044
2.840e+01,0.25,0.044
2.844e+01,0.23,0.04
2.848e+01,0.25,0.04
2.852e+01,0.23,0.028
2.856e+01,0.23,0.016
2.860e+01,0.23,0.036
2.864e+01,0.21,0.044
2.868e+01,0.27,0.032
2.872e+01,0.25,0.032
2.876e+01,0.23,0.036
2.880e+01,0.23,0.044
2.884e+01,0.25,0.032
2.888e+01,0.25,0.024
2.892e+01,0.25,0.036
2.896e+01,0.23,0.048
2.900e+01,0.23,0.028
2.904e+01,0.25,0.052
2.908e+01,0.23,0.036
2.912e+01,0.23,0.048
2.916e+01,0.25,0.036
2.920e+01,0.27,0.044
2.924e+01,0.27,0.032
2.928e+01,0.23,0.036
2.932e+01,0.25,0.036
2.936e+01,0.25,0.044
2.940e+01,0.27,0.024
2.944e+01,0.23,0.056
2.948e+01,0.25,0.032
2.952e+01,0.25,0.028
2.956e+01,0.25,0.032
2.960e+01,0.25,0.04
2.964e+01,0.23,0.024
2.968e+01,0.25,0.056
2.972e+01,0.25,0.048
2.976e+01,0.25,0.04
2.980e+01,0.25,0.028
2.984e+01,0.23,0.024
2.988e+01,0.25,0.044
2.992e+01,0.21,0.076
2.996e+01,0.21,0.044
3.000e+01,0.23,0.036
3.004e+01,0.21,0.028
3.008e+01,0.21,0.028
3.012e+01,0.21,0.036
3.016e+01,0.19,0.032
3.020e+01,0.19,0.012
3.024e+01,0.21,0.036
3.028e+01,0.19,0.032
3.032e+01,0.17,0.036
3.036e+01,0.17,0.028
3.040e+01,0.13,0.036
3.044e+01,0.15,0.02
3.048e+01,0.11,0.02
3.052e+01,0.15,0.024
3.056e+01,0.13,0.028
3.060e+01,0.13,0.012
3.064e+01,0.13,0.036
3.068e+01,0.11,0.016
3.072e+01,0.11,0.012
3.076e+01,0.11,0.008
3.080e+01,0.09,0.004
3.084e+01,0.07,0.02
3.088e+01,0.11,0.068
3.092e+01,0.09,0.012
3.096e+01,0.05,0.004
3.100e+01,0.03,0.008
3.104e+01,0.05,-0.004
3.108e+01,0.07,0
3.112e+01,0.05,0.016
3.116e+01,0.03,0.008
3.120e+01,0.05,-0.004
3.124e+01,0.05,-0.016
3.128e+01,0.03,-0.008
3.132e+01,-0.01,0
3.136e+01,0.03,0.028
3.140e+01,0.01,0.012
3.144e+01,0.01,-0.004
3.148e+01,0.01,0.032
3.152e+01,0.05,0.032
3.156e+01,-0.01,-0.044
3.160e+01,0.01,-0.004
3.164e+01,-0.01,0.008
3.168e+01,0.03,0.008
3.172e+01,0.03,-0.004
3.176e+01,0.01,-0.004
3.180e+01,-0.03,0
3.184e+01,0.03,0
3.188e+01,0.01,-0.008
3.192e+01,0.03,0.008
3.196e+01,0.03,0.012
3.200e+01,0.01,0
3.204e+01,-0.01,-0.008
3.208e+01,0.01,0.004
3.212e+01,0.01,-0.012
3.216e+01,0.03,0.016
3.220e+01,0.01,0.028
3.224e+01,0.01,-0.004
3.228e+01,0.01,0.008
3.232e+01,0.01,0.016
3.236e+01,-0.01,-0.008
3.240e+01,-0.03,0.008
3.244e+01,0.01,-0.004
3.248e+01,0.01,0.008
3.252e+01,0.01,-0.008
3.256e+01,0.03,-0.008
3.260e+01,0.01,0.012
3.264e+01,0.01,0.008
3.268e+01,-0.01,-0.008
3.272e+01,0.03,-0.008
3.276e+01,-0.03,-0.016
3.280e+01,0.01,0.004
3.284e+01,0.01,0.004
3.288e+01,0.01,0.004
3.292e+01,-0.01,-0.012
3.296e+01,0.03,-0.008
3.300e+01,0.01,-0.008
3.304e+01,0.01,-0.004
3.308e+01,0.01,0.008
3.312e+01,0.01,0.008
3.316e+01,0.03,0.004
3.320e+01,0.01,-0.004
3.324e+01,-0.01,-0.012
3.328e+01,0.01,0.008
3.332e+01,0.01,0.008
3.336e+01,-0.01,-0.032
3.340e+01,-0.03,-0.008
3.344e+01,0.01,0.016
3.348e+01,0.01,0.004
3.352e+01,0.01,-0.004
3.356e+01,-0.01,-0.012
3.360e+01,-0.01,-0.004
