Archivos Guadalupe/Data/1410-32-X3/11-05/tek0011ALL.csv

Model,DPO3034
Firmware Version,2.16

Point Format,Y,
Horizontal Units,S,
Horizontal Scale,4e-05,
Sample Interval,4e-07,
Record Length,1000,
Gating,0.0% to 100.0%,0.0% to 100.0%
Probe Attenuation,1,1
Vertical Units,V,V
Vertical Offset,0,0
Vertical Scale,2,1
Label,,
TIME,CH1,CH2
-4.880e-05,0,-0.02
-4.840e-05,0,0.02
-4.800e-05,0.08,-0.02
-4.760e-05,0,-0.02
-4.720e-05,0.16,-0.02
-4.680e-05,-0.08,-0.02
-4.640e-05,0,-0.06
-4.600e-05,0,-0.14
-4.560e-05,0,-0.1
-4.520e-05,0.08,-0.06
-4.480e-05,0,-0.1
-4.440e-05,0,-0.06
-4.400e-05,0.08,0.02
-4.360e-05,0,-0.02
-4.320e-05,0,0.02
-4.280e-05,0.08,0.02
-4.240e-05,0,-0.02
-4.200e-05,-0.08,0.02
-4.160e-05,0.16,-0.02
-4.120e-05,0,-0.02
-4.080e-05,0,0.02
-4.040e-05,0.08,0.02
-4.000e-05,0,0.02
-3.960e-05,0,-0.06
-3.920e-05,0,0.02
-3.880e-05,0,-0.06
-3.840e-05,0,-0.06
-3.800e-05,0.08,-0.06
-3.760e-05,0,-0.02
-3.720e-05,0,0.02
-3.680e-05,-0.08,0.02
-3.640e-05,0,-0.02
-3.600e-05,0.16,-0.1
-3.560e-05,0.08,-0.1
-3.520e-05,0.08,-0.02
-3.480e-05,-0.16,0.02
-3.440e-05,0,-0.02
-3.400e-05,0.08,0.02
-3.360e-05,0.16,-0.02
-3.320e-05,0,0.02
-3.280e-05,-0.08,-0.02
-3.240e-05,0.08,0.02
-3.200e-05,0,0.02
-3.160e-05,0,0.02
-3.120e-05,-0.08,-0.02
-3.080e-05,0.08,0.1
-3.040e-05,0,-0.02
-3.000e-05,0,0.02
-2.960e-05,-0.08,0.02
-2.920e-05,-0.16,-0.02
-2.880e-05,0.08,0.02
-2.840e-05,0.08,0.06
-2.800e-05,0,0.02
-2.760e-05,0.08,-0.06
-2.720e-05,0.08,0.02
-2.680e-05,0.08,-0.1
-2.640e-05,-0.08,-0.02
-2.600e-05,0,-0.06
-2.560e-05,0,-0.02
-2.520e-05,0.08,-0.02
-2.480e-05,-0.08,-0.06
-2.440e-05,0.08,0.02
-2.400e-05,0.08,0.02
-2.360e-05,0.08,-0.1
-2.320e-05,0,-0.02
-2.280e-05,0.08,-0.02
-2.240e-05,0,-0.02
-2.200e-05,0.08,-0.06
-2.160e-05,0,0.02
-2.120e-05,0.08,-0.14
-2.080e-05,-0.08,0.02
-2.040e-05,0.08,-0.06
-2.000e-05,0.16,-0.02
-1.960e-05,0.08,-0.06
-1.920e-05,0.08,-0.1
-1.880e-05,0.16,0.02
-1.840e-05,-0.08,-0.1
-1.800e-05,0,-0.02
-1.760e-05,0.08,-0.02
-1.720e-05,0,0.02
-1.680e-05,0,-0.02
-1.640e-05,-0.08,0.02
-1.600e-05,0,-0.02
-1.560e-05,0.08,-0.02
-1.520e-05,-0.16,0.1
-1.480e-05,0.08,-0.02
-1.440e-05,0,0.02
-1.400e-05,-0.08,-0.02
-1.360e-05,0,-0.02
-1.320e-05,0.08,-0.02
-1.280e-05,-0.08,0.02
-1.240e-05,0,0.02
-1.200e-05,0.08,0.02
-1.160e-05,0,-0.02
-1.120e-05,0,-0.02
-1.080e-05,0,-0.1
-1.040e-05,0,-0.02
-1.000e-05,0.08,-0.1
-9.600e-06,0.08,-0.02
-9.200e-06,0.08,-0.06
-8.800e-06,0.08,-0.02
-8.400e-06,-0.08,-0.02
-8.000e-06,0,-0.06
-7.600e-06,0,0.1
-7.200e-06,0.24,0.02
-6.800e-06,0.16,0.02
-6.400e-06,0.24,0.14
-6.000e-06,0.24,0.06
-5.600e-06,0.4,0.1
-5.200e-06,0.16,0.1
-4.800e-06,0.56,0.14
-4.400e-06,0.4,0.1
-4.000e-06,0.4,0.1
-3.600e-06,0.56,0.14
-3.200e-06,0.56,0.14
-2.800e-06,0.48,0.1
-2.400e-06,0.72,0.18
-2.000e-06,0.64,0.26
-1.600e-06,0.64,0.18
-1.200e-06,0.72,0.22
-8.000e-07,0.8,0.22
-4.000e-07,0.8,0.22
9.074e-20,0.88,0.26
4.000e-07,0.96,0.22
8.000e-07,1.04,0.22
1.200e-06,1.04,0.26
1.600e-06,1.04,0.34
2.000e-06,0.88,0.18
2.400e-06,1.12,0.3
2.800e-06,1.2,0.3
3.200e-06,1.12,0.26
3.600e-06,1.2,0.38
4.000e-06,1.12,0.42
4.400e-06,1.28,0.26
4.800e-06,1.36,0.38
5.200e-06,1.28,0.42
5.600e-06,1.36,0.34
6.000e-06,1.52,0.46
6.400e-06,1.6,0.34
6.800e-06,1.44,0.42
7.200e-06,1.6,0.46
7.600e-06,1.52,0.46
8.000e-06,1.6,0.5
8.400e-06,1.84,0.46
8.800e-06,1.6,0.38
9.200e-06,1.68,0.46
9.600e-06,1.92,0.42
1.000e-05,1.84,0.54
1.040e-05,1.84,0.54
1.080e-05,1.76,0.54
1.120e-05,1.92,0.5
1.160e-05,1.92,0.54
1.200e-05,2.16,0.58
1.240e-05,1.92,0.5
1.280e-05,2.08,0.58
1.320e-05,2.24,0.62
1.360e-05,2.24,0.66
1.400e-05,2.4,0.54
1.440e-05,2.4,0.66
1.480e-05,2.32,0.7
1.520e-05,2.4,0.62
1.560e-05,2.48,0.7
1.600e-05,2.48,0.66
1.640e-05,2.56,0.66
1.680e-05,2.56,0.62
1.720e-05,2.56,0.7
1.760e-05,2.64,0.66
1.800e-05,2.64,0.7
1.840e-05,2.72,0.74
1.880e-05,2.56,0.74
1.920e-05,2.72,0.74
1.960e-05,2.8,0.78
2.000e-05,2.8,0.78
2.040e-05,2.88,0.82
2.080e-05,2.88,0.82
2.120e-05,2.8,0.82
2.160e-05,3.04,0.9
2.200e-05,3.2,0.86
2.240e-05,2.96,0.94
2.280e-05,2.96,0.9
2.320e-05,3.2,0.9
2.360e-05,3.12,0.86
2.400e-05,3.12,0.86
2.440e-05,3.28,0.98
2.480e-05,3.44,0.94
2.520e-05,3.44,0.94
2.560e-05,3.44,0.9
2.600e-05,3.28,1.02
2.640e-05,3.28,1.02
2.680e-05,3.68,0.98
2.720e-05,3.6,1.06
2.760e-05,3.52,1.02
2.800e-05,3.6,1.14
2.840e-05,3.68,1.1
2.880e-05,3.68,1.1
2.920e-05,3.76,1.18
2.960e-05,3.84,1.14
3.000e-05,3.84,1.18
3.040e-05,3.92,1.18
3.080e-05,4,1.22
3.120e-05,3.84,1.22
3.160e-05,4,1.38
3.200e-05,4.08,1.3
3.240e-05,3.92,1.3
3.280e-05,4.08,1.3
3.320e-05,4.08,1.38
3.360e-05,4.16,1.38
3.400e-05,4.08,1.42
3.440e-05,4.16,1.38
3.480e-05,4.16,1.34
3.520e-05,4.4,1.42
3.560e-05,4.32,1.42
3.600e-05,4.4,1.42
3.640e-05,4.4,1.5
3.680e-05,4.56,1.42
3.720e-05,4.4,1.42
3.760e-05,4.64,1.5
3.800e-05,4.64,1.54
3.840e-05,4.64,1.58
3.880e-05,4.72,1.54
3.920e-05,4.64,1.66
3.960e-05,4.64,1.54
4.000e-05,4.64,1.62
4.040e-05,4.72,1.66
4.080e-05,4.96,1.66
4.120e-05,4.72,1.74
4.160e-05,4.96,1.78
4.200e-05,5.04,1.74
4.240e-05,4.88,1.74
4.280e-05,5.04,1.82
4.320e-05,5.04,1.82
4.360e-05,5.12,1.78
4.400e-05,5.2,1.86
4.440e-05,5.2,1.86
4.480e-05,5.2,1.78
4.520e-05,5.52,1.86
4.560e-05,5.36,1.9
4.600e-05,5.2,1.9
4.640e-05,5.44,1.9
4.680e-05,5.44,1.9
4.720e-05,5.28,1.94
4.760e-05,5.52,2.02
4.800e-05,5.52,2.02
4.840e-05,5.6,2.02
4.880e-05,5.68,2.06
4.920e-05,5.68,2.02
4.960e-05,5.68,2.1
5.000e-05,5.84,2.1
5.040e-05,6,2.1
5.080e-05,5.68,2.26
5.120e-05,6,2.14
5.160e-05,5.84,2.14
5.200e-05,6,2.22
5.240e-05,5.92,2.18
5.280e-05,6,2.18
5.320e-05,6.08,2.26
5.360e-05,6.08,2.34
5.400e-05,6.08,2.3
5.440e-05,6.16,2.3
5.480e-05,6.24,2.3
5.520e-05,6.32,2.3
5.560e-05,6.24,2.38
5.600e-05,6.4,2.34
5.640e-05,6.4,2.38
5.680e-05,6.4,2.38
5.720e-05,6.64,2.46
5.760e-05,6.48,2.38
5.800e-05,6.48,2.46
5.840e-05,6.64,2.5
5.880e-05,6.64,2.54
5.920e-05,6.64,2.58
5.960e-05,6.8,2.58
6.000e-05,6.72,2.58
6.040e-05,6.8,2.66
6.080e-05,6.88,2.62
6.120e-05,6.88,2.74
6.160e-05,6.88,2.7
6.200e-05,7.04,2.78
6.240e-05,6.96,2.78
6.280e-05,7.04,2.78
6.320e-05,7.12,2.82
6.360e-05,7.12,2.82
6.400e-05,7.2,2.82
6.440e-05,7.28,2.82
6.480e-05,7.2,2.9
6.520e-05,7.28,2.9
6.560e-05,7.36,2.86
6.600e-05,7.36,2.98
6.640e-05,7.36,2.86
6.680e-05,7.36,2.9
6.720e-05,7.36,2.98
6.760e-05,7.52,3.1
6.800e-05,7.52,2.94
6.840e-05,7.68,2.98
6.880e-05,7.52,3.14
6.920e-05,7.52,3.06
6.960e-05,7.84,3.14
7.000e-05,7.76,3.18
7.040e-05,7.76,3.18
7.080e-05,7.92,3.22
7.120e-05,7.92,3.26
7.160e-05,7.92,3.3
7.200e-05,7.84,3.18
7.240e-05,8,3.34
7.280e-05,7.92,3.34
7.320e-05,7.92,3.3
7.360e-05,8,3.26
7.400e-05,8,3.34
7.440e-05,8,3.34
7.480e-05,7.92,3.34
7.520e-05,8,3.34
7.560e-05,7.92,3.34
7.600e-05,8,3.34
7.640e-05,8,3.34
7.680e-05,7.92,3.22
7.720e-05,8,3.34
7.760e-05,8,3.34
7.800e-05,7.84,3.34
7.840e-05,8.08,3.3
7.880e-05,8,3.34
7.920e-05,7.92,3.34
7.960e-05,8.16,3.38
8.000e-05,7.92,3.34
8.040e-05,7.92,3.38
8.080e-05,8.08,3.42
8.120e-05,8.08,3.34
8.160e-05,7.84,3.34
8.200e-05,7.92,3.34
8.240e-05,7.92,3.34
8.280e-05,8,3.38
8.320e-05,8,3.38
8.360e-05,7.92,3.26
8.400e-05,8.08,3.38
8.440e-05,8.08,3.3
8.480e-05,7.92,3.3
8.520e-05,8.08,3.3
8.560e-05,7.92,3.26
8.600e-05,7.92,3.34
8.640e-05,7.92,3.3
8.680e-05,7.92,3.34
8.720e-05,8,3.34
8.760e-05,7.92,3.42
8.800e-05,8.08,3.34
8.840e-05,8.16,3.34
8.880e-05,7.92,3.3
8.920e-05,8,3.42
8.960e-05,8,3.34
9.000e-05,7.84,3.3
9.040e-05,8,3.34
9.080e-05,7.92,3.3
9.120e-05,8,3.26
9.160e-05,7.92,3.38
9.200e-05,7.92,3.38
9.240e-05,8,3.38
9.280e-05,7.92,3.3
9.320e-05,7.92,3.26
9.360e-05,8,3.42
9.400e-05,8,3.38
9.440e-05,8.08,3.38
9.480e-05,7.92,3.34
9.520e-05,7.92,3.3
9.560e-05,7.92,3.3
9.600e-05,7.92,3.34
9.640e-05,7.92,3.34
9.680e-05,8,3.3
9.720e-05,7.92,3.3
9.760e-05,8,3.34
9.800e-05,7.92,3.38
9.840e-05,8,3.3
9.880e-05,8.08,3.34
9.920e-05,7.92,3.3
9.960e-05,8,3.38
1.000e-04,7.92,3.34
1.004e-04,8,3.3
1.008e-04,8,3.38
1.012e-04,7.92,3.38
1.016e-04,8,3.42
1.020e-04,7.92,3.34
1.024e-04,7.76,3.34
1.028e-04,8.08,3.42
1.032e-04,7.92,3.34
1.036e-04,7.76,3.34
1.040e-04,7.92,3.42
1.044e-04,7.92,3.3
1.048e-04,8.16,3.34
1.052e-04,8.08,3.42
1.056e-04,8.08,3.38
1.060e-04,8,3.38
1.064e-04,8,3.34
1.068e-04,7.92,3.3
1.072e-04,8.08,3.38
1.076e-04,7.92,3.38
1.080e-04,7.92,3.3
1.084e-04,8,3.34
1.088e-04,7.92,3.38
1.092e-04,8,3.38
1.096e-04,8.08,3.34
1.100e-04,8,3.42
1.104e-04,8,3.34
1.108e-04,8.08,3.34
1.112e-04,8,3.38
1.116e-04,8,3.34
1.120e-04,8.08,3.34
1.124e-04,8,3.38
1.128e-04,7.92,3.3
1.132e-04,8,3.38
1.136e-04,8,3.34
1.140e-04,8,3.34
1.144e-04,8,3.42
1.148e-04,8,3.34
1.152e-04,7.92,3.3
1.156e-04,8.08,3.38
1.160e-04,8.08,3.34
1.164e-04,8,3.3
1.168e-04,8,3.26
1.172e-04,8,3.3
1.176e-04,7.92,3.34
1.180e-04,7.92,3.38
1.184e-04,8,3.34
1.188e-04,7.92,3.38
1.192e-04,8,3.34
1.196e-04,7.92,3.42
1.200e-04,8,3.34
1.204e-04,7.92,3.22
1.208e-04,8.08,3.42
1.212e-04,8,3.34
1.216e-04,8,3.3
1.220e-04,7.92,3.42
1.224e-04,7.92,3.3
1.228e-04,7.92,3.38
1.232e-04,8,3.3
1.236e-04,8,3.38
1.240e-04,8.08,3.38
1.244e-04,7.92,3.3
1.248e-04,8.08,3.34
1.252e-04,7.92,3.34
1.256e-04,7.92,3.34
1.260e-04,8.16,3.38
1.264e-04,8.16,3.34
1.268e-04,8.08,3.3
1.272e-04,7.92,3.38
1.276e-04,8,3.38
1.280e-04,8,3.34
1.284e-04,8.08,3.42
1.288e-04,8,3.38
1.292e-04,7.92,3.34
1.296e-04,8,3.38
1.300e-04,7.92,3.34
1.304e-04,8.08,3.42
1.308e-04,8.08,3.34
1.312e-04,8,3.38
1.316e-04,8,3.34
1.320e-04,8.08,3.34
1.324e-04,8,3.34
1.328e-04,8.08,3.3
1.332e-04,8.08,3.34
1.336e-04,8,3.3
1.340e-04,8.08,3.34
1.344e-04,8,3.38
1.348e-04,8.08,3.26
1.352e-04,7.92,3.38
1.356e-04,8,3.3
1.360e-04,8,3.34
1.364e-04,7.92,3.38
1.368e-04,7.92,3.38
1.372e-04,8,3.34
1.376e-04,8.08,3.42
1.380e-04,7.92,3.38
1.384e-04,8.08,3.34
1.388e-04,8.08,3.34
1.392e-04,7.92,3.34
1.396e-04,7.92,3.38
1.400e-04,8,3.42
1.404e-04,8.08,3.42
1.408e-04,8,3.3
1.412e-04,8,3.38
1.416e-04,8,3.38
1.420e-04,8,3.38
1.424e-04,8.08,3.38
1.428e-04,7.92,3.38
1.432e-04,8,3.34
1.436e-04,7.92,3.38
1.440e-04,8,3.42
1.444e-04,8,3.38
1.448e-04,7.92,3.34
1.452e-04,7.92,3.22
1.456e-04,7.84,3.34
1.460e-04,7.92,3.34
1.464e-04,8,3.34
1.468e-04,7.92,3.42
1.472e-04,8,3.38
1.476e-04,8,3.46
1.480e-04,8,3.34
1.484e-04,8.16,3.38
1.488e-04,8,3.3
1.492e-04,8,3.34
1.496e-04,8,3.42
1.500e-04,8.08,3.34
1.504e-04,7.92,3.38
1.508e-04,7.92,3.42
1.512e-04,8,3.42
1.516e-04,8,3.34
1.520e-04,8,3.34
1.524e-04,8,3.3
1.528e-04,8.16,3.34
1.532e-04,7.92,3.34
1.536e-04,7.92,3.46
1.540e-04,8.08,3.26
1.544e-04,8,3.34
1.548e-04,8.08,3.34
1.552e-04,8.08,3.38
1.556e-04,8,3.38
1.560e-04,8.08,3.38
1.564e-04,8,3.38
1.568e-04,8,3.34
1.572e-04,8.08,3.42
1.576e-04,7.92,3.34
1.580e-04,8,3.34
1.584e-04,7.84,3.42
1.588e-04,8.08,3.34
1.592e-04,8.08,3.34
1.596e-04,8,3.38
1.600e-04,8,3.46
1.604e-04,8,3.42
1.608e-04,8.08,3.42
1.612e-04,7.92,3.3
1.616e-04,8,3.38
1.620e-04,7.92,3.34
1.624e-04,8,3.42
1.628e-04,7.92,3.34
1.632e-04,8.08,3.34
1.636e-04,8,3.38
1.640e-04,8.08,3.3
1.644e-04,8,3.3
1.648e-04,8,3.3
1.652e-04,8,3.42
1.656e-04,8.08,3.42
1.660e-04,8,3.38
1.664e-04,8.08,3.42
1.668e-04,8.08,3.3
1.672e-04,8.16,3.34
1.676e-04,7.92,3.42
1.680e-04,8,3.3
1.684e-04,7.92,3.3
1.688e-04,8.08,3.42
1.692e-04,8.08,3.38
1.696e-04,8.08,3.34
1.700e-04,8.08,3.34
1.704e-04,8.08,3.34
1.708e-04,8,3.34
1.712e-04,8,3.3
1.716e-04,7.92,3.34
1.720e-04,7.92,3.38
1.724e-04,7.84,3.3
1.728e-04,7.92,3.42
1.732e-04,8,3.34
1.736e-04,8.08,3.34
1.740e-04,7.92,3.3
1.744e-04,8.08,3.34
1.748e-04,7.84,3.38
1.752e-04,8.08,3.34
1.756e-04,8.08,3.42
1.760e-04,8,3.38
1.764e-04,8.08,3.3
1.768e-04,8,3.42
1.772e-04,8,3.46
1.776e-04,7.92,3.34
1.780e-04,8.08,3.42
1.784e-04,8,3.34
1.788e-04,8.08,3.34
1.792e-04,7.92,3.34
1.796e-04,7.92,3.42
1.800e-04,8,3.42
1.804e-04,7.92,3.34
1.808e-04,8,3.3
1.812e-04,8,3.34
1.816e-04,7.92,3.38
1.820e-04,8,3.34
1.824e-04,8,3.34
1.828e-04,7.92,3.3
1.832e-04,8,3.34
1.836e-04,8.08,3.3
1.840e-04,7.84,3.42
1.844e-04,7.92,3.34
1.848e-04,8,3.42
1.852e-04,8.08,3.38
1.856e-04,8,3.3
1.860e-04,7.92,3.3
1.864e-04,8.08,3.34
1.868e-04,8,3.3
1.872e-04,8.08,3.42
1.876e-04,7.92,3.42
1.880e-04,8.08,3.3
1.884e-04,8,3.34
1.888e-04,7.92,3.34
1.892e-04,7.92,3.34
1.896e-04,7.92,3.34
1.900e-04,8,3.38
1.904e-04,8.08,3.38
1.908e-04,7.84,3.34
1.912e-04,8,3.34
1.916e-04,7.92,3.3
1.920e-04,8.08,3.34
1.924e-04,8,3.34
1.928e-04,7.92,3.34
1.932e-04,7.92,3.38
1.936e-04,8.08,3.38
1.940e-04,7.92,3.34
1.944e-04,7.92,3.38
1.948e-04,8.08,3.34
1.952e-04,7.92,3.3
1.956e-04,8,3.34
1.960e-04,8.08,3.38
1.964e-04,8,3.38
1.968e-04,8,3.38
1.972e-04,8.08,3.34
1.976e-04,8,3.42
1.980e-04,7.92,3.38
1.984e-04,7.92,3.38
1.988e-04,8.16,3.38
1.992e-04,8,3.34
1.996e-04,8,3.34
2.000e-04,8,3.34
2.004e-04,7.84,3.42
2.008e-04,8,3.42
2.012e-04,8,3.38
2.016e-04,8.08,3.42
2.020e-04,8.08,3.38
2.024e-04,8,3.3
2.028e-04,8,3.34
2.032e-04,8,3.34
2.036e-04,8,3.42
2.040e-04,7.92,3.38
2.044e-04,8.08,3.34
2.048e-04,7.84,3.38
2.052e-04,8.08,3.46
2.056e-04,7.92,3.34
2.060e-04,8,3.38
2.064e-04,8,3.42
2.068e-04,7.92,3.34
2.072e-04,7.92,3.38
2.076e-04,7.92,3.46
2.080e-04,8.16,3.34
2.084e-04,8,3.42
2.088e-04,7.92,3.42
2.092e-04,8,3.42
2.096e-04,8,3.34
2.100e-04,8.08,3.38
2.104e-04,8,3.34
2.108e-04,8,3.38
2.112e-04,8,3.38
2.116e-04,7.92,3.3
2.120e-04,7.92,3.42
2.124e-04,8,3.34
2.128e-04,8.08,3.38
2.132e-04,7.92,3.38
2.136e-04,8,3.3
2.140e-04,8,3.34
2.144e-04,8,3.38
2.148e-04,8.08,3.38
2.152e-04,7.84,3.42
2.156e-04,7.92,3.3
2.160e-04,7.92,3.34
2.164e-04,8,3.38
2.168e-04,7.92,3.34
2.172e-04,7.92,3.42
2.176e-04,8,3.42
2.180e-04,8,3.38
2.184e-04,7.92,3.38
2.188e-04,7.92,3.34
2.192e-04,7.92,3.34
2.196e-04,7.92,3.38
2.200e-04,8,3.34
2.204e-04,8,3.38
2.208e-04,8,3.3
2.212e-04,7.92,3.38
2.216e-04,8,3.3
2.220e-04,8,3.38
2.224e-04,7.92,3.3
2.228e-04,8,3.46
2.232e-04,8.08,3.38
2.236e-04,7.84,3.38
2.240e-04,7.92,3.42
2.244e-04,8.16,3.38
2.248e-04,8,3.34
2.252e-04,8,3.42
2.256e-04,8.08,3.38
2.260e-04,7.92,3.38
2.264e-04,7.92,3.38
2.268e-04,8.08,3.34
2.272e-04,8,3.38
2.276e-04,8,3.42
2.280e-04,8.08,3.38
2.284e-04,7.92,3.38
2.288e-04,8.16,3.34
2.292e-04,8,3.34
2.296e-04,8,3.38
2.300e-04,7.84,3.34
2.304e-04,8.08,3.42
2.308e-04,8.08,3.34
2.312e-04,7.84,3.34
2.316e-04,8.08,3.42
2.320e-04,8,3.42
2.324e-04,8,3.34
2.328e-04,8.08,3.46
2.332e-04,8,3.3
2.336e-04,7.92,3.3
2.340e-04,8.08,3.46
2.344e-04,8,3.3
2.348e-04,8,3.3
2.352e-04,8.08,3.3
2.356e-04,8,3.34
2.360e-04,7.92,3.34
2.364e-04,7.92,3.42
2.368e-04,8.08,3.34
2.372e-04,8,3.38
2.376e-04,8.08,3.38
2.380e-04,8,3.42
2.384e-04,8,3.34
2.388e-04,7.92,3.42
2.392e-04,8.16,3.34
2.396e-04,7.92,3.42
2.400e-04,8,3.42
2.404e-04,8,3.38
2.408e-04,8,3.42
2.412e-04,8,3.42
2.416e-04,8.08,3.42
2.420e-04,7.92,3.38
2.424e-04,8,3.38
2.428e-04,7.92,3.42
2.432e-04,8,3.38
2.436e-04,8,3.38
2.440e-04,7.92,3.38
2.444e-04,8,3.34
2.448e-04,8,3.46
2.452e-04,7.92,3.34
2.456e-04,8.16,3.34
2.460e-04,8,3.38
2.464e-04,7.92,3.34
2.468e-04,8,3.42
2.472e-04,8,3.38
2.476e-04,8,3.42
2.480e-04,8,3.42
2.484e-04,8,3.38
2.488e-04,8,3.34
2.492e-04,8,3.42
2.496e-04,8,3.42
2.500e-04,8.08,3.46
2.504e-04,8,3.38
2.508e-04,7.92,3.34
2.512e-04,7.92,3.38
2.516e-04,8,3.34
2.520e-04,8,3.42
2.524e-04,8,3.38
2.528e-04,8.08,3.34
2.532e-04,8.24,3.54
2.536e-04,8.08,3.34
2.540e-04,7.84,3.38
2.544e-04,8,3.34
2.548e-04,8.08,3.3
2.552e-04,8,3.3
2.556e-04,8,3.34
2.560e-04,8,3.42
2.564e-04,8,3.3
2.568e-04,7.92,3.38
2.572e-04,8,3.26
2.576e-04,8.08,3.34
2.580e-04,8.16,3.34
2.584e-04,8,3.42
2.588e-04,7.92,3.42
2.592e-04,8,3.38
2.596e-04,7.92,3.34
2.600e-04,8,3.42
2.604e-04,7.92,3.42
2.608e-04,8,3.42
2.612e-04,8,3.34
2.616e-04,8.08,3.42
2.620e-04,8.08,3.38
2.624e-04,8.08,3.34
2.628e-04,8.08,3.46
2.632e-04,8,3.42
2.636e-04,8.08,3.42
2.640e-04,8,3.3
2.644e-04,8,3.34
2.648e-04,8,3.5
2.652e-04,8.08,3.3
2.656e-04,8.08,3.42
2.660e-04,8.08,3.38
2.664e-04,8.08,3.42
2.668e-04,8,3.34
2.672e-04,8,3.38
2.676e-04,7.92,3.38
2.680e-04,8.16,3.42
2.684e-04,8,3.42
2.688e-04,8.08,3.34
2.692e-04,8.08,3.3
2.696e-04,8,3.34
2.700e-04,7.84,3.38
2.704e-04,8,3.42
2.708e-04,8,3.38
2.712e-04,7.92,3.42
2.716e-04,8,3.42
2.720e-04,8.08,3.34
2.724e-04,7.84,3.34
2.728e-04,8,3.3
2.732e-04,7.6,3.3
2.736e-04,7.52,3.1
2.740e-04,7.6,3.18
2.744e-04,7.28,2.82
2.748e-04,7.2,2.86
2.752e-04,7.12,2.98
2.756e-04,6.8,2.7
2.760e-04,6.56,2.78
2.764e-04,6.72,2.7
2.768e-04,6.4,2.66
2.772e-04,6.16,2.42
2.776e-04,6.16,2.54
2.780e-04,6.32,2.38
2.784e-04,5.76,2.22
2.788e-04,5.76,2.18
2.792e-04,5.76,2.18
2.796e-04,5.28,1.98
2.800e-04,5.36,2.06
2.804e-04,5.36,2.06
2.808e-04,4.8,1.78
2.812e-04,4.88,1.78
2.816e-04,4.8,1.74
2.820e-04,4.48,1.62
2.824e-04,4.48,1.5
2.828e-04,4.24,1.62
2.832e-04,4,1.46
2.836e-04,4.08,1.34
2.840e-04,4,1.42
2.844e-04,3.44,1.14
2.848e-04,3.44,1.18
2.852e-04,3.6,1.18
2.856e-04,3.2,0.98
2.860e-04,3.2,0.9
2.864e-04,3.12,0.82
2.868e-04,2.72,0.74
2.872e-04,2.72,0.7
2.876e-04,2.8,0.66
2.880e-04,2.16,0.46
2.884e-04,2.24,0.54
2.888e-04,2.16,0.46
2.892e-04,1.76,0.22
2.896e-04,1.92,0.34
2.900e-04,1.68,0.26
2.904e-04,1.28,0.1
2.908e-04,1.36,0.06
2.912e-04,1.28,0.1
2.916e-04,0.72,-0.06
2.920e-04,0.8,-0.06
2.924e-04,0.88,-0.06
2.928e-04,0.88,-0.06
2.932e-04,1.04,-0.02
2.936e-04,0.96,0.02
2.940e-04,0.88,0.06
2.944e-04,0.88,0.02
2.948e-04,0.8,0.06
2.952e-04,0.96,0.02
2.956e-04,0.8,0.02
2.960e-04,0.8,0.02
2.964e-04,0.88,0.1
2.968e-04,0.88,0.06
2.972e-04,0.88,0.06
2.976e-04,0.72,0.02
2.980e-04,0.8,0.02
2.984e-04,0.8,-0.02
2.988e-04,0.88,0.1
2.992e-04,0.88,0.1
2.996e-04,1.04,0.02
3.000e-04,0.64,0.06
3.004e-04,0.8,0.06
3.008e-04,0.88,0.06
3.012e-04,0.88,0.1
3.016e-04,0.64,0.06
3.020e-04,0.96,0.1
3.024e-04,0.72,0.1
3.028e-04,0.8,0.14
3.032e-04,0.8,0.14
3.036e-04,0.88,0.18
3.040e-04,0.88,0.1
3.044e-04,0.72,0.14
3.048e-04,0.88,0.1
3.052e-04,0.88,0.14
3.056e-04,0.8,0.06
3.060e-04,0.8,0.18
3.064e-04,0.96,0.14
3.068e-04,0.88,0.02
3.072e-04,0.88,0.1
3.076e-04,0.96,0.14
3.080e-04,0.88,0.06
3.084e-04,0.64,0.14
3.088e-04,0.72,0.02
3.092e-04,0.96,0.14
3.096e-04,0.8,0.1
3.100e-04,0.88,0.1
3.104e-04,0.8,0.1
3.108e-04,0.88,0.14
3.112e-04,0.8,0.06
3.116e-04,0.8,0.14
3.120e-04,0.88,0.1
3.124e-04,0.88,0.1
3.128e-04,0.88,0.1
3.132e-04,0.88,0.1
3.136e-04,0.88,0.1
3.140e-04,0.88,0.14
3.144e-04,0.72,0.22
3.148e-04,0.8,0.1
3.152e-04,0.88,0.1
3.156e-04,0.8,0.14
3.160e-04,0.88,0.1
3.164e-04,0.96,0.14
3.168e-04,0.8,0.06
3.172e-04,0.8,0.1
3.176e-04,0.72,0.06
3.180e-04,0.88,0.02
3.184e-04,0.88,0.14
3.188e-04,0.88,0.1
3.192e-04,0.8,0.14
3.196e-04,0.96,0.14
3.200e-04,0.8,0.14
3.204e-04,0.88,0.1
3.208e-04,0.72,0.14
3.212e-04,0.8,0.22
3.216e-04,0.88,0.14
3.220e-04,0.8,0.1
3.224e-04,0.88,0.18
3.228e-04,0.8,0.14
3.232e-04,0.72,0.1
3.236e-04,0.72,0.14
3.240e-04,0.88,0.14
3.244e-04,0.88,0.18
3.248e-04,0.8,0.1
3.252e-04,0.72,0.14
3.256e-04,0.8,0.02
3.260e-04,0.8,0.14
3.264e-04,0.88,0.02
3.268e-04,0.8,0.06
3.272e-04,0.8,0.1
3.276e-04,0.88,0.14
3.280e-04,0.88,0.14
3.284e-04,0.88,0.06
3.288e-04,0.88,0.06
3.292e-04,0.88,0.02
3.296e-04,0.88,0.06
3.300e-04,0.8,0.14
3.304e-04,0.88,0.14
3.308e-04,0.88,0.1
3.312e-04,0.8,0.14
3.316e-04,0.96,0.14
3.320e-04,0.8,0.14
3.324e-04,0.8,0.18
3.328e-04,0.88,0.14
3.332e-04,0.72,0.14
3.336e-04,0.8,0.02
3.340e-04,0.88,0.1
3.344e-04,0.88,0.18
3.348e-04,0.88,0.1
3.352e-04,0.8,0.06
3.356e-04,0.96,0.14
3.360e-04,0.8,0.1
3.364e-04,0.72,0.06
3.368e-04,0.8,0.22
3.372e-04,0.88,0.1
3.376e-04,0.88,0.1
3.380e-04,0.72,0.14
3.384e-04,0.8,0.1
3.388e-04,0.8,0.14
3.392e-04,0.8,0.14
3.396e-04,0.88,0.22
3.400e-04,0.8,0.14
3.404e-04,0.8,0.14
3.408e-04,0.88,0.14
3.412e-04,0.8,0.22
3.416e-04,0.72,0.14
3.420e-04,0.88,0.14
3.424e-04,0.96,0.1
3.428e-04,0.72,0.14
3.432e-04,0.8,0.14
3.436e-04,0.88,0.22
3.440e-04,0.8,0.18
3.444e-04,0.88,0.22
3.448e-04,0.8,0.14
3.452e-04,0.8,0.1
3.456e-04,0.8,0.1
3.460e-04,0.64,0.1
3.464e-04,0.8,0.18
3.468e-04,0.72,0.1
3.472e-04,0.88,0.1
3.476e-04,0.8,0.06
3.480e-04,0.64,0.14
3.484e-04,0.96,0.1
3.488e-04,0.8,-0.02
3.492e-04,0.88,0.14
3.496e-04,0.8,0.14
3.500e-04,0.8,0.18
3.504e-04,0.88,0.06
3.508e-04,0.8,0.1

