Archivos Guadalupe/Data/Kaleid_IDL/IDL-labo/18-07/tek0004ALL.csv

Model,DPO3034
Firmware Version,2.16

Point Format,Y,
Horizontal Units,S,
Horizontal Scale,1e-06,
Sample Interval,1e-08,
Record Length,1000,
Gating,0.0% to 100.0%,0.0% to 100.0%
Probe Attenuation,1,1
Vertical Units,V,V
Vertical Offset,0,0
Vertical Scale,1,0.5
Label,,
TIME,CH1,CH3
-1.570e-06,0.1,0.01
-1.560e-06,-0.02,0.01
-1.550e-06,-0.02,0.01
-1.540e-06,-0.02,-0.01
-1.530e-06,-0.02,0.01
-1.520e-06,0.02,0.01
-1.510e-06,-0.02,-0.01
-1.500e-06,-0.02,0.01
-1.490e-06,-0.02,0.01
-1.480e-06,-0.02,-0.01
-1.470e-06,-0.02,0.01
-1.460e-06,-0.06,0.01
-1.450e-06,-0.02,0.01
-1.440e-06,-0.02,0.01
-1.430e-06,0.02,0.01
-1.420e-06,0.02,-0.01
-1.410e-06,-0.02,0.01
-1.400e-06,0.02,0.01
-1.390e-06,0.02,-0.01
-1.380e-06,-0.02,-0.01
-1.370e-06,-0.02,0.01
-1.360e-06,0.02,0.01
-1.350e-06,-0.02,0.01
-1.340e-06,-0.02,0.01
-1.330e-06,-0.02,0.01
-1.320e-06,-0.02,-0.01
-1.310e-06,0.02,0.01
-1.300e-06,-0.02,0.01
-1.290e-06,0.02,0.03
-1.280e-06,-0.02,0.03
-1.270e-06,-0.02,0.01
-1.260e-06,-0.02,-0.01
-1.250e-06,-0.02,0.01
-1.240e-06,-0.06,0.01
-1.230e-06,-0.02,-0.03
-1.220e-06,0.02,-0.01
-1.210e-06,0.02,-0.01
-1.200e-06,-0.02,0.03
-1.190e-06,-0.02,0.01
-1.180e-06,-0.02,0.01
-1.170e-06,0.02,-0.01
-1.160e-06,-0.02,0.01
-1.150e-06,-0.02,-0.03
-1.140e-06,-0.02,0.03
-1.130e-06,0.02,0.01
-1.120e-06,-0.02,0.03
-1.110e-06,-0.02,0.01
-1.100e-06,-0.06,0.01
-1.090e-06,-0.02,0.01
-1.080e-06,-0.06,-0.01
-1.070e-06,0.02,0.01
-1.060e-06,-0.06,0.03
-1.050e-06,-0.02,0.01
-1.040e-06,0.02,0.01
-1.030e-06,0.02,-0.01
-1.020e-06,-0.02,0.03
-1.010e-06,-0.02,0.01
-1.000e-06,0.06,-0.01
-9.900e-07,0.02,0.01
-9.800e-07,-0.02,0.01
-9.700e-07,-0.02,0.01
-9.600e-07,-0.02,-0.01
-9.500e-07,-0.02,0.01
-9.400e-07,-0.02,0.01
-9.300e-07,0.06,0.01
-9.200e-07,-0.02,0.05
-9.100e-07,0.02,0.01
-9.000e-07,-0.02,0.01
-8.900e-07,-0.02,-0.01
-8.800e-07,-0.02,-0.01
-8.700e-07,-0.02,0.01
-8.600e-07,0.02,0.01
-8.500e-07,0.02,0.05
-8.400e-07,0.02,0.01
-8.300e-07,-0.02,0.03
-8.200e-07,-0.02,0.05
-8.100e-07,0.02,-0.01
-8.000e-07,-0.02,0.01
-7.900e-07,0.02,-0.01
-7.800e-07,-0.06,-0.01
-7.700e-07,-0.02,0.01
-7.600e-07,-0.02,-0.01
-7.500e-07,-0.02,0.01
-7.400e-07,-0.1,0.01
-7.300e-07,0.02,-0.01
-7.200e-07,-0.06,0.01
-7.100e-07,0.06,0.01
-7.000e-07,-0.02,0.05
-6.900e-07,0.02,0.03
-6.800e-07,0.02,0.01
-6.700e-07,0.02,0.01
-6.600e-07,-0.02,0.01
-6.500e-07,0.02,0.01
-6.400e-07,0.06,-0.01
-6.300e-07,0.02,0.01
-6.200e-07,0.02,0.01
-6.100e-07,-0.02,-0.01
-6.000e-07,0.06,-0.01
-5.900e-07,0.02,0.01
-5.800e-07,0.06,0.01
-5.700e-07,0.06,0.01
-5.600e-07,0.02,0.01
-5.500e-07,0.06,0.03
-5.400e-07,0.06,0.01
-5.300e-07,0.06,0.05
-5.200e-07,0.06,0.01
-5.100e-07,0.06,0.05
-5.000e-07,0.06,0.01
-4.900e-07,0.14,0.03
-4.800e-07,0.18,0.07
-4.700e-07,0.22,0.05
-4.600e-07,0.1,0.07
-4.500e-07,0.1,0.05
-4.400e-07,0.22,0.07
-4.300e-07,0.1,0.07
-4.200e-07,0.14,0.07
-4.100e-07,0.18,0.09
-4.000e-07,0.22,0.11
-3.900e-07,0.22,0.11
-3.800e-07,0.3,0.11
-3.700e-07,0.26,0.11
-3.600e-07,0.26,0.11
-3.500e-07,0.22,0.11
-3.400e-07,0.22,0.11
-3.300e-07,0.3,0.11
-3.200e-07,0.26,0.13
-3.100e-07,0.3,0.11
-3.000e-07,0.34,0.13
-2.900e-07,0.42,0.11
-2.800e-07,0.38,0.13
-2.700e-07,0.46,0.15
-2.600e-07,0.38,0.13
-2.500e-07,0.34,0.17
-2.400e-07,0.34,0.17
-2.300e-07,0.38,0.17
-2.200e-07,0.46,0.17
-2.100e-07,0.46,0.19
-2.000e-07,0.38,0.21
-1.900e-07,0.5,0.19
-1.800e-07,0.46,0.21
-1.700e-07,0.54,0.19
-1.600e-07,0.46,0.15
-1.500e-07,0.5,0.21
-1.400e-07,0.54,0.21
-1.300e-07,0.54,0.25
-1.200e-07,0.54,0.23
-1.100e-07,0.58,0.21
-1.000e-07,0.54,0.25
-9.000e-08,0.58,0.27
-8.000e-08,0.58,0.27
-7.000e-08,0.58,0.27
-6.000e-08,0.58,0.27
-5.000e-08,0.58,0.27
-4.000e-08,0.62,0.27
-3.000e-08,0.66,0.31
-2.000e-08,0.7,0.29
-1.000e-08,0.74,0.29
-5.238e-21,0.62,0.31
1.000e-08,0.66,0.27
2.000e-08,0.7,0.31
3.000e-08,0.78,0.27
4.000e-08,0.7,0.33
5.000e-08,0.78,0.33
6.000e-08,0.74,0.31
7.000e-08,0.78,0.31
8.000e-08,0.82,0.31
9.000e-08,0.78,0.37
1.000e-07,0.82,0.39
1.100e-07,0.82,0.39
1.200e-07,0.78,0.37
1.300e-07,0.86,0.39
1.400e-07,0.86,0.37
1.500e-07,0.82,0.39
1.600e-07,0.82,0.39
1.700e-07,0.9,0.41
1.800e-07,0.9,0.41
1.900e-07,0.98,0.43
2.000e-07,0.98,0.43
2.100e-07,0.94,0.41
2.200e-07,0.9,0.39
2.300e-07,0.9,0.39
2.400e-07,0.94,0.41
2.500e-07,1.02,0.43
2.600e-07,0.98,0.47
2.700e-07,1.06,0.49
2.800e-07,1.02,0.47
2.900e-07,1.02,0.49
3.000e-07,1.02,0.49
3.100e-07,1.06,0.45
3.200e-07,1.06,0.45
3.300e-07,1.06,0.47
3.400e-07,1.02,0.53
3.500e-07,1.1,0.53
3.600e-07,1.18,0.51
3.700e-07,1.14,0.53
3.800e-07,1.14,0.53
3.900e-07,1.14,0.53
4.000e-07,1.18,0.49
4.100e-07,1.18,0.51
4.200e-07,1.14,0.53
4.300e-07,1.18,0.55
4.400e-07,1.14,0.59
4.500e-07,1.18,0.59
4.600e-07,1.18,0.57
4.700e-07,1.26,0.57
4.800e-07,1.22,0.59
4.900e-07,1.26,0.57
5.000e-07,1.26,0.59
5.100e-07,1.3,0.59
5.200e-07,1.3,0.61
5.300e-07,1.34,0.65
5.400e-07,1.34,0.67
5.500e-07,1.34,0.65
5.600e-07,1.26,0.65
5.700e-07,1.34,0.65
5.800e-07,1.38,0.63
5.900e-07,1.38,0.63
6.000e-07,1.42,0.59
6.100e-07,1.42,0.63
6.200e-07,1.42,0.65
6.300e-07,1.42,0.63
6.400e-07,1.46,0.65
6.500e-07,1.46,0.65
6.600e-07,1.46,0.67
6.700e-07,1.42,0.67
6.800e-07,1.46,0.67
6.900e-07,1.5,0.69
7.000e-07,1.5,0.73
7.100e-07,1.54,0.71
7.200e-07,1.5,0.75
7.300e-07,1.5,0.73
7.400e-07,1.62,0.73
7.500e-07,1.62,0.75
7.600e-07,1.58,0.73
7.700e-07,1.62,0.73
7.800e-07,1.58,0.73
7.900e-07,1.58,0.75
8.000e-07,1.58,0.77
8.100e-07,1.66,0.77
8.200e-07,1.7,0.79
8.300e-07,1.66,0.79
8.400e-07,1.7,0.79
8.500e-07,1.62,0.77
8.600e-07,1.7,0.81
8.700e-07,1.7,0.77
8.800e-07,1.62,0.81
8.900e-07,1.7,0.79
9.000e-07,1.78,0.81
9.100e-07,1.74,0.87
9.200e-07,1.74,0.81
9.300e-07,1.82,0.83
9.400e-07,1.78,0.85
9.500e-07,1.78,0.83
9.600e-07,1.82,0.83
9.700e-07,1.86,0.85
9.800e-07,1.86,0.87
9.900e-07,1.86,0.87
1.000e-06,1.82,0.87
1.010e-06,1.86,0.85
1.020e-06,1.82,0.87
1.030e-06,1.86,0.87
1.040e-06,1.9,0.87
1.050e-06,1.94,0.89
1.060e-06,1.94,0.87
1.070e-06,1.98,0.91
1.080e-06,1.98,0.89
1.090e-06,1.94,0.93
1.100e-06,1.98,0.91
1.110e-06,2.02,0.93
1.120e-06,2.06,0.95
1.130e-06,1.98,0.95
1.140e-06,2.02,0.95
1.150e-06,2.06,0.95
1.160e-06,2.06,0.97
1.170e-06,2.1,0.97
1.180e-06,2.02,0.95
1.190e-06,2.1,0.95
1.200e-06,2.1,0.99
1.210e-06,2.1,0.99
1.220e-06,2.06,0.99
1.230e-06,2.18,1.01
1.240e-06,2.06,1.05
1.250e-06,2.1,0.99
1.260e-06,2.06,1.03
1.270e-06,2.18,1.07
1.280e-06,2.22,1.07
1.290e-06,2.22,1.03
1.300e-06,2.22,1.05
1.310e-06,2.22,1.05
1.320e-06,2.26,1.09
1.330e-06,2.26,1.09
1.340e-06,2.3,1.05
1.350e-06,2.26,1.07
1.360e-06,2.22,1.09
1.370e-06,2.3,1.09
1.380e-06,2.3,1.11
1.390e-06,2.34,1.11
1.400e-06,2.3,1.11
1.410e-06,2.38,1.11
1.420e-06,2.34,1.15
1.430e-06,2.38,1.13
1.440e-06,2.46,1.13
1.450e-06,2.3,1.17
1.460e-06,2.34,1.13
1.470e-06,2.42,1.17
1.480e-06,2.42,1.17
1.490e-06,2.42,1.17
1.500e-06,2.46,1.19
1.510e-06,2.5,1.19
1.520e-06,2.46,1.19
1.530e-06,2.46,1.17
1.540e-06,2.5,1.17
1.550e-06,2.5,1.17
1.560e-06,2.54,1.21
1.570e-06,2.5,1.25
1.580e-06,2.54,1.23
1.590e-06,2.58,1.21
1.600e-06,2.54,1.23
1.610e-06,2.54,1.21
1.620e-06,2.58,1.23
1.630e-06,2.62,1.25
1.640e-06,2.58,1.23
1.650e-06,2.62,1.25
1.660e-06,2.62,1.27
1.670e-06,2.62,1.27
1.680e-06,2.62,1.27
1.690e-06,2.74,1.27
1.700e-06,2.74,1.29
1.710e-06,2.74,1.27
1.720e-06,2.7,1.29
1.730e-06,2.66,1.33
1.740e-06,2.66,1.31
1.750e-06,2.66,1.31
1.760e-06,2.74,1.31
1.770e-06,2.78,1.33
1.780e-06,2.74,1.33
1.790e-06,2.74,1.33
1.800e-06,2.78,1.33
1.810e-06,2.78,1.33
1.820e-06,2.86,1.35
1.830e-06,2.9,1.33
1.840e-06,2.78,1.35
1.850e-06,2.82,1.35
1.860e-06,2.82,1.33
1.870e-06,2.82,1.39
1.880e-06,2.9,1.37
1.890e-06,2.9,1.37
1.900e-06,2.9,1.37
1.910e-06,2.86,1.41
1.920e-06,2.9,1.39
1.930e-06,2.94,1.37
1.940e-06,2.86,1.39
1.950e-06,2.82,1.35
1.960e-06,2.86,1.37
1.970e-06,2.82,1.41
1.980e-06,2.86,1.39
1.990e-06,2.78,1.43
2.000e-06,2.78,1.35
2.010e-06,2.82,1.39
2.020e-06,2.74,1.37
2.030e-06,2.74,1.37
2.040e-06,2.78,1.35
2.050e-06,2.74,1.33
2.060e-06,2.7,1.33
2.070e-06,2.78,1.35
2.080e-06,2.7,1.33
2.090e-06,2.66,1.29
2.100e-06,2.62,1.29
2.110e-06,2.66,1.31
2.120e-06,2.62,1.31
2.130e-06,2.58,1.29
2.140e-06,2.62,1.31
2.150e-06,2.58,1.33
2.160e-06,2.62,1.35
2.170e-06,2.54,1.31
2.180e-06,2.54,1.29
2.190e-06,2.66,1.31
2.200e-06,2.54,1.29
2.210e-06,2.58,1.27
2.220e-06,2.54,1.27
2.230e-06,2.54,1.29
2.240e-06,2.54,1.27
2.250e-06,2.54,1.25
2.260e-06,2.5,1.29
2.270e-06,2.5,1.27
2.280e-06,2.54,1.23
2.290e-06,2.54,1.23
2.300e-06,2.5,1.23
2.310e-06,2.46,1.21
2.320e-06,2.42,1.23
2.330e-06,2.5,1.19
2.340e-06,2.42,1.17
2.350e-06,2.42,1.19
2.360e-06,2.42,1.21
2.370e-06,2.42,1.21
2.380e-06,2.38,1.17
2.390e-06,2.38,1.15
2.400e-06,2.3,1.17
2.410e-06,2.3,1.17
2.420e-06,2.3,1.15
2.430e-06,2.34,1.15
2.440e-06,2.26,1.13
2.450e-06,2.22,1.13
2.460e-06,2.3,1.15
2.470e-06,2.26,1.15
2.480e-06,2.22,1.13
2.490e-06,2.18,1.13
2.500e-06,2.18,1.11
2.510e-06,2.18,1.09
2.520e-06,2.22,1.15
2.530e-06,2.18,1.15
2.540e-06,2.18,1.13
2.550e-06,2.1,1.09
2.560e-06,2.14,1.07
2.570e-06,2.18,1.09
2.580e-06,2.1,1.11
2.590e-06,2.14,1.09
2.600e-06,2.06,1.07
2.610e-06,2.1,1.07
2.620e-06,2.1,1.07
2.630e-06,2.06,1.05
2.640e-06,2.02,1.03
2.650e-06,2.02,1.01
2.660e-06,1.98,1.03
2.670e-06,1.98,1.01
2.680e-06,1.94,1.01
2.690e-06,1.94,1.01
2.700e-06,2.02,1.03
2.710e-06,1.94,0.99
2.720e-06,1.98,1.01
2.730e-06,2.02,1.03
2.740e-06,1.94,0.97
2.750e-06,1.9,0.95
2.760e-06,1.9,0.95
2.770e-06,1.9,0.99
2.780e-06,1.94,1.03
2.790e-06,1.9,0.95
2.800e-06,1.9,0.95
2.810e-06,1.86,0.93
2.820e-06,1.82,0.95
2.830e-06,1.82,0.91
2.840e-06,1.78,0.93
2.850e-06,1.82,0.89
2.860e-06,1.7,0.95
2.870e-06,1.78,0.93
2.880e-06,1.74,0.91
2.890e-06,1.78,0.89
2.900e-06,1.78,0.89
2.910e-06,1.7,0.87
2.920e-06,1.74,0.89
2.930e-06,1.7,0.87
2.940e-06,1.66,0.85
2.950e-06,1.74,0.85
2.960e-06,1.74,0.87
2.970e-06,1.74,0.85
2.980e-06,1.7,0.85
2.990e-06,1.7,0.85
3.000e-06,1.62,0.83
3.010e-06,1.66,0.83
3.020e-06,1.58,0.83
3.030e-06,1.58,0.77
3.040e-06,1.58,0.79
3.050e-06,1.58,0.79
3.060e-06,1.5,0.81
3.070e-06,1.58,0.75
3.080e-06,1.5,0.79
3.090e-06,1.54,0.79
3.100e-06,1.42,0.77
3.110e-06,1.5,0.79
3.120e-06,1.46,0.75
3.130e-06,1.42,0.75
3.140e-06,1.46,0.75
3.150e-06,1.46,0.75
3.160e-06,1.42,0.75
3.170e-06,1.42,0.73
3.180e-06,1.42,0.75
3.190e-06,1.34,0.71
3.200e-06,1.46,0.73
3.210e-06,1.34,0.69
3.220e-06,1.34,0.65
3.230e-06,1.34,0.71
3.240e-06,1.38,0.71
3.250e-06,1.38,0.67
3.260e-06,1.34,0.67
3.270e-06,1.42,0.67
3.280e-06,1.3,0.69
3.290e-06,1.22,0.63
3.300e-06,1.26,0.65
3.310e-06,1.26,0.65
3.320e-06,1.3,0.65
3.330e-06,1.26,0.65
3.340e-06,1.26,0.65
3.350e-06,1.22,0.65
3.360e-06,1.22,0.63
3.370e-06,1.26,0.63
3.380e-06,1.3,0.63
3.390e-06,1.22,0.61
3.400e-06,1.18,0.57
3.410e-06,1.18,0.61
3.420e-06,1.06,0.59
3.430e-06,1.14,0.59
3.440e-06,1.14,0.59
3.450e-06,1.1,0.59
3.460e-06,1.02,0.57
3.470e-06,1.1,0.55
3.480e-06,1.06,0.53
3.490e-06,1.1,0.55
3.500e-06,1.06,0.55
3.510e-06,1.1,0.55
3.520e-06,1.02,0.51
3.530e-06,0.94,0.53
3.540e-06,1.02,0.53
3.550e-06,0.98,0.51
3.560e-06,1.02,0.51
3.570e-06,1.02,0.51
3.580e-06,0.94,0.51
3.590e-06,0.94,0.51
3.600e-06,0.94,0.53
3.610e-06,0.86,0.45
3.620e-06,0.94,0.51
3.630e-06,0.86,0.47
3.640e-06,0.9,0.45
3.650e-06,0.82,0.45
3.660e-06,0.82,0.45
3.670e-06,0.86,0.43
3.680e-06,0.9,0.43
3.690e-06,0.82,0.43
3.700e-06,0.86,0.43
3.710e-06,0.78,0.41
3.720e-06,0.78,0.37
3.730e-06,0.82,0.39
3.740e-06,0.78,0.39
3.750e-06,0.74,0.37
3.760e-06,0.7,0.39
3.770e-06,0.7,0.37
3.780e-06,0.62,0.39
3.790e-06,0.66,0.39
3.800e-06,0.78,0.37
3.810e-06,0.7,0.33
3.820e-06,0.66,0.35
3.830e-06,0.7,0.33
3.840e-06,0.7,0.35
3.850e-06,0.66,0.35
3.860e-06,0.62,0.35
3.870e-06,0.62,0.31
3.880e-06,0.58,0.33
3.890e-06,0.58,0.31
3.900e-06,0.54,0.27
3.910e-06,0.58,0.29
3.920e-06,0.58,0.31
3.930e-06,0.58,0.33
3.940e-06,0.54,0.27
3.950e-06,0.54,0.27
3.960e-06,0.54,0.25
3.970e-06,0.54,0.27
3.980e-06,0.5,0.29
3.990e-06,0.5,0.25
4.000e-06,0.5,0.27
4.010e-06,0.54,0.23
4.020e-06,0.46,0.27
4.030e-06,0.42,0.21
4.040e-06,0.34,0.25
4.050e-06,0.42,0.23
4.060e-06,0.46,0.21
4.070e-06,0.26,0.21
4.080e-06,0.38,0.19
4.090e-06,0.38,0.19
4.100e-06,0.34,0.23
4.110e-06,0.3,0.19
4.120e-06,0.3,0.17
4.130e-06,0.26,0.17
4.140e-06,0.34,0.17
4.150e-06,0.3,0.13
4.160e-06,0.26,0.15
4.170e-06,0.3,0.13
4.180e-06,0.18,0.15
4.190e-06,0.26,0.17
4.200e-06,0.18,0.15
4.210e-06,0.22,0.13
4.220e-06,0.18,0.17
4.230e-06,0.22,0.15
4.240e-06,0.18,0.13
4.250e-06,0.18,0.11
4.260e-06,0.18,0.09
4.270e-06,0.14,0.11
4.280e-06,0.06,0.13
4.290e-06,0.22,0.09
4.300e-06,0.06,0.13
4.310e-06,0.14,0.07
4.320e-06,0.1,0.09
4.330e-06,0.02,0.07
4.340e-06,0.14,0.05
4.350e-06,0.02,0.07
4.360e-06,-0.02,0.07
4.370e-06,0.02,0.05
4.380e-06,0.06,0.03
4.390e-06,-0.02,0.05
4.400e-06,0.02,0.03
4.410e-06,-0.02,0.01
4.420e-06,-0.02,0.01
4.430e-06,-0.02,-0.01
4.440e-06,-0.06,0.01
4.450e-06,-0.02,-0.01
4.460e-06,-0.02,-0.01
4.470e-06,-0.1,-0.05
4.480e-06,-0.06,-0.01
4.490e-06,-0.02,-0.01
4.500e-06,-0.06,-0.01
4.510e-06,-0.1,0.01
4.520e-06,-0.1,-0.01
4.530e-06,-0.1,-0.03
4.540e-06,-0.18,-0.05
4.550e-06,-0.18,-0.05
4.560e-06,-0.1,-0.05
4.570e-06,-0.18,-0.01
4.580e-06,-0.22,-0.07
4.590e-06,-0.22,-0.07
4.600e-06,-0.22,-0.05
4.610e-06,-0.26,-0.11
4.620e-06,-0.26,-0.05
4.630e-06,-0.26,-0.07
4.640e-06,-0.14,-0.11
4.650e-06,-0.26,-0.11
4.660e-06,-0.26,-0.09
4.670e-06,-0.26,-0.11
4.680e-06,-0.26,-0.13
4.690e-06,-0.38,-0.13
4.700e-06,-0.34,-0.09
4.710e-06,-0.34,-0.15
4.720e-06,-0.34,-0.11
4.730e-06,-0.42,-0.15
4.740e-06,-0.38,-0.15
4.750e-06,-0.34,-0.15
4.760e-06,-0.38,-0.13
4.770e-06,-0.46,-0.17
4.780e-06,-0.42,-0.15
4.790e-06,-0.38,-0.17
4.800e-06,-0.42,-0.15
4.810e-06,-0.46,-0.19
4.820e-06,-0.46,-0.21
4.830e-06,-0.46,-0.17
4.840e-06,-0.5,-0.23
4.850e-06,-0.5,-0.17
4.860e-06,-0.54,-0.21
4.870e-06,-0.54,-0.21
4.880e-06,-0.5,-0.21
4.890e-06,-0.62,-0.25
4.900e-06,-0.66,-0.23
4.910e-06,-0.58,-0.23
4.920e-06,-0.62,-0.27
4.930e-06,-0.62,-0.27
4.940e-06,-0.58,-0.27
4.950e-06,-0.66,-0.29
4.960e-06,-0.58,-0.25
4.970e-06,-0.62,-0.27
4.980e-06,-0.62,-0.27
4.990e-06,-0.66,-0.29
5.000e-06,-0.74,-0.27
5.010e-06,-0.74,-0.31
5.020e-06,-0.74,-0.29
5.030e-06,-0.7,-0.33
5.040e-06,-0.74,-0.31
5.050e-06,-0.78,-0.33
5.060e-06,-0.74,-0.35
5.070e-06,-0.74,-0.33
5.080e-06,-0.86,-0.35
5.090e-06,-0.7,-0.31
5.100e-06,-0.78,-0.35
5.110e-06,-0.74,-0.35
5.120e-06,-0.78,-0.37
5.130e-06,-0.9,-0.37
5.140e-06,-0.86,-0.37
5.150e-06,-0.78,-0.37
5.160e-06,-0.82,-0.35
5.170e-06,-0.9,-0.37
5.180e-06,-0.9,-0.37
5.190e-06,-0.86,-0.41
5.200e-06,-0.94,-0.39
5.210e-06,-0.98,-0.43
5.220e-06,-0.94,-0.41
5.230e-06,-0.9,-0.41
5.240e-06,-0.98,-0.43
5.250e-06,-0.98,-0.45
5.260e-06,-0.98,-0.43
5.270e-06,-0.98,-0.41
5.280e-06,-0.98,-0.49
5.290e-06,-0.94,-0.45
5.300e-06,-1.1,-0.47
5.310e-06,-1.06,-0.49
5.320e-06,-1.06,-0.47
5.330e-06,-1.1,-0.49
5.340e-06,-1.1,-0.49
5.350e-06,-1.1,-0.51
5.360e-06,-1.02,-0.49
5.370e-06,-1.14,-0.49
5.380e-06,-1.18,-0.47
5.390e-06,-1.1,-0.53
5.400e-06,-1.14,-0.51
5.410e-06,-1.14,-0.53
5.420e-06,-1.14,-0.53
5.430e-06,-1.18,-0.53
5.440e-06,-1.14,-0.53
5.450e-06,-1.26,-0.55
5.460e-06,-1.22,-0.53
5.470e-06,-1.22,-0.53
5.480e-06,-1.22,-0.55
5.490e-06,-1.22,-0.57
5.500e-06,-1.22,-0.59
5.510e-06,-1.3,-0.59
5.520e-06,-1.3,-0.59
5.530e-06,-1.3,-0.61
5.540e-06,-1.3,-0.61
5.550e-06,-1.3,-0.61
5.560e-06,-1.3,-0.61
5.570e-06,-1.34,-0.61
5.580e-06,-1.46,-0.63
5.590e-06,-1.34,-0.61
5.600e-06,-1.34,-0.63
5.610e-06,-1.34,-0.63
5.620e-06,-1.38,-0.63
5.630e-06,-1.46,-0.63
5.640e-06,-1.42,-0.65
5.650e-06,-1.38,-0.65
5.660e-06,-1.42,-0.63
5.670e-06,-1.5,-0.65
5.680e-06,-1.5,-0.65
5.690e-06,-1.42,-0.69
5.700e-06,-1.5,-0.69
5.710e-06,-1.5,-0.69
5.720e-06,-1.54,-0.71
5.730e-06,-1.42,-0.71
5.740e-06,-1.54,-0.71
5.750e-06,-1.5,-0.71
5.760e-06,-1.58,-0.71
5.770e-06,-1.58,-0.69
5.780e-06,-1.54,-0.73
5.790e-06,-1.54,-0.75
5.800e-06,-1.66,-0.73
5.810e-06,-1.66,-0.75
5.820e-06,-1.62,-0.71
5.830e-06,-1.62,-0.75
5.840e-06,-1.62,-0.79
5.850e-06,-1.54,-0.75
5.860e-06,-1.66,-0.79
5.870e-06,-1.66,-0.75
5.880e-06,-1.74,-0.77
5.890e-06,-1.66,-0.77
5.900e-06,-1.66,-0.79
5.910e-06,-1.86,-0.81
5.920e-06,-1.82,-0.81
5.930e-06,-1.74,-0.81
5.940e-06,-1.78,-0.85
5.950e-06,-1.86,-0.83
5.960e-06,-1.82,-0.85
5.970e-06,-1.82,-0.83
5.980e-06,-1.78,-0.85
5.990e-06,-1.86,-0.85
6.000e-06,-1.82,-0.83
6.010e-06,-1.78,-0.85
6.020e-06,-1.9,-0.87
6.030e-06,-1.94,-0.87
6.040e-06,-1.98,-0.87
6.050e-06,-1.9,-0.91
6.060e-06,-1.9,-0.89
6.070e-06,-1.9,-0.91
6.080e-06,-1.94,-0.89
6.090e-06,-1.86,-0.91
6.100e-06,-1.94,-0.93
6.110e-06,-2.02,-0.91
6.120e-06,-1.94,-0.93
6.130e-06,-1.94,-0.93
6.140e-06,-1.98,-0.95
6.150e-06,-2.02,-0.93
6.160e-06,-2.02,-0.93
6.170e-06,-2.1,-0.95
6.180e-06,-2.06,-0.97
6.190e-06,-2.06,-0.97
6.200e-06,-2.06,-0.97
6.210e-06,-2.18,-0.97
6.220e-06,-2.1,-0.95
6.230e-06,-2.1,-0.97
6.240e-06,-2.22,-0.97
6.250e-06,-2.18,-1.03
6.260e-06,-2.14,-1.01
6.270e-06,-2.18,-1.01
6.280e-06,-2.22,-1.01
6.290e-06,-2.14,-1.05
6.300e-06,-2.3,-1.05
6.310e-06,-2.26,-1.03
6.320e-06,-2.18,-1.05
6.330e-06,-2.22,-1.07
6.340e-06,-2.26,-1.09
6.350e-06,-2.3,-1.07
6.360e-06,-2.3,-1.09
6.370e-06,-2.3,-1.07
6.380e-06,-2.3,-1.07
6.390e-06,-2.26,-1.07
6.400e-06,-2.38,-1.07
6.410e-06,-2.34,-1.09
6.420e-06,-2.42,-1.05
6.430e-06,-2.38,-1.09
6.440e-06,-2.3,-1.13
6.450e-06,-2.34,-1.09
6.460e-06,-2.38,-1.11
6.470e-06,-2.34,-1.11
6.480e-06,-2.46,-1.15
6.490e-06,-2.42,-1.15
6.500e-06,-2.38,-1.15
6.510e-06,-2.46,-1.17
6.520e-06,-2.54,-1.15
6.530e-06,-2.38,-1.17
6.540e-06,-2.54,-1.19
6.550e-06,-2.54,-1.17
6.560e-06,-2.54,-1.17
6.570e-06,-2.46,-1.19
6.580e-06,-2.58,-1.21
6.590e-06,-2.5,-1.19
6.600e-06,-2.58,-1.21
6.610e-06,-2.58,-1.21
6.620e-06,-2.54,-1.23
6.630e-06,-2.62,-1.23
6.640e-06,-2.58,-1.23
6.650e-06,-2.62,-1.21
6.660e-06,-2.66,-1.23
6.670e-06,-2.62,-1.25
6.680e-06,-2.66,-1.25
6.690e-06,-2.66,-1.29
6.700e-06,-2.7,-1.29
6.710e-06,-2.66,-1.27
6.720e-06,-2.7,-1.29
6.730e-06,-2.62,-1.31
6.740e-06,-2.7,-1.29
6.750e-06,-2.74,-1.29
6.760e-06,-2.74,-1.29
6.770e-06,-2.74,-1.29
6.780e-06,-2.78,-1.31
6.790e-06,-2.7,-1.29
6.800e-06,-2.78,-1.29
6.810e-06,-2.78,-1.33
6.820e-06,-2.86,-1.35
6.830e-06,-2.82,-1.33
6.840e-06,-2.78,-1.33
6.850e-06,-2.86,-1.35
6.860e-06,-2.74,-1.35
6.870e-06,-2.82,-1.37
6.880e-06,-2.86,-1.37
6.890e-06,-2.82,-1.35
6.900e-06,-2.82,-1.39
6.910e-06,-2.86,-1.39
6.920e-06,-2.82,-1.41
6.930e-06,-2.86,-1.39
6.940e-06,-2.9,-1.37
6.950e-06,-2.82,-1.39
6.960e-06,-2.78,-1.35
6.970e-06,-2.86,-1.35
6.980e-06,-2.74,-1.37
6.990e-06,-2.7,-1.33
7.000e-06,-2.86,-1.35
7.010e-06,-2.74,-1.35
7.020e-06,-2.78,-1.33
7.030e-06,-2.74,-1.33
7.040e-06,-2.78,-1.33
7.050e-06,-2.78,-1.33
7.060e-06,-2.78,-1.33
7.070e-06,-2.66,-1.33
7.080e-06,-2.62,-1.35
7.090e-06,-2.66,-1.35
7.100e-06,-2.66,-1.31
7.110e-06,-2.7,-1.33
7.120e-06,-2.7,-1.29
7.130e-06,-2.62,-1.29
7.140e-06,-2.7,-1.29
7.150e-06,-2.62,-1.33
7.160e-06,-2.62,-1.29
7.170e-06,-2.58,-1.27
7.180e-06,-2.58,-1.29
7.190e-06,-2.58,-1.23
7.200e-06,-2.54,-1.31
7.210e-06,-2.58,-1.29
7.220e-06,-2.58,-1.29
7.230e-06,-2.5,-1.25
7.240e-06,-2.5,-1.25
7.250e-06,-2.46,-1.23
7.260e-06,-2.54,-1.25
7.270e-06,-2.5,-1.23
7.280e-06,-2.5,-1.23
7.290e-06,-2.54,-1.23
7.300e-06,-2.46,-1.21
7.310e-06,-2.46,-1.23
7.320e-06,-2.34,-1.19
7.330e-06,-2.42,-1.23
7.340e-06,-2.38,-1.17
7.350e-06,-2.34,-1.19
7.360e-06,-2.38,-1.19
7.370e-06,-2.34,-1.23
7.380e-06,-2.38,-1.19
7.390e-06,-2.34,-1.15
7.400e-06,-2.38,-1.17
7.410e-06,-2.38,-1.17
7.420e-06,-2.34,-1.15
7.430e-06,-2.3,-1.15
7.440e-06,-2.38,-1.17
7.450e-06,-2.26,-1.13
7.460e-06,-2.3,-1.15
7.470e-06,-2.3,-1.13
7.480e-06,-2.22,-1.13
7.490e-06,-2.18,-1.09
7.500e-06,-2.22,-1.13
7.510e-06,-2.26,-1.11
7.520e-06,-2.18,-1.09
7.530e-06,-2.18,-1.09
7.540e-06,-2.18,-1.05
7.550e-06,-2.14,-1.11
7.560e-06,-2.18,-1.11
7.570e-06,-2.14,-1.09
7.580e-06,-2.14,-1.05
7.590e-06,-2.06,-1.07
7.600e-06,-2.06,-1.05
7.610e-06,-2.06,-1.05
7.620e-06,-2.1,-1.03
7.630e-06,-2.1,-1.03
7.640e-06,-2.02,-1.07
7.650e-06,-2.06,-1.07
7.660e-06,-2.06,-1.05
7.670e-06,-1.98,-1.05
7.680e-06,-1.98,-1.03
7.690e-06,-2.02,-1.01
7.700e-06,-1.9,-1.01
7.710e-06,-1.9,-0.99
7.720e-06,-1.94,-0.97
7.730e-06,-1.9,-1.01
7.740e-06,-1.9,-0.97
7.750e-06,-1.94,-0.95
7.760e-06,-1.86,-0.95
7.770e-06,-1.9,-0.97
7.780e-06,-1.9,-0.95
7.790e-06,-1.9,-0.93
7.800e-06,-1.78,-0.95
7.810e-06,-1.82,-0.91
7.820e-06,-1.86,-0.91
7.830e-06,-1.82,-0.93
7.840e-06,-1.9,-0.93
7.850e-06,-1.82,-0.91
7.860e-06,-1.78,-0.91
7.870e-06,-1.86,-0.91
7.880e-06,-1.78,-0.87
7.890e-06,-1.74,-0.89
