Archivos Guadalupe/Data/1410-32-X3/18-08/07-09/tek0004ALL.csv

Model,DPO3034
Firmware Version,2.16

Point Format,Y,
Horizontal Units,S,
Horizontal Scale,0.002,
Sample Interval,2e-05,
Record Length,1000,
Gating,0.0% to 100.0%,0.0% to 100.0%
Probe Attenuation,1,1
Vertical Units,V,V
Vertical Offset,0,0
Vertical Scale,0.5,0.05
Label,,
TIME,CH1,CH2
-6.280e-03,0,0.004
-6.260e-03,0,-0.004
-6.240e-03,-0.02,0.006
-6.220e-03,0,0.004
-6.200e-03,0,-0.002
-6.180e-03,0,0
-6.160e-03,-0.02,-0.004
-6.140e-03,0,-0.002
-6.120e-03,0.02,0.008
-6.100e-03,0,-0.008
-6.080e-03,0,0.002
-6.060e-03,0.02,-0.004
-6.040e-03,0,-0.008
-6.020e-03,0.06,-0.004
-6.000e-03,0.02,-0.002
-5.980e-03,0.02,0.002
-5.960e-03,0,-0.014
-5.940e-03,-0.02,-0.002
-5.920e-03,-0.06,0.002
-5.900e-03,0,0.004
-5.880e-03,-0.02,-0.002
-5.860e-03,-0.02,0.006
-5.840e-03,0,-0.004
-5.820e-03,0,-0.006
-5.800e-03,0.02,-0.006
-5.780e-03,0,0.008
-5.760e-03,0,0.008
-5.740e-03,-0.02,-0.012
-5.720e-03,0.02,0.006
-5.700e-03,0,0.012
-5.680e-03,0,-0.002
-5.660e-03,0.02,0
-5.640e-03,0,0.002
-5.620e-03,0.02,-0.004
-5.600e-03,0,0.004
-5.580e-03,-0.02,-0.052
-5.560e-03,0,-0.004
-5.540e-03,-0.02,-0.006
-5.520e-03,0,-0.004
-5.500e-03,-0.02,-0.004
-5.480e-03,-0.02,-0.01
-5.460e-03,0.04,0.004
-5.440e-03,0,0
-5.420e-03,0,-0.002
-5.400e-03,-0.02,0
-5.380e-03,0.02,0.002
-5.360e-03,-0.02,-0.002
-5.340e-03,0.02,0.002
-5.320e-03,-0.02,0.008
-5.300e-03,0,-0.002
-5.280e-03,0.02,0
-5.260e-03,0,0.018
-5.240e-03,-0.02,0
-5.220e-03,-0.02,0.002
-5.200e-03,-0.02,0.004
-5.180e-03,-0.02,-0.002
-5.160e-03,0,0.004
-5.140e-03,0.04,0.024
-5.120e-03,-0.02,-0.004
-5.100e-03,0,0
-5.080e-03,0.02,-0.004
-5.060e-03,-0.04,0.014
-5.040e-03,-0.02,0.002
-5.020e-03,0,-0.002
-5.000e-03,0.02,0.004
-4.980e-03,0.02,0
-4.960e-03,0,-0.006
-4.940e-03,0.02,-0.012
-4.920e-03,0,0
-4.900e-03,-0.04,0.004
-4.880e-03,0,-0.004
-4.860e-03,0,0.008
-4.840e-03,-0.04,0.002
-4.820e-03,0.02,-0.002
-4.800e-03,0.04,0.004
-4.780e-03,-0.02,0.01
-4.760e-03,-0.02,-0.006
-4.740e-03,0.02,0.008
-4.720e-03,-0.02,-0.004
-4.700e-03,0.02,0.004
-4.680e-03,0,0
-4.660e-03,0.02,0.012
-4.640e-03,0,0.002
-4.620e-03,0.02,0
-4.600e-03,0,0.004
-4.580e-03,0.02,-0.008
-4.560e-03,0.02,0
-4.540e-03,0.04,0.008
-4.520e-03,-0.02,-0.006
-4.500e-03,-0.02,0.004
-4.480e-03,-0.02,0.008
-4.460e-03,-0.02,0.006
-4.440e-03,0,0.004
-4.420e-03,0.02,-0.002
-4.400e-03,0.02,0.004
-4.380e-03,0,-0.008
-4.360e-03,0.02,-0.018
-4.340e-03,0,0
-4.320e-03,-0.02,-0.014
-4.300e-03,0,0
-4.280e-03,0,-0.004
-4.260e-03,0.04,0.004
-4.240e-03,0.02,0.018
-4.220e-03,0,0.002
-4.200e-03,-0.02,0.004
-4.180e-03,-0.02,0.02
-4.160e-03,-0.02,0.006
-4.140e-03,0.04,0.016
-4.120e-03,0.02,-0.006
-4.100e-03,0,-0.002
-4.080e-03,0,0.002
-4.060e-03,0.02,0.022
-4.040e-03,0,-0.002
-4.020e-03,0,-0.002
-4.000e-03,-0.02,-0.002
-3.980e-03,0.02,-0.002
-3.960e-03,0.04,-0.002
-3.940e-03,0,0.01
-3.920e-03,0,0.004
-3.900e-03,0,-0.002
-3.880e-03,0,-0.01
-3.860e-03,0.02,-0.014
-3.840e-03,0,0.016
-3.820e-03,0.02,-0.002
-3.800e-03,0.02,0.006
-3.780e-03,-0.02,0.006
-3.760e-03,0,-0.014
-3.740e-03,-0.02,0.024
-3.720e-03,0,0
-3.700e-03,0.02,-0.006
-3.680e-03,0.02,0.002
-3.660e-03,0,0.002
-3.640e-03,0.02,0.002
-3.620e-03,0.02,0
-3.600e-03,0,0.004
-3.580e-03,0.02,0.018
-3.560e-03,-0.02,0.006
-3.540e-03,-0.02,0.002
-3.520e-03,0.02,-0.002
-3.500e-03,0,0.006
-3.480e-03,0.04,0.002
-3.460e-03,0,0.008
-3.440e-03,-0.02,-0.006
-3.420e-03,-0.02,0.01
-3.400e-03,-0.02,0.014
-3.380e-03,-0.02,0
-3.360e-03,0,0.006
-3.340e-03,0.04,0.018
-3.320e-03,0,-0.004
-3.300e-03,0,-0.008
-3.280e-03,-0.02,0.006
-3.260e-03,-0.02,-0.004
-3.240e-03,-0.02,-0.006
-3.220e-03,0.02,0.004
-3.200e-03,-0.02,0.004
-3.180e-03,0,-0.002
-3.160e-03,-0.02,0.002
-3.140e-03,0,-0.002
-3.120e-03,-0.02,0.012
-3.100e-03,0.02,0.016
-3.080e-03,0,0.002
-3.060e-03,-0.02,-0.014
-3.040e-03,0,-0.004
-3.020e-03,0.02,0
-3.000e-03,-0.02,0.014
-2.980e-03,0.08,0.092
-2.960e-03,0.02,0.01
-2.940e-03,-0.02,-0.004
-2.920e-03,-0.02,0.004
-2.900e-03,0,0.002
-2.880e-03,0,0.004
-2.860e-03,0,0.004
-2.840e-03,0.02,0
-2.820e-03,0,-0.004
-2.800e-03,0.04,0.008
-2.780e-03,-0.02,0.004
-2.760e-03,-0.02,0.006
-2.740e-03,-0.02,-0.008
-2.720e-03,0.04,0.004
-2.700e-03,0,0.01
-2.680e-03,0,-0.004
-2.660e-03,-0.02,0
-2.640e-03,-0.02,-0.01
-2.620e-03,0.04,0.01
-2.600e-03,-0.02,-0.004
-2.580e-03,-0.02,0.008
-2.560e-03,0.02,0.006
-2.540e-03,0.02,-0.022
-2.520e-03,0.04,-0.002
-2.500e-03,-0.04,-0.002
-2.480e-03,0,-0.006
-2.460e-03,-0.02,0.002
-2.440e-03,0,-0.01
-2.420e-03,0,0.014
-2.400e-03,0.04,0.01
-2.380e-03,0,-0.008
-2.360e-03,0,0.004
-2.340e-03,-0.02,-0.004
-2.320e-03,0,0.014
-2.300e-03,-0.02,-0.022
-2.280e-03,0,0.004
-2.260e-03,0,0.008
-2.240e-03,0.02,0
-2.220e-03,-0.02,-0.004
-2.200e-03,0,-0.004
-2.180e-03,0.04,-0.002
-2.160e-03,-0.02,0
-2.140e-03,0.02,0.01
-2.120e-03,0,0.004
-2.100e-03,0,0
-2.080e-03,0.04,0.008
-2.060e-03,0.02,0.012
-2.040e-03,0,0.012
-2.020e-03,0,0.008
-2.000e-03,0.04,-0.006
-1.980e-03,0,-0.01
-1.960e-03,0,0.018
-1.940e-03,-0.02,-0.01
-1.920e-03,-0.04,0.006
-1.900e-03,0,0.004
-1.880e-03,0,0.01
-1.860e-03,-0.02,0
-1.840e-03,0,0.008
-1.820e-03,0.02,-0.004
-1.800e-03,0,-0.022
-1.780e-03,0,0.004
-1.760e-03,-0.04,-0.084
-1.740e-03,0,-0.012
-1.720e-03,0.02,-0.012
-1.700e-03,0.02,0
-1.680e-03,0.02,0.004
-1.660e-03,0,-0.004
-1.640e-03,0,0.028
-1.620e-03,0,0.002
-1.600e-03,0,-0.01
-1.580e-03,0.02,0.01
-1.560e-03,0.02,0.004
-1.540e-03,0,-0.008
-1.520e-03,0,0.002
-1.500e-03,0,-0.004
-1.480e-03,0,-0.004
-1.460e-03,0.02,-0.004
-1.440e-03,0.04,-0.008
-1.420e-03,0,-0.002
-1.400e-03,0.04,0.002
-1.380e-03,0,0.004
-1.360e-03,0,0.002
-1.340e-03,0.02,0.004
-1.320e-03,0.02,0.008
-1.300e-03,-0.02,-0.004
-1.280e-03,0,-0.012
-1.260e-03,0,0.002
-1.240e-03,0.02,0.01
-1.220e-03,0,-0.006
-1.200e-03,0,-0.006
-1.180e-03,-0.02,0.004
-1.160e-03,-0.02,-0.01
-1.140e-03,0.02,-0.01
-1.120e-03,-0.02,0.004
-1.100e-03,0,0.002
-1.080e-03,-0.02,-0.004
-1.060e-03,0,0.01
-1.040e-03,0.02,-0.006
-1.020e-03,0.04,0.012
-1.000e-03,0.02,0.002
-9.800e-04,0,0.01
-9.600e-04,0.02,0.004
-9.400e-04,0,0.002
-9.200e-04,-0.02,-0.022
-9.000e-04,0,0.012
-8.800e-04,0,0.002
-8.600e-04,0.02,0.002
-8.400e-04,-0.02,0.004
-8.200e-04,0,-0.004
-8.000e-04,0.04,-0.004
-7.800e-04,0,-0.006
-7.600e-04,0.02,0.004
-7.400e-04,0,0
-7.200e-04,0,-0.002
-7.000e-04,0,-0.002
-6.800e-04,0,0.004
-6.600e-04,0,0
-6.400e-04,-0.02,0.004
-6.200e-04,0,0
-6.000e-04,0,0
-5.800e-04,-0.02,0.006
-5.600e-04,0,0.012
-5.400e-04,-0.02,0.01
-5.200e-04,0.02,-0.006
-5.000e-04,0.02,-0.002
-4.800e-04,0.2,0.038
-4.600e-04,0.46,0.06
-4.400e-04,0.78,0.102
-4.200e-04,1,0.138
-4.000e-04,1.22,0.178
-3.800e-04,1.22,0.168
-3.600e-04,1.24,0.17
-3.400e-04,1.22,0.174
-3.200e-04,1.2,0.176
-3.000e-04,1.22,0.164
-2.800e-04,1.2,0.186
-2.600e-04,1.24,0.176
-2.400e-04,1.24,0.174
-2.200e-04,1.24,0.182
-2.000e-04,1.26,0.17
-1.800e-04,1.22,0.184
-1.600e-04,1.24,0.174
-1.400e-04,1.24,0.176
-1.200e-04,1.22,0.182
-1.000e-04,1.22,0.182
-8.000e-05,1.48,0.206
-6.000e-05,1.78,0.264
-4.000e-05,2.02,0.306
-2.000e-05,2.3,0.344
1.513e-17,2.64,0.402
2.000e-05,2.86,0.424
4.000e-05,3.18,0.424
6.000e-05,3.54,0.424
8.000e-05,3.78,0.424
1.000e-04,4.06,0.424
1.200e-04,4,0.424
1.400e-04,4.04,0.424
1.600e-04,4.06,0.424
1.800e-04,4.04,0.424
2.000e-04,4.04,0.424
2.200e-04,4.06,0.424
2.400e-04,4.08,0.424
2.600e-04,4.04,0.424
2.800e-04,4.06,0.424
3.000e-04,4.06,0.424
3.200e-04,4.02,0.424
3.400e-04,4.04,0.424
3.600e-04,4.06,0.424
3.800e-04,4.04,0.424
4.000e-04,4.04,0.424
4.200e-04,4.08,0.424
4.400e-04,4.04,0.424
4.600e-04,4.02,0.424
4.800e-04,4.04,0.424
5.000e-04,4.04,0.424
5.200e-04,3.76,0.424
5.400e-04,3.54,0.424
5.600e-04,3.26,0.424
5.800e-04,2.92,0.424
6.000e-04,2.7,0.424
6.200e-04,2.4,0.376
6.400e-04,2.06,0.322
6.600e-04,1.8,0.282
6.800e-04,1.56,0.238
7.000e-04,1.32,0.2
7.200e-04,1.2,0.19
7.400e-04,1.24,0.184
7.600e-04,1.24,0.186
7.800e-04,1.22,0.188
8.000e-04,1.22,0.184
8.200e-04,1.26,0.182
8.400e-04,1.24,0.192
8.600e-04,1.24,0.176
8.800e-04,1.22,0.178
9.000e-04,1.18,0.176
9.200e-04,1.2,0.188
9.400e-04,1.22,0.184
9.600e-04,1.24,0.18
9.800e-04,1.26,0.18
1.000e-03,1.22,0.17
1.020e-03,1.22,0.186
1.040e-03,1.22,0.178
1.060e-03,1.24,0.186
1.080e-03,1.26,0.188
1.100e-03,1.24,0.18
1.120e-03,1.2,0.18
1.140e-03,1.26,0.18
1.160e-03,1.2,0.176
1.180e-03,1.2,0.182
1.200e-03,1.22,0.184
1.220e-03,1.22,0.176
1.240e-03,1.2,0.184
1.260e-03,1.24,0.184
1.280e-03,1.22,0.184
1.300e-03,1.24,0.176
1.320e-03,1.26,0.184
1.340e-03,1.22,0.178
1.360e-03,1.24,0.174
1.380e-03,1.22,0.176
1.400e-03,1.24,0.182
1.420e-03,1.22,0.176
1.440e-03,1.22,0.186
1.460e-03,1.22,0.184
1.480e-03,1.24,0.19
1.500e-03,1.22,0.18
1.520e-03,1.2,0.174
1.540e-03,1.24,0.178
1.560e-03,1.22,0.186
1.580e-03,1.2,0.178
1.600e-03,1.22,0.18
1.620e-03,1.22,0.19
1.640e-03,1.22,0.186
1.660e-03,1.24,0.176
1.680e-03,1.24,0.18
1.700e-03,1.2,0.18
1.720e-03,1.24,0.176
1.740e-03,1.22,0.17
1.760e-03,1.22,0.178
1.780e-03,1.22,0.186
1.800e-03,1.2,0.188
1.820e-03,1.22,0.184
1.840e-03,1.2,0.19
1.860e-03,1.26,0.184
1.880e-03,1.24,0.182
1.900e-03,1.24,0.176
1.920e-03,1.22,0.186
1.940e-03,1.2,0.184
1.960e-03,1.2,0.188
1.980e-03,1.22,0.186
2.000e-03,1.24,0.186
2.020e-03,1.2,0.176
2.040e-03,1.22,0.184
2.060e-03,1.24,0.186
2.080e-03,1.22,0.182
2.100e-03,1.22,0.186
2.120e-03,1.22,0.19
2.140e-03,1.24,0.148
2.160e-03,1.22,0.17
2.180e-03,1.2,0.182
2.200e-03,1.2,0.178
2.220e-03,1.22,0.186
2.240e-03,1.22,0.178
2.260e-03,1.24,0.18
2.280e-03,1.28,0.176
2.300e-03,1.2,0.196
2.320e-03,1.2,0.174
2.340e-03,1.22,0.18
2.360e-03,1.22,0.176
2.380e-03,1.22,0.192
2.400e-03,1.2,0.184
2.420e-03,1.26,0.184
2.440e-03,1.24,0.174
2.460e-03,1.22,0.174
2.480e-03,1.22,0.176
2.500e-03,1.2,0.18
2.520e-03,1.22,0.184
2.540e-03,1.24,0.186
2.560e-03,1.22,0.186
2.580e-03,1.2,0.172
2.600e-03,1.22,0.186
2.620e-03,1.24,0.182
2.640e-03,1.22,0.18
2.660e-03,1.2,0.196
2.680e-03,1.22,0.18
2.700e-03,1.2,0.184
2.720e-03,1.22,0.18
2.740e-03,1.2,0.182
2.760e-03,1.24,0.176
2.780e-03,1.22,0.184
2.800e-03,1.22,0.182
2.820e-03,1.22,0.184
2.840e-03,1.22,0.188
2.860e-03,1.18,0.176
2.880e-03,1.24,0.184
2.900e-03,1.22,0.194
2.920e-03,1.22,0.182
2.940e-03,1.24,0.184
2.960e-03,1.22,0.186
2.980e-03,1.22,0.188
3.000e-03,1.2,0.186
3.020e-03,1.2,0.176
3.040e-03,1.22,0.178
3.060e-03,1.22,0.178
3.080e-03,1.22,0.182
3.100e-03,1.2,0.178
3.120e-03,1.24,0.184
3.140e-03,1.22,0.18
3.160e-03,1.22,0.176
3.180e-03,1.2,0.184
3.200e-03,1.24,0.178
3.220e-03,1.22,0.184
3.240e-03,1.22,0.188
3.260e-03,1.2,0.182
3.280e-03,1.24,0.184
3.300e-03,1.22,0.178
3.320e-03,1.26,0.184
3.340e-03,1.2,0.184
3.360e-03,1.2,0.184
3.380e-03,1.2,0.184
3.400e-03,1.22,0.182
3.420e-03,1.22,0.182
3.440e-03,1.2,0.186
3.460e-03,1.2,0.188
3.480e-03,1.22,0.178
3.500e-03,1.24,0.176
3.520e-03,1.2,0.182
3.540e-03,1.2,0.172
3.560e-03,1.2,0.174
3.580e-03,1.22,0.18
3.600e-03,1.24,0.19
3.620e-03,1.22,0.182
3.640e-03,1.22,0.186
3.660e-03,1.24,0.184
3.680e-03,1.2,0.184
3.700e-03,1.26,0.172
3.720e-03,1.22,0.184
3.740e-03,1.24,0.184
3.760e-03,1.22,0.176
3.780e-03,1.22,0.178
3.800e-03,1.24,0.19
3.820e-03,1.2,0.186
3.840e-03,1.22,0.184
3.860e-03,1.22,0.188
3.880e-03,1.22,0.168
3.900e-03,1.22,0.178
3.920e-03,1.24,0.18
3.940e-03,1.24,0.18
3.960e-03,1.22,0.184
3.980e-03,1.2,0.18
4.000e-03,1.22,0.178
4.020e-03,1.22,0.178
4.040e-03,1.26,0.22
4.060e-03,1.22,0.186
4.080e-03,1.2,0.182
4.100e-03,1.22,0.176
4.120e-03,1.24,0.19
4.140e-03,1.18,0.176
4.160e-03,1.2,0.176
4.180e-03,1.22,0.192
4.200e-03,1.22,0.172
4.220e-03,1.24,0.176
4.240e-03,1.22,0.184
4.260e-03,1.18,0.178
4.280e-03,1.2,0.188
4.300e-03,1.22,0.176
4.320e-03,1.22,0.18
4.340e-03,1.22,0.172
4.360e-03,1.22,0.166
4.380e-03,1.22,0.19
4.400e-03,1.26,0.176
4.420e-03,1.2,0.176
4.440e-03,1.22,0.18
4.460e-03,1.18,0.176
4.480e-03,1.22,0.18
4.500e-03,1.2,0.188
4.520e-03,1.2,0.172
4.540e-03,1.22,0.184
4.560e-03,1.22,0.182
4.580e-03,1.24,0.178
4.600e-03,1.22,0.182
4.620e-03,1.22,0.182
4.640e-03,1.22,0.186
4.660e-03,1.22,0.192
4.680e-03,1.18,0.176
4.700e-03,1.22,0.186
4.720e-03,1.24,0.178
4.740e-03,1.2,0.174
4.760e-03,1.22,0.182
4.780e-03,1.22,0.176
4.800e-03,1.22,0.19
4.820e-03,1.24,0.156
4.840e-03,1.24,0.174
4.860e-03,1.18,0.18
4.880e-03,1.22,0.174
4.900e-03,1.22,0.2
4.920e-03,1.26,0.178
4.940e-03,1.2,0.192
4.960e-03,1.2,0.184
4.980e-03,1.34,0.324
5.000e-03,1.18,0.178
5.020e-03,1.2,0.21
5.040e-03,1.2,0.192
5.060e-03,1.22,0.18
5.080e-03,1.22,0.186
5.100e-03,1.22,0.184
5.120e-03,1.26,0.186
5.140e-03,1.2,0.194
5.160e-03,1.24,0.182
5.180e-03,1.22,0.186
5.200e-03,1.2,0.19
5.220e-03,1.2,0.178
5.240e-03,1.22,0.174
5.260e-03,1.22,0.182
5.280e-03,1.18,0.178
5.300e-03,1.24,0.172
5.320e-03,1.22,0.186
5.340e-03,1.22,0.194
5.360e-03,1.22,0.18
5.380e-03,1.22,0.2
5.400e-03,1.24,0.196
5.420e-03,1.22,0.178
5.440e-03,1.22,0.18
5.460e-03,1.26,0.184
5.480e-03,1.2,0.192
5.500e-03,1.24,0.188
5.520e-03,1.26,0.18
5.540e-03,1.22,0.194
5.560e-03,1.22,0.196
5.580e-03,1.2,0.19
5.600e-03,1.22,0.18
5.620e-03,1.22,0.186
5.640e-03,1.24,0.188
5.660e-03,1.22,0.186
5.680e-03,1.22,0.19
5.700e-03,1.2,0.184
5.720e-03,1.2,0.174
5.740e-03,1.22,0.182
5.760e-03,1.22,0.196
5.780e-03,1.22,0.192
5.800e-03,1.26,0.188
5.820e-03,1.22,0.186
5.840e-03,1.22,0.178
5.860e-03,1.22,0.176
5.880e-03,1.22,0.184
5.900e-03,1.22,0.186
5.920e-03,1.24,0.184
5.940e-03,1.22,0.186
5.960e-03,1.24,0.196
5.980e-03,1.2,0.184
6.000e-03,1.22,0.196
6.020e-03,1.24,0.19
6.040e-03,1.24,0.19
6.060e-03,1.22,0.18
6.080e-03,1.22,0.184
6.100e-03,1.2,0.186
6.120e-03,1.24,0.186
6.140e-03,1.22,0.196
6.160e-03,1.24,0.2
6.180e-03,1.2,0.18
6.200e-03,1.24,0.212
6.220e-03,1.2,0.184
6.240e-03,1.22,0.176
6.260e-03,1.22,0.186
6.280e-03,1.24,0.144
6.300e-03,1.22,0.184
6.320e-03,1.2,0.172
6.340e-03,1.22,0.184
6.360e-03,1.22,0.158
6.380e-03,1.2,0.182
6.400e-03,1.2,0.188
6.420e-03,1.24,0.21
6.440e-03,1.22,0.174
6.460e-03,1.26,0.186
6.480e-03,1.24,0.194
6.500e-03,1.22,0.18
6.520e-03,1.24,0.18
6.540e-03,1.24,0.186
6.560e-03,1.26,0.188
6.580e-03,1.22,0.202
6.600e-03,1.22,0.17
6.620e-03,1.24,0.172
6.640e-03,1.22,0.206
6.660e-03,1.22,0.178
6.680e-03,1.24,0.192
6.700e-03,1.22,0.188
6.720e-03,1.18,0.164
6.740e-03,1.22,0.178
6.760e-03,1.24,0.182
6.780e-03,1.2,0.18
6.800e-03,1.22,0.184
6.820e-03,1.2,0.182
6.840e-03,1.22,0.17
6.860e-03,1.22,0.184
6.880e-03,1.22,0.196
6.900e-03,1.24,0.184
6.920e-03,1.22,0.172
6.940e-03,1.24,0.184
6.960e-03,1.2,0.176
6.980e-03,1.22,0.192
7.000e-03,1.22,0.176
7.020e-03,1.22,0.19
7.040e-03,1.2,0.178
7.060e-03,1.24,0.192
7.080e-03,1.22,0.186
7.100e-03,1.2,0.186
7.120e-03,1.24,0.194
7.140e-03,1.26,0.192
7.160e-03,1.24,0.178
7.180e-03,1.24,0.184
7.200e-03,1.22,0.182
7.220e-03,1.2,0.186
7.240e-03,1.26,0.182
7.260e-03,1.2,0.184
7.280e-03,1.2,0.196
7.300e-03,1.22,0.172
7.320e-03,1.24,0.186
7.340e-03,1.24,0.194
7.360e-03,1.24,0.19
7.380e-03,1.2,0.176
7.400e-03,1.22,0.184
7.420e-03,1.24,0.176
7.440e-03,1.2,0.172
7.460e-03,1.22,0.172
7.480e-03,1.2,0.17
7.500e-03,1.24,0.22
7.520e-03,1.22,0.176
7.540e-03,1.22,0.19
7.560e-03,1.24,0.19
7.580e-03,1.2,0.18
7.600e-03,1.24,0.174
7.620e-03,1.2,0.162
7.640e-03,1.22,0.188
7.660e-03,1.24,0.188
7.680e-03,1.24,0.178
7.700e-03,1.26,0.186
7.720e-03,1.22,0.192
7.740e-03,1.22,0.19
7.760e-03,1.22,0.19
7.780e-03,1.18,0.188
7.800e-03,1.2,0.17
7.820e-03,1.24,0.196
7.840e-03,1.22,0.176
7.860e-03,1.22,0.172
7.880e-03,1.22,0.184
7.900e-03,1.24,0.17
7.920e-03,1.26,0.19
7.940e-03,1.18,0.168
7.960e-03,1.22,0.188
7.980e-03,1.22,0.182
8.000e-03,1.2,0.184
8.020e-03,1.24,0.18
8.040e-03,1.22,0.186
8.060e-03,1.22,0.18
8.080e-03,1.26,0.176
8.100e-03,1.24,0.17
8.120e-03,1.22,0.17
8.140e-03,1.22,0.194
8.160e-03,1.2,0.182
8.180e-03,1.22,0.196
8.200e-03,1.22,0.162
8.220e-03,1.2,0.182
8.240e-03,1.24,0.176
8.260e-03,1.22,0.176
8.280e-03,1.2,0.174
8.300e-03,1.22,0.182
8.320e-03,1.22,0.182
8.340e-03,1.24,0.182
8.360e-03,1.26,0.184
8.380e-03,1.22,0.18
8.400e-03,1.22,0.172
8.420e-03,1.22,0.18
8.440e-03,1.24,0.194
8.460e-03,1.2,0.188
8.480e-03,1.16,0.184
8.500e-03,1.22,0.18
8.520e-03,1.24,0.196
8.540e-03,1.22,0.182
8.560e-03,1.2,0.186
8.580e-03,1.24,0.18
8.600e-03,1.2,0.176
8.620e-03,1.22,0.176
8.640e-03,1.24,0.174
8.660e-03,1.18,0.186
8.680e-03,1.22,0.186
8.700e-03,1.24,0.174
8.720e-03,1.26,0.18
8.740e-03,1.22,0.172
8.760e-03,1.22,0.18
8.780e-03,1.26,0.184
8.800e-03,1.22,0.174
8.820e-03,1.22,0.182
8.840e-03,1.24,0.184
8.860e-03,1.24,0.184
8.880e-03,1.22,0.124
8.900e-03,1.22,0.192
8.920e-03,1.24,0.172
8.940e-03,1.22,0.186
8.960e-03,1.2,0.146
8.980e-03,1.22,0.182
9.000e-03,1.22,0.212
9.020e-03,1.22,0.186
9.040e-03,1.22,0.182
9.060e-03,1.22,0.174
9.080e-03,1.22,0.176
9.100e-03,1.22,0.176
9.120e-03,1.22,0.182
9.140e-03,1.2,0.184
9.160e-03,1.2,0.178
9.180e-03,1.24,0.172
9.200e-03,1.22,0.18
9.220e-03,1.2,0.176
9.240e-03,1.22,0.16
9.260e-03,1.22,0.178
9.280e-03,1.22,0.184
9.300e-03,1.24,0.186
9.320e-03,1.24,0.2
9.340e-03,1.24,0.186
9.360e-03,1.26,0.19
9.380e-03,1.22,0.172
9.400e-03,1.22,0.18
9.420e-03,1.22,0.194
9.440e-03,1.24,0.178
9.460e-03,1.22,0.182
9.480e-03,1.26,0.176
9.500e-03,1.24,0.184
9.520e-03,1.24,0.184
9.540e-03,1.24,0.18
9.560e-03,1.24,0.186
9.580e-03,1.2,0.178
9.600e-03,1.22,0.174
9.620e-03,1.22,0.178
9.640e-03,1.2,0.184
9.660e-03,1.22,0.174
9.680e-03,1.24,0.176
9.700e-03,1.2,0.186
9.720e-03,1.22,0.17
9.740e-03,1.22,0.188
9.760e-03,1.26,0.17
9.780e-03,1.22,0.182
9.800e-03,1.22,0.188
9.820e-03,1.22,0.194
9.840e-03,1.24,0.174
9.860e-03,1.24,0.176
9.880e-03,1.22,0.19
9.900e-03,1.22,0.178
9.920e-03,1.22,0.184
9.940e-03,1.24,0.184
9.960e-03,1.24,0.178
9.980e-03,1.24,0.184
1.000e-02,1.24,0.174
1.002e-02,1.22,0.182
1.004e-02,1.22,0.178
1.006e-02,1.2,0.184
1.008e-02,1.24,0.174
1.010e-02,1.2,0.176
1.012e-02,1.2,0.182
1.014e-02,1.22,0.186
1.016e-02,1.22,0.18
1.018e-02,1.2,0.182
1.020e-02,1.22,0.184
1.022e-02,1.22,0.174
1.024e-02,1.22,0.192
1.026e-02,1.22,0.188
1.028e-02,1.22,0.184
1.030e-02,1.22,0.186
1.032e-02,1.2,0.17
1.034e-02,1.22,0.19
1.036e-02,1.2,0.176
1.038e-02,1.22,0.186
1.040e-02,1.22,0.18
1.042e-02,1.24,0.182
1.044e-02,1.24,0.186
1.046e-02,1.22,0.182
1.048e-02,1.2,0.182
1.050e-02,1.22,0.182
1.052e-02,1.22,0.194
1.054e-02,1.22,0.184
1.056e-02,1.22,0.192
1.058e-02,1.22,0.176
1.060e-02,1.2,0.184
1.062e-02,1.24,0.184
1.064e-02,1.26,0.182
1.066e-02,1.2,0.174
1.068e-02,1.24,0.178
1.070e-02,1.22,0.184
1.072e-02,1.2,0.18
1.074e-02,1.24,0.174
1.076e-02,1.22,0.18
1.078e-02,1.26,0.19
1.080e-02,1.24,0.186
1.082e-02,1.24,0.188
1.084e-02,1.2,0.188
1.086e-02,1.2,0.182
1.088e-02,1.22,0.18
1.090e-02,1.24,0.182
1.092e-02,1.2,0.188
1.094e-02,1.22,0.186
1.096e-02,1.2,0.182
1.098e-02,1.24,0.186
1.100e-02,1.22,0.174
1.102e-02,1.24,0.182
1.104e-02,1.24,0.182
1.106e-02,1.2,0.182
1.108e-02,1.22,0.188
1.110e-02,1.24,0.182
1.112e-02,1.22,0.178
1.114e-02,1.24,0.18
1.116e-02,1.22,0.182
1.118e-02,1.24,0.186
1.120e-02,1.22,0.188
1.122e-02,1.22,0.174
1.124e-02,1.24,0.172
1.126e-02,1.22,0.182
1.128e-02,1.22,0.18
1.130e-02,1.2,0.178
1.132e-02,1.22,0.186
1.134e-02,1.2,0.178
1.136e-02,1.2,0.196
1.138e-02,1.22,0.186
1.140e-02,1.22,0.182
1.142e-02,1.24,0.182
1.144e-02,1.22,0.182
1.146e-02,1.26,0.176
1.148e-02,1.22,0.176
1.150e-02,1.24,0.182
1.152e-02,1.2,0.182
1.154e-02,1.22,0.188
1.156e-02,1.2,0.174
1.158e-02,1.26,0.192
1.160e-02,1.22,0.18
1.162e-02,1.22,0.184
1.164e-02,1.2,0.172
1.166e-02,1.24,0.186
1.168e-02,1.24,0.186
1.170e-02,1.24,0.18
1.172e-02,1.22,0.182
1.174e-02,1.24,0.19
1.176e-02,1.22,0.178
1.178e-02,1.26,0.182
1.180e-02,1.24,0.174
1.182e-02,1.24,0.18
1.184e-02,1.24,0.17
1.186e-02,1.24,0.192
1.188e-02,1.22,0.178
1.190e-02,1.22,0.176
1.192e-02,1.22,0.184
1.194e-02,1.22,0.182
1.196e-02,1.24,0.182
1.198e-02,1.22,0.186
1.200e-02,1.2,0.18
1.202e-02,1.24,0.188
1.204e-02,1.24,0.186
1.206e-02,1.22,0.184
1.208e-02,1.22,0.164
1.210e-02,1.24,0.174
1.212e-02,1.22,0.18
1.214e-02,1.24,0.178
1.216e-02,1.22,0.172
1.218e-02,1.24,0.18
1.220e-02,1.26,0.174
1.222e-02,1.26,0.166
1.224e-02,1.24,0.18
1.226e-02,1.2,0.192
1.228e-02,1.26,0.19
1.230e-02,1.22,0.196
1.232e-02,1.22,0.186
1.234e-02,1.2,0.178
1.236e-02,1.26,0.174
1.238e-02,1.22,0.178
1.240e-02,1.24,0.184
1.242e-02,1.26,0.18
1.244e-02,1.24,0.176
1.246e-02,1.24,0.18
1.248e-02,1.22,0.172
1.250e-02,1.22,0.172
1.252e-02,1.2,0.178
1.254e-02,1.22,0.178
1.256e-02,1.2,0.184
1.258e-02,1.24,0.176
1.260e-02,1.24,0.184
1.262e-02,1.22,0.19
1.264e-02,1.22,0.19
1.266e-02,1.24,0.178
1.268e-02,1.24,0.174
1.270e-02,1.24,0.18
