Archivos Guadalupe/Data/1410-32-X3/18-08/07-09/tek0005ALL.csv

Model,DPO3034
Firmware Version,2.16

Point Format,Y,
Horizontal Units,S,
Horizontal Scale,0.002,
Sample Interval,2e-05,
Record Length,1000,
Gating,0.0% to 100.0%,0.0% to 100.0%
Probe Attenuation,1,1
Vertical Units,V,V
Vertical Offset,0,0
Vertical Scale,0.5,0.05
Label,,
TIME,CH1,CH2
-8.400e-04,0.02,-0.004
-8.200e-04,0.02,-0.002
-8.000e-04,0,0.002
-7.800e-04,-0.02,-0.008
-7.600e-04,0,0.002
-7.400e-04,0,-0.022
-7.200e-04,-0.02,0
-7.000e-04,0,0.002
-6.800e-04,0,-0.004
-6.600e-04,0,-0.002
-6.400e-04,-0.02,-0.004
-6.200e-04,-0.04,0
-6.000e-04,-0.02,-0.002
-5.800e-04,-0.02,0
-5.600e-04,0.02,0.014
-5.400e-04,-0.02,-0.016
-5.200e-04,0,-0.008
-5.000e-04,-0.02,0.006
-4.800e-04,0,-0.01
-4.600e-04,0.18,0.02
-4.400e-04,0.44,0.052
-4.200e-04,0.82,0.118
-4.000e-04,1.08,0.162
-3.800e-04,1.36,0.198
-3.600e-04,1.46,0.19
-3.400e-04,1.4,0.192
-3.200e-04,1.44,0.206
-3.000e-04,1.4,0.2
-2.800e-04,1.44,0.216
-2.600e-04,1.42,0.208
-2.400e-04,1.4,0.196
-2.200e-04,1.42,0.204
-2.000e-04,1.46,0.202
-1.800e-04,1.44,0.202
-1.600e-04,1.42,0.218
-1.400e-04,1.42,0.184
-1.200e-04,1.42,0.2
-1.000e-04,1.42,0.212
-8.000e-05,1.42,0.198
-6.000e-05,1.64,0.246
-4.000e-05,1.96,0.298
-2.000e-05,2.26,0.342
2.121e-18,2.54,0.37
2.000e-05,2.98,0.424
4.000e-05,3.3,0.424
6.000e-05,3.58,0.424
8.000e-05,4,0.424
1.000e-04,4.24,0.424
1.200e-04,4.24,0.424
1.400e-04,4.24,0.424
1.600e-04,4.24,0.424
1.800e-04,4.24,0.424
2.000e-04,4.24,0.424
2.200e-04,4.24,0.424
2.400e-04,4.24,0.424
2.600e-04,4.24,0.424
2.800e-04,4.24,0.424
3.000e-04,4.24,0.424
3.200e-04,4.24,0.424
3.400e-04,4.24,0.424
3.600e-04,4.24,0.424
3.800e-04,4.24,0.424
4.000e-04,4.24,0.424
4.200e-04,4.24,0.424
4.400e-04,4.24,0.424
4.600e-04,4.24,0.424
4.800e-04,4.24,0.424
5.000e-04,4.24,0.424
5.200e-04,4.24,0.424
5.400e-04,4.24,0.424
5.600e-04,4.2,0.424
5.800e-04,3.82,0.424
6.000e-04,3.52,0.424
6.200e-04,3.18,0.424
6.400e-04,2.92,0.424
6.600e-04,2.52,0.404
6.800e-04,2.22,0.346
7.000e-04,1.92,0.318
7.200e-04,1.64,0.256
7.400e-04,1.42,0.212
7.600e-04,1.46,0.21
7.800e-04,1.46,0.22
8.000e-04,1.44,0.222
8.200e-04,1.42,0.226
8.400e-04,1.48,0.226
8.600e-04,1.42,0.212
8.800e-04,1.48,0.216
9.000e-04,1.42,0.222
9.200e-04,1.44,0.23
9.400e-04,1.46,0.212
9.600e-04,1.42,0.22
9.800e-04,1.42,0.214
1.000e-03,1.44,0.216
1.020e-03,1.42,0.222
1.040e-03,1.44,0.212
1.060e-03,1.44,0.218
1.080e-03,1.42,0.228
1.100e-03,1.46,0.226
1.120e-03,1.44,0.226
1.140e-03,1.44,0.214
1.160e-03,1.44,0.216
1.180e-03,1.46,0.206
1.200e-03,1.42,0.226
1.220e-03,1.46,0.222
1.240e-03,1.42,0.224
1.260e-03,1.42,0.21
1.280e-03,1.42,0.216
1.300e-03,1.44,0.21
1.320e-03,1.46,0.218
1.340e-03,1.42,0.208
1.360e-03,1.42,0.204
1.380e-03,1.44,0.224
1.400e-03,1.42,0.214
1.420e-03,1.44,0.208
1.440e-03,1.42,0.21
1.460e-03,1.42,0.218
1.480e-03,1.42,0.228
1.500e-03,1.42,0.216
1.520e-03,1.42,0.228
1.540e-03,1.42,0.222
1.560e-03,1.42,0.218
1.580e-03,1.46,0.21
1.600e-03,1.42,0.23
1.620e-03,1.44,0.22
1.640e-03,1.44,0.222
1.660e-03,1.42,0.216
1.680e-03,1.42,0.22
1.700e-03,1.44,0.22
1.720e-03,1.46,0.218
1.740e-03,1.42,0.224
1.760e-03,1.44,0.208
1.780e-03,1.44,0.22
1.800e-03,1.44,0.222
1.820e-03,1.42,0.22
1.840e-03,1.4,0.21
1.860e-03,1.42,0.218
1.880e-03,1.42,0.232
1.900e-03,1.42,0.224
1.920e-03,1.42,0.214
1.940e-03,1.46,0.214
1.960e-03,1.42,0.21
1.980e-03,1.44,0.218
2.000e-03,1.44,0.216
2.020e-03,1.44,0.228
2.040e-03,1.42,0.216
2.060e-03,1.44,0.22
2.080e-03,1.44,0.22
2.100e-03,1.4,0.216
2.120e-03,1.42,0.228
2.140e-03,1.44,0.216
2.160e-03,1.42,0.214
2.180e-03,1.42,0.216
2.200e-03,1.44,0.218
2.220e-03,1.42,0.216
2.240e-03,1.42,0.212
2.260e-03,1.44,0.212
2.280e-03,1.42,0.216
2.300e-03,1.38,0.222
2.320e-03,1.44,0.218
2.340e-03,1.42,0.212
2.360e-03,1.44,0.218
2.380e-03,1.46,0.222
2.400e-03,1.46,0.222
2.420e-03,1.42,0.22
2.440e-03,1.44,0.224
2.460e-03,1.44,0.214
2.480e-03,1.42,0.216
2.500e-03,1.42,0.2
2.520e-03,1.44,0.216
2.540e-03,1.42,0.216
2.560e-03,1.42,0.216
2.580e-03,1.4,0.22
2.600e-03,1.46,0.212
2.620e-03,1.44,0.216
2.640e-03,1.42,0.222
2.660e-03,1.42,0.22
2.680e-03,1.4,0.208
2.700e-03,1.44,0.216
2.720e-03,1.42,0.224
2.740e-03,1.46,0.21
2.760e-03,1.44,0.214
2.780e-03,1.42,0.228
2.800e-03,1.42,0.214
2.820e-03,1.44,0.216
2.840e-03,1.38,0.222
2.860e-03,1.42,0.214
2.880e-03,1.42,0.214
2.900e-03,1.42,0.214
2.920e-03,1.42,0.224
2.940e-03,1.46,0.218
2.960e-03,1.4,0.21
2.980e-03,1.44,0.218
3.000e-03,1.42,0.226
3.020e-03,1.42,0.216
3.040e-03,1.42,0.212
3.060e-03,1.42,0.218
3.080e-03,1.42,0.22
3.100e-03,1.42,0.214
3.120e-03,1.42,0.214
3.140e-03,1.42,0.218
3.160e-03,1.4,0.218
3.180e-03,1.42,0.22
3.200e-03,1.46,0.216
3.220e-03,1.42,0.214
3.240e-03,1.42,0.214
3.260e-03,1.44,0.218
3.280e-03,1.46,0.216
3.300e-03,1.42,0.224
3.320e-03,1.38,0.216
3.340e-03,1.42,0.222
3.360e-03,1.4,0.216
3.380e-03,1.44,0.218
3.400e-03,1.42,0.208
3.420e-03,1.42,0.212
3.440e-03,1.42,0.218
3.460e-03,1.46,0.218
3.480e-03,1.44,0.222
3.500e-03,1.44,0.226
3.520e-03,1.42,0.228
3.540e-03,1.38,0.218
3.560e-03,1.44,0.224
3.580e-03,1.42,0.214
3.600e-03,1.42,0.21
3.620e-03,1.42,0.208
3.640e-03,1.42,0.224
3.660e-03,1.42,0.228
3.680e-03,1.44,0.218
3.700e-03,1.42,0.21
3.720e-03,1.42,0.224
3.740e-03,1.44,0.216
3.760e-03,1.42,0.222
3.780e-03,1.44,0.22
3.800e-03,1.42,0.216
3.820e-03,1.42,0.228
3.840e-03,1.44,0.226
3.860e-03,1.42,0.212
3.880e-03,1.46,0.226
3.900e-03,1.44,0.232
3.920e-03,1.42,0.218
3.940e-03,1.42,0.214
3.960e-03,1.42,0.214
3.980e-03,1.42,0.212
4.000e-03,1.44,0.216
4.020e-03,1.4,0.214
4.040e-03,1.46,0.22
4.060e-03,1.44,0.218
4.080e-03,1.36,0.216
4.100e-03,1.42,0.208
4.120e-03,1.44,0.222
4.140e-03,1.42,0.218
4.160e-03,1.44,0.222
4.180e-03,1.44,0.222
4.200e-03,1.46,0.226
4.220e-03,1.44,0.222
4.240e-03,1.42,0.182
4.260e-03,1.44,0.216
4.280e-03,1.4,0.206
4.300e-03,1.42,0.218
4.320e-03,1.42,0.214
4.340e-03,1.44,0.21
4.360e-03,1.44,0.212
4.380e-03,1.42,0.22
4.400e-03,1.42,0.226
4.420e-03,1.42,0.216
4.440e-03,1.42,0.216
4.460e-03,1.42,0.214
4.480e-03,1.46,0.218
4.500e-03,1.4,0.22
4.520e-03,1.42,0.214
4.540e-03,1.44,0.21
4.560e-03,1.42,0.216
4.580e-03,1.44,0.226
4.600e-03,1.44,0.218
4.620e-03,1.4,0.226
4.640e-03,1.42,0.228
4.660e-03,1.42,0.222
4.680e-03,1.44,0.222
4.700e-03,1.46,0.214
4.720e-03,1.42,0.218
4.740e-03,1.46,0.212
4.760e-03,1.44,0.22
4.780e-03,1.4,0.212
4.800e-03,1.44,0.22
4.820e-03,1.42,0.206
4.840e-03,1.42,0.224
4.860e-03,1.44,0.218
4.880e-03,1.44,0.222
4.900e-03,1.42,0.218
4.920e-03,1.42,0.218
4.940e-03,1.42,0.22
4.960e-03,1.44,0.222
4.980e-03,1.42,0.22
5.000e-03,1.46,0.218
5.020e-03,1.44,0.224
5.040e-03,1.42,0.22
5.060e-03,1.42,0.218
5.080e-03,1.46,0.232
5.100e-03,1.44,0.218
5.120e-03,1.42,0.228
5.140e-03,1.42,0.22
5.160e-03,1.42,0.224
5.180e-03,1.42,0.224
5.200e-03,1.42,0.218
5.220e-03,1.42,0.22
5.240e-03,1.44,0.214
5.260e-03,1.42,0.222
5.280e-03,1.4,0.222
5.300e-03,1.44,0.21
5.320e-03,1.42,0.21
5.340e-03,1.42,0.214
5.360e-03,1.44,0.214
5.380e-03,1.46,0.224
5.400e-03,1.44,0.21
5.420e-03,1.44,0.216
5.440e-03,1.42,0.22
5.460e-03,1.4,0.212
5.480e-03,1.44,0.214
5.500e-03,1.48,0.216
5.520e-03,1.42,0.212
5.540e-03,1.42,0.22
5.560e-03,1.42,0.212
5.580e-03,1.42,0.212
5.600e-03,1.46,0.222
5.620e-03,1.44,0.218
5.640e-03,1.44,0.214
5.660e-03,1.44,0.216
5.680e-03,1.44,0.218
5.700e-03,1.42,0.216
5.720e-03,1.42,0.222
5.740e-03,1.46,0.216
5.760e-03,1.44,0.216
5.780e-03,1.46,0.208
5.800e-03,1.42,0.222
5.820e-03,1.44,0.216
5.840e-03,1.44,0.206
5.860e-03,1.42,0.22
5.880e-03,1.42,0.22
5.900e-03,1.42,0.206
5.920e-03,1.44,0.218
5.940e-03,1.4,0.216
5.960e-03,1.4,0.218
5.980e-03,1.42,0.224
6.000e-03,1.42,0.222
6.020e-03,1.42,0.22
6.040e-03,1.42,0.204
6.060e-03,1.42,0.222
6.080e-03,1.46,0.222
6.100e-03,1.42,0.228
6.120e-03,1.44,0.216
6.140e-03,1.44,0.206
6.160e-03,1.42,0.224
6.180e-03,1.42,0.206
6.200e-03,1.44,0.222
6.220e-03,1.46,0.208
6.240e-03,1.4,0.216
6.260e-03,1.42,0.222
6.280e-03,1.42,0.218
6.300e-03,1.42,0.22
6.320e-03,1.44,0.222
6.340e-03,1.44,0.216
6.360e-03,1.42,0.226
6.380e-03,1.42,0.214
6.400e-03,1.42,0.216
6.420e-03,1.46,0.214
6.440e-03,1.44,0.226
6.460e-03,1.44,0.21
6.480e-03,1.46,0.224
6.500e-03,1.42,0.224
6.520e-03,1.44,0.216
6.540e-03,1.42,0.22
6.560e-03,1.42,0.216
6.580e-03,1.46,0.22
6.600e-03,1.48,0.22
6.620e-03,1.42,0.22
6.640e-03,1.42,0.21
6.660e-03,1.44,0.22
6.680e-03,1.44,0.23
6.700e-03,1.42,0.218
6.720e-03,1.42,0.218
6.740e-03,1.42,0.216
6.760e-03,1.4,0.214
6.780e-03,1.44,0.21
6.800e-03,1.44,0.214
6.820e-03,1.44,0.21
6.840e-03,1.42,0.214
6.860e-03,1.42,0.19
6.880e-03,1.42,0.212
6.900e-03,1.42,0.22
6.920e-03,1.42,0.152
6.940e-03,1.42,0.21
6.960e-03,1.46,0.22
6.980e-03,1.46,0.22
7.000e-03,1.42,0.232
7.020e-03,1.42,0.216
7.040e-03,1.4,0.22
7.060e-03,1.42,0.216
7.080e-03,1.44,0.212
7.100e-03,1.44,0.22
7.120e-03,1.42,0.22
7.140e-03,1.44,0.224
7.160e-03,1.44,0.22
7.180e-03,1.42,0.212
7.200e-03,1.38,0.216
7.220e-03,1.44,0.228
7.240e-03,1.4,0.22
7.260e-03,1.42,0.214
7.280e-03,1.46,0.226
7.300e-03,1.44,0.216
7.320e-03,1.44,0.214
7.340e-03,1.44,0.216
7.360e-03,1.44,0.214
7.380e-03,1.42,0.218
7.400e-03,1.44,0.222
7.420e-03,1.44,0.22
7.440e-03,1.46,0.212
7.460e-03,1.42,0.23
7.480e-03,1.4,0.206
7.500e-03,1.42,0.216
7.520e-03,1.44,0.19
7.540e-03,1.4,0.216
7.560e-03,1.4,0.21
7.580e-03,1.42,0.226
7.600e-03,1.44,0.222
7.620e-03,1.42,0.224
7.640e-03,1.42,0.216
7.660e-03,1.42,0.224
7.680e-03,1.42,0.232
7.700e-03,1.44,0.23
7.720e-03,1.42,0.218
7.740e-03,1.44,0.21
7.760e-03,1.42,0.224
7.780e-03,1.42,0.22
7.800e-03,1.44,0.226
7.820e-03,1.44,0.216
7.840e-03,1.4,0.232
7.860e-03,1.44,0.218
7.880e-03,1.44,0.216
7.900e-03,1.42,0.208
7.920e-03,1.44,0.226
7.940e-03,1.42,0.212
7.960e-03,1.42,0.23
7.980e-03,1.44,0.218
8.000e-03,1.38,0.208
8.020e-03,1.4,0.208
8.040e-03,1.46,0.226
8.060e-03,1.44,0.216
8.080e-03,1.42,0.212
8.100e-03,1.46,0.226
8.120e-03,1.42,0.222
8.140e-03,1.44,0.196
8.160e-03,1.44,0.21
8.180e-03,1.42,0.198
8.200e-03,1.44,0.2
8.220e-03,1.46,0.2
8.240e-03,1.42,0.218
8.260e-03,1.42,0.206
8.280e-03,1.38,0.188
8.300e-03,1.4,0.214
8.320e-03,1.42,0.216
8.340e-03,1.42,0.216
8.360e-03,1.44,0.196
8.380e-03,1.42,0.214
8.400e-03,1.44,0.218
8.420e-03,1.44,0.218
8.440e-03,1.4,0.204
8.460e-03,1.4,0.214
8.480e-03,1.42,0.222
8.500e-03,1.46,0.216
8.520e-03,1.44,0.23
8.540e-03,1.44,0.212
8.560e-03,1.42,0.224
8.580e-03,1.46,0.236
8.600e-03,1.42,0.202
8.620e-03,1.4,0.214
8.640e-03,1.44,0.222
8.660e-03,1.42,0.214
8.680e-03,1.44,0.204
8.700e-03,1.46,0.22
8.720e-03,1.4,0.212
8.740e-03,1.44,0.218
8.760e-03,1.42,0.212
8.780e-03,1.42,0.212
8.800e-03,1.4,0.214
8.820e-03,1.46,0.22
8.840e-03,1.4,0.214
8.860e-03,1.42,0.226
8.880e-03,1.42,0.204
8.900e-03,1.46,0.216
8.920e-03,1.44,0.234
8.940e-03,1.42,0.21
8.960e-03,1.44,0.232
8.980e-03,1.44,0.216
9.000e-03,1.44,0.206
9.020e-03,1.42,0.208
9.040e-03,1.4,0.226
9.060e-03,1.4,0.216
9.080e-03,1.44,0.214
9.100e-03,1.42,0.212
9.120e-03,1.44,0.208
9.140e-03,1.42,0.212
9.160e-03,1.46,0.216
9.180e-03,1.4,0.218
9.200e-03,1.42,0.208
9.220e-03,1.42,0.216
9.240e-03,1.42,0.206
9.260e-03,1.44,0.212
9.280e-03,1.42,0.198
9.300e-03,1.42,0.22
9.320e-03,1.42,0.21
9.340e-03,1.42,0.224
9.360e-03,1.4,0.222
9.380e-03,1.42,0.216
9.400e-03,1.46,0.206
9.420e-03,1.42,0.212
9.440e-03,1.42,0.198
9.460e-03,1.44,0.218
9.480e-03,1.44,0.212
9.500e-03,1.42,0.204
9.520e-03,1.42,0.226
9.540e-03,1.44,0.214
9.560e-03,1.42,0.218
9.580e-03,1.42,0.196
9.600e-03,1.4,0.2
9.620e-03,1.42,0.22
9.640e-03,1.44,0.212
9.660e-03,1.42,0.214
9.680e-03,1.46,0.228
9.700e-03,1.42,0.216
9.720e-03,1.44,0.216
9.740e-03,1.42,0.216
9.760e-03,1.42,0.228
9.780e-03,1.42,0.214
9.800e-03,1.42,0.22
9.820e-03,1.4,0.222
9.840e-03,1.44,0.206
9.860e-03,1.4,0.22
9.880e-03,1.42,0.206
9.900e-03,1.42,0.224
9.920e-03,1.44,0.214
9.940e-03,1.44,0.212
9.960e-03,1.42,0.246
9.980e-03,1.44,0.216
1.000e-02,1.42,0.23
1.002e-02,1.42,0.216
1.004e-02,1.42,0.22
1.006e-02,1.44,0.216
1.008e-02,1.42,0.214
1.010e-02,1.42,0.206
1.012e-02,1.42,0.21
1.014e-02,1.42,0.198
1.016e-02,1.42,0.214
1.018e-02,1.42,0.218
1.020e-02,1.4,0.216
1.022e-02,1.44,0.212
1.024e-02,1.46,0.212
1.026e-02,1.42,0.21
1.028e-02,1.4,0.216
1.030e-02,1.46,0.22
1.032e-02,1.42,0.214
1.034e-02,1.4,0.21
1.036e-02,1.42,0.202
1.038e-02,1.4,0.214
1.040e-02,1.42,0.22
1.042e-02,1.4,0.218
1.044e-02,1.42,0.224
1.046e-02,1.42,0.208
1.048e-02,1.42,0.208
1.050e-02,1.46,0.19
1.052e-02,1.46,0.23
1.054e-02,1.4,0.216
1.056e-02,1.5,0.212
1.058e-02,1.46,0.232
1.060e-02,1.4,0.208
1.062e-02,1.4,0.22
1.064e-02,1.44,0.212
1.066e-02,1.42,0.208
1.068e-02,1.44,0.214
1.070e-02,1.44,0.216
1.072e-02,1.42,0.224
1.074e-02,1.42,0.208
1.076e-02,1.42,0.212
1.078e-02,1.42,0.22
1.080e-02,1.42,0.214
1.082e-02,1.46,0.208
1.084e-02,1.42,0.22
1.086e-02,1.42,0.238
1.088e-02,1.42,0.218
1.090e-02,1.4,0.22
1.092e-02,1.4,0.222
1.094e-02,1.44,0.216
1.096e-02,1.44,0.224
1.098e-02,1.42,0.212
1.100e-02,1.44,0.208
1.102e-02,1.44,0.21
1.104e-02,1.46,0.216
1.106e-02,1.42,0.224
1.108e-02,1.44,0.214
1.110e-02,1.44,0.216
1.112e-02,1.44,0.21
1.114e-02,1.42,0.2
1.116e-02,1.44,0.21
1.118e-02,1.42,0.21
1.120e-02,1.42,0.206
1.122e-02,1.46,0.212
1.124e-02,1.42,0.216
1.126e-02,1.44,0.204
1.128e-02,1.44,0.21
1.130e-02,1.44,0.224
1.132e-02,1.4,0.208
1.134e-02,1.44,0.214
1.136e-02,1.42,0.214
1.138e-02,1.42,0.228
1.140e-02,1.44,0.224
1.142e-02,1.44,0.214
1.144e-02,1.42,0.208
1.146e-02,1.42,0.206
1.148e-02,1.42,0.216
1.150e-02,1.46,0.214
1.152e-02,1.42,0.216
1.154e-02,1.44,0.21
1.156e-02,1.46,0.206
1.158e-02,1.44,0.216
1.160e-02,1.42,0.222
1.162e-02,1.44,0.22
1.164e-02,1.44,0.224
1.166e-02,1.44,0.204
1.168e-02,1.42,0.216
1.170e-02,1.44,0.21
1.172e-02,1.42,0.236
1.174e-02,1.42,0.22
1.176e-02,1.42,0.222
1.178e-02,1.42,0.216
1.180e-02,1.42,0.222
1.182e-02,1.42,0.214
1.184e-02,1.42,0.21
1.186e-02,1.42,0.226
1.188e-02,1.42,0.22
1.190e-02,1.42,0.218
1.192e-02,1.42,0.216
1.194e-02,1.42,0.214
1.196e-02,1.42,0.212
1.198e-02,1.4,0.214
1.200e-02,1.42,0.212
1.202e-02,1.4,0.214
1.204e-02,1.42,0.22
1.206e-02,1.42,0.212
1.208e-02,1.44,0.2
1.210e-02,1.42,0.202
1.212e-02,1.42,0.206
1.214e-02,1.42,0.2
1.216e-02,1.42,0.21
1.218e-02,1.44,0.212
1.220e-02,1.44,0.212
1.222e-02,1.4,0.218
1.224e-02,1.44,0.204
1.226e-02,1.46,0.224
1.228e-02,1.42,0.214
1.230e-02,1.42,0.21
1.232e-02,1.44,0.218
1.234e-02,1.44,0.214
1.236e-02,1.42,0.212
1.238e-02,1.42,0.2
1.240e-02,1.46,0.218
1.242e-02,1.42,0.206
1.244e-02,1.42,0.21
1.246e-02,1.44,0.212
1.248e-02,1.48,0.214
1.250e-02,1.42,0.222
1.252e-02,1.42,0.22
1.254e-02,1.42,0.214
1.256e-02,1.42,0.214
1.258e-02,1.42,0.23
1.260e-02,1.44,0.222
1.262e-02,1.42,0.2
1.264e-02,1.44,0.214
1.266e-02,1.4,0.208
1.268e-02,1.44,0.206
1.270e-02,1.46,0.208
1.272e-02,1.44,0.218
1.274e-02,1.44,0.21
1.276e-02,1.44,0.216
1.278e-02,1.44,0.218
1.280e-02,1.42,0.224
1.282e-02,1.42,0.212
1.284e-02,1.42,0.21
1.286e-02,1.44,0.212
1.288e-02,1.44,0.206
1.290e-02,1.4,0.218
1.292e-02,1.42,0.214
1.294e-02,1.42,0.22
1.296e-02,1.42,0.214
1.298e-02,1.4,0.212
1.300e-02,1.44,0.208
1.302e-02,1.4,0.212
1.304e-02,1.44,0.216
1.306e-02,1.44,0.212
1.308e-02,1.42,0.224
1.310e-02,1.44,0.21
1.312e-02,1.44,0.216
1.314e-02,1.44,0.212
1.316e-02,1.44,0.212
1.318e-02,1.42,0.216
1.320e-02,1.42,0.22
1.322e-02,1.42,0.206
1.324e-02,1.44,0.218
1.326e-02,1.42,0.208
1.328e-02,1.44,0.212
1.330e-02,1.42,0.216
1.332e-02,1.42,0.22
1.334e-02,1.44,0.208
1.336e-02,1.44,0.22
1.338e-02,1.42,0.208
1.340e-02,1.44,0.22
1.342e-02,1.44,0.22
1.344e-02,1.42,0.22
1.346e-02,1.44,0.216
1.348e-02,1.42,0.226
1.350e-02,1.42,0.22
1.352e-02,1.42,0.21
1.354e-02,1.44,0.212
1.356e-02,1.42,0.216
1.358e-02,1.42,0.212
1.360e-02,1.42,0.214
1.362e-02,1.42,0.214
1.364e-02,1.44,0.21
1.366e-02,1.42,0.222
1.368e-02,1.42,0.214
1.370e-02,1.44,0.208
1.372e-02,1.44,0.214
1.374e-02,1.4,0.22
1.376e-02,1.46,0.204
1.378e-02,1.44,0.204
1.380e-02,1.44,0.216
1.382e-02,1.42,0.218
1.384e-02,1.42,0.212
1.386e-02,1.4,0.216
1.388e-02,1.44,0.21
1.390e-02,1.46,0.218
1.392e-02,1.44,0.214
1.394e-02,1.42,0.214
1.396e-02,1.42,0.222
1.398e-02,1.4,0.212
1.400e-02,1.44,0.216
1.402e-02,1.44,0.22
1.404e-02,1.42,0.218
1.406e-02,1.4,0.202
1.408e-02,1.42,0.214
1.410e-02,1.44,0.212
1.412e-02,1.44,0.212
1.414e-02,1.42,0.212
1.416e-02,1.44,0.208
1.418e-02,1.4,0.208
1.420e-02,1.46,0.222
1.422e-02,1.44,0.212
1.424e-02,1.42,0.216
1.426e-02,1.42,0.218
1.428e-02,1.42,0.212
1.430e-02,1.44,0.21
1.432e-02,1.4,0.218
1.434e-02,1.42,0.218
1.436e-02,1.42,0.21
1.438e-02,1.42,0.204
1.440e-02,1.44,0.222
1.442e-02,1.46,0.214
1.444e-02,1.44,0.19
1.446e-02,1.46,0.214
1.448e-02,1.4,0.216
1.450e-02,1.42,0.212
1.452e-02,1.4,0.222
1.454e-02,1.44,0.214
1.456e-02,1.44,0.216
1.458e-02,1.42,0.212
1.460e-02,1.42,0.218
1.462e-02,1.46,0.212
1.464e-02,1.44,0.212
1.466e-02,1.46,0.22
1.468e-02,1.42,0.196
1.470e-02,1.42,0.206
1.472e-02,1.42,0.19
1.474e-02,1.4,0.226
1.476e-02,1.44,0.212
1.478e-02,1.42,0.224
1.480e-02,1.4,0.216
1.482e-02,1.4,0.222
1.484e-02,1.44,0.206
1.486e-02,1.46,0.212
1.488e-02,1.42,0.218
1.490e-02,1.4,0.21
1.492e-02,1.42,0.214
1.494e-02,1.42,0.21
1.496e-02,1.44,0.22
1.498e-02,1.44,0.218
1.500e-02,1.42,0.206
1.502e-02,1.42,0.218
1.504e-02,1.42,0.216
1.506e-02,1.44,0.212
1.508e-02,1.44,0.21
1.510e-02,1.46,0.208
1.512e-02,1.42,0.218
1.514e-02,1.44,0.212
1.516e-02,1.44,0.214
1.518e-02,1.4,0.22
1.520e-02,1.42,0.21
1.522e-02,1.44,0.216
1.524e-02,1.44,0.21
1.526e-02,1.46,0.214
1.528e-02,1.44,0.222
1.530e-02,1.4,0.22
1.532e-02,1.42,0.226
1.534e-02,1.42,0.214
1.536e-02,1.42,0.2
1.538e-02,1.46,0.222
1.540e-02,1.42,0.23
1.542e-02,1.42,0.216
1.544e-02,1.42,0.204
1.546e-02,1.42,0.2
1.548e-02,1.44,0.214
1.550e-02,1.44,0.218
1.552e-02,1.42,0.206
1.554e-02,1.44,0.22
1.556e-02,1.44,0.214
1.558e-02,1.44,0.222
1.560e-02,1.46,0.218
1.562e-02,1.4,0.212
1.564e-02,1.42,0.214
1.566e-02,1.4,0.214
1.568e-02,1.42,0.212
1.570e-02,1.44,0.224
1.572e-02,1.44,0.206
1.574e-02,1.42,0.22
1.576e-02,1.44,0.21
1.578e-02,1.42,0.208
1.580e-02,1.42,0.202
1.582e-02,1.42,0.212
1.584e-02,1.4,0.206
1.586e-02,1.42,0.216
1.588e-02,1.48,0.226
1.590e-02,1.44,0.212
1.592e-02,1.44,0.214
1.594e-02,1.42,0.21
1.596e-02,1.42,0.21
1.598e-02,1.44,0.206
1.600e-02,1.44,0.206
1.602e-02,1.42,0.208
1.604e-02,1.4,0.212
1.606e-02,1.46,0.216
1.608e-02,1.46,0.226
1.610e-02,1.42,0.202
1.612e-02,1.44,0.222
1.614e-02,1.38,0.216
1.616e-02,1.46,0.208
1.618e-02,1.44,0.216
1.620e-02,1.4,0.196
1.622e-02,1.46,0.214
1.624e-02,1.46,0.204
1.626e-02,1.44,0.214
1.628e-02,1.44,0.216
1.630e-02,1.46,0.212
1.632e-02,1.44,0.208
1.634e-02,1.42,0.216
1.636e-02,1.44,0.208
1.638e-02,1.44,0.206
1.640e-02,1.38,0.216
1.642e-02,1.42,0.21
1.644e-02,1.44,0.212
1.646e-02,1.4,0.212
1.648e-02,1.4,0.21
1.650e-02,1.46,0.206
1.652e-02,1.42,0.208
1.654e-02,1.42,0.2
1.656e-02,1.44,0.214
1.658e-02,1.44,0.214
1.660e-02,1.42,0.212
1.662e-02,1.42,0.208
1.664e-02,1.44,0.226
1.666e-02,1.46,0.21
1.668e-02,1.42,0.222
1.670e-02,1.42,0.21
1.672e-02,1.44,0.216
1.674e-02,1.4,0.226
1.676e-02,1.42,0.206
1.678e-02,1.46,0.222
1.680e-02,1.44,0.214
1.682e-02,1.44,0.226
1.684e-02,1.42,0.222
1.686e-02,1.44,0.212
1.688e-02,1.44,0.22
1.690e-02,1.4,0.216
1.692e-02,1.42,0.226
1.694e-02,1.42,0.214
1.696e-02,1.42,0.208
1.698e-02,1.44,0.214
1.700e-02,1.44,0.22
1.702e-02,1.42,0.22
1.704e-02,1.42,0.206
1.706e-02,1.46,0.222
1.708e-02,1.4,0.212
1.710e-02,1.44,0.226
1.712e-02,1.46,0.216
1.714e-02,1.46,0.212
1.716e-02,1.44,0.218
1.718e-02,1.48,0.208
1.720e-02,1.48,0.218
1.722e-02,1.44,0.214
1.724e-02,1.42,0.206
1.726e-02,1.44,0.224
1.728e-02,1.42,0.2
1.730e-02,1.46,0.202
1.732e-02,1.46,0.206
1.734e-02,1.42,0.22
1.736e-02,1.42,0.224
1.738e-02,1.42,0.218
1.740e-02,1.42,0.226
1.742e-02,1.44,0.218
1.744e-02,1.42,0.228
1.746e-02,1.44,0.216
1.748e-02,1.44,0.202
1.750e-02,1.42,0.2
1.752e-02,1.44,0.208
1.754e-02,1.44,0.214
1.756e-02,1.4,0.212
1.758e-02,1.42,0.204
1.760e-02,1.42,0.214
1.762e-02,1.42,0.21
1.764e-02,1.42,0.214
1.766e-02,1.46,0.214
1.768e-02,1.4,0.202
1.770e-02,1.42,0.21
1.772e-02,1.42,0.23
1.774e-02,1.38,0.208
1.776e-02,1.42,0.214
1.778e-02,1.4,0.218
1.780e-02,1.44,0.21
1.782e-02,1.4,0.214
1.784e-02,1.4,0.226
1.786e-02,1.42,0.21
1.788e-02,1.4,0.204
1.790e-02,1.44,0.21
1.792e-02,1.4,0.18
1.794e-02,1.46,0.214
1.796e-02,1.44,0.222
1.798e-02,1.42,0.212
1.800e-02,1.46,0.21
1.802e-02,1.44,0.212
1.804e-02,1.42,0.208
1.806e-02,1.42,0.218
1.808e-02,1.46,0.22
1.810e-02,1.42,0.212
1.812e-02,1.42,0.222
1.814e-02,1.44,0.214
1.816e-02,1.42,0.206
1.818e-02,1.44,0.212
