Archivos Guadalupe/Data/1410-32-X3/18-08/07-09/tek0000CH1.csv

Model,DPO3034
Firmware Version,2.16

Point Format,Y
Horizontal Units,S
Horizontal Scale,1
Sample Interval,0.01
Record Length,1000
Gating,0.0% to 100.0%
Probe Attenuation,1
Vertical Units,V
Vertical Offset,0
Vertical Scale,0.2
Label,
TIME,CH1
-4.000e-02,0.004
-3.000e-02,-0.004
-2.000e-02,-0.004
-1.000e-02,-0.004
-3.123e-17,0.332
1.000e-02,0.9
2.000e-02,0.9
3.000e-02,0.9
4.000e-02,1.308
5.000e-02,1.412
6.000e-02,1.412
7.000e-02,1.412
8.000e-02,1.412
9.000e-02,1.412
1.000e-01,1.412
1.100e-01,1.412
1.200e-01,0.908
1.300e-01,0.9
1.400e-01,0.892
1.500e-01,0.9
1.600e-01,0.908
1.700e-01,0.9
1.800e-01,0.9
1.900e-01,0.916
2.000e-01,0.908
2.100e-01,0.9
2.200e-01,0.9
2.300e-01,0.9
2.400e-01,0.908
2.500e-01,0.908
2.600e-01,0.908
2.700e-01,0.908
2.800e-01,0.9
2.900e-01,0.908
3.000e-01,0.908
3.100e-01,0.9
3.200e-01,0.916
3.300e-01,0.908
3.400e-01,0.908
3.500e-01,0.9
3.600e-01,0.892
3.700e-01,0.9
3.800e-01,0.908
3.900e-01,0.908
4.000e-01,0.9
4.100e-01,0.908
4.200e-01,0.908
4.300e-01,0.9
4.400e-01,0.892
4.500e-01,0.908
4.600e-01,0.908
4.700e-01,0.908
4.800e-01,0.908
4.900e-01,0.9
5.000e-01,0.9
5.100e-01,0.9
5.200e-01,0.908
5.300e-01,0.9
5.400e-01,0.9
5.500e-01,0.9
5.600e-01,0.9
5.700e-01,0.9
5.800e-01,0.9
5.900e-01,0.9
6.000e-01,0.892
6.100e-01,0.908
6.200e-01,0.892
6.300e-01,0.908
6.400e-01,0.9
6.500e-01,0.9
6.600e-01,0.9
6.700e-01,0.9
6.800e-01,0.9
6.900e-01,0.9
7.000e-01,0.908
7.100e-01,0.9
7.200e-01,0.908
7.300e-01,0.908
7.400e-01,0.9
7.500e-01,0.908
7.600e-01,0.892
7.700e-01,0.9
7.800e-01,0.9
7.900e-01,0.9
8.000e-01,0.9
8.100e-01,0.9
8.200e-01,0.9
8.300e-01,0.9
8.400e-01,0.9
8.500e-01,0.9
8.600e-01,0.892
8.700e-01,0.908
8.800e-01,0.9
8.900e-01,0.908
9.000e-01,0.9
9.100e-01,0.9
9.200e-01,0.9
9.300e-01,0.908
9.400e-01,0.924
9.500e-01,0.908
9.600e-01,0.892
9.700e-01,0.908
9.800e-01,0.908
9.900e-01,0.9
1.000e+00,0.9
1.010e+00,0.908
1.020e+00,0.892
1.030e+00,0.908
1.040e+00,0.9
1.050e+00,0.908
1.060e+00,0.908
1.070e+00,0.9
1.080e+00,0.908
1.090e+00,0.908
1.100e+00,0.892
1.110e+00,0.9
1.120e+00,0.908
1.130e+00,0.9
1.140e+00,0.908
1.150e+00,0.9
1.160e+00,0.892
1.170e+00,0.9
1.180e+00,0.908
1.190e+00,0.892
1.200e+00,0.892
1.210e+00,0.9
1.220e+00,0.892
1.230e+00,0.9
1.240e+00,0.9
1.250e+00,0.908
1.260e+00,0.908
1.270e+00,0.9
1.280e+00,0.908
1.290e+00,0.9
1.300e+00,0.9
1.310e+00,0.908
1.320e+00,0.9
1.330e+00,0.9
1.340e+00,0.908
1.350e+00,0.908
1.360e+00,0.9
1.370e+00,0.9
1.380e+00,0.908
1.390e+00,0.908
1.400e+00,0.908
1.410e+00,0.9
1.420e+00,0.908
1.430e+00,0.908
1.440e+00,0.908
1.450e+00,0.908
1.460e+00,0.908
1.470e+00,0.9
1.480e+00,0.9
1.490e+00,0.908
1.500e+00,0.916
1.510e+00,0.908
1.520e+00,0.892
1.530e+00,0.9
1.540e+00,0.9
1.550e+00,0.9
1.560e+00,0.9
1.570e+00,0.9
1.580e+00,0.9
1.590e+00,0.892
1.600e+00,0.884
1.610e+00,0.9
1.620e+00,0.9
1.630e+00,0.9
1.640e+00,0.908
1.650e+00,0.9
1.660e+00,0.9
1.670e+00,0.9
1.680e+00,0.908
1.690e+00,0.908
1.700e+00,0.908
1.710e+00,0.9
1.720e+00,0.892
1.730e+00,0.9
1.740e+00,0.9
1.750e+00,0.9
1.760e+00,0.9
1.770e+00,0.908
1.780e+00,0.9
1.790e+00,0.908
1.800e+00,0.908
1.810e+00,0.9
1.820e+00,0.9
1.830e+00,0.9
1.840e+00,0.9
1.850e+00,0.908
1.860e+00,0.916
1.870e+00,0.9
1.880e+00,0.908
1.890e+00,0.908
1.900e+00,0.908
1.910e+00,0.884
1.920e+00,0.908
1.930e+00,0.9
1.940e+00,0.908
1.950e+00,0.9
1.960e+00,0.916
1.970e+00,0.892
1.980e+00,0.892
1.990e+00,0.892
2.000e+00,0.908
2.010e+00,0.892
2.020e+00,0.9
2.030e+00,0.908
2.040e+00,0.9
2.050e+00,0.908
2.060e+00,0.9
2.070e+00,0.908
2.080e+00,0.9
2.090e+00,0.9
2.100e+00,0.9
2.110e+00,0.908
2.120e+00,0.892
2.130e+00,0.9
2.140e+00,0.9
2.150e+00,0.908
2.160e+00,0.9
2.170e+00,0.9
2.180e+00,0.9
2.190e+00,0.908
2.200e+00,0.908
2.210e+00,0.908
2.220e+00,0.892
2.230e+00,0.908
2.240e+00,0.908
2.250e+00,0.9
2.260e+00,0.908
2.270e+00,0.908
2.280e+00,0.9
2.290e+00,0.9
2.300e+00,0.9
2.310e+00,0.9
2.320e+00,0.908
2.330e+00,0.908
2.340e+00,0.908
2.350e+00,0.908
2.360e+00,0.9
2.370e+00,0.908
2.380e+00,0.908
2.390e+00,0.908
2.400e+00,0.908
2.410e+00,0.9
2.420e+00,0.908
2.430e+00,0.908
2.440e+00,0.892
2.450e+00,0.908
2.460e+00,0.892
2.470e+00,0.908
2.480e+00,0.908
2.490e+00,0.908
2.500e+00,0.9
2.510e+00,0.892
2.520e+00,0.908
2.530e+00,0.908
2.540e+00,0.908
2.550e+00,0.908
2.560e+00,0.892
2.570e+00,0.9
2.580e+00,0.9
2.590e+00,0.892
2.600e+00,0.9
2.610e+00,0.908
2.620e+00,0.908
2.630e+00,0.9
2.640e+00,0.892
2.650e+00,0.908
2.660e+00,0.892
2.670e+00,0.916
2.680e+00,0.908
2.690e+00,0.9
2.700e+00,0.908
2.710e+00,0.892
2.720e+00,0.892
2.730e+00,0.9
2.740e+00,0.908
2.750e+00,0.9
2.760e+00,0.908
2.770e+00,0.908
2.780e+00,0.916
2.790e+00,0.892
2.800e+00,0.892
2.810e+00,0.892
2.820e+00,0.892
2.830e+00,0.908
2.840e+00,0.908
2.850e+00,0.892
2.860e+00,0.9
2.870e+00,0.908
2.880e+00,0.908
2.890e+00,0.908
2.900e+00,0.908
2.910e+00,0.9
2.920e+00,0.908
2.930e+00,0.908
2.940e+00,0.892
2.950e+00,0.9
2.960e+00,0.9
2.970e+00,0.908
2.980e+00,0.9
2.990e+00,0.908
3.000e+00,0.908
3.010e+00,0.908
3.020e+00,0.892
3.030e+00,0.908
3.040e+00,0.892
3.050e+00,0.908
3.060e+00,0.908
3.070e+00,0.892
3.080e+00,0.892
3.090e+00,0.9
3.100e+00,0.908
3.110e+00,0.908
3.120e+00,0.9
3.130e+00,0.9
3.140e+00,0.908
3.150e+00,0.908
3.160e+00,0.9
3.170e+00,0.908
3.180e+00,0.9
3.190e+00,0.9
3.200e+00,0.908
3.210e+00,0.908
3.220e+00,0.908
3.230e+00,0.9
3.240e+00,0.908
3.250e+00,0.908
3.260e+00,0.916
3.270e+00,0.884
3.280e+00,0.9
3.290e+00,0.908
3.300e+00,0.908
3.310e+00,0.908
3.320e+00,0.908
3.330e+00,0.892
3.340e+00,0.9
3.350e+00,0.9
3.360e+00,0.908
3.370e+00,0.9
3.380e+00,0.916
3.390e+00,0.892
3.400e+00,0.9
3.410e+00,0.908
3.420e+00,0.9
3.430e+00,0.9
3.440e+00,0.908
3.450e+00,0.908
3.460e+00,0.892
3.470e+00,0.9
3.480e+00,0.916
3.490e+00,0.908
3.500e+00,0.908
3.510e+00,0.908
3.520e+00,0.892
3.530e+00,0.908
3.540e+00,0.892
3.550e+00,0.908
3.560e+00,0.9
3.570e+00,0.892
3.580e+00,0.9
3.590e+00,0.908
3.600e+00,0.892
3.610e+00,0.908
3.620e+00,0.9
3.630e+00,0.908
3.640e+00,0.9
3.650e+00,0.908
3.660e+00,0.892
3.670e+00,0.9
3.680e+00,0.908
3.690e+00,0.908
3.700e+00,0.908
3.710e+00,0.9
3.720e+00,0.908
3.730e+00,0.916
3.740e+00,0.9
3.750e+00,0.916
3.760e+00,0.908
3.770e+00,0.908
3.780e+00,0.908
3.790e+00,0.908
3.800e+00,0.892
3.810e+00,0.908
3.820e+00,0.908
3.830e+00,0.908
3.840e+00,0.9
3.850e+00,0.9
3.860e+00,0.9
3.870e+00,0.9
3.880e+00,0.9
3.890e+00,0.9
3.900e+00,0.908
3.910e+00,0.908
3.920e+00,0.9
3.930e+00,0.9
3.940e+00,0.9
3.950e+00,0.892
3.960e+00,0.9
3.970e+00,0.9
3.980e+00,0.892
3.990e+00,0.916
4.000e+00,0.9
4.010e+00,0.916
4.020e+00,0.9
4.030e+00,0.892
4.040e+00,0.916
4.050e+00,0.916
4.060e+00,0.9
4.070e+00,0.9
4.080e+00,0.908
4.090e+00,0.908
4.100e+00,0.892
4.110e+00,0.9
4.120e+00,0.892
4.130e+00,0.9
4.140e+00,0.9
4.150e+00,0.9
4.160e+00,0.916
4.170e+00,0.908
4.180e+00,0.892
4.190e+00,0.908
4.200e+00,0.884
4.210e+00,0.908
4.220e+00,0.9
4.230e+00,0.908
4.240e+00,0.908
4.250e+00,0.892
4.260e+00,0.908
4.270e+00,0.9
4.280e+00,0.892
4.290e+00,0.908
4.300e+00,0.892
4.310e+00,0.9
4.320e+00,0.884
4.330e+00,0.908
4.340e+00,0.908
4.350e+00,0.908
4.360e+00,0.9
4.370e+00,0.9
4.380e+00,0.908
4.390e+00,0.9
4.400e+00,0.908
4.410e+00,0.9
4.420e+00,0.9
4.430e+00,0.908
4.440e+00,0.9
4.450e+00,0.9
4.460e+00,0.9
4.470e+00,0.908
4.480e+00,0.9
4.490e+00,0.9
4.500e+00,0.9
4.510e+00,0.9
4.520e+00,0.908
4.530e+00,0.908
4.540e+00,0.908
4.550e+00,0.908
4.560e+00,0.9
4.570e+00,0.908
4.580e+00,0.892
4.590e+00,0.908
4.600e+00,0.908
4.610e+00,0.9
4.620e+00,0.908
4.630e+00,0.892
4.640e+00,0.892
4.650e+00,0.908
4.660e+00,0.916
4.670e+00,0.9
4.680e+00,0.892
4.690e+00,0.9
4.700e+00,0.908
4.710e+00,0.908
4.720e+00,0.9
4.730e+00,0.908
4.740e+00,0.924
4.750e+00,0.908
4.760e+00,0.892
4.770e+00,0.908
4.780e+00,0.9
4.790e+00,0.908
4.800e+00,0.884
4.810e+00,0.9
4.820e+00,0.908
4.830e+00,0.908
4.840e+00,0.908
4.850e+00,0.908
4.860e+00,0.9
4.870e+00,0.892
4.880e+00,0.908
4.890e+00,0.892
4.900e+00,0.9
4.910e+00,0.9
4.920e+00,0.9
4.930e+00,0.908
4.940e+00,0.908
4.950e+00,0.908
4.960e+00,0.9
4.970e+00,0.9
4.980e+00,0.9
4.990e+00,0.916
5.000e+00,0.916
5.010e+00,0.9
5.020e+00,0.908
5.030e+00,0.908
5.040e+00,0.908
5.050e+00,0.908
5.060e+00,0.9
5.070e+00,0.9
5.080e+00,0.908
5.090e+00,0.908
5.100e+00,0.916
5.110e+00,0.908
5.120e+00,0.892
5.130e+00,0.9
5.140e+00,0.892
5.150e+00,0.908
5.160e+00,0.908
5.170e+00,0.916
5.180e+00,0.916
5.190e+00,0.9
5.200e+00,0.908
5.210e+00,0.9
5.220e+00,0.908
5.230e+00,0.892
5.240e+00,0.884
5.250e+00,0.9
5.260e+00,0.9
5.270e+00,0.908
5.280e+00,0.908
5.290e+00,0.908
5.300e+00,0.908
5.310e+00,0.9
5.320e+00,0.908
5.330e+00,0.9
5.340e+00,0.908
5.350e+00,0.892
5.360e+00,0.908
5.370e+00,0.908
5.380e+00,0.9
5.390e+00,0.9
5.400e+00,0.908
5.410e+00,0.908
5.420e+00,0.9
5.430e+00,0.908
5.440e+00,0.908
5.450e+00,0.9
5.460e+00,0.892
5.470e+00,0.908
5.480e+00,0.9
5.490e+00,0.884
5.500e+00,0.9
5.510e+00,0.9
5.520e+00,0.892
5.530e+00,0.892
5.540e+00,0.908
5.550e+00,0.908
5.560e+00,0.9
5.570e+00,0.9
5.580e+00,0.908
5.590e+00,0.908
5.600e+00,0.9
5.610e+00,0.9
5.620e+00,0.908
5.630e+00,0.892
5.640e+00,0.908
5.650e+00,0.908
5.660e+00,0.9
5.670e+00,0.908
5.680e+00,0.908
5.690e+00,0.9
5.700e+00,0.908
5.710e+00,0.9
5.720e+00,0.908
5.730e+00,0.908
5.740e+00,0.892
5.750e+00,0.9
5.760e+00,0.908
5.770e+00,0.908
5.780e+00,0.9
5.790e+00,0.9
5.800e+00,0.916
5.810e+00,0.908
5.820e+00,0.908
5.830e+00,0.892
5.840e+00,0.9
5.850e+00,0.9
5.860e+00,0.9
5.870e+00,0.9
5.880e+00,0.908
5.890e+00,0.908
5.900e+00,0.9
5.910e+00,0.9
5.920e+00,0.9
5.930e+00,0.9
5.940e+00,0.9
5.950e+00,0.908
5.960e+00,0.908
5.970e+00,0.908
5.980e+00,0.892
5.990e+00,0.9
6.000e+00,0.9
6.010e+00,0.908
6.020e+00,0.908
6.030e+00,0.908
6.040e+00,0.916
6.050e+00,0.908
6.060e+00,0.9
6.070e+00,0.9
6.080e+00,0.908
6.090e+00,0.916
6.100e+00,0.916
6.110e+00,0.9
6.120e+00,0.9
6.130e+00,0.9
6.140e+00,0.908
6.150e+00,0.9
6.160e+00,0.892
6.170e+00,0.9
6.180e+00,0.892
6.190e+00,0.9
6.200e+00,0.892
6.210e+00,0.908
6.220e+00,0.908
6.230e+00,0.884
6.240e+00,0.908
6.250e+00,0.9
6.260e+00,0.892
6.270e+00,0.908
6.280e+00,0.9
6.290e+00,0.908
6.300e+00,0.884
6.310e+00,0.908
6.320e+00,0.908
6.330e+00,0.908
6.340e+00,0.9
6.350e+00,0.9
6.360e+00,0.908
6.370e+00,0.9
6.380e+00,0.9
6.390e+00,0.908
6.400e+00,0.908
6.410e+00,0.916
6.420e+00,0.9
6.430e+00,0.908
6.440e+00,0.908
6.450e+00,0.908
6.460e+00,0.9
6.470e+00,0.908
6.480e+00,0.9
6.490e+00,0.908
6.500e+00,0.892
6.510e+00,0.908
6.520e+00,0.908
6.530e+00,0.9
6.540e+00,0.9
6.550e+00,0.908
6.560e+00,0.908
6.570e+00,0.908
6.580e+00,0.916
6.590e+00,0.892
6.600e+00,0.9
6.610e+00,0.908
6.620e+00,0.9
6.630e+00,0.9
6.640e+00,0.9
6.650e+00,0.9
6.660e+00,0.9
6.670e+00,0.9
6.680e+00,0.908
6.690e+00,0.892
6.700e+00,0.908
6.710e+00,0.9
6.720e+00,0.9
6.730e+00,0.892
6.740e+00,0.916
6.750e+00,0.908
6.760e+00,0.908
6.770e+00,0.908
6.780e+00,0.908
6.790e+00,0.908
6.800e+00,0.9
6.810e+00,0.9
6.820e+00,0.908
6.830e+00,0.884
6.840e+00,0.908
6.850e+00,0.9
6.860e+00,0.908
6.870e+00,0.9
6.880e+00,0.908
6.890e+00,0.9
6.900e+00,0.9
6.910e+00,0.908
6.920e+00,0.9
6.930e+00,0.916
6.940e+00,0.908
6.950e+00,0.9
6.960e+00,0.908
6.970e+00,0.9
6.980e+00,0.908
6.990e+00,0.908
7.000e+00,0.908
7.010e+00,0.9
7.020e+00,0.892
7.030e+00,0.892
7.040e+00,0.9
7.050e+00,0.9
7.060e+00,0.908
7.070e+00,0.908
7.080e+00,0.908
7.090e+00,0.908
7.100e+00,0.9
7.110e+00,0.908
7.120e+00,0.908
7.130e+00,0.9
7.140e+00,0.908
7.150e+00,0.892
7.160e+00,0.908
7.170e+00,0.9
7.180e+00,0.908
7.190e+00,0.892
7.200e+00,0.884
7.210e+00,0.908
7.220e+00,0.908
7.230e+00,0.908
7.240e+00,0.908
7.250e+00,0.892
7.260e+00,0.9
7.270e+00,0.908
7.280e+00,0.9
7.290e+00,0.908
7.300e+00,0.908
7.310e+00,0.908
7.320e+00,0.908
7.330e+00,0.9
7.340e+00,0.892
7.350e+00,0.908
7.360e+00,0.9
7.370e+00,0.908
7.380e+00,0.908
7.390e+00,0.9
7.400e+00,0.9
7.410e+00,0.908
7.420e+00,0.9
7.430e+00,0.9
7.440e+00,0.9
7.450e+00,0.9
7.460e+00,0.9
7.470e+00,0.9
7.480e+00,0.9
7.490e+00,0.9
7.500e+00,0.908
7.510e+00,0.916
7.520e+00,0.908
7.530e+00,0.892
7.540e+00,0.9
7.550e+00,0.9
7.560e+00,0.908
7.570e+00,0.9
7.580e+00,0.908
7.590e+00,0.908
7.600e+00,0.9
7.610e+00,0.9
7.620e+00,0.908
7.630e+00,0.908
7.640e+00,0.908
7.650e+00,0.892
7.660e+00,0.9
7.670e+00,0.9
7.680e+00,0.908
7.690e+00,0.908
7.700e+00,0.908
7.710e+00,0.908
7.720e+00,0.9
7.730e+00,0.908
7.740e+00,0.9
7.750e+00,0.908
7.760e+00,0.916
7.770e+00,0.908
7.780e+00,0.908
7.790e+00,0.908
7.800e+00,0.908
7.810e+00,0.9
7.820e+00,0.908
7.830e+00,0.9
7.840e+00,0.908
7.850e+00,0.916
7.860e+00,0.9
7.870e+00,0.908
7.880e+00,0.908
7.890e+00,0.908
7.900e+00,0.908
7.910e+00,0.892
7.920e+00,0.908
7.930e+00,0.908
7.940e+00,0.9
7.950e+00,0.9
7.960e+00,0.9
7.970e+00,0.892
7.980e+00,0.892
7.990e+00,0.892
8.000e+00,0.9
8.010e+00,0.892
8.020e+00,0.916
8.030e+00,0.908
8.040e+00,0.9
8.050e+00,0.9
8.060e+00,0.908
8.070e+00,0.9
8.080e+00,0.9
8.090e+00,0.908
8.100e+00,0.908
8.110e+00,0.9
8.120e+00,0.892
8.130e+00,0.9
8.140e+00,0.908
8.150e+00,0.9
8.160e+00,0.908
8.170e+00,0.9
8.180e+00,0.9
8.190e+00,0.9
8.200e+00,0.916
8.210e+00,0.9
8.220e+00,0.892
8.230e+00,0.908
8.240e+00,0.908
8.250e+00,0.908
8.260e+00,0.9
8.270e+00,0.892
8.280e+00,0.892
8.290e+00,0.908
8.300e+00,0.892
8.310e+00,0.9
8.320e+00,0.908
8.330e+00,0.908
8.340e+00,0.9
8.350e+00,0.908
8.360e+00,0.908
8.370e+00,0.908
8.380e+00,0.892
8.390e+00,0.9
8.400e+00,0.908
8.410e+00,0.908
8.420e+00,0.9
8.430e+00,0.908
8.440e+00,0.9
8.450e+00,0.908
8.460e+00,0.9
8.470e+00,0.9
8.480e+00,0.908
8.490e+00,0.916
8.500e+00,0.892
8.510e+00,0.9
8.520e+00,0.9
8.530e+00,0.9
8.540e+00,0.9
8.550e+00,0.9
8.560e+00,0.9
8.570e+00,0.916
8.580e+00,0.9
8.590e+00,0.892
8.600e+00,0.9
8.610e+00,0.908
8.620e+00,0.9
8.630e+00,0.9
8.640e+00,0.9
8.650e+00,0.9
8.660e+00,0.908
8.670e+00,0.9
8.680e+00,0.9
8.690e+00,0.9
8.700e+00,0.892
8.710e+00,0.9
8.720e+00,0.9
8.730e+00,0.908
8.740e+00,0.908
8.750e+00,0.908
8.760e+00,0.9
8.770e+00,0.908
8.780e+00,0.908
8.790e+00,0.9
8.800e+00,0.9
8.810e+00,0.908
8.820e+00,0.908
8.830e+00,0.908
8.840e+00,0.892
8.850e+00,0.908
8.860e+00,0.908
8.870e+00,0.908
8.880e+00,0.908
8.890e+00,0.892
8.900e+00,0.908
8.910e+00,0.9
8.920e+00,0.908
8.930e+00,0.892
8.940e+00,0.908
8.950e+00,0.9
8.960e+00,0.916
8.970e+00,0.908
8.980e+00,0.9
8.990e+00,0.908
9.000e+00,0.908
9.010e+00,0.884
9.020e+00,0.908
9.030e+00,0.908
9.040e+00,0.908
9.050e+00,0.9
9.060e+00,0.908
9.070e+00,0.9
9.080e+00,0.9
9.090e+00,0.908
9.100e+00,0.9
9.110e+00,0.908
9.120e+00,0.916
9.130e+00,0.892
9.140e+00,0.9
9.150e+00,0.908
9.160e+00,0.9
9.170e+00,0.908
9.180e+00,0.908
9.190e+00,0.908
9.200e+00,0.9
9.210e+00,0.9
9.220e+00,0.908
9.230e+00,0.908
9.240e+00,0.908
9.250e+00,0.908
9.260e+00,0.9
9.270e+00,0.908
9.280e+00,0.908
9.290e+00,0.892
9.300e+00,0.908
9.310e+00,0.908
9.320e+00,0.9
9.330e+00,0.9
9.340e+00,0.9
9.350e+00,0.892
9.360e+00,0.908
9.370e+00,0.9
9.380e+00,0.9
9.390e+00,0.908
9.400e+00,0.892
9.410e+00,0.9
9.420e+00,0.892
9.430e+00,0.9
9.440e+00,0.908
9.450e+00,0.9
9.460e+00,0.908
9.470e+00,0.892
9.480e+00,0.9
9.490e+00,0.9
9.500e+00,0.9
9.510e+00,0.876
9.520e+00,0.868
9.530e+00,0.844
9.540e+00,0.836
9.550e+00,0.82
9.560e+00,0.796
9.570e+00,0.772
9.580e+00,0.748
9.590e+00,0.732
9.600e+00,0.716
9.610e+00,0.7
9.620e+00,0.668
9.630e+00,0.668
9.640e+00,0.644
9.650e+00,0.628
9.660e+00,0.612
9.670e+00,0.588
9.680e+00,0.572
9.690e+00,0.548
9.700e+00,0.524
9.710e+00,0.508
9.720e+00,0.508
9.730e+00,0.484
9.740e+00,0.452
9.750e+00,0.436
9.760e+00,0.428
9.770e+00,0.404
9.780e+00,0.388
9.790e+00,0.38
9.800e+00,0.356
9.810e+00,0.348
9.820e+00,0.316
9.830e+00,0.292
9.840e+00,0.284
9.850e+00,0.276
9.860e+00,0.252
9.870e+00,0.228
9.880e+00,0.204
9.890e+00,0.188
9.900e+00,0.172
9.910e+00,0.164
9.920e+00,0.14
9.930e+00,0.132
9.940e+00,0.116
9.950e+00,0.076

