Archivos Guadalupe/Data/Kaleid_IDL/pruebas/tek0005ALL.csv

Model,DPO3034
Firmware Version,2.16

Point Format,Y,
Horizontal Units,S,
Horizontal Scale,1e-06,
Sample Interval,1e-08,
Record Length,1000,
Gating,0.0% to 100.0%,0.0% to 100.0%
Probe Attenuation,1,1
Vertical Units,V,V
Vertical Offset,0,0
Vertical Scale,5,5
Label,,
TIME,CH1,CH2
-2.900e-07,-0.1,0.1
-2.800e-07,-0.1,0.1
-2.700e-07,-0.1,0.3
-2.600e-07,0.3,-0.3
-2.500e-07,-0.1,-0.1
-2.400e-07,-0.1,0.1
-2.300e-07,-0.1,-0.1
-2.200e-07,0.3,0.1
-2.100e-07,0.1,0.1
-2.000e-07,-0.1,-0.1
-1.900e-07,-0.1,0.1
-1.800e-07,0.1,-0.1
-1.700e-07,0.1,-0.1
-1.600e-07,-0.1,0.1
-1.500e-07,-0.3,0.1
-1.400e-07,-0.1,0.3
-1.300e-07,-0.1,-0.1
-1.200e-07,-0.1,-0.1
-1.100e-07,0.1,0.1
-1.000e-07,0.1,-0.1
-9.000e-08,0.1,0.1
-8.000e-08,0.1,0.3
-7.000e-08,0.5,0.3
-6.000e-08,0.7,-0.1
-5.000e-08,1.5,0.5
-4.000e-08,1.7,0.9
-3.000e-08,2.1,0.9
-2.000e-08,3.1,1.1
-1.000e-08,3.9,1.7
-4.731e-22,5.1,2.1
1.000e-08,6.5,2.3
2.000e-08,7.9,3.1
3.000e-08,9.7,3.7
4.000e-08,10.7,4.7
5.000e-08,11.9,5.1
6.000e-08,13.5,5.7
7.000e-08,14.7,5.7
8.000e-08,16.1,6.7
9.000e-08,17.3,6.5
1.000e-07,18.3,6.9
1.100e-07,19.9,7.7
1.200e-07,20.5,7.9
1.300e-07,21.5,8.1
1.400e-07,21.7,8.9
1.500e-07,22.3,8.9
1.600e-07,22.7,9.1
1.700e-07,23.1,9.1
1.800e-07,23.3,8.7
1.900e-07,23.7,8.9
2.000e-07,24.1,9.1
2.100e-07,24.3,9.1
2.200e-07,25.1,10.1
2.300e-07,24.9,10.1
2.400e-07,25.5,10.5
2.500e-07,26.1,11.1
2.600e-07,26.7,11.3
2.700e-07,26.5,11.5
2.800e-07,26.7,11.7
2.900e-07,27.1,11.5
3.000e-07,26.7,11.3
3.100e-07,27.1,11.3
3.200e-07,27.1,11.3
3.300e-07,27.7,11.3
3.400e-07,27.7,11.3
3.500e-07,28.1,11.7
3.600e-07,28.3,11.5
3.700e-07,28.5,11.9
3.800e-07,28.9,11.9
3.900e-07,29.3,12.1
4.000e-07,29.1,12.5
4.100e-07,29.3,12.3
4.200e-07,29.3,12.5
4.300e-07,29.1,12.5
4.400e-07,29.3,12.5
4.500e-07,29.1,12.5
4.600e-07,29.5,12.5
4.700e-07,29.3,12.5
4.800e-07,29.1,12.9
4.900e-07,29.1,12.9
5.000e-07,29.3,13.1
5.100e-07,29.1,12.9
5.200e-07,29.3,13.3
5.300e-07,29.7,13.3
5.400e-07,29.1,12.9
5.500e-07,29.3,13.3
5.600e-07,29.1,13.1
5.700e-07,29.5,12.9
5.800e-07,29.5,13.1
5.900e-07,29.3,13.1
6.000e-07,29.3,13.1
6.100e-07,29.3,13.1
6.200e-07,29.7,13.5
6.300e-07,29.9,13.5
6.400e-07,29.9,13.7
6.500e-07,29.7,13.9
6.600e-07,29.9,13.7
6.700e-07,29.9,13.7
6.800e-07,29.7,14.1
6.900e-07,29.9,13.7
7.000e-07,29.5,13.9
7.100e-07,29.9,13.9
7.200e-07,29.5,14.1
7.300e-07,29.7,13.9
7.400e-07,29.7,14.1
7.500e-07,29.9,14.1
7.600e-07,29.9,14.1
7.700e-07,30.1,14.5
7.800e-07,30.1,14.3
7.900e-07,30.1,14.3
8.000e-07,29.9,14.5
8.100e-07,29.9,14.3
8.200e-07,30.1,14.9
8.300e-07,30.1,14.7
8.400e-07,30.5,14.3
8.500e-07,30.1,14.5
8.600e-07,30.5,14.3
8.700e-07,30.1,14.5
8.800e-07,30.5,14.5
8.900e-07,30.5,14.7
9.000e-07,30.5,14.5
9.100e-07,30.3,14.7
9.200e-07,30.5,14.7
9.300e-07,30.5,14.9
9.400e-07,30.7,14.9
9.500e-07,30.3,14.7
9.600e-07,30.3,14.9
9.700e-07,30.3,14.7
9.800e-07,30.3,14.7
9.900e-07,30.1,14.7
1.000e-06,30.1,14.9
1.010e-06,30.1,14.7
1.020e-06,30.3,15.1
1.030e-06,30.3,14.9
1.040e-06,29.9,15.1
1.050e-06,30.1,15.1
1.060e-06,30.3,14.7
1.070e-06,29.9,14.9
1.080e-06,30.3,15.3
1.090e-06,30.1,14.7
1.100e-06,29.9,15.1
1.110e-06,30.1,14.7
1.120e-06,29.9,15.1
1.130e-06,29.9,15.1
1.140e-06,30.1,15.1
1.150e-06,30.3,14.9
1.160e-06,30.3,14.9
1.170e-06,30.5,14.9
1.180e-06,30.3,15.3
1.190e-06,30.1,15.1
1.200e-06,29.9,15.1
1.210e-06,30.3,15.3
1.220e-06,30.3,15.1
1.230e-06,30.3,15.3
1.240e-06,30.1,15.3
1.250e-06,30.1,15.1
1.260e-06,30.1,15.1
1.270e-06,30.5,15.1
1.280e-06,30.1,15.5
1.290e-06,30.5,15.3
1.300e-06,30.1,15.7
1.310e-06,30.3,15.3
1.320e-06,30.5,15.3
1.330e-06,30.5,15.3
1.340e-06,30.3,15.3
1.350e-06,30.5,15.5
1.360e-06,30.5,15.9
1.370e-06,30.5,15.7
1.380e-06,30.3,15.3
1.390e-06,30.3,15.7
1.400e-06,30.5,15.7
1.410e-06,30.5,15.5
1.420e-06,30.5,15.7
1.430e-06,30.5,15.5
1.440e-06,30.7,15.9
1.450e-06,30.3,15.7
1.460e-06,30.3,15.3
1.470e-06,30.7,15.3
1.480e-06,30.3,15.7
1.490e-06,30.5,15.3
1.500e-06,30.5,15.7
1.510e-06,30.1,15.7
1.520e-06,30.7,15.7
1.530e-06,30.5,15.5
1.540e-06,30.3,15.7
1.550e-06,30.3,15.9
1.560e-06,30.5,15.5
1.570e-06,30.1,15.7
1.580e-06,30.5,15.7
1.590e-06,30.1,15.7
1.600e-06,30.5,15.9
1.610e-06,29.9,15.9
1.620e-06,29.9,15.7
1.630e-06,30.1,15.5
1.640e-06,30.3,15.7
1.650e-06,30.3,15.7
1.660e-06,30.1,15.7
1.670e-06,30.1,15.7
1.680e-06,30.1,15.5
1.690e-06,30.1,15.7
1.700e-06,30.3,15.7
1.710e-06,30.5,15.9
1.720e-06,30.5,15.9
1.730e-06,30.5,15.7
1.740e-06,30.3,15.7
1.750e-06,30.3,15.7
1.760e-06,30.5,15.9
1.770e-06,30.5,15.9
1.780e-06,30.5,15.9
1.790e-06,30.1,15.9
1.800e-06,30.3,15.7
1.810e-06,30.5,15.7
1.820e-06,30.5,15.9
1.830e-06,30.3,15.7
1.840e-06,30.3,16.3
1.850e-06,30.1,15.9
1.860e-06,30.3,16.3
1.870e-06,30.1,15.7
1.880e-06,30.5,15.9
1.890e-06,30.5,15.9
1.900e-06,30.1,16.1
1.910e-06,30.3,15.9
1.920e-06,30.5,16.1
1.930e-06,30.5,15.9
1.940e-06,30.3,16.3
1.950e-06,30.1,15.7
1.960e-06,30.1,16.3
1.970e-06,30.1,16.1
1.980e-06,30.1,16.1
1.990e-06,30.3,15.7
2.000e-06,30.5,15.9
2.010e-06,30.3,16.3
2.020e-06,30.3,15.9
2.030e-06,30.5,16.1
2.040e-06,30.3,15.9
2.050e-06,30.1,16.1
2.060e-06,30.3,16.1
2.070e-06,30.1,16.1
2.080e-06,30.3,15.9
2.090e-06,30.3,16.3
2.100e-06,30.3,16.5
2.110e-06,30.3,16.1
2.120e-06,30.3,16.1
2.130e-06,30.5,15.9
2.140e-06,30.3,16.1
2.150e-06,29.9,16.3
2.160e-06,30.1,16.1
2.170e-06,30.1,15.9
2.180e-06,30.5,16.3
2.190e-06,30.1,16.1
2.200e-06,30.5,16.5
2.210e-06,30.5,16.1
2.220e-06,30.3,16.3
2.230e-06,30.1,16.1
2.240e-06,30.5,16.7
2.250e-06,30.1,16.1
2.260e-06,30.5,15.9
2.270e-06,29.9,16.1
2.280e-06,30.1,16.3
2.290e-06,29.9,16.1
2.300e-06,30.3,16.1
2.310e-06,30.3,16.5
2.320e-06,30.1,16.1
2.330e-06,30.5,16.3
2.340e-06,30.1,16.5
2.350e-06,29.9,15.9
2.360e-06,30.3,16.5
2.370e-06,30.1,16.1
2.380e-06,30.3,16.1
2.390e-06,30.1,16.3
2.400e-06,30.5,16.1
2.410e-06,30.5,16.5
2.420e-06,30.5,16.3
2.430e-06,30.1,16.1
2.440e-06,30.1,16.5
2.450e-06,30.3,16.5
2.460e-06,30.1,16.1
2.470e-06,30.3,16.1
2.480e-06,30.3,16.3
2.490e-06,30.3,16.3
2.500e-06,30.5,16.5
2.510e-06,30.1,16.5
2.520e-06,30.7,16.5
2.530e-06,30.3,16.5
2.540e-06,29.9,16.1
2.550e-06,30.1,16.3
2.560e-06,29.9,16.5
2.570e-06,29.9,16.5
2.580e-06,30.5,15.7
2.590e-06,30.1,16.3
2.600e-06,30.1,16.3
2.610e-06,29.9,16.3
2.620e-06,29.9,16.1
2.630e-06,30.3,16.5
2.640e-06,30.7,16.3
2.650e-06,29.9,16.7
2.660e-06,30.3,16.3
2.670e-06,30.1,16.5
2.680e-06,30.1,16.3
2.690e-06,29.9,16.3
2.700e-06,30.1,16.3
2.710e-06,30.3,16.5
2.720e-06,30.5,16.3
2.730e-06,30.1,16.5
2.740e-06,30.3,16.5
2.750e-06,30.3,16.3
2.760e-06,30.3,16.3
2.770e-06,30.3,16.1
2.780e-06,30.1,16.3
2.790e-06,29.9,16.3
2.800e-06,30.3,16.3
2.810e-06,30.3,16.3
2.820e-06,29.9,16.7
2.830e-06,30.5,16.3
2.840e-06,30.3,16.5
2.850e-06,30.1,16.3
2.860e-06,29.9,16.3
2.870e-06,29.9,16.3
2.880e-06,30.1,16.3
2.890e-06,30.3,16.3
2.900e-06,30.3,16.7
2.910e-06,30.3,16.5
2.920e-06,29.9,16.5
2.930e-06,30.1,16.3
2.940e-06,30.5,16.3
2.950e-06,30.3,16.1
2.960e-06,30.5,16.7
2.970e-06,30.1,16.3
2.980e-06,30.3,16.5
2.990e-06,30.3,16.5
3.000e-06,30.1,16.3
3.010e-06,30.1,16.3
3.020e-06,30.3,16.7
3.030e-06,30.5,16.5
3.040e-06,30.5,16.5
3.050e-06,30.1,16.1
3.060e-06,29.9,16.5
3.070e-06,30.1,16.3
3.080e-06,30.3,16.3
3.090e-06,30.1,16.7
3.100e-06,30.1,16.7
3.110e-06,30.5,16.5
3.120e-06,30.1,16.5
3.130e-06,30.5,16.7
3.140e-06,30.1,16.9
3.150e-06,30.1,16.3
3.160e-06,30.3,16.7
3.170e-06,30.5,16.5
3.180e-06,30.1,16.5
3.190e-06,30.3,16.3
3.200e-06,30.3,16.3
3.210e-06,30.1,16.7
3.220e-06,30.1,16.1
3.230e-06,30.1,16.3
3.240e-06,29.7,16.3
3.250e-06,30.3,16.3
3.260e-06,30.1,16.3
3.270e-06,30.1,16.3
3.280e-06,30.1,16.7
3.290e-06,30.1,16.5
3.300e-06,30.1,16.5
3.310e-06,29.9,16.7
3.320e-06,30.1,16.5
3.330e-06,30.1,16.5
3.340e-06,29.9,16.5
3.350e-06,30.3,16.5
3.360e-06,30.1,16.3
3.370e-06,30.1,16.5
3.380e-06,30.3,16.7
3.390e-06,30.3,16.3
3.400e-06,30.1,16.5
3.410e-06,30.1,16.5
3.420e-06,29.9,16.3
3.430e-06,29.7,16.5
3.440e-06,29.9,16.7
3.450e-06,30.1,16.1
3.460e-06,30.1,16.5
3.470e-06,30.1,16.7
3.480e-06,29.9,16.9
3.490e-06,29.9,16.3
3.500e-06,30.1,16.7
3.510e-06,30.1,16.5
3.520e-06,30.5,15.9
3.530e-06,29.9,16.9
3.540e-06,30.3,16.5
3.550e-06,30.1,16.3
3.560e-06,30.1,16.5
3.570e-06,30.5,16.3
3.580e-06,30.7,16.3
3.590e-06,30.3,16.3
3.600e-06,29.9,16.1
3.610e-06,30.3,16.7
3.620e-06,30.1,16.7
3.630e-06,30.1,16.5
3.640e-06,30.3,16.3
3.650e-06,30.1,16.3
3.660e-06,30.1,16.9
3.670e-06,30.1,16.7
3.680e-06,30.5,16.7
3.690e-06,30.1,16.3
3.700e-06,30.1,16.7
3.710e-06,29.9,16.7
3.720e-06,30.3,16.5
3.730e-06,30.3,16.5
3.740e-06,30.3,16.9
3.750e-06,30.1,16.7
3.760e-06,30.1,16.3
3.770e-06,29.9,16.7
3.780e-06,30.3,16.5
3.790e-06,30.3,16.5
3.800e-06,30.5,16.3
3.810e-06,30.5,16.7
3.820e-06,30.3,16.5
3.830e-06,29.9,16.7
3.840e-06,30.3,16.5
3.850e-06,29.9,16.3
3.860e-06,30.3,16.5
3.870e-06,30.3,16.5
3.880e-06,30.3,16.5
3.890e-06,30.5,16.7
3.900e-06,30.1,16.5
3.910e-06,29.9,16.7
3.920e-06,30.1,16.5
3.930e-06,30.1,16.5
3.940e-06,30.1,16.5
3.950e-06,30.3,16.7
3.960e-06,30.3,16.7
3.970e-06,30.3,16.7
3.980e-06,30.1,16.7
3.990e-06,29.9,16.5
4.000e-06,30.3,16.5
4.010e-06,30.3,16.7
4.020e-06,30.3,16.7
4.030e-06,30.3,16.7
4.040e-06,30.1,16.5
4.050e-06,30.5,16.7
4.060e-06,30.1,16.5
4.070e-06,30.3,16.5
4.080e-06,30.3,16.7
4.090e-06,30.1,16.9
4.100e-06,30.1,16.9
4.110e-06,30.1,16.7
4.120e-06,30.3,16.7
4.130e-06,30.1,16.9
4.140e-06,30.3,16.7
4.150e-06,29.9,16.7
4.160e-06,30.3,16.9
4.170e-06,30.3,16.7
4.180e-06,30.3,16.7
4.190e-06,30.3,16.5
4.200e-06,30.1,16.5
4.210e-06,30.3,16.5
4.220e-06,30.1,16.7
4.230e-06,30.1,16.5
4.240e-06,30.1,16.7
4.250e-06,30.3,16.9
4.260e-06,29.9,16.9
4.270e-06,30.1,16.7
4.280e-06,29.9,16.9
4.290e-06,30.3,16.7
4.300e-06,30.1,16.7
4.310e-06,30.3,16.7
4.320e-06,30.5,16.7
4.330e-06,30.1,16.9
4.340e-06,30.5,16.7
4.350e-06,30.1,16.9
4.360e-06,30.3,16.5
4.370e-06,30.3,16.7
4.380e-06,30.3,16.7
4.390e-06,30.3,16.7
4.400e-06,30.1,16.5
4.410e-06,30.3,16.7
4.420e-06,30.3,16.3
4.430e-06,29.9,16.9
4.440e-06,30.1,16.7
4.450e-06,30.3,16.5
4.460e-06,30.5,16.5
4.470e-06,30.1,16.9
4.480e-06,30.3,16.5
4.490e-06,30.1,16.7
4.500e-06,30.1,16.9
4.510e-06,30.3,16.7
4.520e-06,30.5,16.7
4.530e-06,29.7,16.7
4.540e-06,30.3,16.5
4.550e-06,30.1,16.9
4.560e-06,30.3,16.5
4.570e-06,30.3,16.5
4.580e-06,30.5,16.7
4.590e-06,30.3,16.5
4.600e-06,30.1,16.9
4.610e-06,30.1,16.9
4.620e-06,30.5,16.7
4.630e-06,29.9,16.7
4.640e-06,30.3,16.7
4.650e-06,29.7,16.5
4.660e-06,30.3,17.1
4.670e-06,30.5,16.9
4.680e-06,30.1,16.7
4.690e-06,30.5,16.9
4.700e-06,30.1,16.9
4.710e-06,30.3,16.7
4.720e-06,30.1,16.5
4.730e-06,30.1,16.7
4.740e-06,30.3,16.5
4.750e-06,29.9,16.7
4.760e-06,30.3,16.9
4.770e-06,30.3,16.7
4.780e-06,30.1,16.9
4.790e-06,30.5,16.7
4.800e-06,30.3,16.7
4.810e-06,30.1,16.7
4.820e-06,30.3,16.7
4.830e-06,30.3,16.9
4.840e-06,30.5,16.7
4.850e-06,30.1,16.7
4.860e-06,30.1,16.5
4.870e-06,30.3,16.5
4.880e-06,30.5,16.7
4.890e-06,30.3,16.9
4.900e-06,29.9,16.5
4.910e-06,29.9,16.5
4.920e-06,29.9,16.5
4.930e-06,30.3,16.5
4.940e-06,30.1,16.7
4.950e-06,30.5,16.7
4.960e-06,30.3,16.3
4.970e-06,29.9,16.9
4.980e-06,30.3,16.7
4.990e-06,30.3,16.5
5.000e-06,30.1,16.9
5.010e-06,30.5,16.7
5.020e-06,30.1,16.7
5.030e-06,30.5,16.5
5.040e-06,30.1,16.7
5.050e-06,30.5,16.5
5.060e-06,30.1,16.7
5.070e-06,30.3,16.7
5.080e-06,30.5,16.7
5.090e-06,30.1,16.7
5.100e-06,29.9,16.7
5.110e-06,30.3,16.7
5.120e-06,30.1,16.9
5.130e-06,30.1,16.7
5.140e-06,30.3,16.7
5.150e-06,30.1,16.9
5.160e-06,30.1,16.5
5.170e-06,30.3,16.7
5.180e-06,30.1,16.7
5.190e-06,30.1,16.9
5.200e-06,30.1,16.7
5.210e-06,30.1,16.7
5.220e-06,30.3,16.9
5.230e-06,30.3,16.9
5.240e-06,30.3,16.7
5.250e-06,30.3,16.7
5.260e-06,30.5,16.5
5.270e-06,30.1,16.9
5.280e-06,30.3,16.9
5.290e-06,30.1,16.9
5.300e-06,30.3,16.7
5.310e-06,30.3,16.9
5.320e-06,30.7,16.7
5.330e-06,30.3,16.7
5.340e-06,30.3,16.7
5.350e-06,30.1,16.7
5.360e-06,30.3,16.7
5.370e-06,30.3,16.9
5.380e-06,29.9,16.7
5.390e-06,30.5,16.5
5.400e-06,30.5,16.7
5.410e-06,30.1,16.9
5.420e-06,30.1,16.5
5.430e-06,30.1,16.5
5.440e-06,30.3,17.1
5.450e-06,30.5,16.7
5.460e-06,30.1,16.7
5.470e-06,30.1,16.9
5.480e-06,30.5,16.9
5.490e-06,29.9,16.5
5.500e-06,30.5,16.5
5.510e-06,30.5,16.9
5.520e-06,30.3,17.1
5.530e-06,30.5,16.7
5.540e-06,30.1,16.5
5.550e-06,30.3,16.5
5.560e-06,30.1,17.1
5.570e-06,30.3,16.7
5.580e-06,30.7,16.3
5.590e-06,30.3,16.7
5.600e-06,30.5,16.7
5.610e-06,30.1,16.5
5.620e-06,30.3,16.7
5.630e-06,30.5,16.7
5.640e-06,30.3,16.9
5.650e-06,30.7,16.5
5.660e-06,30.5,16.5
5.670e-06,30.3,16.7
5.680e-06,30.5,16.9
5.690e-06,30.3,16.5
5.700e-06,30.3,16.7
5.710e-06,30.3,16.9
5.720e-06,30.5,16.9
5.730e-06,30.5,17.1
5.740e-06,30.1,16.7
5.750e-06,29.9,16.7
5.760e-06,30.1,16.9
5.770e-06,30.3,16.7
5.780e-06,30.5,16.9
5.790e-06,30.3,17.1
5.800e-06,30.3,16.9
5.810e-06,30.5,16.9
5.820e-06,30.3,16.7
5.830e-06,30.3,16.7
5.840e-06,30.3,16.9
5.850e-06,30.3,16.5
5.860e-06,30.5,16.7
5.870e-06,30.5,16.9
5.880e-06,30.1,16.7
5.890e-06,30.3,17.1
5.900e-06,30.5,16.7
5.910e-06,30.5,16.7
5.920e-06,30.5,16.7
5.930e-06,30.5,17.1
5.940e-06,30.5,16.5
5.950e-06,30.5,16.7
5.960e-06,30.3,16.9
5.970e-06,29.9,16.5
5.980e-06,30.5,16.7
5.990e-06,30.5,16.9
6.000e-06,30.3,16.7
6.010e-06,30.1,16.9
6.020e-06,30.7,16.7
6.030e-06,30.3,16.5
6.040e-06,30.5,16.7
6.050e-06,30.3,16.9
6.060e-06,30.3,16.7
6.070e-06,30.5,16.7
6.080e-06,30.5,16.7
6.090e-06,30.5,16.9
6.100e-06,30.3,16.7
6.110e-06,30.5,16.7
6.120e-06,29.9,17.1
6.130e-06,30.3,17.1
6.140e-06,30.3,16.7
6.150e-06,30.3,16.9
6.160e-06,30.3,16.7
6.170e-06,30.3,16.9
6.180e-06,30.3,16.7
6.190e-06,30.3,16.7
6.200e-06,30.1,17.1
6.210e-06,30.1,16.9
6.220e-06,30.3,16.5
6.230e-06,29.9,16.5
6.240e-06,30.3,16.9
6.250e-06,30.3,16.7
6.260e-06,30.5,16.7
6.270e-06,30.1,16.9
6.280e-06,30.1,16.9
6.290e-06,30.3,16.7
6.300e-06,30.5,17.1
6.310e-06,30.3,16.7
6.320e-06,30.5,16.7
6.330e-06,30.3,16.7
6.340e-06,30.5,16.7
6.350e-06,30.3,16.5
6.360e-06,29.9,17.1
6.370e-06,30.5,16.5
6.380e-06,30.3,16.9
6.390e-06,30.3,16.9
6.400e-06,30.1,16.9
6.410e-06,30.3,16.5
6.420e-06,30.5,16.7
6.430e-06,30.3,16.5
6.440e-06,29.9,16.9
6.450e-06,30.5,17.1
6.460e-06,30.3,16.7
6.470e-06,30.5,16.7
6.480e-06,29.9,16.7
6.490e-06,30.5,16.7
6.500e-06,29.9,16.9
6.510e-06,30.3,16.9
6.520e-06,30.3,16.7
6.530e-06,30.1,16.7
6.540e-06,30.1,16.7
6.550e-06,30.5,17.1
6.560e-06,30.5,17.1
6.570e-06,30.3,16.7
6.580e-06,30.5,16.7
6.590e-06,30.5,16.9
6.600e-06,30.5,16.7
6.610e-06,30.9,16.7
6.620e-06,30.7,16.9
6.630e-06,30.1,16.9
6.640e-06,30.1,17.1
6.650e-06,30.5,17.3
6.660e-06,30.5,16.9
6.670e-06,30.5,16.5
6.680e-06,30.5,16.9
6.690e-06,29.9,16.9
6.700e-06,30.3,16.7
6.710e-06,30.3,16.9
6.720e-06,30.1,16.9
6.730e-06,30.3,16.5
6.740e-06,30.5,16.7
6.750e-06,30.5,16.9
6.760e-06,30.1,16.3
6.770e-06,30.5,16.3
6.780e-06,30.1,16.7
6.790e-06,30.5,16.9
6.800e-06,30.1,17.3
6.810e-06,30.3,17.1
6.820e-06,30.5,16.7
6.830e-06,30.5,16.7
6.840e-06,30.9,17.1
6.850e-06,30.5,16.9
6.860e-06,30.3,16.9
6.870e-06,30.1,16.9
6.880e-06,30.1,16.9
6.890e-06,30.3,16.9
6.900e-06,30.3,16.9
6.910e-06,30.1,16.9
6.920e-06,30.5,16.9
6.930e-06,30.3,16.5
6.940e-06,30.3,16.9
6.950e-06,30.5,16.9
6.960e-06,30.3,16.7
6.970e-06,30.3,16.9
6.980e-06,30.5,16.7
6.990e-06,30.5,16.5
7.000e-06,30.5,16.9
7.010e-06,30.1,17.1
7.020e-06,30.5,17.1
7.030e-06,30.5,16.9
7.040e-06,30.1,16.7
7.050e-06,30.5,17.3
7.060e-06,30.3,16.5
7.070e-06,30.5,16.7
7.080e-06,30.3,16.9
7.090e-06,30.3,16.7
7.100e-06,30.1,16.7
7.110e-06,30.1,16.7
7.120e-06,30.1,17.3
7.130e-06,30.1,16.9
7.140e-06,30.5,16.9
7.150e-06,30.3,16.9
7.160e-06,30.1,16.7
7.170e-06,30.1,16.3
7.180e-06,30.5,16.9
7.190e-06,30.5,16.7
7.200e-06,30.5,16.9
7.210e-06,30.5,16.7
7.220e-06,30.3,16.9
7.230e-06,30.5,16.9
7.240e-06,30.3,16.7
7.250e-06,30.1,16.7
7.260e-06,30.5,16.9
7.270e-06,30.1,16.5
7.280e-06,30.5,16.7
7.290e-06,30.3,16.5
7.300e-06,30.1,17.1
7.310e-06,30.1,16.9
7.320e-06,30.1,16.7
7.330e-06,30.3,16.7
7.340e-06,30.3,16.9
7.350e-06,30.1,16.7
7.360e-06,30.5,17.1
7.370e-06,30.5,16.5
7.380e-06,30.5,16.9
7.390e-06,30.1,16.7
7.400e-06,30.3,16.5
7.410e-06,30.5,16.9
7.420e-06,30.3,16.7
7.430e-06,30.3,17.1
7.440e-06,30.5,16.9
7.450e-06,30.3,16.9
7.460e-06,30.5,16.9
7.470e-06,30.5,16.9
7.480e-06,30.3,16.9
7.490e-06,30.3,16.9
7.500e-06,30.5,16.9
7.510e-06,30.3,16.9
7.520e-06,30.7,16.9
7.530e-06,30.1,16.7
7.540e-06,29.9,16.9
7.550e-06,30.1,17.1
7.560e-06,30.5,16.9
7.570e-06,30.5,16.9
7.580e-06,30.1,16.5
7.590e-06,30.1,16.9
7.600e-06,30.7,16.9
7.610e-06,30.5,16.9
7.620e-06,30.3,16.7
7.630e-06,30.1,16.5
7.640e-06,30.7,17.1
7.650e-06,30.7,17.3
7.660e-06,30.7,16.5
7.670e-06,29.9,16.9
7.680e-06,30.5,17.1
7.690e-06,30.3,16.5
7.700e-06,30.5,16.9
7.710e-06,30.3,16.7
7.720e-06,30.5,16.7
7.730e-06,30.5,16.7
7.740e-06,30.5,16.9
7.750e-06,30.5,16.7
7.760e-06,30.5,17.1
7.770e-06,30.3,16.7
7.780e-06,30.5,16.7
7.790e-06,30.3,16.7
7.800e-06,30.3,16.9
7.810e-06,30.1,16.9
7.820e-06,30.3,16.9
7.830e-06,30.3,16.9
7.840e-06,30.3,16.9
7.850e-06,30.5,16.9
7.860e-06,30.3,16.9
7.870e-06,30.3,17.1
7.880e-06,30.5,16.9
7.890e-06,30.1,16.9
7.900e-06,30.1,16.9
7.910e-06,30.3,16.7
7.920e-06,30.3,16.9
7.930e-06,30.3,16.5
7.940e-06,30.5,16.7
7.950e-06,30.3,16.9
7.960e-06,30.7,16.7
7.970e-06,30.3,17.1
7.980e-06,30.5,17.1
7.990e-06,30.3,16.7
8.000e-06,30.3,16.9
8.010e-06,30.1,16.7
8.020e-06,30.3,16.9
8.030e-06,30.3,16.9
8.040e-06,30.3,16.5
8.050e-06,30.3,16.7
8.060e-06,30.3,17.1
8.070e-06,30.5,16.7
8.080e-06,30.5,16.9
8.090e-06,30.5,16.5
8.100e-06,30.3,16.9
8.110e-06,30.3,16.7
8.120e-06,30.1,16.7
8.130e-06,30.1,16.9
8.140e-06,30.3,16.9
8.150e-06,30.5,17.1
8.160e-06,30.5,16.9
8.170e-06,29.9,16.9
8.180e-06,30.3,16.7
8.190e-06,30.5,16.9
8.200e-06,30.3,16.7
8.210e-06,30.7,17.1
8.220e-06,30.3,16.9
8.230e-06,30.5,16.9
8.240e-06,30.5,16.9
8.250e-06,30.3,16.7
8.260e-06,29.9,16.9
8.270e-06,30.5,16.7
8.280e-06,30.5,17.1
8.290e-06,30.1,16.7
8.300e-06,30.3,16.9
8.310e-06,29.9,16.7
8.320e-06,30.5,17.1
8.330e-06,30.3,16.9
8.340e-06,30.3,16.9
8.350e-06,30.5,16.9
8.360e-06,30.5,16.7
8.370e-06,30.1,17.1
8.380e-06,30.3,16.9
8.390e-06,30.3,16.9
8.400e-06,30.3,17.1
8.410e-06,30.3,16.9
8.420e-06,30.3,17.1
8.430e-06,30.5,16.9
8.440e-06,30.7,16.7
8.450e-06,30.5,16.9
8.460e-06,30.1,17.3
8.470e-06,30.3,16.7
8.480e-06,30.5,17.1
8.490e-06,30.3,16.7
8.500e-06,30.3,16.7
8.510e-06,30.3,16.9
8.520e-06,30.1,16.7
8.530e-06,30.3,16.7
8.540e-06,30.3,16.9
8.550e-06,30.5,17.1
8.560e-06,30.5,17.1
8.570e-06,30.3,16.7
8.580e-06,30.1,16.9
8.590e-06,30.3,16.5
8.600e-06,30.7,16.9
8.610e-06,30.5,17.1
8.620e-06,30.3,17.1
8.630e-06,30.3,16.9
8.640e-06,30.3,16.9
8.650e-06,30.5,17.1
8.660e-06,30.5,17.1
8.670e-06,30.5,16.9
8.680e-06,30.1,17.3
8.690e-06,30.5,16.7
8.700e-06,30.5,16.7
8.710e-06,30.3,17.1
8.720e-06,30.3,17.1
8.730e-06,30.3,16.7
8.740e-06,30.3,17.1
8.750e-06,30.3,16.9
8.760e-06,30.3,16.9
8.770e-06,30.3,16.7
8.780e-06,30.7,17.1
8.790e-06,30.3,16.7
8.800e-06,30.7,16.7
8.810e-06,30.1,16.9
8.820e-06,30.5,16.9
8.830e-06,30.3,16.7
8.840e-06,30.3,16.9
8.850e-06,30.3,16.7
8.860e-06,30.5,16.7
8.870e-06,30.3,16.7
8.880e-06,30.3,17.1
8.890e-06,30.3,17.1
8.900e-06,30.3,17.1
8.910e-06,30.3,16.9
8.920e-06,30.3,16.7
8.930e-06,29.7,17.1
8.940e-06,28.7,16.3
8.950e-06,27.7,16.5
8.960e-06,26.3,15.9
8.970e-06,24.3,15.3
8.980e-06,23.1,14.3
8.990e-06,21.3,12.7
9.000e-06,20.9,11.5
9.010e-06,20.9,10.9
9.020e-06,20.9,11.1
9.030e-06,20.9,12.3
9.040e-06,20.9,13.5
9.050e-06,20.9,14.9
9.060e-06,20.5,15.3
9.070e-06,19.5,15.5
9.080e-06,18.5,14.7
9.090e-06,16.3,12.9
9.100e-06,14.1,11.1
9.110e-06,12.3,8.5
9.120e-06,10.9,6.9
9.130e-06,9.7,5.1
9.140e-06,9.5,5.5
9.150e-06,10.1,6.1
9.160e-06,10.5,7.5
9.170e-06,11.1,9.3
9.180e-06,11.1,10.9
9.190e-06,10.5,11.7
9.200e-06,10.3,11.3
9.210e-06,9.1,10.3
9.220e-06,7.1,7.9
9.230e-06,5.3,6.1
9.240e-06,3.9,3.9
9.250e-06,3.3,2.9
9.260e-06,2.5,2.7
9.270e-06,3.1,3.5
9.280e-06,3.7,5.1
9.290e-06,4.3,6.5
9.300e-06,5.3,7.5
9.310e-06,6.1,8.7
9.320e-06,6.1,8.7
9.330e-06,6.3,8.3
9.340e-06,5.5,6.9
9.350e-06,4.5,5.7
9.360e-06,3.3,4.7
9.370e-06,2.5,3.3
9.380e-06,1.9,2.7
9.390e-06,1.7,2.5
9.400e-06,1.7,3.1
9.410e-06,2.1,3.5
9.420e-06,2.1,4.9
9.430e-06,2.7,5.3
9.440e-06,2.9,5.7
9.450e-06,2.7,6.1
9.460e-06,2.7,5.5
9.470e-06,2.5,5.1
9.480e-06,2.5,4.5
9.490e-06,1.7,3.9
9.500e-06,1.5,3.5
9.510e-06,1.1,3.3
9.520e-06,0.9,3.3
9.530e-06,0.9,3.3
9.540e-06,0.9,3.7
9.550e-06,0.9,3.5
9.560e-06,1.1,3.9
9.570e-06,1.1,3.9
9.580e-06,0.9,3.7
9.590e-06,1.3,3.3
9.600e-06,0.9,3.3
9.610e-06,0.9,2.9
9.620e-06,0.9,3.3
