Archivos Guadalupe/Data/1410-32-X4/17-10/tek0009CH2.csv

Model,DPO3034
Firmware Version,2.16

Point Format,Y
Horizontal Units,S
Horizontal Scale,1e-06
Sample Interval,1e-08
Record Length,1000
Gating,0.0% to 100.0%
Probe Attenuation,1
Vertical Units,V
Vertical Offset,0
Vertical Scale,0.1
Label,
TIME,CH2
-2.220e-06,0.008
-2.210e-06,0.012
-2.200e-06,0.004
-2.190e-06,0.008
-2.180e-06,0.004
-2.170e-06,0.008
-2.160e-06,0.012
-2.150e-06,-0.004
-2.140e-06,-0.008
-2.130e-06,-0.008
-2.120e-06,-0.008
-2.110e-06,-0.004
-2.100e-06,-0.012
-2.090e-06,-0.004
-2.080e-06,-0.012
-2.070e-06,-0.008
-2.060e-06,-0.008
-2.050e-06,-0.012
-2.040e-06,-0.004
-2.030e-06,-0.008
-2.020e-06,0.004
-2.010e-06,0.012
-2.000e-06,0.012
-1.990e-06,0.012
-1.980e-06,0.012
-1.970e-06,0.008
-1.960e-06,0.008
-1.950e-06,0
-1.940e-06,0
-1.930e-06,0
-1.920e-06,0.004
-1.910e-06,0.008
-1.900e-06,-0.004
-1.890e-06,-0.008
-1.880e-06,-0.012
-1.870e-06,-0.008
-1.860e-06,-0.004
-1.850e-06,-0.004
-1.840e-06,0.004
-1.830e-06,0.012
-1.820e-06,0.012
-1.810e-06,0.012
-1.800e-06,0.016
-1.790e-06,0.008
-1.780e-06,0.008
-1.770e-06,0.008
-1.760e-06,0.012
-1.750e-06,0.012
-1.740e-06,0.004
-1.730e-06,0.012
-1.720e-06,0
-1.710e-06,0.004
-1.700e-06,-0.004
-1.690e-06,0.004
-1.680e-06,0
-1.670e-06,-0.004
-1.660e-06,-0.004
-1.650e-06,0
-1.640e-06,0.008
-1.630e-06,0.008
-1.620e-06,0.004
-1.610e-06,0.004
-1.600e-06,0.012
-1.590e-06,0.012
-1.580e-06,0.012
-1.570e-06,0.008
-1.560e-06,0.016
-1.550e-06,0.004
-1.540e-06,0.016
-1.530e-06,0.012
-1.520e-06,0.008
-1.510e-06,0.004
-1.500e-06,0.008
-1.490e-06,0
-1.480e-06,-0.012
-1.470e-06,0
-1.460e-06,0.004
-1.450e-06,0.004
-1.440e-06,0.004
-1.430e-06,0.012
-1.420e-06,-0.004
-1.410e-06,0.012
-1.400e-06,0.008
-1.390e-06,0.012
-1.380e-06,0.004
-1.370e-06,0.008
-1.360e-06,0.02
-1.350e-06,0.024
-1.340e-06,0.016
-1.330e-06,0.004
-1.320e-06,0.004
-1.310e-06,0.016
-1.300e-06,0.008
-1.290e-06,0
-1.280e-06,-0.004
-1.270e-06,0.004
-1.260e-06,0
-1.250e-06,0.016
-1.240e-06,0.028
-1.230e-06,0.04
-1.220e-06,0.048
-1.210e-06,0.052
-1.200e-06,0.052
-1.190e-06,0.06
-1.180e-06,0.052
-1.170e-06,0.056
-1.160e-06,0.056
-1.150e-06,0.064
-1.140e-06,0.08
-1.130e-06,0.092
-1.120e-06,0.096
-1.110e-06,0.1
-1.100e-06,0.112
-1.090e-06,0.112
-1.080e-06,0.12
-1.070e-06,0.128
-1.060e-06,0.136
-1.050e-06,0.14
-1.040e-06,0.156
-1.030e-06,0.152
-1.020e-06,0.156
-1.010e-06,0.152
-1.000e-06,0.14
-9.900e-07,0.136
-9.800e-07,0.14
-9.700e-07,0.14
-9.600e-07,0.14
-9.500e-07,0.148
-9.400e-07,0.156
-9.300e-07,0.156
-9.200e-07,0.156
-9.100e-07,0.156
-9.000e-07,0.144
-8.900e-07,0.144
-8.800e-07,0.14
-8.700e-07,0.124
-8.600e-07,0.136
-8.500e-07,0.132
-8.400e-07,0.132
-8.300e-07,0.132
-8.200e-07,0.132
-8.100e-07,0.132
-8.000e-07,0.136
-7.900e-07,0.136
-7.800e-07,0.148
-7.700e-07,0.148
-7.600e-07,0.144
-7.500e-07,0.148
-7.400e-07,0.156
-7.300e-07,0.16
-7.200e-07,0.148
-7.100e-07,0.152
-7.000e-07,0.148
-6.900e-07,0.152
-6.800e-07,0.148
-6.700e-07,0.148
-6.600e-07,0.144
-6.500e-07,0.144
-6.400e-07,0.14
-6.300e-07,0.136
-6.200e-07,0.128
-6.100e-07,0.14
-6.000e-07,0.14
-5.900e-07,0.144
-5.800e-07,0.144
-5.700e-07,0.144
-5.600e-07,0.136
-5.500e-07,0.144
-5.400e-07,0.14
-5.300e-07,0.136
-5.200e-07,0.132
-5.100e-07,0.136
-5.000e-07,0.14
-4.900e-07,0.14
-4.800e-07,0.14
-4.700e-07,0.136
-4.600e-07,0.136
-4.500e-07,0.14
-4.400e-07,0.132
-4.300e-07,0.136
-4.200e-07,0.136
-4.100e-07,0.14
-4.000e-07,0.148
-3.900e-07,0.148
-3.800e-07,0.144
-3.700e-07,0.156
-3.600e-07,0.152
-3.500e-07,0.152
-3.400e-07,0.144
-3.300e-07,0.144
-3.200e-07,0.144
-3.100e-07,0.144
-3.000e-07,0.144
-2.900e-07,0.132
-2.800e-07,0.128
-2.700e-07,0.132
-2.600e-07,0.128
-2.500e-07,0.124
-2.400e-07,0.14
-2.300e-07,0.132
-2.200e-07,0.132
-2.100e-07,0.148
-2.000e-07,0.156
-1.900e-07,0.16
-1.800e-07,0.18
-1.700e-07,0.184
-1.600e-07,0.184
-1.500e-07,0.184
-1.400e-07,0.196
-1.300e-07,0.204
-1.200e-07,0.208
-1.100e-07,0.212
-1.000e-07,0.216
-9.000e-08,0.224
-8.000e-08,0.232
-7.000e-08,0.236
-6.000e-08,0.244
-5.000e-08,0.244
-4.000e-08,0.248
-3.000e-08,0.248
-2.000e-08,0.256
-1.000e-08,0.244
-1.117e-20,0.256
1.000e-08,0.264
2.000e-08,0.268
3.000e-08,0.276
4.000e-08,0.284
5.000e-08,0.3
6.000e-08,0.308
7.000e-08,0.32
8.000e-08,0.324
9.000e-08,0.324
1.000e-07,0.332
1.100e-07,0.34
1.200e-07,0.34
1.300e-07,0.348
1.400e-07,0.348
1.500e-07,0.356
1.600e-07,0.356
1.700e-07,0.364
1.800e-07,0.36
1.900e-07,0.388
2.000e-07,0.388
2.100e-07,0.404
2.200e-07,0.4
2.300e-07,0.428
2.400e-07,0.436
2.500e-07,0.436
2.600e-07,0.432
2.700e-07,0.436
2.800e-07,0.428
2.900e-07,0.444
3.000e-07,0.444
3.100e-07,0.448
3.200e-07,0.464
3.300e-07,0.456
3.400e-07,0.444
3.500e-07,0.452
3.600e-07,0.452
3.700e-07,0.452
3.800e-07,0.444
3.900e-07,0.46
4.000e-07,0.456
4.100e-07,0.472
4.200e-07,0.468
4.300e-07,0.468
4.400e-07,0.468
4.500e-07,0.472
4.600e-07,0.484
4.700e-07,0.476
4.800e-07,0.476
4.900e-07,0.476
5.000e-07,0.468
5.100e-07,0.48
5.200e-07,0.476
5.300e-07,0.48
5.400e-07,0.472
5.500e-07,0.476
5.600e-07,0.472
5.700e-07,0.46
5.800e-07,0.464
5.900e-07,0.464
6.000e-07,0.464
6.100e-07,0.464
6.200e-07,0.468
6.300e-07,0.464
6.400e-07,0.464
6.500e-07,0.468
6.600e-07,0.46
6.700e-07,0.468
6.800e-07,0.46
6.900e-07,0.468
7.000e-07,0.468
7.100e-07,0.468
7.200e-07,0.464
7.300e-07,0.468
7.400e-07,0.464
7.500e-07,0.464
7.600e-07,0.468
7.700e-07,0.46
7.800e-07,0.464
7.900e-07,0.456
8.000e-07,0.452
8.100e-07,0.46
8.200e-07,0.456
8.300e-07,0.456
8.400e-07,0.468
8.500e-07,0.464
8.600e-07,0.472
8.700e-07,0.46
8.800e-07,0.452
8.900e-07,0.448
9.000e-07,0.448
9.100e-07,0.448
9.200e-07,0.448
9.300e-07,0.452
9.400e-07,0.444
9.500e-07,0.452
9.600e-07,0.46
9.700e-07,0.448
9.800e-07,0.448
9.900e-07,0.444
1.000e-06,0.44
1.010e-06,0.448
1.020e-06,0.444
1.030e-06,0.44
1.040e-06,0.456
1.050e-06,0.456
1.060e-06,0.44
1.070e-06,0.448
1.080e-06,0.44
1.090e-06,0.444
1.100e-06,0.448
1.110e-06,0.44
1.120e-06,0.44
1.130e-06,0.444
1.140e-06,0.432
1.150e-06,0.44
1.160e-06,0.436
1.170e-06,0.428
1.180e-06,0.424
1.190e-06,0.424
1.200e-06,0.432
1.210e-06,0.452
1.220e-06,0.452
1.230e-06,0.44
1.240e-06,0.424
1.250e-06,0.404
1.260e-06,0.4
1.270e-06,0.404
1.280e-06,0.44
1.290e-06,0.456
1.300e-06,0.456
1.310e-06,0.444
1.320e-06,0.464
1.330e-06,0.452
1.340e-06,0.44
1.350e-06,0.424
1.360e-06,0.4
1.370e-06,0.388
1.380e-06,0.4
1.390e-06,0.412
1.400e-06,0.408
1.410e-06,0.384
1.420e-06,0.368
1.430e-06,0.364
1.440e-06,0.364
1.450e-06,0.36
1.460e-06,0.36
1.470e-06,0.352
1.480e-06,0.352
1.490e-06,0.344
1.500e-06,0.336
1.510e-06,0.34
1.520e-06,0.328
1.530e-06,0.32
1.540e-06,0.312
1.550e-06,0.3
1.560e-06,0.284
1.570e-06,0.288
1.580e-06,0.276
1.590e-06,0.276
1.600e-06,0.26
1.610e-06,0.264
1.620e-06,0.26
1.630e-06,0.256
1.640e-06,0.248
1.650e-06,0.244
1.660e-06,0.232
1.670e-06,0.236
1.680e-06,0.236
1.690e-06,0.24
1.700e-06,0.224
1.710e-06,0.22
1.720e-06,0.2
1.730e-06,0.2
1.740e-06,0.188
1.750e-06,0.188
1.760e-06,0.172
1.770e-06,0.16
1.780e-06,0.144
1.790e-06,0.136
1.800e-06,0.128
1.810e-06,0.124
1.820e-06,0.124
1.830e-06,0.116
1.840e-06,0.124
1.850e-06,0.128
1.860e-06,0.128
1.870e-06,0.116
1.880e-06,0.116
1.890e-06,0.12
1.900e-06,0.128
1.910e-06,0.128
1.920e-06,0.128
1.930e-06,0.12
1.940e-06,0.108
1.950e-06,0.108
1.960e-06,0.112
1.970e-06,0.112
1.980e-06,0.104
1.990e-06,0.104
2.000e-06,0.108
2.010e-06,0.1
2.020e-06,0.096
2.030e-06,0.104
2.040e-06,0.108
2.050e-06,0.108
2.060e-06,0.116
2.070e-06,0.112
2.080e-06,0.112
2.090e-06,0.124
2.100e-06,0.116
2.110e-06,0.116
2.120e-06,0.096
2.130e-06,0.096
2.140e-06,0.096
2.150e-06,0.104
2.160e-06,0.108
2.170e-06,0.104
2.180e-06,0.1
2.190e-06,0.104
2.200e-06,0.104
2.210e-06,0.1
2.220e-06,0.104
2.230e-06,0.104
2.240e-06,0.104
2.250e-06,0.104
2.260e-06,0.108
2.270e-06,0.108
2.280e-06,0.108
2.290e-06,0.112
2.300e-06,0.112
2.310e-06,0.116
2.320e-06,0.108
2.330e-06,0.108
2.340e-06,0.112
2.350e-06,0.108
2.360e-06,0.108
2.370e-06,0.108
2.380e-06,0.108
2.390e-06,0.096
2.400e-06,0.096
2.410e-06,0.084
2.420e-06,0.084
2.430e-06,0.096
2.440e-06,0.084
2.450e-06,0.092
2.460e-06,0.096
2.470e-06,0.084
2.480e-06,0.1
2.490e-06,0.112
2.500e-06,0.116
2.510e-06,0.116
2.520e-06,0.108
2.530e-06,0.112
2.540e-06,0.104
2.550e-06,0.092
2.560e-06,0.092
2.570e-06,0.088
2.580e-06,0.088
2.590e-06,0.08
2.600e-06,0.096
2.610e-06,0.096
2.620e-06,0.1
2.630e-06,0.092
2.640e-06,0.092
2.650e-06,0.084
2.660e-06,0.084
2.670e-06,0.084
2.680e-06,0.092
2.690e-06,0.092
2.700e-06,0.104
2.710e-06,0.104
2.720e-06,0.104
2.730e-06,0.104
2.740e-06,0.096
2.750e-06,0.1
2.760e-06,0.096
2.770e-06,0.092
2.780e-06,0.088
2.790e-06,0.088
2.800e-06,0.092
2.810e-06,0.084
2.820e-06,0.084
2.830e-06,0.08
2.840e-06,0.08
2.850e-06,0.084
2.860e-06,0.084
2.870e-06,0.092
2.880e-06,0.092
2.890e-06,0.092
2.900e-06,0.1
2.910e-06,0.1
2.920e-06,0.104
2.930e-06,0.108
2.940e-06,0.1
2.950e-06,0.108
2.960e-06,0.104
2.970e-06,0.096
2.980e-06,0.096
2.990e-06,0.084
3.000e-06,0.08
3.010e-06,0.08
3.020e-06,0.072
3.030e-06,0.084
3.040e-06,0.08
3.050e-06,0.08
3.060e-06,0.076
3.070e-06,0.084
3.080e-06,0.084
3.090e-06,0.084
3.100e-06,0.084
3.110e-06,0.088
3.120e-06,0.096
3.130e-06,0.096
3.140e-06,0.088
3.150e-06,0.088
3.160e-06,0.08
3.170e-06,0.08
3.180e-06,0.08
3.190e-06,0.076
3.200e-06,0.08
3.210e-06,0.092
3.220e-06,0.084
3.230e-06,0.076
3.240e-06,0.076
3.250e-06,0.084
3.260e-06,0.08
3.270e-06,0.08
3.280e-06,0.084
3.290e-06,0.084
3.300e-06,0.092
3.310e-06,0.088
3.320e-06,0.092
3.330e-06,0.092
3.340e-06,0.088
3.350e-06,0.092
3.360e-06,0.08
3.370e-06,0.088
3.380e-06,0.092
3.390e-06,0.088
3.400e-06,0.088
3.410e-06,0.084
3.420e-06,0.088
3.430e-06,0.092
3.440e-06,0.084
3.450e-06,0.08
3.460e-06,0.088
3.470e-06,0.088
3.480e-06,0.084
3.490e-06,0.096
3.500e-06,0.092
3.510e-06,0.1
3.520e-06,0.096
3.530e-06,0.096
3.540e-06,0.096
3.550e-06,0.096
3.560e-06,0.088
3.570e-06,0.096
3.580e-06,0.096
3.590e-06,0.096
3.600e-06,0.1
3.610e-06,0.108
3.620e-06,0.096
3.630e-06,0.096
3.640e-06,0.096
3.650e-06,0.088
3.660e-06,0.084
3.670e-06,0.084
3.680e-06,0.084
3.690e-06,0.088
3.700e-06,0.104
3.710e-06,0.096
3.720e-06,0.104
3.730e-06,0.096
3.740e-06,0.104
3.750e-06,0.112
3.760e-06,0.108
3.770e-06,0.104
3.780e-06,0.096
3.790e-06,0.1
3.800e-06,0.092
3.810e-06,0.092
3.820e-06,0.092
3.830e-06,0.084
3.840e-06,0.096
3.850e-06,0.096
3.860e-06,0.092
3.870e-06,0.092
3.880e-06,0.092
3.890e-06,0.092
3.900e-06,0.084
3.910e-06,0.088
3.920e-06,0.092
3.930e-06,0.092
3.940e-06,0.092
3.950e-06,0.088
3.960e-06,0.084
3.970e-06,0.092
3.980e-06,0.088
3.990e-06,0.084
4.000e-06,0.096
4.010e-06,0.092
4.020e-06,0.096
4.030e-06,0.104
4.040e-06,0.104
4.050e-06,0.1
4.060e-06,0.096
4.070e-06,0.096
4.080e-06,0.088
4.090e-06,0.092
4.100e-06,0.092
4.110e-06,0.092
4.120e-06,0.092
4.130e-06,0.1
4.140e-06,0.084
4.150e-06,0.092
4.160e-06,0.096
4.170e-06,0.092
4.180e-06,0.096
4.190e-06,0.088
4.200e-06,0.08
4.210e-06,0.08
4.220e-06,0.08
4.230e-06,0.072
4.240e-06,0.068
4.250e-06,0.072
4.260e-06,0.072
4.270e-06,0.068
4.280e-06,0.064
4.290e-06,0.064
4.300e-06,0.064
4.310e-06,0.064
4.320e-06,0.068
4.330e-06,0.068
4.340e-06,0.068
4.350e-06,0.084
4.360e-06,0.084
4.370e-06,0.088
4.380e-06,0.092
4.390e-06,0.088
4.400e-06,0.084
4.410e-06,0.084
4.420e-06,0.084
4.430e-06,0.076
4.440e-06,0.072
4.450e-06,0.068
4.460e-06,0.068
4.470e-06,0.068
4.480e-06,0.064
4.490e-06,0.064
4.500e-06,0.064
4.510e-06,0.064
4.520e-06,0.064
4.530e-06,0.076
4.540e-06,0.076
4.550e-06,0.08
4.560e-06,0.072
4.570e-06,0.076
4.580e-06,0.068
4.590e-06,0.072
4.600e-06,0.068
4.610e-06,0.06
4.620e-06,0.068
4.630e-06,0.068
4.640e-06,0.064
4.650e-06,0.056
4.660e-06,0.068
4.670e-06,0.064
4.680e-06,0.072
4.690e-06,0.068
4.700e-06,0.064
4.710e-06,0.072
4.720e-06,0.072
4.730e-06,0.08
4.740e-06,0.084
4.750e-06,0.092
4.760e-06,0.084
4.770e-06,0.08
4.780e-06,0.076
4.790e-06,0.084
4.800e-06,0.068
4.810e-06,0.068
4.820e-06,0.072
4.830e-06,0.076
4.840e-06,0.076
4.850e-06,0.064
4.860e-06,0.068
4.870e-06,0.072
4.880e-06,0.06
4.890e-06,0.064
4.900e-06,0.068
4.910e-06,0.06
4.920e-06,0.068
4.930e-06,0.076
4.940e-06,0.084
4.950e-06,0.084
4.960e-06,0.084
4.970e-06,0.076
4.980e-06,0.092
4.990e-06,0.092
5.000e-06,0.088
5.010e-06,0.096
5.020e-06,0.092
5.030e-06,0.096
5.040e-06,0.096
5.050e-06,0.092
5.060e-06,0.084
5.070e-06,0.076
5.080e-06,0.072
5.090e-06,0.064
5.100e-06,0.064
5.110e-06,0.068
5.120e-06,0.072
5.130e-06,0.08
5.140e-06,0.08
5.150e-06,0.088
5.160e-06,0.096
5.170e-06,0.096
5.180e-06,0.108
5.190e-06,0.1
5.200e-06,0.088
5.210e-06,0.088
5.220e-06,0.084
5.230e-06,0.08
5.240e-06,0.076
5.250e-06,0.08
5.260e-06,0.084
5.270e-06,0.084
5.280e-06,0.084
5.290e-06,0.084
5.300e-06,0.08
5.310e-06,0.08
5.320e-06,0.076
5.330e-06,0.08
5.340e-06,0.084
5.350e-06,0.088
5.360e-06,0.096
5.370e-06,0.088
5.380e-06,0.096
5.390e-06,0.096
5.400e-06,0.104
5.410e-06,0.108
5.420e-06,0.104
5.430e-06,0.096
5.440e-06,0.1
5.450e-06,0.096
5.460e-06,0.096
5.470e-06,0.084
5.480e-06,0.084
5.490e-06,0.084
5.500e-06,0.076
5.510e-06,0.092
5.520e-06,0.088
5.530e-06,0.084
5.540e-06,0.084
5.550e-06,0.096
5.560e-06,0.1
5.570e-06,0.104
5.580e-06,0.104
5.590e-06,0.108
5.600e-06,0.104
5.610e-06,0.108
5.620e-06,0.108
5.630e-06,0.1
5.640e-06,0.096
5.650e-06,0.092
5.660e-06,0.092
5.670e-06,0.08
5.680e-06,0.084
5.690e-06,0.072
5.700e-06,0.08
5.710e-06,0.076
5.720e-06,0.072
5.730e-06,0.076
5.740e-06,0.076
5.750e-06,0.072
5.760e-06,0.076
5.770e-06,0.084
5.780e-06,0.084
5.790e-06,0.088
5.800e-06,0.092
5.810e-06,0.084
5.820e-06,0.088
5.830e-06,0.084
5.840e-06,0.08
5.850e-06,0.084
5.860e-06,0.068
5.870e-06,0.076
5.880e-06,0.072
5.890e-06,0.084
5.900e-06,0.076
5.910e-06,0.08
5.920e-06,0.084
5.930e-06,0.076
5.940e-06,0.068
5.950e-06,0.068
5.960e-06,0.056
5.970e-06,0.06
5.980e-06,0.072
5.990e-06,0.068
6.000e-06,0.072
6.010e-06,0.072
6.020e-06,0.08
6.030e-06,0.076
6.040e-06,0.072
6.050e-06,0.064
6.060e-06,0.064
6.070e-06,0.064
6.080e-06,0.076
6.090e-06,0.068
6.100e-06,0.08
6.110e-06,0.072
6.120e-06,0.064
6.130e-06,0.064
6.140e-06,0.064
6.150e-06,0.068
6.160e-06,0.072
6.170e-06,0.072
6.180e-06,0.076
6.190e-06,0.08
6.200e-06,0.084
6.210e-06,0.08
6.220e-06,0.08
6.230e-06,0.076
6.240e-06,0.072
6.250e-06,0.068
6.260e-06,0.064
6.270e-06,0.072
6.280e-06,0.06
6.290e-06,0.06
6.300e-06,0.056
6.310e-06,0.052
6.320e-06,0.044
6.330e-06,0.048
6.340e-06,0.056
6.350e-06,0.064
6.360e-06,0.072
6.370e-06,0.08
6.380e-06,0.08
6.390e-06,0.084
6.400e-06,0.084
6.410e-06,0.084
6.420e-06,0.084
6.430e-06,0.072
6.440e-06,0.064
6.450e-06,0.072
6.460e-06,0.072
6.470e-06,0.072
6.480e-06,0.068
6.490e-06,0.068
6.500e-06,0.064
6.510e-06,0.072
6.520e-06,0.068
6.530e-06,0.064
6.540e-06,0.056
6.550e-06,0.064
6.560e-06,0.064
6.570e-06,0.06
6.580e-06,0.06
6.590e-06,0.068
6.600e-06,0.06
6.610e-06,0.068
6.620e-06,0.064
6.630e-06,0.068
6.640e-06,0.076
6.650e-06,0.072
6.660e-06,0.072
6.670e-06,0.072
6.680e-06,0.064
6.690e-06,0.064
6.700e-06,0.064
6.710e-06,0.064
6.720e-06,0.06
6.730e-06,0.064
6.740e-06,0.06
6.750e-06,0.06
6.760e-06,0.064
6.770e-06,0.064
6.780e-06,0.076
6.790e-06,0.076
6.800e-06,0.076
6.810e-06,0.084
6.820e-06,0.088
6.830e-06,0.084
6.840e-06,0.076
6.850e-06,0.072
6.860e-06,0.068
6.870e-06,0.064
6.880e-06,0.064
6.890e-06,0.068
6.900e-06,0.072
6.910e-06,0.072
6.920e-06,0.068
6.930e-06,0.072
6.940e-06,0.064
6.950e-06,0.064
6.960e-06,0.064
6.970e-06,0.068
6.980e-06,0.068
6.990e-06,0.076
7.000e-06,0.084
7.010e-06,0.092
7.020e-06,0.084
7.030e-06,0.092
7.040e-06,0.08
7.050e-06,0.08
7.060e-06,0.084
7.070e-06,0.088
7.080e-06,0.076
7.090e-06,0.072
7.100e-06,0.072
7.110e-06,0.072
7.120e-06,0.072
7.130e-06,0.076
7.140e-06,0.072
7.150e-06,0.076
7.160e-06,0.08
7.170e-06,0.084
7.180e-06,0.068
7.190e-06,0.076
7.200e-06,0.076
7.210e-06,0.084
7.220e-06,0.08
7.230e-06,0.08
7.240e-06,0.092
7.250e-06,0.092
7.260e-06,0.088
7.270e-06,0.084
7.280e-06,0.08
7.290e-06,0.076
7.300e-06,0.072
7.310e-06,0.068
7.320e-06,0.08
7.330e-06,0.08
7.340e-06,0.076
7.350e-06,0.064
7.360e-06,0.072
7.370e-06,0.064
7.380e-06,0.068
7.390e-06,0.064
7.400e-06,0.076
7.410e-06,0.088
7.420e-06,0.092
7.430e-06,0.088
7.440e-06,0.084
7.450e-06,0.084
7.460e-06,0.084
7.470e-06,0.08
7.480e-06,0.084
7.490e-06,0.076
7.500e-06,0.072
7.510e-06,0.068
7.520e-06,0.068
7.530e-06,0.064
7.540e-06,0.064
7.550e-06,0.072
7.560e-06,0.072
7.570e-06,0.076
7.580e-06,0.068
7.590e-06,0.072
7.600e-06,0.072
7.610e-06,0.072
7.620e-06,0.072
7.630e-06,0.068
7.640e-06,0.068
7.650e-06,0.08
7.660e-06,0.08
7.670e-06,0.068
7.680e-06,0.076
7.690e-06,0.072
7.700e-06,0.06
7.710e-06,0.06
7.720e-06,0.064
7.730e-06,0.056
7.740e-06,0.064
7.750e-06,0.064
7.760e-06,0.06
7.770e-06,0.068

