Archivos Guadalupe/Data/1410-32-X4/17-10/tek0001ALL.csv

Model,DPO3034
Firmware Version,2.16

Point Format,Y,
Horizontal Units,S,
Horizontal Scale,4e-06,
Sample Interval,4e-08,
Record Length,1000,
Gating,0.0% to 100.0%,0.0% to 100.0%
Probe Attenuation,1,1
Vertical Units,V,V
Vertical Offset,0,0
Vertical Scale,0.2,0.1
Label,,
TIME,CH1,CH2
-1.768e-05,0.012,0.002
-1.764e-05,0.004,0.002
-1.760e-05,0.012,0.014
-1.756e-05,-0.004,0.01
-1.752e-05,0.004,0.01
-1.748e-05,-0.012,-0.022
-1.744e-05,0.012,-0.01
-1.740e-05,0.012,0.006
-1.736e-05,0.004,0.002
-1.732e-05,-0.004,0.006
-1.728e-05,0.012,-0.018
-1.724e-05,-0.004,-0.014
-1.720e-05,0.004,0.002
-1.716e-05,0.004,-0.006
-1.712e-05,0.004,0.006
-1.708e-05,0.012,0.002
-1.704e-05,0.004,-0.014
-1.700e-05,0.004,0.002
-1.696e-05,0.004,0.01
-1.692e-05,0.004,0.018
-1.688e-05,0.012,-0.006
-1.684e-05,0.004,-0.01
-1.680e-05,-0.012,0.002
-1.676e-05,-0.02,0.002
-1.672e-05,0.004,0.002
-1.668e-05,0.02,0.018
-1.664e-05,0.004,0.01
-1.660e-05,0.004,0.002
-1.656e-05,0.004,0.006
-1.652e-05,0.012,0.006
-1.648e-05,-0.004,-0.006
-1.644e-05,0.004,-0.018
-1.640e-05,0.012,0.002
-1.636e-05,0.012,0.01
-1.632e-05,0.012,0.006
-1.628e-05,0.004,0.014
-1.624e-05,0.004,-0.006
-1.620e-05,0.004,-0.01
-1.616e-05,0.012,0.002
-1.612e-05,0.004,-0.01
-1.608e-05,0.004,0.002
-1.604e-05,0.012,0.006
-1.600e-05,0.004,-0.002
-1.596e-05,0.004,0.026
-1.592e-05,0.004,0.022
-1.588e-05,0.004,0.014
-1.584e-05,-0.004,-0.006
-1.580e-05,0.012,-0.018
-1.576e-05,0.004,0.014
-1.572e-05,0.004,0.014
-1.568e-05,0.004,0.014
-1.564e-05,0.012,0.002
-1.560e-05,0.004,-0.01
-1.556e-05,-0.028,-0.046
-1.552e-05,0.02,0.034
-1.548e-05,0.012,-0.014
-1.544e-05,0.004,0.006
-1.540e-05,0.012,-0.026
-1.536e-05,-0.012,-0.01
-1.532e-05,0.028,0.002
-1.528e-05,0.02,0.014
-1.524e-05,0.012,0.002
-1.520e-05,0.004,-0.026
-1.516e-05,0.004,0.01
-1.512e-05,-0.004,0.01
-1.508e-05,0.012,0.006
-1.504e-05,0.004,0.002
-1.500e-05,0.004,-0.01
-1.496e-05,-0.012,-0.002
-1.492e-05,-0.004,0.01
-1.488e-05,0.004,0.014
-1.484e-05,0.02,0.006
-1.480e-05,-0.004,-0.01
-1.476e-05,0.012,-0.01
-1.472e-05,-0.004,0.01
-1.468e-05,0.004,0.014
-1.464e-05,0.012,0.014
-1.460e-05,-0.004,0.006
-1.456e-05,-0.004,-0.006
-1.452e-05,0.004,0.022
-1.448e-05,0.004,0.014
-1.444e-05,0.012,0.006
-1.440e-05,0.012,-0.01
-1.436e-05,-0.004,0.002
-1.432e-05,-0.004,0.014
-1.428e-05,0.004,0.026
-1.424e-05,0.004,0.01
-1.420e-05,-0.004,0.01
-1.416e-05,0.004,-0.014
-1.412e-05,-0.012,0.002
-1.408e-05,-0.012,0.006
-1.404e-05,-0.004,-0.002
-1.400e-05,0.004,-0.006
-1.396e-05,-0.004,-0.01
-1.392e-05,0.004,0.014
-1.388e-05,0.004,0.01
-1.384e-05,0.004,-0.01
-1.380e-05,0.004,-0.002
-1.376e-05,0.02,-0.002
-1.372e-05,0.004,0.002
-1.368e-05,0.036,0.046
-1.364e-05,-0.004,0.006
-1.360e-05,-0.02,-0.002
-1.356e-05,0.02,-0.006
-1.352e-05,0.012,0.006
-1.348e-05,0.02,0.042
-1.344e-05,0.012,0.002
-1.340e-05,-0.004,-0.01
-1.336e-05,0.028,0.014
-1.332e-05,0.012,0.002
-1.328e-05,-0.004,0.022
-1.324e-05,0.004,0.006
-1.320e-05,0.004,-0.002
-1.316e-05,0.02,-0.006
-1.312e-05,0.004,-0.006
-1.308e-05,0.004,-0.002
-1.304e-05,-0.004,0.002
-1.300e-05,0.012,0.006
-1.296e-05,0.012,-0.01
-1.292e-05,-0.004,-0.022
-1.288e-05,-0.004,-0.002
-1.284e-05,0.012,0.014
-1.280e-05,-0.004,-0.002
-1.276e-05,0.004,-0.01
-1.272e-05,-0.004,-0.002
-1.268e-05,0.012,0.006
-1.264e-05,0.004,0.002
-1.260e-05,-0.004,-0.006
-1.256e-05,0.012,0.01
-1.252e-05,0.012,-0.01
-1.248e-05,0.012,0.01
-1.244e-05,0.012,0.014
-1.240e-05,0.004,0.018
-1.236e-05,0.004,0.006
-1.232e-05,0.02,-0.006
-1.228e-05,0.004,0.014
-1.224e-05,0.012,0.018
-1.220e-05,0.004,0.026
-1.216e-05,0.004,-0.002
-1.212e-05,0.012,0.002
-1.208e-05,0.004,-0.002
-1.204e-05,0.004,0.022
-1.200e-05,-0.004,0.006
-1.196e-05,0.004,0.002
-1.192e-05,0.004,-0.01
-1.188e-05,-0.004,-0.002
-1.184e-05,0.012,0.006
-1.180e-05,-0.004,-0.002
-1.176e-05,0.012,-0.006
-1.172e-05,0.012,-0.018
-1.168e-05,0.004,-0.01
-1.164e-05,0.004,0.002
-1.160e-05,0.012,0.01
-1.156e-05,0.004,-0.006
-1.152e-05,-0.004,-0.01
-1.148e-05,-0.004,-0.022
-1.144e-05,0.004,0.002
-1.140e-05,0.012,0.006
-1.136e-05,0.012,-0.006
-1.132e-05,0.02,0.002
-1.128e-05,0.004,-0.01
-1.124e-05,0.004,0.014
-1.120e-05,0.02,0.014
-1.116e-05,0.004,0.01
-1.112e-05,0.004,0.002
-1.108e-05,0.012,0.014
-1.104e-05,0.012,0.022
-1.100e-05,-0.004,0.018
-1.096e-05,0.004,0.002
-1.092e-05,-0.004,-0.002
-1.088e-05,-0.004,-0.006
-1.084e-05,0.012,-0.002
-1.080e-05,0.012,0.018
-1.076e-05,-0.004,0.006
-1.072e-05,-0.012,-0.002
-1.068e-05,-0.004,-0.018
-1.064e-05,0.012,-0.002
-1.060e-05,0.012,-0.002
-1.056e-05,-0.012,-0.002
-1.052e-05,0.004,0.002
-1.048e-05,0.012,-0.022
-1.044e-05,0.004,-0.002
-1.040e-05,0.004,0.014
-1.036e-05,-0.012,-0.002
-1.032e-05,-0.02,-0.022
-1.028e-05,0.028,0.002
-1.024e-05,0.02,0.002
-1.020e-05,-0.004,0.01
-1.016e-05,0.004,0.014
-1.012e-05,0.004,0.018
-1.008e-05,0.02,0.026
-1.004e-05,0.004,-0.002
-1.000e-05,0.004,0.014
-9.960e-06,-0.004,0.01
-9.920e-06,0.004,0.006
-9.880e-06,0.012,0.006
-9.840e-06,0.02,-0.006
-9.800e-06,-0.004,0.018
-9.760e-06,-0.004,0.03
-9.720e-06,0.004,-0.002
-9.680e-06,-0.004,-0.018
-9.640e-06,0.004,-0.006
-9.600e-06,0.004,0.002
-9.560e-06,0.004,0.026
-9.520e-06,0.012,0.002
-9.480e-06,0.012,0.002
-9.440e-06,-0.004,-0.014
-9.400e-06,0.004,0.002
-9.360e-06,0.004,0.006
-9.320e-06,0.012,0.006
-9.280e-06,0.012,0.002
-9.240e-06,0.004,0.002
-9.200e-06,0.004,-0.002
-9.160e-06,0.004,0.01
-9.120e-06,-0.004,-0.006
-9.080e-06,-0.012,-0.018
-9.040e-06,0.012,-0.01
-9.000e-06,0.012,0.002
-8.960e-06,0.004,0.002
-8.920e-06,-0.004,0.002
-8.880e-06,-0.004,0.014
-8.840e-06,0.004,0.006
-8.800e-06,0.004,-0.01
-8.760e-06,-0.004,0.014
-8.720e-06,-0.004,0.002
-8.680e-06,-0.004,0.002
-8.640e-06,-0.004,-0.014
-8.600e-06,0.012,-0.002
-8.560e-06,0.012,0.022
-8.520e-06,0.004,0.01
-8.480e-06,-0.004,-0.002
-8.440e-06,-0.012,-0.014
-8.400e-06,0.004,-0.01
-8.360e-06,0.02,0.014
-8.320e-06,0.012,0.03
-8.280e-06,0.012,0.01
-8.240e-06,0.004,0.014
-8.200e-06,0.004,-0.01
-8.160e-06,-0.004,0.006
-8.120e-06,0.012,0.022
-8.080e-06,-0.004,0.006
-8.040e-06,0.004,-0.01
-8.000e-06,-0.012,-0.014
-7.960e-06,-0.004,-0.014
-7.920e-06,0.036,0.034
-7.880e-06,0.02,0.022
-7.840e-06,-0.004,0.002
-7.800e-06,-0.012,-0.018
-7.760e-06,0.004,0.002
-7.720e-06,0.012,0.022
-7.680e-06,0.012,0.01
-7.640e-06,-0.004,-0.002
-7.600e-06,0.004,0.014
-7.560e-06,0.004,0.002
-7.520e-06,-0.004,0.018
-7.480e-06,-0.012,0.014
-7.440e-06,0.004,-0.002
-7.400e-06,0.02,-0.01
-7.360e-06,0.012,0.006
-7.320e-06,-0.004,0.01
-7.280e-06,-0.004,-0.014
-7.240e-06,-0.012,0.01
-7.200e-06,0.012,0.002
-7.160e-06,-0.004,0.002
-7.120e-06,-0.004,0.014
-7.080e-06,-0.004,0.014
-7.040e-06,0.012,-0.006
-7.000e-06,0.004,-0.006
-6.960e-06,0.004,0.002
-6.920e-06,0.012,0.018
-6.880e-06,0.004,0.022
-6.840e-06,0.004,-0.002
-6.800e-06,0.004,0.002
-6.760e-06,0.012,0.006
-6.720e-06,-0.004,0.002
-6.680e-06,-0.004,0.006
-6.640e-06,0.012,0.002
-6.600e-06,0.02,0.022
-6.560e-06,-0.004,0.014
-6.520e-06,0.004,-0.002
-6.480e-06,0.004,0.026
-6.440e-06,0.004,0.01
-6.400e-06,0.004,-0.01
-6.360e-06,-0.012,-0.018
-6.320e-06,-0.012,-0.022
-6.280e-06,0.012,0.018
-6.240e-06,0.012,0.006
-6.200e-06,0.012,-0.006
-6.160e-06,0.004,-0.006
-6.120e-06,0.004,-0.014
-6.080e-06,0.012,0.01
-6.040e-06,0.012,-0.002
-6.000e-06,0.004,-0.01
-5.960e-06,0.004,-0.01
-5.920e-06,0.004,0.014
-5.880e-06,0.02,0.006
-5.840e-06,0.004,0.018
-5.800e-06,-0.004,-0.014
-5.760e-06,-0.004,-0.018
-5.720e-06,0.004,-0.01
-5.680e-06,0.012,0.026
-5.640e-06,0.02,0.006
-5.600e-06,0.036,0.002
-5.560e-06,0.06,0.026
-5.520e-06,0.044,0.01
-5.480e-06,0.06,0.006
-5.440e-06,0.092,0.026
-5.400e-06,0.1,0.026
-5.360e-06,0.108,0.018
-5.320e-06,0.116,0.018
-5.280e-06,0.132,0.042
-5.240e-06,0.14,0.034
-5.200e-06,0.164,0.038
-5.160e-06,0.18,0.046
-5.120e-06,0.172,0.042
-5.080e-06,0.204,0.058
-5.040e-06,0.22,0.098
-5.000e-06,0.244,0.074
-4.960e-06,0.236,0.066
-4.920e-06,0.252,0.074
-4.880e-06,0.268,0.07
-4.840e-06,0.284,0.094
-4.800e-06,0.292,0.102
-4.760e-06,0.3,0.094
-4.720e-06,0.316,0.098
-4.680e-06,0.316,0.102
-4.640e-06,0.3,0.122
-4.600e-06,0.3,0.102
-4.560e-06,0.316,0.082
-4.520e-06,0.316,0.082
-4.480e-06,0.316,0.098
-4.440e-06,0.316,0.102
-4.400e-06,0.3,0.098
-4.360e-06,0.3,0.082
-4.320e-06,0.316,0.078
-4.280e-06,0.316,0.09
-4.240e-06,0.284,0.102
-4.200e-06,0.324,0.106
-4.160e-06,0.324,0.09
-4.120e-06,0.3,0.094
-4.080e-06,0.316,0.09
-4.040e-06,0.3,0.11
-4.000e-06,0.3,0.098
-3.960e-06,0.316,0.082
-3.920e-06,0.316,0.086
-3.880e-06,0.316,0.078
-3.840e-06,0.324,0.098
-3.800e-06,0.308,0.114
-3.760e-06,0.324,0.082
-3.720e-06,0.324,0.07
-3.680e-06,0.308,0.086
-3.640e-06,0.308,0.09
-3.600e-06,0.316,0.098
-3.560e-06,0.308,0.066
-3.520e-06,0.316,0.082
-3.480e-06,0.316,0.086
-3.440e-06,0.308,0.082
-3.400e-06,0.308,0.098
-3.360e-06,0.308,0.086
-3.320e-06,0.308,0.062
-3.280e-06,0.316,0.082
-3.240e-06,0.3,0.086
-3.200e-06,0.316,0.094
-3.160e-06,0.324,0.082
-3.120e-06,0.316,0.062
-3.080e-06,0.308,0.07
-3.040e-06,0.3,0.09
-3.000e-06,0.316,0.086
-2.960e-06,0.308,0.086
-2.920e-06,0.308,0.058
-2.880e-06,0.316,0.07
-2.840e-06,0.3,0.066
-2.800e-06,0.324,0.086
-2.760e-06,0.316,0.09
-2.720e-06,0.316,0.078
-2.680e-06,0.324,0.062
-2.640e-06,0.308,0.07
-2.600e-06,0.3,0.078
-2.560e-06,0.3,0.078
-2.520e-06,0.3,0.062
-2.480e-06,0.3,0.054
-2.440e-06,0.3,0.07
-2.400e-06,0.3,0.07
-2.360e-06,0.3,0.09
-2.320e-06,0.308,0.058
-2.280e-06,0.3,0.074
-2.240e-06,0.316,0.058
-2.200e-06,0.3,0.07
-2.160e-06,0.308,0.078
-2.120e-06,0.316,0.066
-2.080e-06,0.316,0.054
-2.040e-06,0.316,0.066
-2.000e-06,0.316,0.078
-1.960e-06,0.316,0.078
-1.920e-06,0.3,0.05
-1.880e-06,0.316,0.054
-1.840e-06,0.316,0.066
-1.800e-06,0.324,0.066
-1.760e-06,0.308,0.07
-1.720e-06,0.308,0.066
-1.680e-06,0.308,0.042
-1.640e-06,0.316,0.062
-1.600e-06,0.34,0.058
-1.560e-06,0.34,0.078
-1.520e-06,0.38,0.09
-1.480e-06,0.396,0.098
-1.440e-06,0.388,0.082
-1.400e-06,0.38,0.082
-1.360e-06,0.428,0.114
-1.320e-06,0.452,0.118
-1.280e-06,0.46,0.106
-1.240e-06,0.46,0.11
-1.200e-06,0.468,0.118
-1.160e-06,0.492,0.13
-1.120e-06,0.516,0.146
-1.080e-06,0.524,0.138
-1.040e-06,0.54,0.13
-1.000e-06,0.532,0.138
-9.600e-07,0.564,0.154
-9.200e-07,0.588,0.154
-8.800e-07,0.588,0.13
-8.400e-07,0.612,0.142
-8.000e-07,0.628,0.158
-7.600e-07,0.636,0.162
-7.200e-07,0.644,0.17
-6.800e-07,0.668,0.146
-6.400e-07,0.668,0.154
-6.000e-07,0.692,0.174
-5.600e-07,0.708,0.174
-5.200e-07,0.724,0.194
-4.800e-07,0.732,0.194
-4.400e-07,0.764,0.174
-4.000e-07,0.756,0.166
-3.600e-07,0.788,0.182
-3.200e-07,0.812,0.206
-2.800e-07,0.796,0.198
-2.400e-07,0.82,0.186
-2.000e-07,0.844,0.202
-1.600e-07,0.836,0.198
-1.200e-07,0.876,0.23
-8.000e-08,0.9,0.242
-4.000e-08,0.908,0.206
-1.294e-19,0.916,0.226
4.000e-08,0.94,0.266
8.000e-08,0.908,0.206
1.200e-07,0.964,0.286
1.600e-07,0.98,0.218
2.000e-07,0.956,0.274
2.400e-07,1.004,0.25
2.800e-07,0.988,0.254
3.200e-07,1.028,0.27
3.600e-07,1.012,0.238
4.000e-07,1.012,0.254
4.400e-07,1.012,0.258
4.800e-07,0.996,0.254
5.200e-07,1.02,0.25
5.600e-07,1.02,0.23
6.000e-07,1.028,0.23
6.400e-07,1.004,0.242
6.800e-07,1.028,0.246
7.200e-07,1.02,0.238
7.600e-07,1.004,0.23
8.000e-07,1.004,0.226
8.400e-07,1.028,0.234
8.800e-07,1.028,0.226
9.200e-07,1.012,0.242
9.600e-07,1.004,0.23
1.000e-06,1.004,0.214
1.040e-06,1.004,0.214
1.080e-06,1.012,0.226
1.120e-06,1.012,0.242
1.160e-06,1.02,0.226
1.200e-06,1.012,0.21
1.240e-06,1.02,0.222
1.280e-06,1.012,0.222
1.320e-06,1.004,0.234
1.360e-06,1.004,0.214
1.400e-06,1.004,0.198
1.440e-06,1.012,0.226
1.480e-06,1.028,0.23
1.520e-06,1.012,0.222
1.560e-06,1.028,0.226
1.600e-06,1.012,0.206
1.640e-06,1.012,0.206
1.680e-06,1.012,0.222
1.720e-06,1.02,0.226
1.760e-06,1.012,0.218
1.800e-06,1.02,0.202
1.840e-06,1.004,0.206
1.880e-06,1.004,0.226
1.920e-06,1.004,0.206
1.960e-06,1.028,0.238
2.000e-06,1.044,0.222
2.040e-06,0.98,0.178
2.080e-06,1.012,0.218
2.120e-06,1.02,0.21
2.160e-06,1.02,0.214
2.200e-06,1.012,0.202
2.240e-06,1.004,0.182
2.280e-06,1.036,0.198
2.320e-06,1.02,0.206
2.360e-06,1.004,0.206
2.400e-06,1.012,0.182
2.440e-06,1.012,0.186
2.480e-06,1.028,0.206
2.520e-06,1.02,0.198
2.560e-06,0.996,0.19
2.600e-06,1.02,0.186
2.640e-06,1.02,0.174
2.680e-06,1.02,0.194
2.720e-06,1.004,0.19
2.760e-06,1.012,0.186
2.800e-06,1.028,0.186
2.840e-06,1.004,0.166
2.880e-06,1.004,0.178
2.920e-06,1.012,0.202
2.960e-06,1.012,0.194
3.000e-06,1.012,0.186
3.040e-06,1.012,0.174
3.080e-06,1.012,0.194
3.120e-06,1.004,0.194
3.160e-06,1.02,0.186
3.200e-06,1.012,0.182
3.240e-06,1.012,0.182
3.280e-06,1.02,0.17
3.320e-06,1.004,0.19
3.360e-06,1.012,0.19
3.400e-06,1.02,0.174
3.440e-06,1.012,0.158
3.480e-06,1.028,0.178
3.520e-06,1.028,0.202
3.560e-06,1.02,0.194
3.600e-06,1.012,0.182
3.640e-06,1.004,0.174
3.680e-06,1.012,0.17
3.720e-06,1.012,0.174
3.760e-06,1.004,0.174
3.800e-06,0.996,0.17
3.840e-06,1.012,0.154
3.880e-06,1.02,0.166
3.920e-06,1.02,0.178
3.960e-06,1.02,0.17
4.000e-06,1.02,0.17
4.040e-06,1.004,0.154
4.080e-06,1.028,0.134
4.120e-06,1.02,0.162
4.160e-06,1.02,0.174
4.200e-06,1.02,0.162
4.240e-06,1.012,0.162
4.280e-06,1.02,0.15
4.320e-06,1.004,0.162
4.360e-06,1.004,0.162
4.400e-06,0.98,0.154
4.440e-06,0.972,0.142
4.480e-06,0.956,0.126
4.520e-06,0.94,0.134
4.560e-06,0.916,0.146
4.600e-06,0.908,0.102
4.640e-06,0.9,0.106
4.680e-06,0.892,0.106
4.720e-06,0.868,0.102
4.760e-06,0.844,0.122
4.800e-06,0.82,0.09
4.840e-06,0.844,0.094
4.880e-06,0.812,0.086
4.920e-06,0.812,0.086
4.960e-06,0.788,0.09
5.000e-06,0.764,0.074
5.040e-06,0.764,0.07
5.080e-06,0.764,0.07
5.120e-06,0.716,0.058
5.160e-06,0.708,0.066
5.200e-06,0.692,0.07
5.240e-06,0.676,0.046
5.280e-06,0.668,0.034
5.320e-06,0.66,0.038
5.360e-06,0.644,0.058
5.400e-06,0.628,0.058
5.440e-06,0.612,0.022
5.480e-06,0.58,0.006
5.520e-06,0.58,0.006
5.560e-06,0.572,0.026
5.600e-06,0.548,0.018
5.640e-06,0.548,0.006
5.680e-06,0.524,-0.006
5.720e-06,0.5,-0.022
5.760e-06,0.5,-0.01
5.800e-06,0.476,-0.01
5.840e-06,0.452,-0.026
5.880e-06,0.46,-0.026
5.920e-06,0.428,-0.03
5.960e-06,0.404,-0.038
6.000e-06,0.42,-0.022
6.040e-06,0.396,-0.022
6.080e-06,0.388,-0.038
6.120e-06,0.372,-0.058
6.160e-06,0.364,-0.058
6.200e-06,0.348,-0.038
6.240e-06,0.332,-0.062
6.280e-06,0.3,-0.062
6.320e-06,0.308,-0.066
6.360e-06,0.3,-0.07
6.400e-06,0.308,-0.058
6.440e-06,0.3,-0.07
6.480e-06,0.3,-0.074
6.520e-06,0.316,-0.066
6.560e-06,0.308,-0.074
6.600e-06,0.308,-0.05
6.640e-06,0.3,-0.05
6.680e-06,0.292,-0.086
6.720e-06,0.3,-0.066
6.760e-06,0.292,-0.082
6.800e-06,0.316,-0.042
6.840e-06,0.3,-0.054
6.880e-06,0.3,-0.086
6.920e-06,0.316,-0.082
6.960e-06,0.308,-0.062
7.000e-06,0.308,-0.062
7.040e-06,0.3,-0.062
7.080e-06,0.3,-0.066
7.120e-06,0.308,-0.074
7.160e-06,0.3,-0.066
7.200e-06,0.316,-0.058
7.240e-06,0.3,-0.054
7.280e-06,0.3,-0.062
7.320e-06,0.308,-0.062
7.360e-06,0.308,-0.062
7.400e-06,0.316,-0.054
7.440e-06,0.3,-0.038
7.480e-06,0.324,-0.05
7.520e-06,0.316,-0.07
7.560e-06,0.308,-0.066
7.600e-06,0.3,-0.058
7.640e-06,0.3,-0.046
7.680e-06,0.3,-0.07
7.720e-06,0.292,-0.094
7.760e-06,0.316,-0.05
7.800e-06,0.332,-0.018
7.840e-06,0.3,-0.022
7.880e-06,0.332,-0.01
7.920e-06,0.284,-0.082
7.960e-06,0.268,-0.082
8.000e-06,0.316,-0.054
8.040e-06,0.316,-0.05
8.080e-06,0.316,-0.058
8.120e-06,0.308,-0.07
8.160e-06,0.3,-0.062
8.200e-06,0.324,-0.042
8.240e-06,0.316,-0.046
8.280e-06,0.292,-0.046
8.320e-06,0.308,-0.062
8.360e-06,0.308,-0.066
8.400e-06,0.316,-0.058
8.440e-06,0.324,-0.038
8.480e-06,0.3,-0.042
8.520e-06,0.308,-0.062
8.560e-06,0.316,-0.046
8.600e-06,0.324,-0.038
8.640e-06,0.308,-0.042
8.680e-06,0.3,-0.042
8.720e-06,0.3,-0.054
8.760e-06,0.316,-0.05
8.800e-06,0.308,-0.054
8.840e-06,0.292,-0.046
8.880e-06,0.3,-0.054
8.920e-06,0.316,-0.058
8.960e-06,0.34,-0.046
9.000e-06,0.3,-0.042
9.040e-06,0.3,-0.038
9.080e-06,0.3,-0.046
9.120e-06,0.3,-0.062
9.160e-06,0.316,-0.074
9.200e-06,0.3,-0.046
9.240e-06,0.324,-0.042
9.280e-06,0.316,-0.03
9.320e-06,0.308,-0.062
9.360e-06,0.308,-0.054
9.400e-06,0.316,-0.038
9.440e-06,0.3,-0.046
9.480e-06,0.308,-0.042
9.520e-06,0.3,-0.038
9.560e-06,0.316,-0.054
9.600e-06,0.324,-0.018
9.640e-06,0.3,-0.014
9.680e-06,0.284,-0.046
9.720e-06,0.3,-0.046
9.760e-06,0.316,-0.046
9.800e-06,0.3,-0.042
9.840e-06,0.308,-0.042
9.880e-06,0.308,-0.03
9.920e-06,0.308,-0.038
9.960e-06,0.3,-0.058
1.000e-05,0.316,-0.034
1.004e-05,0.3,-0.03
1.008e-05,0.3,-0.034
1.012e-05,0.308,-0.034
1.016e-05,0.316,-0.042
1.020e-05,0.308,-0.038
1.024e-05,0.308,-0.038
1.028e-05,0.308,-0.022
1.032e-05,0.3,-0.038
1.036e-05,0.316,-0.05
1.040e-05,0.316,-0.038
1.044e-05,0.316,-0.018
1.048e-05,0.316,-0.026
1.052e-05,0.292,-0.026
1.056e-05,0.3,-0.058
1.060e-05,0.308,-0.05
1.064e-05,0.3,-0.022
1.068e-05,0.308,-0.026
1.072e-05,0.316,-0.022
1.076e-05,0.3,-0.042
1.080e-05,0.3,-0.042
1.084e-05,0.308,-0.026
1.088e-05,0.292,-0.038
1.092e-05,0.316,-0.034
1.096e-05,0.316,-0.03
1.100e-05,0.324,-0.042
1.104e-05,0.3,-0.026
1.108e-05,0.292,-0.038
1.112e-05,0.308,-0.038
1.116e-05,0.284,-0.042
1.120e-05,0.316,-0.058
1.124e-05,0.308,-0.026
1.128e-05,0.308,-0.03
1.132e-05,0.324,-0.038
1.136e-05,0.308,-0.038
1.140e-05,0.316,-0.038
1.144e-05,0.3,-0.026
1.148e-05,0.308,-0.03
1.152e-05,0.316,-0.038
1.156e-05,0.308,-0.034
1.160e-05,0.316,-0.034
1.164e-05,0.316,-0.038
1.168e-05,0.308,-0.014
1.172e-05,0.308,-0.014
1.176e-05,0.316,-0.026
1.180e-05,0.324,-0.038
1.184e-05,0.316,-0.018
1.188e-05,0.292,-0.01
1.192e-05,0.316,0.002
1.196e-05,0.308,-0.022
1.200e-05,0.308,-0.026
1.204e-05,0.308,-0.014
1.208e-05,0.316,0.002
1.212e-05,0.308,-0.01
1.216e-05,0.308,-0.014
1.220e-05,0.292,-0.034
1.224e-05,0.308,-0.026
1.228e-05,0.3,-0.018
1.232e-05,0.292,-0.006
1.236e-05,0.3,-0.038
1.240e-05,0.308,-0.038
1.244e-05,0.3,-0.03
1.248e-05,0.3,-0.014
1.252e-05,0.3,-0.03
1.256e-05,0.3,-0.034
1.260e-05,0.308,-0.042
1.264e-05,0.292,-0.034
1.268e-05,0.308,-0.018
1.272e-05,0.308,-0.026
1.276e-05,0.308,-0.038
1.280e-05,0.3,-0.034
1.284e-05,0.308,-0.03
1.288e-05,0.316,-0.03
1.292e-05,0.3,-0.014
1.296e-05,0.324,-0.03
1.300e-05,0.316,-0.03
1.304e-05,0.324,-0.022
1.308e-05,0.308,-0.006
1.312e-05,0.3,0.002
1.316e-05,0.308,-0.026
1.320e-05,0.308,-0.014
1.324e-05,0.308,-0.014
1.328e-05,0.316,-0.022
1.332e-05,0.3,0.006
1.336e-05,0.308,-0.018
1.340e-05,0.3,-0.022
1.344e-05,0.316,-0.018
1.348e-05,0.316,-0.018
1.352e-05,0.3,-0.014
1.356e-05,0.3,-0.018
1.360e-05,0.308,-0.014
1.364e-05,0.324,0.002
1.368e-05,0.316,-0.006
1.372e-05,0.292,-0.018
1.376e-05,0.3,-0.014
1.380e-05,0.308,-0.026
1.384e-05,0.3,-0.018
1.388e-05,0.308,-0.03
1.392e-05,0.308,-0.022
1.396e-05,0.308,-0.014
1.400e-05,0.324,-0.014
1.404e-05,0.324,-0.034
1.408e-05,0.308,-0.018
1.412e-05,0.308,-0.01
1.416e-05,0.3,-0.018
1.420e-05,0.3,-0.038
1.424e-05,0.316,-0.022
1.428e-05,0.308,-0.018
1.432e-05,0.308,-0.006
1.436e-05,0.308,-0.006
1.440e-05,0.292,-0.03
1.444e-05,0.3,-0.026
1.448e-05,0.308,-0.018
1.452e-05,0.308,-0.014
1.456e-05,0.316,0.002
1.460e-05,0.316,-0.014
1.464e-05,0.316,-0.026
1.468e-05,0.3,-0.034
1.472e-05,0.3,-0.006
1.476e-05,0.316,-0.002
1.480e-05,0.308,-0.034
1.484e-05,0.3,-0.03
1.488e-05,0.324,-0.014
1.492e-05,0.316,-0.01
1.496e-05,0.308,-0.018
1.500e-05,0.3,-0.03
1.504e-05,0.308,-0.046
1.508e-05,0.3,-0.018
1.512e-05,0.316,-0.006
1.516e-05,0.308,0.006
1.520e-05,0.308,-0.014
1.524e-05,0.308,-0.022
1.528e-05,0.324,-0.01
1.532e-05,0.316,0.014
1.536e-05,0.292,-0.006
1.540e-05,0.3,-0.002
1.544e-05,0.308,-0.018
1.548e-05,0.316,-0.006
1.552e-05,0.3,0.014
1.556e-05,0.3,-0.006
1.560e-05,0.308,-0.014
1.564e-05,0.316,-0.018
1.568e-05,0.3,0.006
1.572e-05,0.284,-0.034
1.576e-05,0.3,-0.014
1.580e-05,0.34,0.034
1.584e-05,0.292,-0.042
1.588e-05,0.308,0.006
1.592e-05,0.3,-0.014
1.596e-05,0.3,0.002
1.600e-05,0.324,-0.022
1.604e-05,0.292,-0.026
1.608e-05,0.316,-0.018
1.612e-05,0.3,0.002
1.616e-05,0.292,0.002
1.620e-05,0.316,-0.006
1.624e-05,0.292,-0.014
1.628e-05,0.308,-0.022
1.632e-05,0.308,-0.002
1.636e-05,0.308,-0.03
1.640e-05,0.308,-0.018
1.644e-05,0.316,-0.022
1.648e-05,0.308,-0.018
1.652e-05,0.308,0.006
1.656e-05,0.3,0.006
1.660e-05,0.316,0.002
1.664e-05,0.3,0.002
1.668e-05,0.308,-0.026
1.672e-05,0.316,-0.006
1.676e-05,0.292,0.018
1.680e-05,0.324,0.006
1.684e-05,0.308,-0.01
1.688e-05,0.316,-0.022
1.692e-05,0.308,-0.002
1.696e-05,0.316,-0.002
1.700e-05,0.3,-0.01
1.704e-05,0.316,-0.01
1.708e-05,0.316,-0.014
1.712e-05,0.308,-0.006
1.716e-05,0.316,0.002
1.720e-05,0.308,0.006
1.724e-05,0.308,-0.018
