IVs/2211/A/3 terminales/tek0010ALL.csv

Model,DPO3034
Firmware Version,2.16

Point Format,Y,,
Horizontal Units,S,,
Horizontal Scale,0.0002,,
Sample Interval,4e-10,,
Record Length,5e+06,,
Gating,49.0% to 51.00%,49.0% to 51.00%,49.0% to 51.00%
Probe Attenuation,1,1,1
Vertical Units,V,V,V
Vertical Offset,0,0,0
Vertical Scale,0.02,0.02,0.02
Label,,,
TIME,CH1,CH2,CH3
2.5280240e-04,0.0752,0.0552,0.0344
2.5280280e-04,0.0736,0.0552,0.0328
2.5280320e-04,0.0736,0.0552,0.0344
2.5280360e-04,0.072,0.0552,0.0352
2.5280400e-04,0.0712,0.0552,0.0352
2.5280440e-04,0.0688,0.056,0.0352
2.5280480e-04,0.068,0.0568,0.0352
2.5280520e-04,0.0664,0.0576,0.0344
2.5280560e-04,0.0664,0.0576,0.0336
2.5280600e-04,0.0656,0.0576,0.0336
2.5280640e-04,0.0648,0.0552,0.0352
2.5280680e-04,0.064,0.0568,0.0344
2.5280720e-04,0.064,0.056,0.0336
2.5280760e-04,0.0648,0.0552,0.0336
2.5280800e-04,0.068,0.0552,0.0336
2.5280840e-04,0.0664,0.0536,0.0352
2.5280880e-04,0.068,0.0536,0.0344
2.5280920e-04,0.0688,0.0544,0.0344
2.5280960e-04,0.0712,0.0552,0.0336
2.5281000e-04,0.072,0.0536,0.032
2.5281040e-04,0.0744,0.0552,0.032
2.5281080e-04,0.076,0.0552,0.0336
2.5281120e-04,0.0752,0.0552,0.0336
2.5281160e-04,0.0768,0.0544,0.0344
2.5281200e-04,0.0768,0.0544,0.0336
2.5281240e-04,0.0768,0.0552,0.0344
2.5281280e-04,0.0752,0.0544,0.0352
2.5281320e-04,0.0744,0.0544,0.0344
2.5281360e-04,0.0728,0.0544,0.0344
2.5281400e-04,0.072,0.0544,0.0352
2.5281440e-04,0.0712,0.056,0.0352
2.5281480e-04,0.0688,0.056,0.0344
2.5281520e-04,0.0672,0.0576,0.036
2.5281560e-04,0.0672,0.0568,0.036
2.5281600e-04,0.0656,0.056,0.0344
2.5281640e-04,0.0648,0.056,0.0344
2.5281680e-04,0.0648,0.0552,0.0336
2.5281720e-04,0.0656,0.0536,0.0336
2.5281760e-04,0.0648,0.0536,0.0344
2.5281800e-04,0.0664,0.0536,0.0336
2.5281840e-04,0.0664,0.0536,0.0336
2.5281880e-04,0.068,0.0544,0.0336
2.5281920e-04,0.0688,0.0552,0.0352
2.5281960e-04,0.0704,0.056,0.0336
2.5282000e-04,0.072,0.056,0.0328
2.5282040e-04,0.0744,0.056,0.0344
2.5282080e-04,0.0752,0.0576,0.0344
2.5282120e-04,0.0768,0.0576,0.0336
2.5282160e-04,0.0776,0.0568,0.0344
2.5282200e-04,0.0776,0.0552,0.0344
2.5282240e-04,0.0776,0.0552,0.0344
2.5282280e-04,0.076,0.0528,0.036
2.5282320e-04,0.0752,0.0536,0.036
2.5282360e-04,0.0744,0.0552,0.036
2.5282400e-04,0.0728,0.056,0.036
2.5282440e-04,0.0712,0.0544,0.0352
2.5282480e-04,0.0696,0.0552,0.036
2.5282520e-04,0.0672,0.0552,0.036
2.5282560e-04,0.0664,0.0552,0.036
2.5282600e-04,0.0648,0.0536,0.0344
2.5282640e-04,0.064,0.0536,0.0344
2.5282680e-04,0.0648,0.0536,0.0352
2.5282720e-04,0.0656,0.0528,0.0344
2.5282760e-04,0.0648,0.0536,0.0328
2.5282800e-04,0.0664,0.0536,0.0328
2.5282840e-04,0.0672,0.0552,0.0328
2.5282880e-04,0.0688,0.0568,0.032
2.5282920e-04,0.0704,0.0568,0.0344
2.5282960e-04,0.072,0.0576,0.0328
2.5283000e-04,0.0744,0.0568,0.032
2.5283040e-04,0.0744,0.0568,0.0328
2.5283080e-04,0.0768,0.0568,0.0336
2.5283120e-04,0.0768,0.0568,0.0336
2.5283160e-04,0.0776,0.056,0.032
2.5283200e-04,0.0776,0.0544,0.0336
2.5283240e-04,0.076,0.0544,0.0336
2.5283280e-04,0.0744,0.0552,0.032
2.5283320e-04,0.0736,0.0544,0.0344
2.5283360e-04,0.0728,0.0544,0.036
2.5283400e-04,0.072,0.0552,0.0352
2.5283440e-04,0.0704,0.0544,0.0352
2.5283480e-04,0.0688,0.0544,0.036
2.5283520e-04,0.068,0.0552,0.036
2.5283560e-04,0.0656,0.0544,0.0352
2.5283600e-04,0.064,0.0528,0.0344
2.5283640e-04,0.064,0.052,0.0352
2.5283680e-04,0.0632,0.0528,0.0352
2.5283720e-04,0.0624,0.0536,0.0352
2.5283760e-04,0.0624,0.0536,0.0344
2.5283800e-04,0.0632,0.0544,0.0336
2.5283840e-04,0.0648,0.0552,0.0336
2.5283880e-04,0.068,0.0536,0.0336
2.5283920e-04,0.0704,0.056,0.0336
2.5283960e-04,0.0704,0.0568,0.0336
2.5284000e-04,0.0736,0.0576,0.0336
2.5284040e-04,0.0752,0.0576,0.032
2.5284080e-04,0.076,0.0568,0.032
2.5284120e-04,0.0768,0.0552,0.0328
2.5284160e-04,0.0776,0.056,0.0336
2.5284200e-04,0.0768,0.056,0.0336
2.5284240e-04,0.0768,0.0552,0.0328
2.5284280e-04,0.0768,0.0552,0.0328
2.5284320e-04,0.0736,0.0552,0.0328
2.5284360e-04,0.0712,0.0552,0.0352
2.5284400e-04,0.0704,0.0552,0.036
2.5284440e-04,0.0696,0.0544,0.0352
2.5284480e-04,0.0664,0.052,0.036
2.5284520e-04,0.0672,0.0512,0.0368
2.5284560e-04,0.0664,0.0512,0.0376
2.5284600e-04,0.0656,0.052,0.036
2.5284640e-04,0.0656,0.0528,0.0344
2.5284680e-04,0.0648,0.0528,0.0344
2.5284720e-04,0.064,0.0528,0.0328
2.5284760e-04,0.0648,0.0536,0.0344
2.5284800e-04,0.0664,0.0552,0.0344
2.5284840e-04,0.068,0.0568,0.0344
2.5284880e-04,0.0712,0.0568,0.0336
2.5284920e-04,0.0712,0.056,0.0328
2.5284960e-04,0.072,0.0576,0.0328
2.5285000e-04,0.0728,0.056,0.0328
2.5285040e-04,0.0752,0.0544,0.0328
2.5285080e-04,0.0768,0.056,0.0344
2.5285120e-04,0.0768,0.0552,0.0328
2.5285160e-04,0.0768,0.056,0.0328
2.5285200e-04,0.0768,0.056,0.0344
2.5285240e-04,0.0768,0.056,0.0336
2.5285280e-04,0.0744,0.056,0.0344
2.5285320e-04,0.0736,0.056,0.0352
2.5285360e-04,0.0728,0.056,0.0352
2.5285400e-04,0.0712,0.0552,0.0336
2.5285440e-04,0.0704,0.0552,0.0352
2.5285480e-04,0.0688,0.0528,0.0352
2.5285520e-04,0.068,0.0528,0.036
2.5285560e-04,0.068,0.0512,0.0352
2.5285600e-04,0.0664,0.0504,0.0352
2.5285640e-04,0.0656,0.0512,0.0344
2.5285680e-04,0.0648,0.0528,0.0336
2.5285720e-04,0.0656,0.052,0.0336
2.5285760e-04,0.0688,0.0536,0.0336
2.5285800e-04,0.0672,0.0544,0.0328
2.5285840e-04,0.0688,0.0552,0.0336
2.5285880e-04,0.072,0.056,0.032
2.5285920e-04,0.0728,0.0568,0.0312
2.5285960e-04,0.0744,0.0552,0.032
2.5286000e-04,0.0768,0.0552,0.032
2.5286040e-04,0.0776,0.0552,0.032
2.5286080e-04,0.0768,0.056,0.032
2.5286120e-04,0.076,0.056,0.0336
2.5286160e-04,0.076,0.0568,0.0328
2.5286200e-04,0.0736,0.0568,0.0328
2.5286240e-04,0.0744,0.0576,0.0336
2.5286280e-04,0.072,0.0576,0.0328
2.5286320e-04,0.072,0.0576,0.0352
2.5286360e-04,0.0696,0.056,0.036
2.5286400e-04,0.0688,0.0552,0.0368
2.5286440e-04,0.0672,0.0552,0.0352
2.5286480e-04,0.0664,0.0552,0.036
2.5286520e-04,0.064,0.0536,0.0344
2.5286560e-04,0.064,0.0536,0.0344
2.5286600e-04,0.0632,0.0536,0.0344
2.5286640e-04,0.0632,0.0536,0.0344
2.5286680e-04,0.0632,0.0552,0.0352
2.5286720e-04,0.0648,0.0568,0.0344
2.5286760e-04,0.0664,0.056,0.0336
2.5286800e-04,0.0664,0.0544,0.0336
2.5286840e-04,0.0696,0.0544,0.0336
2.5286880e-04,0.072,0.0552,0.032
2.5286920e-04,0.0744,0.0544,0.0304
2.5286960e-04,0.076,0.0544,0.0312
2.5287000e-04,0.0768,0.0536,0.0328
2.5287040e-04,0.076,0.0528,0.032
2.5287080e-04,0.076,0.0544,0.032
2.5287120e-04,0.0776,0.0536,0.032
2.5287160e-04,0.0768,0.0552,0.0328
2.5287200e-04,0.0752,0.056,0.032
2.5287240e-04,0.0736,0.056,0.0304
2.5287280e-04,0.0728,0.0552,0.0336
2.5287320e-04,0.0712,0.0552,0.0336
2.5287360e-04,0.0712,0.0536,0.0328
2.5287400e-04,0.0696,0.0544,0.0336
2.5287440e-04,0.0664,0.0552,0.0344
2.5287480e-04,0.0656,0.0544,0.0352
2.5287520e-04,0.0664,0.0544,0.0352
2.5287560e-04,0.0656,0.0552,0.0344
2.5287600e-04,0.0656,0.0552,0.0336
2.5287640e-04,0.0648,0.056,0.0352
2.5287680e-04,0.0664,0.0568,0.0344
2.5287720e-04,0.068,0.056,0.0336
2.5287760e-04,0.0696,0.0568,0.0336
2.5287800e-04,0.0712,0.0552,0.0336
2.5287840e-04,0.0736,0.0552,0.0336
2.5287880e-04,0.0752,0.0536,0.032
2.5287920e-04,0.0776,0.0552,0.0304
2.5287960e-04,0.0784,0.0536,0.0304
2.5288000e-04,0.0784,0.0536,0.032
2.5288040e-04,0.0792,0.0552,0.032
2.5288080e-04,0.0792,0.056,0.032
2.5288120e-04,0.0784,0.056,0.032
2.5288160e-04,0.0768,0.0552,0.0312
2.5288200e-04,0.076,0.0544,0.032
2.5288240e-04,0.0752,0.0552,0.032
2.5288280e-04,0.0736,0.0528,0.0312
2.5288320e-04,0.0712,0.0536,0.032
2.5288360e-04,0.0688,0.0536,0.032
2.5288400e-04,0.0688,0.0544,0.032
2.5288440e-04,0.068,0.0536,0.0344
2.5288480e-04,0.0672,0.0544,0.032
2.5288520e-04,0.064,0.056,0.0312
2.5288560e-04,0.0648,0.0568,0.0328
2.5288600e-04,0.0656,0.0568,0.0328
2.5288640e-04,0.068,0.0576,0.032
2.5288680e-04,0.0704,0.0592,0.0336
2.5288720e-04,0.0728,0.0592,0.0328
2.5288760e-04,0.0728,0.0576,0.032
2.5288800e-04,0.0752,0.0552,0.0304
2.5288840e-04,0.0784,0.0544,0.0304
2.5288880e-04,0.08,0.0536,0.0312
2.5288920e-04,0.0808,0.0528,0.0296
2.5288960e-04,0.0824,0.0512,0.0296
2.5289000e-04,0.084,0.0512,0.0296
2.5289040e-04,0.0824,0.0496,0.0304
2.5289080e-04,0.0824,0.0504,0.0312
2.5289120e-04,0.0816,0.0488,0.0288
2.5289160e-04,0.0792,0.048,0.0304
2.5289200e-04,0.0768,0.0488,0.0296
2.5289240e-04,0.0744,0.0488,0.0296
2.5289280e-04,0.0728,0.0488,0.0312
2.5289320e-04,0.0696,0.048,0.0304
2.5289360e-04,0.0656,0.0488,0.0296
2.5289400e-04,0.064,0.0496,0.0304
2.5289440e-04,0.0648,0.0512,0.032
2.5289480e-04,0.064,0.052,0.0328
2.5289520e-04,0.0624,0.0536,0.0328
2.5289560e-04,0.0624,0.0552,0.0312
2.5289600e-04,0.064,0.056,0.0312
2.5289640e-04,0.0648,0.0552,0.032
2.5289680e-04,0.0664,0.0568,0.032
2.5289720e-04,0.0696,0.0552,0.0312
2.5289760e-04,0.0712,0.0536,0.0296
2.5289800e-04,0.0728,0.0528,0.0296
2.5289840e-04,0.0744,0.0528,0.0296
2.5289880e-04,0.0744,0.052,0.0296
2.5289920e-04,0.0744,0.0512,0.0288
2.5289960e-04,0.076,0.0504,0.0272
2.5290000e-04,0.076,0.0496,0.0272
2.5290040e-04,0.0744,0.0496,0.0272
2.5290080e-04,0.0744,0.0488,0.0288
2.5290120e-04,0.0728,0.0456,0.0288
2.5290160e-04,0.0696,0.0448,0.028
2.5290200e-04,0.0672,0.044,0.0272
2.5290240e-04,0.0648,0.0448,0.028
2.5290280e-04,0.0632,0.0456,0.028
2.5290320e-04,0.0616,0.0464,0.0264
2.5290360e-04,0.0592,0.048,0.0272
2.5290400e-04,0.0576,0.0488,0.0272
2.5290440e-04,0.056,0.0512,0.0272
2.5290480e-04,0.0544,0.0528,0.0272
2.5290520e-04,0.0552,0.0536,0.0272
2.5290560e-04,0.0576,0.0552,0.0272
2.5290600e-04,0.0584,0.0544,0.0272
2.5290640e-04,0.0608,0.0552,0.0264
2.5290680e-04,0.0624,0.0544,0.028
2.5290720e-04,0.0632,0.0536,0.0272
2.5290760e-04,0.0664,0.0528,0.028
2.5290800e-04,0.0704,0.0512,0.0272
2.5290840e-04,0.0712,0.0504,0.0264
2.5290880e-04,0.0736,0.0512,0.0264
2.5290920e-04,0.0752,0.0488,0.0272
2.5290960e-04,0.0776,0.0472,0.0256
2.5291000e-04,0.0792,0.0464,0.0248
2.5291040e-04,0.08,0.044,0.024
2.5291080e-04,0.0808,0.0424,0.0256
2.5291120e-04,0.0808,0.0408,0.0248
2.5291160e-04,0.0808,0.0392,0.024
2.5291200e-04,0.08,0.036,0.0224
2.5291240e-04,0.0784,0.0352,0.0224
2.5291280e-04,0.0768,0.036,0.0216
2.5291320e-04,0.0744,0.0368,0.0208
2.5291360e-04,0.0744,0.0376,0.0192
2.5291400e-04,0.0728,0.0392,0.02
2.5291440e-04,0.0712,0.0408,0.02
2.5291480e-04,0.0704,0.0432,0.0216
2.5291520e-04,0.0704,0.0456,0.0216
2.5291560e-04,0.072,0.0456,0.02
2.5291600e-04,0.0728,0.0464,0.02
2.5291640e-04,0.0736,0.0488,0.0216
2.5291680e-04,0.0736,0.0504,0.0208
2.5291720e-04,0.0744,0.0528,0.02
2.5291760e-04,0.0752,0.0536,0.02
2.5291800e-04,0.0752,0.0552,0.02
2.5291840e-04,0.0768,0.0592,0.0184
2.5291880e-04,0.0768,0.0592,0.0192
2.5291920e-04,0.0768,0.0616,0.02
2.5291960e-04,0.0784,0.0608,0.0208
2.5292000e-04,0.0784,0.06,0.02
2.5292040e-04,0.0792,0.0592,0.0208
2.5292080e-04,0.0784,0.0584,0.02
2.5292120e-04,0.0768,0.056,0.02
2.5292160e-04,0.076,0.0552,0.02
2.5292200e-04,0.0744,0.0536,0.02
2.5292240e-04,0.0712,0.052,0.0216
2.5292280e-04,0.0696,0.052,0.0208
2.5292320e-04,0.0664,0.0512,0.0232
2.5292360e-04,0.064,0.052,0.0216
2.5292400e-04,0.0624,0.052,0.0208
2.5292440e-04,0.06,0.052,0.0216
2.5292480e-04,0.0592,0.0512,0.024
2.5292520e-04,0.0592,0.0512,0.0224
2.5292560e-04,0.0584,0.0496,0.0216
2.5292600e-04,0.0584,0.048,0.0216
2.5292640e-04,0.0576,0.048,0.02
2.5292680e-04,0.0584,0.0496,0.0208
2.5292720e-04,0.0576,0.0504,0.0208
2.5292760e-04,0.0584,0.0512,0.0208
2.5292800e-04,0.0608,0.0528,0.0216
2.5292840e-04,0.0616,0.0544,0.0216
2.5292880e-04,0.0616,0.0552,0.0216
2.5292920e-04,0.064,0.0552,0.0216
2.5292960e-04,0.0664,0.056,0.0216
2.5293000e-04,0.068,0.0536,0.0232
2.5293040e-04,0.0672,0.0536,0.0232
2.5293080e-04,0.068,0.0528,0.024
2.5293120e-04,0.068,0.0496,0.024
2.5293160e-04,0.0664,0.048,0.0248
2.5293200e-04,0.0672,0.0472,0.0256
2.5293240e-04,0.0648,0.0472,0.0256
2.5293280e-04,0.0632,0.0464,0.0264
2.5293320e-04,0.0624,0.0464,0.028
2.5293360e-04,0.0608,0.0472,0.028
2.5293400e-04,0.0592,0.0456,0.0272
2.5293440e-04,0.0608,0.0448,0.0272
2.5293480e-04,0.06,0.0424,0.0272
2.5293520e-04,0.0608,0.0424,0.0272
2.5293560e-04,0.06,0.0416,0.028
2.5293600e-04,0.06,0.04,0.0272
2.5293640e-04,0.06,0.0392,0.0264
2.5293680e-04,0.0616,0.04,0.0272
2.5293720e-04,0.0616,0.0408,0.0272
2.5293760e-04,0.0624,0.0424,0.0272
2.5293800e-04,0.0632,0.0448,0.028
2.5293840e-04,0.064,0.048,0.0272
2.5293880e-04,0.0672,0.0496,0.0272
2.5293920e-04,0.068,0.0496,0.0272
2.5293960e-04,0.0704,0.0496,0.0272
2.5294000e-04,0.072,0.0488,0.0272
2.5294040e-04,0.0728,0.0472,0.0272
2.5294080e-04,0.0744,0.048,0.0272
2.5294120e-04,0.0728,0.0488,0.028
2.5294160e-04,0.072,0.0504,0.0288
2.5294200e-04,0.0712,0.0496,0.0288
2.5294240e-04,0.0704,0.0504,0.0296
2.5294280e-04,0.0704,0.0504,0.0296
2.5294320e-04,0.0696,0.0504,0.0296
2.5294360e-04,0.0704,0.0496,0.0296
2.5294400e-04,0.0704,0.0496,0.0296
2.5294440e-04,0.0696,0.048,0.0312
2.5294480e-04,0.0712,0.0456,0.0312
2.5294520e-04,0.0696,0.0448,0.0296
2.5294560e-04,0.0704,0.044,0.0288
2.5294600e-04,0.0712,0.0432,0.0304
2.5294640e-04,0.072,0.0432,0.0304
2.5294680e-04,0.072,0.044,0.0296
2.5294720e-04,0.072,0.0448,0.0312
2.5294760e-04,0.0728,0.0448,0.032
2.5294800e-04,0.0736,0.0472,0.0304
2.5294840e-04,0.0736,0.048,0.0304
2.5294880e-04,0.076,0.0488,0.0328
2.5294920e-04,0.0776,0.048,0.0328
2.5294960e-04,0.0784,0.048,0.0336
2.5295000e-04,0.0784,0.048,0.0336
2.5295040e-04,0.0792,0.048,0.0336
2.5295080e-04,0.0784,0.048,0.0336
2.5295120e-04,0.0776,0.0504,0.0344
2.5295160e-04,0.0776,0.0504,0.0336
2.5295200e-04,0.076,0.0512,0.0344
2.5295240e-04,0.076,0.0528,0.0352
2.5295280e-04,0.0744,0.0528,0.0352
2.5295320e-04,0.0744,0.052,0.0352
2.5295360e-04,0.0744,0.052,0.0352
2.5295400e-04,0.0728,0.0488,0.036
2.5295440e-04,0.0744,0.0496,0.036
2.5295480e-04,0.0736,0.0488,0.0336
2.5295520e-04,0.072,0.0464,0.0344
2.5295560e-04,0.0704,0.0464,0.0336
2.5295600e-04,0.0704,0.0456,0.032
2.5295640e-04,0.0696,0.0464,0.032
2.5295680e-04,0.0696,0.0496,0.0312
2.5295720e-04,0.0688,0.0512,0.032
2.5295760e-04,0.0704,0.0512,0.032
2.5295800e-04,0.0712,0.0504,0.032
2.5295840e-04,0.0696,0.0512,0.032
2.5295880e-04,0.0704,0.0528,0.032
2.5295920e-04,0.0704,0.0528,0.0328
2.5295960e-04,0.0704,0.0536,0.0328
2.5296000e-04,0.0704,0.0528,0.0336
2.5296040e-04,0.0704,0.0544,0.0336
2.5296080e-04,0.0688,0.0544,0.0336
2.5296120e-04,0.0672,0.056,0.0336
2.5296160e-04,0.0672,0.0584,0.0336
2.5296200e-04,0.0664,0.0584,0.0344
2.5296240e-04,0.068,0.0584,0.036
2.5296280e-04,0.0672,0.056,0.036
2.5296320e-04,0.0672,0.0552,0.036
2.5296360e-04,0.0648,0.0552,0.036
2.5296400e-04,0.0648,0.0528,0.036
2.5296440e-04,0.0656,0.0544,0.036
2.5296480e-04,0.0664,0.0528,0.0352
2.5296520e-04,0.0656,0.052,0.0352
2.5296560e-04,0.0648,0.052,0.0344
2.5296600e-04,0.064,0.0528,0.0336
2.5296640e-04,0.0632,0.0544,0.0336
2.5296680e-04,0.064,0.0544,0.032
2.5296720e-04,0.0648,0.0544,0.0312
2.5296760e-04,0.0664,0.0568,0.0296
2.5296800e-04,0.0664,0.0568,0.0288
2.5296840e-04,0.0672,0.0568,0.0296
2.5296880e-04,0.068,0.0568,0.0296
2.5296920e-04,0.0696,0.06,0.028
2.5296960e-04,0.0696,0.0592,0.028
2.5297000e-04,0.0712,0.0608,0.0272
2.5297040e-04,0.0712,0.0608,0.0272
2.5297080e-04,0.0712,0.0624,0.0272
2.5297120e-04,0.0728,0.0632,0.0288
2.5297160e-04,0.072,0.0632,0.0272
2.5297200e-04,0.0728,0.0632,0.0288
2.5297240e-04,0.072,0.0616,0.0296
2.5297280e-04,0.072,0.0616,0.0296
2.5297320e-04,0.072,0.0576,0.0296
2.5297360e-04,0.0728,0.0552,0.0296
2.5297400e-04,0.0712,0.0536,0.0288
2.5297440e-04,0.0728,0.0536,0.0288
2.5297480e-04,0.0712,0.0536,0.028
2.5297520e-04,0.0712,0.0544,0.028
2.5297560e-04,0.0704,0.0536,0.028
2.5297600e-04,0.0704,0.0544,0.028
2.5297640e-04,0.0712,0.056,0.0264
2.5297680e-04,0.072,0.0552,0.0272
2.5297720e-04,0.0728,0.056,0.0256
2.5297760e-04,0.0728,0.0568,0.0248
2.5297800e-04,0.0728,0.0568,0.0256
2.5297840e-04,0.0744,0.0576,0.0256
2.5297880e-04,0.0736,0.0592,0.0248
2.5297920e-04,0.0736,0.0592,0.0248
2.5297960e-04,0.0752,0.0616,0.024
2.5298000e-04,0.0752,0.0624,0.024
2.5298040e-04,0.076,0.064,0.0232
2.5298080e-04,0.0768,0.064,0.0232
2.5298120e-04,0.0768,0.064,0.0232
2.5298160e-04,0.0752,0.0624,0.0232
2.5298200e-04,0.0752,0.0616,0.0232
2.5298240e-04,0.0752,0.0608,0.0232
2.5298280e-04,0.0736,0.0584,0.0224
2.5298320e-04,0.0728,0.0568,0.0232
2.5298360e-04,0.0728,0.0536,0.0232
2.5298400e-04,0.0712,0.0544,0.0224
2.5298440e-04,0.0696,0.052,0.0216
2.5298480e-04,0.068,0.0528,0.0216
2.5298520e-04,0.0664,0.052,0.0216
2.5298560e-04,0.0664,0.0512,0.02
2.5298600e-04,0.0664,0.0512,0.0208
2.5298640e-04,0.0664,0.052,0.0216
2.5298680e-04,0.0656,0.0512,0.0208
2.5298720e-04,0.0656,0.0528,0.02
2.5298760e-04,0.064,0.052,0.0192
2.5298800e-04,0.0648,0.0544,0.02
2.5298840e-04,0.064,0.056,0.0216
2.5298880e-04,0.0672,0.056,0.0216
2.5298920e-04,0.068,0.0568,0.0208
2.5298960e-04,0.068,0.0584,0.0216
2.5299000e-04,0.068,0.06,0.0224
2.5299040e-04,0.0688,0.0616,0.0224
2.5299080e-04,0.0688,0.0608,0.0232
2.5299120e-04,0.0688,0.06,0.0232
2.5299160e-04,0.0696,0.0568,0.0248
2.5299200e-04,0.0688,0.0544,0.0224
2.5299240e-04,0.068,0.052,0.0232
2.5299280e-04,0.068,0.0504,0.0224
2.5299320e-04,0.0656,0.0472,0.0232
2.5299360e-04,0.0656,0.0456,0.0232
2.5299400e-04,0.0648,0.0448,0.024
2.5299440e-04,0.0648,0.044,0.0224
2.5299480e-04,0.064,0.044,0.0208
2.5299520e-04,0.0624,0.0432,0.0216
2.5299560e-04,0.0616,0.0408,0.0216
2.5299600e-04,0.0632,0.0408,0.0216
2.5299640e-04,0.0624,0.0416,0.0216
2.5299680e-04,0.0616,0.0416,0.0216
2.5299720e-04,0.0616,0.0424,0.0192
2.5299760e-04,0.0632,0.044,0.0192
2.5299800e-04,0.064,0.0456,0.0208
2.5299840e-04,0.0632,0.0464,0.0192
2.5299880e-04,0.0648,0.0496,0.0192
2.5299920e-04,0.0648,0.0544,0.0176
2.5299960e-04,0.0648,0.0568,0.02
2.5300000e-04,0.0664,0.0568,0.0208
2.5300040e-04,0.068,0.056,0.0192
2.5300080e-04,0.068,0.056,0.0208
2.5300120e-04,0.0696,0.0536,0.0192
2.5300160e-04,0.0696,0.052,0.0208
2.5300200e-04,0.068,0.0504,0.0192
2.5300240e-04,0.068,0.0472,0.0192
2.5300280e-04,0.0688,0.0456,0.0192
2.5300320e-04,0.068,0.0424,0.0192
2.5300360e-04,0.068,0.0408,0.0184
2.5300400e-04,0.068,0.04,0.0176
2.5300440e-04,0.0664,0.04,0.0208
2.5300480e-04,0.0664,0.04,0.02
2.5300520e-04,0.0672,0.0352,0.0192
2.5300560e-04,0.0664,0.0336,0.0176
2.5300600e-04,0.0672,0.0328,0.0192
2.5300640e-04,0.0672,0.0344,0.02
2.5300680e-04,0.0664,0.0344,0.0208
2.5300720e-04,0.0688,0.0352,0.0192
2.5300760e-04,0.068,0.0376,0.02
2.5300800e-04,0.0688,0.0408,0.0192
2.5300840e-04,0.0696,0.0432,0.0192
2.5300880e-04,0.0696,0.0472,0.0208
2.5300920e-04,0.0704,0.0488,0.0216
2.5300960e-04,0.072,0.0512,0.0216
2.5301000e-04,0.0728,0.052,0.0232
2.5301040e-04,0.0728,0.0512,0.0232
2.5301080e-04,0.072,0.0512,0.0232
2.5301120e-04,0.072,0.0504,0.0232
2.5301160e-04,0.0712,0.0472,0.0232
2.5301200e-04,0.0712,0.0456,0.0232
2.5301240e-04,0.0696,0.0448,0.024
2.5301280e-04,0.0688,0.0448,0.0224
2.5301320e-04,0.0696,0.0432,0.0224
2.5301360e-04,0.0688,0.0416,0.0232
2.5301400e-04,0.0696,0.0392,0.0216
2.5301440e-04,0.0688,0.0392,0.0224
2.5301480e-04,0.0696,0.0384,0.0224
2.5301520e-04,0.0696,0.0368,0.0208
2.5301560e-04,0.0704,0.0352,0.0208
2.5301600e-04,0.0696,0.0336,0.0216
2.5301640e-04,0.0696,0.0336,0.0208
2.5301680e-04,0.0688,0.0352,0.02
2.5301720e-04,0.0704,0.036,0.0192
2.5301760e-04,0.0704,0.0368,0.0208
2.5301800e-04,0.0696,0.0392,0.0208
2.5301840e-04,0.0704,0.0424,0.0216
2.5301880e-04,0.0712,0.0448,0.0224
2.5301920e-04,0.0712,0.0464,0.024
2.5301960e-04,0.0688,0.0496,0.0248
2.5302000e-04,0.0688,0.0512,0.0232
2.5302040e-04,0.0688,0.052,0.0232
2.5302080e-04,0.0688,0.0536,0.0248
2.5302120e-04,0.0688,0.0528,0.0256
2.5302160e-04,0.068,0.052,0.0232
2.5302200e-04,0.0664,0.0528,0.024
2.5302240e-04,0.0672,0.0488,0.0248
2.5302280e-04,0.068,0.048,0.024
2.5302320e-04,0.0664,0.0456,0.0224
2.5302360e-04,0.0672,0.044,0.0224
2.5302400e-04,0.068,0.0424,0.0216
2.5302440e-04,0.068,0.04,0.0208
2.5302480e-04,0.0704,0.0408,0.0208
2.5302520e-04,0.0704,0.0392,0.0232
2.5302560e-04,0.0696,0.0384,0.0216
2.5302600e-04,0.0688,0.0376,0.0208
2.5302640e-04,0.068,0.0384,0.02
2.5302680e-04,0.0688,0.0384,0.0192
2.5302720e-04,0.0704,0.0392,0.02
2.5302760e-04,0.0704,0.0408,0.0192
2.5302800e-04,0.0704,0.0424,0.02
2.5302840e-04,0.0704,0.044,0.0216
2.5302880e-04,0.0712,0.0472,0.0224
2.5302920e-04,0.0704,0.0504,0.0216
2.5302960e-04,0.0704,0.0512,0.0232
2.5303000e-04,0.0696,0.0528,0.0224
2.5303040e-04,0.0688,0.0536,0.0232
2.5303080e-04,0.068,0.0536,0.0232
2.5303120e-04,0.0688,0.0552,0.024
