IVs/2211/A/3 terminales/tek0007ALL.csv

Model,DPO3034
Firmware Version,2.16

Point Format,Y,,
Horizontal Units,S,,
Horizontal Scale,0.0002,,
Sample Interval,4e-10,,
Record Length,5e+06,,
Gating,49.9499800% to 50.0499800%,49.9499800% to 50.0499800%,49.9499800% to 50.0499800%
Probe Attenuation,1,1,1
Vertical Units,V,V,V
Vertical Offset,0,0,0
Vertical Scale,0.02,0.02,0.05
Label,,,
TIME,CH1,CH2,CH3
-2.0160000e-07,0.004,-0.0008,-0.004
-2.0120000e-07,0.0032,0,-0.004
-2.0080000e-07,0.0016,0,-0.004
-2.0040000e-07,0,0,0
-2.0000000e-07,-0.0016,0,0
-1.9960000e-07,-0.0008,0,-0.004
-1.9920000e-07,-0.0024,0,-0.002
-1.9880000e-07,-0.0016,-0.0008,-0.002
-1.9840000e-07,-0.0016,-0.0024,0
-1.9800000e-07,-0.0024,-0.0032,-0.002
-1.9760000e-07,-0.0032,-0.004,-0.006
-1.9720000e-07,-0.0024,-0.004,0
-1.9680000e-07,-0.0008,-0.0056,0
-1.9640000e-07,0,-0.0056,0
-1.9600000e-07,0.0008,-0.0056,0
-1.9560000e-07,0.0016,-0.0056,-0.002
-1.9520000e-07,0.0024,-0.0056,-0.002
-1.9480000e-07,0.004,-0.0048,-0.002
-1.9440000e-07,0.004,-0.0032,-0.004
-1.9400000e-07,0.0048,-0.0032,-0.008
-1.9360000e-07,0.0048,-0.0016,-0.006
-1.9320000e-07,0.0056,-0.0016,-0.004
-1.9280000e-07,0.0064,0,-0.006
-1.9240000e-07,0.004,0.0008,-0.004
-1.9200000e-07,0.0048,0.0016,-0.004
-1.9160000e-07,0.004,0.0008,-0.004
-1.9120000e-07,0.0008,-0.0008,-0.006
-1.9080000e-07,0.0008,-0.0008,-0.002
-1.9040000e-07,0,-0.0008,-0.002
-1.9000000e-07,-0.0024,0,-0.002
-1.8960000e-07,-0.0032,0,-0.002
-1.8920000e-07,-0.0016,-0.0008,-0.002
-1.8880000e-07,-0.0032,-0.0016,-0.002
-1.8840000e-07,-0.004,-0.0032,0
-1.8800000e-07,-0.0032,-0.0048,-0.002
-1.8760000e-07,-0.0048,-0.004,-0.008
-1.8720000e-07,-0.0032,-0.0056,-0.004
-1.8680000e-07,-0.0024,-0.0064,-0.002
-1.8640000e-07,-0.0016,-0.008,-0.002
-1.8600000e-07,0.0008,-0.0072,-0.002
-1.8560000e-07,0,-0.0064,-0.002
-1.8520000e-07,0.0008,-0.0048,-0.002
-1.8480000e-07,0.0032,-0.004,-0.006
-1.8440000e-07,0.0032,-0.0016,-0.002
-1.8400000e-07,0.0032,-0.0008,-0.002
-1.8360000e-07,0.0056,0,-0.006
-1.8320000e-07,0.0064,0.0008,-0.006
-1.8280000e-07,0.0048,0.0016,-0.006
-1.8240000e-07,0.004,0.0024,-0.006
-1.8200000e-07,0.004,0.0024,-0.004
-1.8160000e-07,0.0016,0.0032,-0.006
-1.8120000e-07,0.0024,0.0016,-0.004
-1.8080000e-07,0.0008,0.0016,-0.004
-1.8040000e-07,0,0.0008,-0.006
-1.8000000e-07,-0.0016,-0.0008,-0.002
-1.7960000e-07,-0.0032,-0.0008,0
-1.7920000e-07,-0.0024,-0.0008,-0.002
-1.7880000e-07,-0.004,-0.0024,-0.002
-1.7840000e-07,-0.004,-0.004,-0.004
-1.7800000e-07,-0.004,-0.004,-0.004
-1.7760000e-07,-0.0032,-0.0072,-0.004
-1.7720000e-07,-0.0024,-0.0064,-0.002
-1.7680000e-07,-0.004,-0.0064,-0.002
-1.7640000e-07,-0.0008,-0.008,-0.004
-1.7600000e-07,-0.0008,-0.0072,-0.004
-1.7560000e-07,0.0008,-0.0064,-0.006
-1.7520000e-07,0.0008,-0.0064,-0.004
-1.7480000e-07,0.0024,-0.0048,-0.004
-1.7440000e-07,0.0032,-0.0016,-0.008
-1.7400000e-07,0.0032,-0.0016,-0.006
-1.7360000e-07,0.004,-0.0008,-0.002
-1.7320000e-07,0.004,0.0024,-0.004
-1.7280000e-07,0.0048,0.0032,-0.004
-1.7240000e-07,0.0032,0.0032,-0.006
-1.7200000e-07,0.0016,0.0032,-0.004
-1.7160000e-07,0.0024,0.0048,-0.006
-1.7120000e-07,0.0016,0.0048,-0.004
-1.7080000e-07,0.0008,0.0048,-0.004
-1.7040000e-07,-0.0016,0.0016,-0.004
-1.7000000e-07,-0.0032,0.0008,-0.006
-1.6960000e-07,-0.0024,0.0008,-0.002
-1.6920000e-07,-0.004,0.0008,-0.006
-1.6880000e-07,-0.004,-0.0016,-0.006
-1.6840000e-07,-0.004,-0.004,-0.006
-1.6800000e-07,-0.0048,-0.004,-0.006
-1.6760000e-07,-0.004,-0.0072,-0.006
-1.6720000e-07,-0.004,-0.0064,-0.004
-1.6680000e-07,-0.0024,-0.008,-0.002
-1.6640000e-07,-0.0016,-0.008,-0.004
-1.6600000e-07,-0.0008,-0.0072,-0.002
-1.6560000e-07,-0.0008,-0.0072,-0.004
-1.6520000e-07,0,-0.0056,-0.006
-1.6480000e-07,0.0008,-0.004,-0.006
-1.6440000e-07,0.0008,-0.0024,-0.004
-1.6400000e-07,0.0024,0,-0.004
-1.6360000e-07,0.0032,0.0008,-0.004
-1.6320000e-07,0.0032,0.0024,-0.004
-1.6280000e-07,0.0024,0.004,-0.002
-1.6240000e-07,0.0032,0.004,-0.004
-1.6200000e-07,0.0024,0.0048,-0.006
-1.6160000e-07,0.0008,0.0048,-0.006
-1.6120000e-07,0,0.004,-0.004
-1.6080000e-07,-0.0016,0.0032,-0.004
-1.6040000e-07,-0.0016,0.0024,-0.004
-1.6000000e-07,-0.004,0.0024,-0.004
-1.5960000e-07,-0.004,0,-0.004
-1.5920000e-07,-0.0048,-0.0008,-0.004
-1.5880000e-07,-0.0048,-0.0032,-0.004
-1.5840000e-07,-0.004,-0.004,0
-1.5800000e-07,-0.004,-0.0064,-0.004
-1.5760000e-07,-0.004,-0.0056,-0.008
-1.5720000e-07,-0.0024,-0.0072,-0.008
-1.5680000e-07,-0.0016,-0.008,-0.004
-1.5640000e-07,0.0008,-0.008,-0.004
-1.5600000e-07,0.0016,-0.0072,-0.006
-1.5560000e-07,0.0032,-0.004,-0.006
-1.5520000e-07,0.0032,-0.004,-0.002
-1.5480000e-07,0.004,-0.0056,-0.004
-1.5440000e-07,0.0056,-0.0024,-0.004
-1.5400000e-07,0.0048,-0.0016,-0.004
-1.5360000e-07,0.0048,-0.0008,-0.006
-1.5320000e-07,0.0048,0,-0.004
-1.5280000e-07,0.0048,0,-0.004
-1.5240000e-07,0.0048,0.0016,-0.004
-1.5200000e-07,0.004,0.0024,-0.006
-1.5160000e-07,0.0016,0.0024,-0.006
-1.5120000e-07,0,0.0024,-0.002
-1.5080000e-07,-0.0016,0.0024,0
-1.5040000e-07,-0.0024,0.0024,0
-1.5000000e-07,-0.0024,0.0024,0
-1.4960000e-07,-0.004,0.0008,0
-1.4920000e-07,-0.0032,-0.0008,-0.002
-1.4880000e-07,-0.0032,-0.0032,-0.002
-1.4840000e-07,-0.004,-0.004,-0.006
-1.4800000e-07,-0.004,-0.0048,-0.004
-1.4760000e-07,0,-0.0056,-0.006
-1.4720000e-07,0,-0.0064,-0.006
-1.4680000e-07,0.0008,-0.0064,-0.008
-1.4640000e-07,0.0008,-0.004,-0.006
-1.4600000e-07,0.0024,-0.0056,-0.002
-1.4560000e-07,0.004,-0.0056,-0.002
-1.4520000e-07,0.004,-0.0048,-0.006
-1.4480000e-07,0.0048,-0.004,-0.004
-1.4440000e-07,0.0048,-0.0024,-0.006
-1.4400000e-07,0.0048,-0.0024,-0.004
-1.4360000e-07,0.004,-0.0008,-0.004
-1.4320000e-07,0.0024,-0.0008,-0.002
-1.4280000e-07,0.0016,-0.0008,-0.002
-1.4240000e-07,0.0008,0,-0.002
-1.4200000e-07,0,0,-0.002
-1.4160000e-07,-0.0008,0,0
-1.4120000e-07,-0.0024,0.0008,-0.002
-1.4080000e-07,-0.0024,0,-0.004
-1.4040000e-07,-0.004,-0.0008,0
-1.4000000e-07,-0.0064,0,0
-1.3960000e-07,-0.0056,0,-0.004
-1.3920000e-07,-0.0048,-0.0024,-0.004
-1.3880000e-07,-0.0064,-0.0032,0
-1.3840000e-07,-0.0056,-0.0048,-0.002
-1.3800000e-07,-0.0048,-0.0048,-0.004
-1.3760000e-07,-0.0032,-0.0056,-0.004
-1.3720000e-07,-0.0024,-0.004,-0.002
-1.3680000e-07,-0.0008,-0.0056,0
-1.3640000e-07,0,-0.004,0
-1.3600000e-07,0.0032,-0.0024,0
-1.3560000e-07,0.004,-0.0024,-0.004
-1.3520000e-07,0.0048,-0.0008,-0.004
-1.3480000e-07,0.0064,0,-0.004
-1.3440000e-07,0.0064,0,-0.002
-1.3400000e-07,0.004,0.0008,-0.004
-1.3360000e-07,0.004,0.0008,-0.006
-1.3320000e-07,0.004,0.0016,-0.006
-1.3280000e-07,0.0024,0.0016,-0.002
-1.3240000e-07,0.0016,0.0008,-0.002
-1.3200000e-07,-0.0016,-0.0008,-0.002
-1.3160000e-07,-0.0032,-0.0016,0
-1.3120000e-07,-0.004,-0.0016,-0.002
-1.3080000e-07,-0.004,-0.0032,-0.004
-1.3040000e-07,-0.0072,-0.004,-0.006
-1.3000000e-07,-0.0072,-0.0024,-0.004
-1.2960000e-07,-0.008,-0.0016,-0.004
-1.2920000e-07,-0.008,-0.0024,-0.004
-1.2880000e-07,-0.0072,-0.0024,-0.004
-1.2840000e-07,-0.0072,-0.0024,-0.002
-1.2800000e-07,-0.0056,0,-0.004
-1.2760000e-07,-0.004,0.0016,-0.004
-1.2720000e-07,-0.0016,0,-0.002
-1.2680000e-07,0.0016,0,-0.006
-1.2640000e-07,0.0032,0.0008,-0.004
-1.2600000e-07,0.0048,0.0008,-0.004
-1.2560000e-07,0.0056,0.0016,-0.002
-1.2520000e-07,0.0072,0.0016,-0.002
-1.2480000e-07,0.0072,0.0032,0
-1.2440000e-07,0.0072,0.0024,0
-1.2400000e-07,0.008,0.0024,0
-1.2360000e-07,0.0072,0.0024,-0.002
-1.2320000e-07,0.0032,0.0016,-0.002
-1.2280000e-07,0.0032,0.0016,-0.004
-1.2240000e-07,0.0024,-0.0016,-0.004
-1.2200000e-07,0.0008,-0.0024,-0.006
-1.2160000e-07,-0.0008,-0.0024,-0.002
-1.2120000e-07,-0.0032,-0.0032,-0.004
-1.2080000e-07,-0.004,-0.0048,0
-1.2040000e-07,-0.0048,-0.0056,0
-1.2000000e-07,-0.0072,-0.0056,0.002
-1.1960000e-07,-0.0064,-0.0048,-0.002
-1.1920000e-07,-0.0048,-0.0024,-0.002
-1.1880000e-07,-0.0056,-0.0024,-0.002
-1.1840000e-07,-0.0048,-0.0024,-0.002
-1.1800000e-07,-0.0016,0.0008,-0.002
-1.1760000e-07,0.0008,0.0008,0
-1.1720000e-07,0.0032,0.0008,-0.002
-1.1680000e-07,0.0048,0,0
-1.1640000e-07,0.0064,0.0008,-0.002
-1.1600000e-07,0.008,0.0016,-0.002
-1.1560000e-07,0.008,0.0024,-0.002
-1.1520000e-07,0.008,0.0032,0
-1.1480000e-07,0.008,0.004,0
-1.1440000e-07,0.008,0.0048,-0.002
-1.1400000e-07,0.0064,0.0048,0.002
-1.1360000e-07,0.0048,0.004,0.002
-1.1320000e-07,0.0048,0.0024,0
-1.1280000e-07,0.0016,0.0008,0
-1.1240000e-07,0,-0.0008,0.004
-1.1200000e-07,-0.0032,-0.0048,0.002
-1.1160000e-07,-0.004,-0.0064,0
-1.1120000e-07,-0.0064,-0.0064,-0.002
-1.1080000e-07,-0.0064,-0.0072,-0.002
-1.1040000e-07,-0.008,-0.0064,-0.002
-1.1000000e-07,-0.008,-0.004,-0.002
-1.0960000e-07,-0.0064,-0.004,0
-1.0920000e-07,-0.0064,-0.0024,0
-1.0880000e-07,-0.0064,-0.0024,-0.002
-1.0840000e-07,-0.004,0,0
-1.0800000e-07,-0.0024,0,0.002
-1.0760000e-07,0,0.0032,0.004
-1.0720000e-07,0.0024,0.0016,0.002
-1.0680000e-07,0.0056,0.0016,0
-1.0640000e-07,0.0064,0.0008,0.004
-1.0600000e-07,0.0064,0.0024,0.002
-1.0560000e-07,0.0064,0.004,0.002
-1.0520000e-07,0.0056,0.0048,0.004
-1.0480000e-07,0.0048,0.0048,0.004
-1.0440000e-07,0.0048,0.004,0
-1.0400000e-07,0.0032,0.0024,0
-1.0360000e-07,0.0024,0.0024,0
-1.0320000e-07,0.0008,0,0.002
-1.0280000e-07,0.0008,-0.0008,0.002
-1.0240000e-07,-0.0024,-0.0032,0.004
-1.0200000e-07,-0.004,-0.0048,0
-1.0160000e-07,-0.0056,-0.0056,0
-1.0120000e-07,-0.0056,-0.0048,0
-1.0080000e-07,-0.0072,-0.0056,0
-1.0040000e-07,-0.0072,-0.0064,0.002
-1.0000000e-07,-0.0088,-0.0072,0
-9.9600000e-08,-0.0072,-0.0056,0.002
-9.9200000e-08,-0.0048,-0.004,0
-9.8800000e-08,-0.0016,-0.0032,0.004
-9.8400000e-08,-0.0024,-0.0024,0.002
-9.8000000e-08,0,-0.0016,0.004
-9.7600000e-08,0.0008,-0.0008,0.004
-9.7200000e-08,0.0032,0.0008,0.004
-9.6800000e-08,0.004,0.0008,0.004
-9.6400000e-08,0.0056,0.0024,0
-9.6000000e-08,0.0064,0.004,0
-9.5600000e-08,0.008,0.004,0.002
-9.5200000e-08,0.0064,0.0048,0.002
-9.4800000e-08,0.0056,0.0056,0
-9.4400000e-08,0.0056,0.0056,0.004
-9.4000000e-08,0.0032,0.004,0.002
-9.3600000e-08,0.0016,0.004,0.004
-9.3200000e-08,0.0008,0.0024,0.004
-9.2800000e-08,-0.0008,0,0.002
-9.2400000e-08,-0.0016,-0.0008,0.002
-9.2000000e-08,-0.0024,-0.0016,0.004
-9.1600000e-08,-0.004,-0.0024,0.002
-9.1200000e-08,-0.0048,-0.0024,0.002
-9.0800000e-08,-0.0064,-0.0024,0
-9.0400000e-08,-0.0064,-0.0016,0.004
-9.0000000e-08,-0.004,0,0.006
-8.9600000e-08,-0.0032,0,0.002
-8.9200000e-08,0.0008,0,0
-8.8800000e-08,0.0016,0.0008,0.004
-8.8400000e-08,0.0032,0.0008,0.004
-8.8000000e-08,0.0016,0.0016,0.002
-8.7600000e-08,0.0032,0.0024,0.002
-8.7200000e-08,0.0048,0.0032,0.002
-8.6800000e-08,0.0064,0.0024,0.004
-8.6400000e-08,0.0072,0.0024,0
-8.6000000e-08,0.0072,0.0024,0.002
-8.5600000e-08,0.0064,0.0048,0.004
-8.5200000e-08,0.0056,0.0048,0.002
-8.4800000e-08,0.0048,0.004,0.004
-8.4400000e-08,0.004,0.0048,0.004
-8.4000000e-08,0.0032,0.0032,0.004
-8.3600000e-08,0.0024,0.0016,0.004
-8.3200000e-08,0.0008,0.0008,0.006
-8.2800000e-08,-0.0016,-0.0008,0.004
-8.2400000e-08,-0.0024,-0.0016,0.004
-8.2000000e-08,-0.0048,-0.0016,0.004
-8.1600000e-08,-0.0056,-0.0016,0.004
-8.1200000e-08,-0.0064,-0.0016,0.004
-8.0800000e-08,-0.0064,-0.0008,0.004
-8.0400000e-08,-0.0064,-0.0008,0.004
-8.0000000e-08,-0.004,-0.0008,0.008
-7.9600000e-08,-0.0016,0.0008,0.004
-7.9200000e-08,0,0.0016,0.004
-7.8800000e-08,0.0008,0.0024,0.006
-7.8400000e-08,0.0016,0.0016,0.004
-7.8000000e-08,0.004,0.0016,0.006
-7.7600000e-08,0.0048,0.0032,0.004
-7.7200000e-08,0.0064,0.0032,0.004
-7.6800000e-08,0.0064,0.0032,0.004
-7.6400000e-08,0.008,0.0032,0.006
-7.6000000e-08,0.0056,0.004,0.006
-7.5600000e-08,0.0056,0.004,0.004
-7.5200000e-08,0.0056,0.0016,0.006
-7.4800000e-08,0.004,0.0016,0.006
-7.4400000e-08,0.0016,0.0024,0.002
-7.4000000e-08,0,0.0016,0.002
-7.3600000e-08,-0.0008,0.0016,0.002
-7.3200000e-08,-0.0032,0,0
-7.2800000e-08,-0.0048,-0.0016,0.002
-7.2400000e-08,-0.0056,-0.0008,0.002
-7.2000000e-08,-0.0072,0,0.002
-7.1600000e-08,-0.0072,0.0008,0.004
-7.1200000e-08,-0.0072,0.0016,0.004
-7.0800000e-08,-0.0064,0.0008,0.004
-7.0400000e-08,-0.0056,0.0016,0.004
-7.0000000e-08,-0.0048,0.0024,0.004
-6.9600000e-08,-0.0016,0.0032,0.006
-6.9200000e-08,0,0.0032,0.004
-6.8800000e-08,0.0016,0.0048,0.002
-6.8400000e-08,0.0032,0.004,0.004
-6.8000000e-08,0.004,0.0024,0.004
-6.7600000e-08,0.0064,0.0016,0.002
-6.7200000e-08,0.0072,0.0032,0.004
-6.6800000e-08,0.0096,0.0016,0.006
-6.6400000e-08,0.008,0.0016,0.004
-6.6000000e-08,0.008,0.0024,0.004
-6.5600000e-08,0.0072,0,0.004
-6.5200000e-08,0.0064,0,0.004
-6.4800000e-08,0.004,0.0008,0.004
-6.4400000e-08,0.0024,0,0.006
-6.4000000e-08,0.0016,-0.0016,0.004
-6.3600000e-08,-0.0008,-0.0024,0.002
-6.3200000e-08,-0.0032,-0.0032,0.004
-6.2800000e-08,-0.004,-0.0024,0.004
-6.2400000e-08,-0.0032,-0.0016,0.006
-6.2000000e-08,-0.0048,-0.0016,0.004
-6.1600000e-08,-0.0048,0,0.002
-6.1200000e-08,-0.004,0.0016,0.004
-6.0800000e-08,-0.0032,0.0024,0.004
-6.0400000e-08,-0.0016,0.004,0.004
-6.0000000e-08,-0.0008,0.004,0.004
-5.9600000e-08,0.0016,0.0048,0.002
-5.9200000e-08,0.0024,0.0064,0.004
-5.8800000e-08,0.0048,0.0064,0.004
-5.8400000e-08,0.0064,0.0056,0.004
-5.8000000e-08,0.0064,0.0056,0.002
-5.7600000e-08,0.008,0.0024,0.008
-5.7200000e-08,0.008,0.0032,0.004
-5.6800000e-08,0.008,0.004,0.004
-5.6400000e-08,0.008,0.0024,0.004
-5.6000000e-08,0.0064,0.0016,0.004
-5.5600000e-08,0.0064,0.0008,0.004
-5.5200000e-08,0.0048,-0.0008,0.002
-5.4800000e-08,0.004,-0.0016,0
-5.4400000e-08,0.0008,-0.0016,0.002
-5.4000000e-08,0,-0.0016,0.002
-5.3600000e-08,-0.0024,-0.0032,0.004
-5.3200000e-08,-0.0024,-0.0024,0.002
-5.2800000e-08,-0.0048,-0.0024,0.004
-5.2400000e-08,-0.0048,-0.0016,0.002
-5.2000000e-08,-0.0064,-0.0008,0.004
-5.1600000e-08,-0.004,0,0.004
-5.1200000e-08,-0.0032,0.0016,0.006
-5.0800000e-08,-0.0024,0.004,0.004
-5.0400000e-08,-0.0016,0.004,0.004
-5.0000000e-08,0,0.0048,0.006
-4.9600000e-08,0.0016,0.0048,0.008
-4.9200000e-08,0.0032,0.004,0.004
-4.8800000e-08,0.0048,0.004,0.006
-4.8400000e-08,0.0048,0.004,0.008
-4.8000000e-08,0.0048,0.004,0.004
-4.7600000e-08,0.0064,0.004,0.006
-4.7200000e-08,0.0072,0.004,0.004
-4.6800000e-08,0.0064,0.0024,0.002
-4.6400000e-08,0.0056,0.0016,0.004
-4.6000000e-08,0.004,0.0016,0.004
-4.5600000e-08,0.0024,0,0.004
-4.5200000e-08,0.0016,0,0.004
-4.4800000e-08,-0.0016,-0.0016,0.004
-4.4400000e-08,-0.0024,-0.0008,0.004
-4.4000000e-08,-0.0032,-0.0008,0.004
-4.3600000e-08,-0.004,-0.0008,0.004
-4.3200000e-08,-0.0056,0,0.002
-4.2800000e-08,-0.0064,0,0.004
-4.2400000e-08,-0.0064,0.0008,0.002
-4.2000000e-08,-0.0048,0.0008,0.004
-4.1600000e-08,-0.004,0.0016,0.004
-4.1200000e-08,-0.0048,0.0024,0.002
-4.0800000e-08,-0.004,0.0024,0.004
-4.0400000e-08,-0.0024,0.0032,0.002
-4.0000000e-08,-0.0008,0.004,0.004
-3.9600000e-08,0.0024,0.004,0.004
-3.9200000e-08,0.0024,0.004,0.002
-3.8800000e-08,0.004,0.004,0.002
-3.8400000e-08,0.0056,0.0032,0.002
-3.8000000e-08,0.0064,0.0032,0.002
-3.7600000e-08,0.0056,0.0032,0.002
-3.7200000e-08,0.0048,0.0024,0.004
-3.6800000e-08,0.004,0.0016,0.004
-3.6400000e-08,0.0032,-0.0008,0.002
-3.6000000e-08,0.0016,-0.0016,0
-3.5600000e-08,-0.0008,-0.0024,-0.002
-3.5200000e-08,-0.0008,-0.0016,0
-3.4800000e-08,-0.0008,-0.0032,0
-3.4400000e-08,-0.0016,-0.0032,0.002
-3.4000000e-08,-0.0032,-0.0024,0.002
-3.3600000e-08,-0.004,-0.0008,0
-3.3200000e-08,-0.004,0.0008,0.002
-3.2800000e-08,-0.004,0.0016,0
-3.2400000e-08,-0.004,0.0024,0
-3.2000000e-08,-0.0032,0.0024,0.002
-3.1600000e-08,-0.0024,0.0032,0.002
-3.1200000e-08,0.0008,0.0016,0.002
-3.0800000e-08,0.0016,0.004,0.002
-3.0400000e-08,0.0016,0.004,0.002
-3.0000000e-08,0.0032,0.0024,0
-2.9600000e-08,0.0056,0.0024,0.002
-2.9200000e-08,0.0064,0.0024,0
-2.8800000e-08,0.0064,0.0024,0.002
-2.8400000e-08,0.008,0.0016,0.004
-2.8000000e-08,0.0072,-0.0008,0.002
-2.7600000e-08,0.0096,-0.0016,0.002
-2.7200000e-08,0.0072,-0.0024,0.004
-2.6800000e-08,0.0064,-0.0024,0.002
-2.6400000e-08,0.0048,-0.004,0
-2.6000000e-08,0.004,-0.004,0.004
-2.5600000e-08,0.0016,-0.0048,0
-2.5200000e-08,0.0008,-0.0048,0
-2.4800000e-08,-0.0024,-0.004,0.002
-2.4400000e-08,-0.004,-0.0032,0
-2.4000000e-08,-0.004,-0.0016,-0.002
-2.3600000e-08,-0.0048,-0.0008,-0.002
-2.3200000e-08,-0.004,0,-0.004
-2.2800000e-08,-0.0024,0.0016,-0.002
-2.2400000e-08,-0.0016,0.0032,0
-2.2000000e-08,-0.004,0.0032,0
-2.1600000e-08,-0.0008,0.0056,0.002
-2.1200000e-08,0,0.004,0.004
-2.0800000e-08,0.0008,0.004,0.002
-2.0400000e-08,0.0032,0.0048,0.004
-2.0000000e-08,0.004,0.0024,0.002
-1.9600000e-08,0.004,0.0016,0
-1.9200000e-08,0.0056,0.0016,0
-1.8800000e-08,0.008,0.0008,0.002
-1.8400000e-08,0.008,-0.0008,0.002
-1.8000000e-08,0.008,-0.0032,0.004
-1.7600000e-08,0.0064,-0.004,0.004
-1.7200000e-08,0.0048,-0.0048,0
-1.6800000e-08,0.0056,-0.0056,0
-1.6400000e-08,0.0032,-0.0064,0
-1.6000000e-08,0.0016,-0.008,0
-1.5600000e-08,0,-0.0088,0
-1.5200000e-08,-0.0024,-0.0088,0.004
-1.4800000e-08,-0.0024,-0.0056,0
-1.4400000e-08,-0.0048,-0.0048,0.002
-1.4000000e-08,-0.0056,-0.0016,0
-1.3600000e-08,-0.0064,-0.0008,0.002
-1.3200000e-08,-0.0048,0,-0.002
-1.2800000e-08,-0.0064,0.0032,0
-1.2400000e-08,-0.0056,0.0048,-0.002
-1.2000000e-08,-0.004,0.0056,-0.002
-1.1600000e-08,-0.0016,0.0064,-0.002
-1.1200000e-08,-0.0008,0.0064,0.002
-1.0800000e-08,0.0008,0.0064,0.004
-1.0400000e-08,0.0016,0.0056,0.002
-1.0000000e-08,0.0032,0.004,0.002
-9.6000000e-09,0.004,0.0016,0.004
-9.2000000e-09,0.0064,0.0008,0.004
-8.8000000e-09,0.0104,-0.0008,0
-8.4000000e-09,0.0128,-0.0032,0.004
-8.0000000e-09,0.0168,-0.0056,0.004
-7.6000000e-09,0.02,-0.0064,0.002
-7.2000000e-09,0.0232,-0.008,0
-6.8000000e-09,0.0272,-0.0088,0
-6.4000000e-09,0.0304,-0.0096,-0.002
-6.0000000e-09,0.0344,-0.0104,0
-5.6000000e-09,0.0376,-0.0096,0
-5.2000000e-09,0.0424,-0.008,0
-4.8000000e-09,0.0464,-0.008,0.004
-4.4000000e-09,0.0504,-0.0064,0
-4.0000000e-09,0.0552,-0.0024,0
-3.6000000e-09,0.06,0,0
-3.2000000e-09,0.064,0.004,0.002
-2.8000000e-09,0.0672,0.0056,0.002
-2.4000000e-09,0.0704,0.0072,0.002
-2.0000000e-09,0.0744,0.008,0.004
-1.6000000e-09,0.0768,0.0096,0.002
-1.2000000e-09,0.0816,0.0096,0.002
-8.0000000e-10,0.0832,0.0088,-0.002
-4.0000000e-10,0.0856,0.0072,0
-7.3121732e-21,0.088,0.0064,0.006
4.0000000e-10,0.0888,0.0056,0.004
8.0000000e-10,0.0896,0.004,0.006
1.2000000e-09,0.092,0,0.004
1.6000000e-09,0.0936,-0.0008,0.002
2.0000000e-09,0.0944,-0.0032,0.002
2.4000000e-09,0.0952,-0.0064,0
2.8000000e-09,0.0952,-0.0088,0.006
3.2000000e-09,0.0952,-0.0088,0.004
3.6000000e-09,0.0928,-0.008,0
4.0000000e-09,0.092,-0.0088,0
4.4000000e-09,0.092,-0.0096,0
4.8000000e-09,0.0912,-0.0072,0.002
5.2000000e-09,0.0896,-0.004,0
5.6000000e-09,0.0888,-0.0016,0.002
6.0000000e-09,0.0888,0.0008,0.004
6.4000000e-09,0.0864,0.004,0
6.8000000e-09,0.0848,0.0072,-0.002
7.2000000e-09,0.0848,0.0104,-0.002
7.6000000e-09,0.0832,0.0128,-0.002
8.0000000e-09,0.0832,0.0152,-0.002
8.4000000e-09,0.0832,0.0176,0
8.8000000e-09,0.0832,0.0176,0.002
9.2000000e-09,0.0832,0.0192,0
9.6000000e-09,0.084,0.02,0
1.0000000e-08,0.0832,0.0184,-0.004
1.0400000e-08,0.0832,0.0168,-0.004
1.0800000e-08,0.0864,0.0144,0
1.1200000e-08,0.0848,0.0136,0
1.1600000e-08,0.0824,0.0152,0
1.2000000e-08,0.0824,0.0136,0
1.2400000e-08,0.084,0.0128,0.002
1.2800000e-08,0.0824,0.0104,0
1.3200000e-08,0.0816,0.0096,-0.002
1.3600000e-08,0.08,0.0104,-0.002
1.4000000e-08,0.0792,0.0112,0
1.4400000e-08,0.0776,0.012,0.006
1.4800000e-08,0.076,0.0152,0.004
1.5200000e-08,0.0744,0.0168,0.002
1.5600000e-08,0.072,0.02,0
1.6000000e-08,0.0704,0.0248,0
1.6400000e-08,0.068,0.0288,0.002
1.6800000e-08,0.0656,0.0312,0.004
1.7200000e-08,0.064,0.0328,0.002
1.7600000e-08,0.0616,0.0344,0.002
1.8000000e-08,0.0608,0.0368,0
1.8400000e-08,0.0592,0.0392,-0.002
1.8800000e-08,0.0584,0.0384,-0.006
1.9200000e-08,0.0576,0.04,-0.002
1.9600000e-08,0.0584,0.04,0
2.0000000e-08,0.0592,0.0392,-0.002
2.0400000e-08,0.0592,0.04,0
2.0800000e-08,0.0592,0.04,-0.002
2.1200000e-08,0.06,0.0376,0
2.1600000e-08,0.0608,0.0368,-0.002
2.2000000e-08,0.0616,0.0352,-0.002
2.2400000e-08,0.0624,0.0336,0.002
2.2800000e-08,0.064,0.0336,0.002
2.3200000e-08,0.064,0.0344,0.002
2.3600000e-08,0.0656,0.0336,0
2.4000000e-08,0.0656,0.0344,0
2.4400000e-08,0.0664,0.0376,0
2.4800000e-08,0.0656,0.0376,0
2.5200000e-08,0.0656,0.0392,0
2.5600000e-08,0.0648,0.0408,-0.002
2.6000000e-08,0.0632,0.0432,0
2.6400000e-08,0.0624,0.0456,0
2.6800000e-08,0.0616,0.0488,0.002
2.7200000e-08,0.0624,0.0504,0.002
