IVs/2211/A/3 terminales/tek0006ALL.csv

Model,DPO3034
Firmware Version,2.16

Point Format,Y,,
Horizontal Units,S,,
Horizontal Scale,0.0002,,
Sample Interval,4e-10,,
Record Length,5e+06,,
Gating,49.9499800% to 50.0499800%,49.9499800% to 50.0499800%,49.9499800% to 50.0499800%
Probe Attenuation,1,1,1
Vertical Units,V,V,V
Vertical Offset,0,0,0
Vertical Scale,0.1,0.1,0.1
Label,,,
TIME,CH1,CH2,CH3
-2.0160000e-07,-0.008,0.02,-0.004
-2.0120000e-07,-0.012,0.016,-0.004
-2.0080000e-07,-0.008,0.016,-0.004
-2.0040000e-07,-0.008,0.012,-0.004
-2.0000000e-07,-0.004,0.012,-0.004
-1.9960000e-07,0.004,0.012,-0.012
-1.9920000e-07,0.008,0.012,-0.004
-1.9880000e-07,0.012,0.016,0
-1.9840000e-07,0.008,0.012,-0.004
-1.9800000e-07,0.008,0.016,0
-1.9760000e-07,0.008,0.012,0
-1.9720000e-07,0.016,0.012,0
-1.9680000e-07,0.012,0.016,-0.004
-1.9640000e-07,0.012,0.016,-0.008
-1.9600000e-07,0.012,0.012,-0.004
-1.9560000e-07,0.02,0.016,-0.008
-1.9520000e-07,0.008,0.016,0
-1.9480000e-07,0.008,0.012,-0.004
-1.9440000e-07,0.012,0.016,-0.004
-1.9400000e-07,0.012,0.016,-0.008
-1.9360000e-07,0.012,0.012,-0.004
-1.9320000e-07,0,0.016,0
-1.9280000e-07,0,0.008,0.004
-1.9240000e-07,0.004,0.004,0.008
-1.9200000e-07,0.008,0,0
-1.9160000e-07,0.016,0,-0.004
-1.9120000e-07,0.004,0.004,0
-1.9080000e-07,0.004,0.008,0.004
-1.9040000e-07,0.008,0.004,0.004
-1.9000000e-07,0.004,0,0.004
-1.8960000e-07,0,-0.004,0
-1.8920000e-07,0.004,-0.004,0.008
-1.8880000e-07,0.008,-0.004,0.008
-1.8840000e-07,0.004,-0.004,0.008
-1.8800000e-07,0.004,-0.004,0
-1.8760000e-07,0.008,0.004,0
-1.8720000e-07,0.004,0.004,0
-1.8680000e-07,0.008,-0.004,0
-1.8640000e-07,0.008,-0.008,0
-1.8600000e-07,0.012,0,0
-1.8560000e-07,0.008,0,0
-1.8520000e-07,0.004,0.004,0.008
-1.8480000e-07,0,0.004,0.008
-1.8440000e-07,0,0,0.008
-1.8400000e-07,0,-0.008,0.008
-1.8360000e-07,0,0,0.008
-1.8320000e-07,0,-0.008,0.008
-1.8280000e-07,0,-0.008,0.008
-1.8240000e-07,-0.012,-0.008,0.012
-1.8200000e-07,-0.012,-0.008,0.004
-1.8160000e-07,-0.012,-0.008,0
-1.8120000e-07,-0.016,-0.016,0.004
-1.8080000e-07,-0.008,-0.008,0.008
-1.8040000e-07,-0.008,-0.012,0.012
-1.8000000e-07,-0.008,-0.012,0.008
-1.7960000e-07,-0.004,-0.012,0.008
-1.7920000e-07,0,-0.012,0.004
-1.7880000e-07,0,-0.008,0.008
-1.7840000e-07,-0.004,-0.008,0.008
-1.7800000e-07,-0.008,-0.016,0.012
-1.7760000e-07,-0.004,-0.012,0.008
-1.7720000e-07,-0.004,-0.016,0.008
-1.7680000e-07,0,-0.012,0.008
-1.7640000e-07,0,-0.004,0.008
-1.7600000e-07,0,-0.008,0.008
-1.7560000e-07,0,-0.012,0.008
-1.7520000e-07,-0.004,-0.008,0.004
-1.7480000e-07,-0.008,-0.008,0.004
-1.7440000e-07,0,-0.02,0.004
-1.7400000e-07,0,-0.02,0.008
-1.7360000e-07,0,-0.016,0.008
-1.7320000e-07,-0.004,-0.016,0.004
-1.7280000e-07,-0.004,-0.016,0.008
-1.7240000e-07,0,-0.008,0
-1.7200000e-07,-0.008,-0.016,0
-1.7160000e-07,-0.004,-0.012,-0.004
-1.7120000e-07,-0.008,-0.02,0
-1.7080000e-07,-0.004,-0.02,0.008
-1.7040000e-07,-0.004,-0.024,0.008
-1.7000000e-07,-0.004,-0.028,0.004
-1.6960000e-07,0.004,-0.024,0
-1.6920000e-07,0.004,-0.024,0.004
-1.6880000e-07,0.004,-0.028,-0.004
-1.6840000e-07,0.004,-0.024,0.004
-1.6800000e-07,0.008,-0.02,0.004
-1.6760000e-07,0.008,-0.024,0
-1.6720000e-07,0,-0.028,0.004
-1.6680000e-07,0.004,-0.024,-0.004
-1.6640000e-07,0.012,-0.024,-0.008
-1.6600000e-07,0.012,-0.028,0
-1.6560000e-07,0.016,-0.02,-0.004
-1.6520000e-07,0.012,-0.024,0
-1.6480000e-07,0.004,-0.024,0.004
-1.6440000e-07,0.004,-0.028,0
-1.6400000e-07,0,-0.024,-0.004
-1.6360000e-07,0,-0.016,-0.004
-1.6320000e-07,0,-0.024,0
-1.6280000e-07,-0.004,-0.024,0
-1.6240000e-07,-0.012,-0.024,-0.008
-1.6200000e-07,-0.008,-0.024,-0.004
-1.6160000e-07,-0.008,-0.024,-0.008
-1.6120000e-07,-0.004,-0.024,-0.008
-1.6080000e-07,0,-0.024,-0.004
-1.6040000e-07,-0.004,-0.024,-0.004
-1.6000000e-07,-0.004,-0.028,-0.004
-1.5960000e-07,-0.004,-0.032,0
-1.5920000e-07,0.004,-0.028,-0.008
-1.5880000e-07,0.004,-0.028,-0.012
-1.5840000e-07,0,-0.036,-0.008
-1.5800000e-07,0.004,-0.024,-0.004
-1.5760000e-07,0,-0.028,-0.004
-1.5720000e-07,0.004,-0.02,0
-1.5680000e-07,0.004,-0.02,-0.004
-1.5640000e-07,-0.004,-0.028,-0.012
-1.5600000e-07,-0.004,-0.024,-0.004
-1.5560000e-07,-0.004,-0.024,0
-1.5520000e-07,-0.008,-0.02,0.008
-1.5480000e-07,0,-0.028,-0.004
-1.5440000e-07,0.004,-0.02,-0.004
-1.5400000e-07,-0.004,-0.02,-0.004
-1.5360000e-07,-0.008,-0.028,0.004
-1.5320000e-07,-0.012,-0.028,-0.004
-1.5280000e-07,-0.016,-0.02,-0.008
-1.5240000e-07,-0.016,-0.016,-0.004
-1.5200000e-07,-0.008,-0.028,0
-1.5160000e-07,-0.008,-0.028,-0.004
-1.5120000e-07,-0.012,-0.032,0
-1.5080000e-07,-0.024,-0.024,0
-1.5040000e-07,-0.016,-0.028,0
-1.5000000e-07,-0.016,-0.02,0
-1.4960000e-07,-0.012,-0.024,-0.004
-1.4920000e-07,-0.004,-0.024,-0.004
-1.4880000e-07,-0.012,-0.02,0
-1.4840000e-07,-0.008,-0.024,0.004
-1.4800000e-07,-0.008,-0.024,0
-1.4760000e-07,-0.008,-0.028,0
-1.4720000e-07,0,-0.028,0
-1.4680000e-07,-0.004,-0.012,0.004
-1.4640000e-07,-0.004,-0.012,0
-1.4600000e-07,-0.008,-0.016,0.008
-1.4560000e-07,0,-0.024,0
-1.4520000e-07,0.004,-0.016,0.004
-1.4480000e-07,0,-0.012,0.008
-1.4440000e-07,-0.004,-0.012,0
-1.4400000e-07,-0.004,-0.012,0
-1.4360000e-07,-0.012,-0.012,0.008
-1.4320000e-07,-0.012,-0.02,0.004
-1.4280000e-07,-0.012,-0.016,0
-1.4240000e-07,-0.004,-0.02,0.008
-1.4200000e-07,-0.004,-0.024,0.004
-1.4160000e-07,-0.008,-0.012,0
-1.4120000e-07,-0.008,-0.02,0.004
-1.4080000e-07,-0.008,-0.012,0.008
-1.4040000e-07,-0.008,-0.012,0.008
-1.4000000e-07,-0.008,-0.012,0.008
-1.3960000e-07,0,-0.012,0.012
-1.3920000e-07,-0.008,-0.016,0.008
-1.3880000e-07,-0.004,-0.012,0.008
-1.3840000e-07,0.004,-0.012,0.004
-1.3800000e-07,0.008,-0.012,0
-1.3760000e-07,0.004,-0.012,0.008
-1.3720000e-07,0.008,-0.008,0.008
-1.3680000e-07,0,-0.004,0.012
-1.3640000e-07,0,-0.008,0.012
-1.3600000e-07,0.008,-0.012,0.012
-1.3560000e-07,0.004,-0.004,0.008
-1.3520000e-07,0.004,0,0.008
-1.3480000e-07,0,0.004,0
-1.3440000e-07,0,0.004,0.008
-1.3400000e-07,0,0.004,0.016
-1.3360000e-07,-0.004,0,0.012
-1.3320000e-07,-0.012,0.004,0.012
-1.3280000e-07,-0.012,0,0.012
-1.3240000e-07,-0.008,-0.004,0.012
-1.3200000e-07,-0.008,0,0.016
-1.3160000e-07,-0.008,0.004,0.02
-1.3120000e-07,-0.004,0.004,0.012
-1.3080000e-07,-0.004,0.004,0.012
-1.3040000e-07,-0.004,0,0.008
-1.3000000e-07,-0.004,0.004,0.012
-1.2960000e-07,0.004,0.008,0.012
-1.2920000e-07,-0.004,0.008,0.016
-1.2880000e-07,0,0,0.016
-1.2840000e-07,0.004,0.012,0.02
-1.2800000e-07,0.004,0.008,0.024
-1.2760000e-07,0.008,0.012,0.02
-1.2720000e-07,-0.004,0.012,0.008
-1.2680000e-07,0.008,0.012,0.02
-1.2640000e-07,0.008,0.008,0.02
-1.2600000e-07,0.004,0.012,0.012
-1.2560000e-07,0.004,0.012,0.016
-1.2520000e-07,0.008,0.012,0.02
-1.2480000e-07,0.004,0.02,0.012
-1.2440000e-07,0,0.02,0.02
-1.2400000e-07,0,0.02,0.016
-1.2360000e-07,0,0.016,0.02
-1.2320000e-07,0.004,0.012,0.024
-1.2280000e-07,-0.008,0.012,0.028
-1.2240000e-07,-0.004,0.02,0.024
-1.2200000e-07,-0.004,0.02,0.028
-1.2160000e-07,-0.008,0.02,0.024
-1.2120000e-07,-0.016,0.02,0.024
-1.2080000e-07,-0.008,0.02,0.024
-1.2040000e-07,0.004,0.02,0.028
-1.2000000e-07,0,0.024,0.036
-1.1960000e-07,-0.004,0.024,0.036
-1.1920000e-07,0.008,0.02,0.032
-1.1880000e-07,0.008,0.024,0.032
-1.1840000e-07,0.016,0.028,0.036
-1.1800000e-07,0.012,0.02,0.032
-1.1760000e-07,0.008,0.024,0.036
-1.1720000e-07,0.012,0.032,0.044
-1.1680000e-07,0.004,0.036,0.036
-1.1640000e-07,0.012,0.032,0.036
-1.1600000e-07,0.004,0.032,0.036
-1.1560000e-07,0.008,0.032,0.032
-1.1520000e-07,0.012,0.032,0.044
-1.1480000e-07,0.02,0.036,0.04
-1.1440000e-07,0.012,0.036,0.032
-1.1400000e-07,0.008,0.036,0.036
-1.1360000e-07,0.008,0.036,0.044
-1.1320000e-07,0.004,0.028,0.036
-1.1280000e-07,0,0.036,0.04
-1.1240000e-07,0,0.032,0.044
-1.1200000e-07,0,0.028,0.04
-1.1160000e-07,0,0.024,0.04
-1.1120000e-07,-0.004,0.04,0.044
-1.1080000e-07,0.004,0.04,0.04
-1.1040000e-07,0.008,0.036,0.052
-1.1000000e-07,0.004,0.032,0.048
-1.0960000e-07,-0.004,0.04,0.044
-1.0920000e-07,0.004,0.036,0.04
-1.0880000e-07,0.012,0.044,0.048
-1.0840000e-07,0.012,0.048,0.048
-1.0800000e-07,0.012,0.04,0.044
-1.0760000e-07,0.02,0.048,0.044
-1.0720000e-07,0.02,0.052,0.044
-1.0680000e-07,0.016,0.052,0.044
-1.0640000e-07,0.016,0.056,0.056
-1.0600000e-07,0.016,0.052,0.056
-1.0560000e-07,0.016,0.04,0.056
-1.0520000e-07,0.016,0.044,0.056
-1.0480000e-07,0.016,0.048,0.056
-1.0440000e-07,0.016,0.04,0.052
-1.0400000e-07,0.016,0.04,0.048
-1.0360000e-07,0.012,0.04,0.052
-1.0320000e-07,0.008,0.048,0.044
-1.0280000e-07,0.008,0.048,0.048
-1.0240000e-07,0.004,0.044,0.048
-1.0200000e-07,0.012,0.052,0.048
-1.0160000e-07,0.008,0.052,0.056
-1.0120000e-07,0.004,0.052,0.052
-1.0080000e-07,0.004,0.044,0.052
-1.0040000e-07,0.008,0.048,0.048
-1.0000000e-07,0,0.06,0.052
-9.9600000e-08,0.004,0.06,0.052
-9.9200000e-08,0.016,0.052,0.06
-9.8800000e-08,0.02,0.056,0.048
-9.8400000e-08,0.02,0.06,0.052
-9.8000000e-08,0.02,0.06,0.052
-9.7600000e-08,0.02,0.064,0.052
-9.7200000e-08,0.02,0.06,0.056
-9.6800000e-08,0.02,0.064,0.06
-9.6400000e-08,0.012,0.064,0.06
-9.6000000e-08,0.016,0.06,0.056
-9.5600000e-08,0.028,0.052,0.064
-9.5200000e-08,0.032,0.056,0.068
-9.4800000e-08,0.032,0.056,0.064
-9.4400000e-08,0.028,0.052,0.064
-9.4000000e-08,0.012,0.056,0.06
-9.3600000e-08,0.012,0.056,0.064
-9.3200000e-08,0.02,0.048,0.056
-9.2800000e-08,0.012,0.052,0.06
-9.2400000e-08,0.008,0.056,0.06
-9.2000000e-08,0.012,0.064,0.06
-9.1600000e-08,0.02,0.056,0.06
-9.1200000e-08,0.016,0.056,0.064
-9.0800000e-08,0.008,0.056,0.064
-9.0400000e-08,0.012,0.052,0.064
-9.0000000e-08,0.016,0.06,0.056
-8.9600000e-08,0.02,0.064,0.056
-8.9200000e-08,0.02,0.056,0.06
-8.8800000e-08,0.024,0.056,0.064
-8.8400000e-08,0.02,0.06,0.064
-8.8000000e-08,0.02,0.06,0.068
-8.7600000e-08,0.02,0.072,0.068
-8.7200000e-08,0.024,0.064,0.064
-8.6800000e-08,0.02,0.06,0.068
-8.6400000e-08,0.02,0.056,0.072
-8.6000000e-08,0.024,0.064,0.068
-8.5600000e-08,0.024,0.064,0.064
-8.5200000e-08,0.024,0.06,0.068
-8.4800000e-08,0.024,0.06,0.072
-8.4400000e-08,0.02,0.052,0.068
-8.4000000e-08,0.02,0.052,0.064
-8.3600000e-08,0.02,0.052,0.064
-8.3200000e-08,0.016,0.052,0.064
-8.2800000e-08,0.016,0.052,0.068
-8.2400000e-08,0.012,0.048,0.068
-8.2000000e-08,0.02,0.056,0.068
-8.1600000e-08,0.02,0.052,0.064
-8.1200000e-08,0.008,0.052,0.06
-8.0800000e-08,0.012,0.052,0.064
-8.0400000e-08,0.016,0.056,0.068
-8.0000000e-08,0.02,0.056,0.064
-7.9600000e-08,0.02,0.056,0.064
-7.9200000e-08,0.016,0.06,0.064
-7.8800000e-08,0.024,0.056,0.072
-7.8400000e-08,0.02,0.056,0.064
-7.8000000e-08,0.02,0.06,0.064
-7.7600000e-08,0.02,0.06,0.072
-7.7200000e-08,0.02,0.056,0.068
-7.6800000e-08,0.024,0.056,0.06
-7.6400000e-08,0.02,0.06,0.064
-7.6000000e-08,0.02,0.06,0.064
-7.5600000e-08,0.028,0.056,0.068
-7.5200000e-08,0.024,0.052,0.068
-7.4800000e-08,0.02,0.052,0.068
-7.4400000e-08,0.016,0.048,0.068
-7.4000000e-08,0.02,0.048,0.052
-7.3600000e-08,0.012,0.056,0.064
-7.3200000e-08,0.016,0.052,0.06
-7.2800000e-08,0.016,0.06,0.06
-7.2400000e-08,0.012,0.044,0.06
-7.2000000e-08,0.016,0.048,0.06
-7.1600000e-08,0.024,0.048,0.056
-7.1200000e-08,0.024,0.048,0.056
-7.0800000e-08,0.02,0.052,0.06
-7.0400000e-08,0.016,0.048,0.06
-7.0000000e-08,0.02,0.044,0.052
-6.9600000e-08,0.024,0.044,0.06
-6.9200000e-08,0.028,0.036,0.06
-6.8800000e-08,0.024,0.04,0.052
-6.8400000e-08,0.028,0.044,0.048
-6.8000000e-08,0.028,0.044,0.056
-6.7600000e-08,0.028,0.048,0.056
-6.7200000e-08,0.024,0.052,0.056
-6.6800000e-08,0.02,0.048,0.052
-6.6400000e-08,0.024,0.044,0.052
-6.6000000e-08,0.02,0.048,0.06
-6.5600000e-08,0.02,0.044,0.06
-6.5200000e-08,0.024,0.044,0.052
-6.4800000e-08,0.028,0.036,0.052
-6.4400000e-08,0.016,0.028,0.048
-6.4000000e-08,0.016,0.04,0.048
-6.3600000e-08,0.02,0.036,0.052
-6.3200000e-08,0.016,0.032,0.052
-6.2800000e-08,0.016,0.032,0.052
-6.2400000e-08,0.012,0.024,0.052
-6.2000000e-08,0.032,0.02,0.04
-6.1600000e-08,0.02,0.032,0.048
-6.1200000e-08,0.02,0.032,0.048
-6.0800000e-08,0.016,0.032,0.048
-6.0400000e-08,0.02,0.032,0.052
-6.0000000e-08,0.024,0.032,0.048
-5.9600000e-08,0.024,0.036,0.048
-5.9200000e-08,0.024,0.032,0.044
-5.8800000e-08,0.024,0.028,0.048
-5.8400000e-08,0.024,0.024,0.048
-5.8000000e-08,0.024,0.024,0.052
-5.7600000e-08,0.024,0.024,0.048
-5.7200000e-08,0.024,0.032,0.048
-5.6800000e-08,0.02,0.032,0.04
-5.6400000e-08,0.024,0.024,0.044
-5.6000000e-08,0.024,0.024,0.044
-5.5600000e-08,0.02,0.02,0.048
-5.5200000e-08,0.028,0.028,0.036
-5.4800000e-08,0.024,0.02,0.04
-5.4400000e-08,0.02,0.016,0.04
-5.4000000e-08,0.024,0.02,0.044
-5.3600000e-08,0.016,0.016,0.044
-5.3200000e-08,0.016,0.02,0.036
-5.2800000e-08,0.016,0.02,0.036
-5.2400000e-08,0.012,0.012,0.032
-5.2000000e-08,0.02,0.02,0.028
-5.1600000e-08,0.024,0.016,0.032
-5.1200000e-08,0.024,0.012,0.032
-5.0800000e-08,0.02,0.016,0.032
-5.0400000e-08,0.02,0.016,0.032
-5.0000000e-08,0.024,0.016,0.04
-4.9600000e-08,0.024,0.012,0.04
-4.9200000e-08,0.024,0.012,0.04
-4.8800000e-08,0.016,0.016,0.032
-4.8400000e-08,0.028,0.016,0.04
-4.8000000e-08,0.02,0.008,0.028
-4.7600000e-08,0.024,0.008,0.028
-4.7200000e-08,0.024,0.008,0.028
-4.6800000e-08,0.024,0.008,0.028
-4.6400000e-08,0.012,0.012,0.024
-4.6000000e-08,0.008,0.008,0.024
-4.5600000e-08,0.012,0,0.024
-4.5200000e-08,0.016,0.004,0.028
-4.4800000e-08,0.012,0.008,0.024
-4.4400000e-08,0.012,0.008,0.024
-4.4000000e-08,0.012,0,0.024
-4.3600000e-08,0.008,0.004,0.016
-4.3200000e-08,0.008,0.008,0.02
-4.2800000e-08,0.004,0,0.02
-4.2400000e-08,0.004,-0.004,0.012
-4.2000000e-08,0.008,-0.004,0.012
-4.1600000e-08,0.012,-0.004,0.016
-4.1200000e-08,0.012,0,0.02
-4.0800000e-08,0.012,0.004,0.024
-4.0400000e-08,0.012,0.004,0.02
-4.0000000e-08,0.012,-0.004,0.012
-3.9600000e-08,0.012,-0.004,0.012
-3.9200000e-08,0.024,0.004,0.008
-3.8800000e-08,0.02,0.004,0.012
-3.8400000e-08,0.024,0.004,0.02
-3.8000000e-08,0.02,0.004,0.012
-3.7600000e-08,0.02,0.008,0.008
-3.7200000e-08,0.008,0,0.008
-3.6800000e-08,0.012,-0.008,0.008
-3.6400000e-08,0.008,-0.012,0.012
-3.6000000e-08,0.008,-0.012,0.008
-3.5600000e-08,0.012,-0.012,0.004
-3.5200000e-08,0.004,-0.016,0.008
-3.4800000e-08,0.008,-0.02,0.012
-3.4400000e-08,0.008,-0.016,0.004
-3.4000000e-08,0.008,-0.016,0.004
-3.3600000e-08,0.012,-0.012,0.008
-3.3200000e-08,0.016,-0.008,0.008
-3.2800000e-08,0.012,-0.012,0.008
-3.2400000e-08,0.012,-0.016,0
-3.2000000e-08,0.008,-0.008,-0.004
-3.1600000e-08,0.016,-0.02,0.004
-3.1200000e-08,0.016,-0.008,0
-3.0800000e-08,0.016,-0.004,-0.004
-3.0400000e-08,0.016,-0.016,-0.004
-3.0000000e-08,0.024,-0.008,0
-2.9600000e-08,0.02,0,-0.004
-2.9200000e-08,0.02,-0.004,-0.004
-2.8800000e-08,0.016,-0.012,-0.004
-2.8400000e-08,0.016,-0.008,0
-2.8000000e-08,0.012,-0.008,-0.004
-2.7600000e-08,0.016,-0.008,-0.012
-2.7200000e-08,0.016,-0.016,-0.008
-2.6800000e-08,0.004,-0.012,-0.008
-2.6400000e-08,0.004,-0.012,-0.016
-2.6000000e-08,0.008,-0.016,-0.016
-2.5600000e-08,0,-0.016,-0.004
-2.5200000e-08,0.008,-0.016,-0.008
-2.4800000e-08,0.008,-0.02,-0.008
-2.4400000e-08,0.004,-0.024,-0.012
-2.4000000e-08,0.008,-0.028,-0.016
-2.3600000e-08,0.008,-0.024,-0.012
-2.3200000e-08,0.004,-0.024,-0.008
-2.2800000e-08,0.004,-0.028,-0.012
-2.2400000e-08,0.004,-0.024,-0.012
-2.2000000e-08,0.008,-0.02,-0.012
-2.1600000e-08,0.012,-0.028,-0.016
-2.1200000e-08,0.008,-0.028,-0.016
-2.0800000e-08,0.008,-0.02,-0.012
-2.0400000e-08,0.016,-0.02,-0.012
-2.0000000e-08,0.02,-0.016,-0.012
-1.9600000e-08,0.012,-0.02,-0.016
-1.9200000e-08,0.008,-0.016,-0.012
-1.8800000e-08,0.008,-0.016,-0.016
-1.8400000e-08,0.008,-0.016,-0.016
-1.8000000e-08,0.008,-0.016,-0.016
-1.7600000e-08,0,-0.02,-0.02
-1.7200000e-08,0.004,-0.016,-0.024
-1.6800000e-08,0.004,-0.012,-0.02
-1.6400000e-08,0.004,-0.024,-0.02
-1.6000000e-08,0.004,-0.016,-0.024
-1.5600000e-08,0,-0.016,-0.02
-1.5200000e-08,0.004,-0.024,-0.012
-1.4800000e-08,0.004,-0.02,-0.012
-1.4400000e-08,0.008,-0.016,-0.024
-1.4000000e-08,0.008,-0.02,-0.024
-1.3600000e-08,0,-0.024,-0.02
-1.3200000e-08,0,-0.024,-0.016
-1.2800000e-08,0,-0.02,-0.016
-1.2400000e-08,0.008,-0.02,-0.016
-1.2000000e-08,0.004,-0.024,-0.028
-1.1600000e-08,0.004,-0.024,-0.032
-1.1200000e-08,0.008,-0.024,-0.032
-1.0800000e-08,0.008,-0.02,-0.028
-1.0400000e-08,0.008,-0.016,-0.024
-1.0000000e-08,0.012,-0.02,-0.02
-9.6000000e-09,0.008,-0.024,-0.024
-9.2000000e-09,0.008,-0.02,-0.028
-8.8000000e-09,0.012,-0.02,-0.032
-8.4000000e-09,0.008,-0.016,-0.036
-8.0000000e-09,0.008,-0.016,-0.032
-7.6000000e-09,0.008,-0.02,-0.028
-7.2000000e-09,0.004,-0.016,-0.032
-6.8000000e-09,0.004,-0.012,-0.028
-6.4000000e-09,0.008,-0.02,-0.028
-6.0000000e-09,0.024,-0.02,-0.028
-5.6000000e-09,0.032,-0.02,-0.028
-5.2000000e-09,0.04,-0.02,-0.032
-4.8000000e-09,0.056,-0.024,-0.032
-4.4000000e-09,0.088,-0.024,-0.028
-4.0000000e-09,0.112,-0.02,-0.032
-3.6000000e-09,0.132,-0.028,-0.04
-3.2000000e-09,0.172,-0.028,-0.036
-2.8000000e-09,0.208,-0.032,-0.036
-2.4000000e-09,0.24,-0.016,-0.032
-2.0000000e-09,0.276,-0.016,-0.028
-1.6000000e-09,0.304,-0.012,-0.032
-1.2000000e-09,0.34,-0.016,-0.036
-8.0000000e-10,0.368,-0.008,-0.04
-4.0000000e-10,0.4,-0.012,-0.04
-7.3121732e-21,0.428,-0.004,-0.044
4.0000000e-10,0.448,-0.004,-0.04
8.0000000e-10,0.476,-0.012,-0.036
1.2000000e-09,0.488,-0.008,-0.028
1.6000000e-09,0.504,0,-0.032
2.0000000e-09,0.516,-0.004,-0.032
2.4000000e-09,0.52,-0.008,-0.036
2.8000000e-09,0.524,-0.008,-0.036
3.2000000e-09,0.516,-0.012,-0.04
3.6000000e-09,0.524,-0.012,-0.032
4.0000000e-09,0.52,-0.008,-0.024
4.4000000e-09,0.532,-0.008,-0.028
4.8000000e-09,0.532,-0.02,-0.028
5.2000000e-09,0.528,-0.024,-0.04
5.6000000e-09,0.532,-0.02,-0.04
6.0000000e-09,0.544,-0.016,-0.036
6.4000000e-09,0.54,-0.02,-0.036
6.8000000e-09,0.54,-0.012,-0.036
7.2000000e-09,0.54,-0.012,-0.04
7.6000000e-09,0.544,-0.012,-0.044
8.0000000e-09,0.544,-0.008,-0.036
8.4000000e-09,0.548,0,-0.044
8.8000000e-09,0.552,0.004,-0.04
9.2000000e-09,0.548,0.012,-0.044
9.6000000e-09,0.552,0.016,-0.048
1.0000000e-08,0.548,0.02,-0.044
1.0400000e-08,0.54,0.024,-0.04
1.0800000e-08,0.536,0.028,-0.036
1.1200000e-08,0.536,0.036,-0.036
1.1600000e-08,0.536,0.048,-0.04
1.2000000e-08,0.536,0.048,-0.04
1.2400000e-08,0.524,0.056,-0.044
1.2800000e-08,0.516,0.06,-0.048
1.3200000e-08,0.5,0.064,-0.044
1.3600000e-08,0.5,0.072,-0.032
1.4000000e-08,0.5,0.072,-0.04
1.4400000e-08,0.488,0.084,-0.032
1.4800000e-08,0.484,0.088,-0.032
1.5200000e-08,0.48,0.088,-0.032
1.5600000e-08,0.476,0.1,-0.036
1.6000000e-08,0.468,0.112,-0.036
1.6400000e-08,0.456,0.112,-0.032
1.6800000e-08,0.452,0.124,-0.036
1.7200000e-08,0.46,0.124,-0.036
1.7600000e-08,0.448,0.128,-0.036
1.8000000e-08,0.444,0.148,-0.036
1.8400000e-08,0.436,0.152,-0.036
1.8800000e-08,0.428,0.152,-0.036
1.9200000e-08,0.44,0.156,-0.028
1.9600000e-08,0.436,0.16,-0.036
2.0000000e-08,0.424,0.172,-0.032
2.0400000e-08,0.416,0.18,-0.032
2.0800000e-08,0.416,0.18,-0.036
2.1200000e-08,0.404,0.184,-0.04
2.1600000e-08,0.396,0.188,-0.036
2.2000000e-08,0.392,0.192,-0.032
2.2400000e-08,0.388,0.192,-0.036
2.2800000e-08,0.384,0.208,-0.036
2.3200000e-08,0.368,0.208,-0.032
2.3600000e-08,0.368,0.208,-0.032
2.4000000e-08,0.364,0.212,-0.028
2.4400000e-08,0.364,0.216,-0.032
2.4800000e-08,0.356,0.216,-0.028
2.5200000e-08,0.36,0.224,-0.024
2.5600000e-08,0.36,0.244,-0.028
2.6000000e-08,0.352,0.24,-0.032
2.6400000e-08,0.364,0.24,-0.032
2.6800000e-08,0.372,0.256,-0.028
2.7200000e-08,0.384,0.26,-0.024
2.7600000e-08,0.38,0.264,-0.024
2.8000000e-08,0.372,0.272,-0.028
2.8400000e-08,0.376,0.276,-0.032
2.8800000e-08,0.376,0.276,-0.024
2.9200000e-08,0.384,0.28,-0.024
2.9600000e-08,0.384,0.288,-0.028
3.0000000e-08,0.38,0.292,-0.028
3.0400000e-08,0.388,0.296,-0.028
3.0800000e-08,0.388,0.304,-0.032
3.1200000e-08,0.396,0.308,-0.02
3.1600000e-08,0.4,0.304,-0.024
3.2000000e-08,0.396,0.3,-0.02
3.2400000e-08,0.396,0.316,-0.024
3.2800000e-08,0.396,0.32,-0.02
3.3200000e-08,0.396,0.324,-0.02
3.3600000e-08,0.396,0.328,-0.024
3.4000000e-08,0.404,0.332,-0.02
3.4400000e-08,0.404,0.336,-0.016
3.4800000e-08,0.4,0.34,-0.012
3.5200000e-08,0.404,0.344,-0.016
3.5600000e-08,0.404,0.352,-0.02
3.6000000e-08,0.396,0.36,-0.016
3.6400000e-08,0.416,0.364,-0.02
3.6800000e-08,0.424,0.364,-0.012
3.7200000e-08,0.424,0.376,-0.012
3.7600000e-08,0.416,0.384,-0.008
3.8000000e-08,0.42,0.388,-0.008
3.8400000e-08,0.428,0.392,-0.008
3.8800000e-08,0.428,0.396,-0.004
3.9200000e-08,0.424,0.392,-0.004
3.9600000e-08,0.432,0.396,-0.004
