Archivos Guadalupe/Data/1410-32-X4/26-10/D-26-10/tek0085ALL.csv

Model,DPO3034
Firmware Version,2.16

Point Format,Y,
Horizontal Units,S,
Horizontal Scale,0.002,
Sample Interval,2e-05,
Record Length,1000,
Gating,0.0% to 100.0%,0.0% to 100.0%
Probe Attenuation,1,1
Vertical Units,V,V
Vertical Offset,0,0
Vertical Scale,0.2,0.1
Label,,
TIME,CH1,CH2
-6.820e-03,0.008,-0.012
-6.800e-03,0,-0.012
-6.780e-03,0,0.016
-6.760e-03,0,-0.024
-6.740e-03,0.016,0.028
-6.720e-03,0.016,-0.004
-6.700e-03,0.008,-0.008
-6.680e-03,0,0.02
-6.660e-03,0.016,0.016
-6.640e-03,0.016,-0.008
-6.620e-03,0.016,0.004
-6.600e-03,0.008,0.012
-6.580e-03,0.016,0.02
-6.560e-03,0.008,0.012
-6.540e-03,0.008,0.02
-6.520e-03,0.008,-0.004
-6.500e-03,0.016,0.012
-6.480e-03,0,0.012
-6.460e-03,0.016,-0.004
-6.440e-03,0.008,-0.008
-6.420e-03,0.016,-0.004
-6.400e-03,-0.016,0.012
-6.380e-03,0.024,0.016
-6.360e-03,0.032,0.012
-6.340e-03,0,0.008
-6.320e-03,0,-0.004
-6.300e-03,0,0
-6.280e-03,0.008,-0.004
-6.260e-03,0,-0.004
-6.240e-03,0,0.004
-6.220e-03,0,0.004
-6.200e-03,0,0.008
-6.180e-03,0.016,-0.004
-6.160e-03,0.008,0.024
-6.140e-03,0.008,-0.004
-6.120e-03,0,0.004
-6.100e-03,0,0.008
-6.080e-03,0.016,0.008
-6.060e-03,0.008,-0.004
-6.040e-03,0.016,0.012
-6.020e-03,0,0.02
-6.000e-03,0.008,0.008
-5.980e-03,0.04,0.004
-5.960e-03,0.008,-0.012
-5.940e-03,0.016,-0.012
-5.920e-03,0,-0.012
-5.900e-03,0,0.004
-5.880e-03,0,0.012
-5.860e-03,0.016,0.02
-5.840e-03,0,0.012
-5.820e-03,0,-0.004
-5.800e-03,0.016,0.008
-5.780e-03,-0.008,0.016
-5.760e-03,0,-0.016
-5.740e-03,0,0.008
-5.720e-03,0.008,0.004
-5.700e-03,0.016,0.032
-5.680e-03,0,0
-5.660e-03,0.008,0.012
-5.640e-03,0.008,0
-5.620e-03,0,0.008
-5.600e-03,0.008,0.008
-5.580e-03,0.008,0.004
-5.560e-03,0.008,0
-5.540e-03,0,0.012
-5.520e-03,0,0.024
-5.500e-03,0.008,0.008
-5.480e-03,0.016,0
-5.460e-03,0.016,0.008
-5.440e-03,0,0.012
-5.420e-03,0.016,0.004
-5.400e-03,0,0.008
-5.380e-03,0,-0.02
-5.360e-03,0.016,0
-5.340e-03,0,0.016
-5.320e-03,0.008,0
-5.300e-03,0.008,0.008
-5.280e-03,0.016,-0.004
-5.260e-03,0.016,0.004
-5.240e-03,0.008,-0.008
-5.220e-03,0.008,0
-5.200e-03,0,0.012
-5.180e-03,0.008,0
-5.160e-03,0.008,-0.012
-5.140e-03,0,0.032
-5.120e-03,0.008,0.016
-5.100e-03,0.008,0
-5.080e-03,0.008,0.012
-5.060e-03,0,0.012
-5.040e-03,0.008,0.004
-5.020e-03,0.008,0.008
-5.000e-03,-0.008,0
-4.980e-03,-0.008,0.012
-4.960e-03,0,0.016
-4.940e-03,0.008,-0.004
-4.920e-03,0.032,0.032
-4.900e-03,0,0.004
-4.880e-03,0,-0.02
-4.860e-03,0.008,0
-4.840e-03,0.056,0.056
-4.820e-03,0,0.02
-4.800e-03,0,0.028
-4.780e-03,0,0.012
-4.760e-03,0,0.016
-4.740e-03,0,0.008
-4.720e-03,0,0.012
-4.700e-03,0.008,0.004
-4.680e-03,0.016,0.028
-4.660e-03,0.024,0.004
-4.640e-03,0.016,0.024
-4.620e-03,0.032,0.008
-4.600e-03,0.032,0.028
-4.580e-03,0.024,-0.004
-4.560e-03,0.032,0.024
-4.540e-03,0.016,0.028
-4.520e-03,0.04,0.024
-4.500e-03,0.032,0.02
-4.480e-03,0.016,0.008
-4.460e-03,0.016,0
-4.440e-03,0.024,0.02
-4.420e-03,0.024,0.012
-4.400e-03,0.032,0.02
-4.380e-03,0.032,0.016
-4.360e-03,0.032,0.004
-4.340e-03,0.048,0
-4.320e-03,0.04,0.008
-4.300e-03,0.024,0.044
-4.280e-03,0.056,0.02
-4.260e-03,0.04,0.024
-4.240e-03,0.04,0.024
-4.220e-03,0.04,0.02
-4.200e-03,0.04,0.028
-4.180e-03,0.048,0.02
-4.160e-03,0.04,0.004
-4.140e-03,0.048,0.028
-4.120e-03,0.056,0.024
-4.100e-03,0.04,0.024
-4.080e-03,0.04,0.032
-4.060e-03,0.048,0.052
-4.040e-03,0.056,0.032
-4.020e-03,0.048,0.028
-4.000e-03,0.064,0.04
-3.980e-03,0.056,0.052
-3.960e-03,0.056,0.028
-3.940e-03,0.056,0.016
-3.920e-03,0.056,0.028
-3.900e-03,0.072,0.028
-3.880e-03,0.064,0.016
-3.860e-03,0.064,0.028
-3.840e-03,0.064,0.02
-3.820e-03,0.056,0.036
-3.800e-03,0.072,0.032
-3.780e-03,0.072,0.032
-3.760e-03,0.072,0.04
-3.740e-03,0.064,0.032
-3.720e-03,0.072,0.04
-3.700e-03,0.064,0.048
-3.680e-03,0.072,0.048
-3.660e-03,0.072,0.032
-3.640e-03,0.072,0.044
-3.620e-03,0.072,0.032
-3.600e-03,0.064,0.032
-3.580e-03,0.08,0.036
-3.560e-03,0.064,0.044
-3.540e-03,0.08,0.04
-3.520e-03,0.072,0.004
-3.500e-03,0.08,0.044
-3.480e-03,0.064,0.036
-3.460e-03,0.064,0.056
-3.440e-03,0.088,0.04
-3.420e-03,0.08,0.04
-3.400e-03,0.08,0.048
-3.380e-03,0.088,0.08
-3.360e-03,0.08,0.036
-3.340e-03,0.088,0.044
-3.320e-03,0.096,0.04
-3.300e-03,0.088,0.056
-3.280e-03,0.08,0.04
-3.260e-03,0.096,0.056
-3.240e-03,0.096,0.04
-3.220e-03,0.096,0.084
-3.200e-03,0.08,0.052
-3.180e-03,0.104,0.084
-3.160e-03,0.096,0.044
-3.140e-03,0.088,0.052
-3.120e-03,0.088,0.052
-3.100e-03,0.096,0.06
-3.080e-03,0.104,0.044
-3.060e-03,0.088,0.048
-3.040e-03,0.096,0.032
-3.020e-03,0.096,0.056
-3.000e-03,0.12,0.072
-2.980e-03,0.104,0.036
-2.960e-03,0.096,0.048
-2.940e-03,0.104,0.08
-2.920e-03,0.104,0.068
-2.900e-03,0.088,0.064
-2.880e-03,0.104,0.064
-2.860e-03,0.096,0.072
-2.840e-03,0.096,0.056
-2.820e-03,0.096,0.056
-2.800e-03,0.12,0.044
-2.780e-03,0.096,0.064
-2.760e-03,0.112,0.084
-2.740e-03,0.104,0.068
-2.720e-03,0.096,0.048
-2.700e-03,0.088,0.056
-2.680e-03,0.112,0.056
-2.660e-03,0.104,0.048
-2.640e-03,0.096,0.064
-2.620e-03,0.104,0.068
-2.600e-03,0.104,0.064
-2.580e-03,0.096,0.048
-2.560e-03,0.104,0.044
-2.540e-03,0.096,0.064
-2.520e-03,0.12,0.084
-2.500e-03,0.112,0.064
-2.480e-03,0.104,0.084
-2.460e-03,0.096,0.064
-2.440e-03,0.104,0.056
-2.420e-03,0.112,0.06
-2.400e-03,0.104,0.048
-2.380e-03,0.112,0.044
-2.360e-03,0.112,0.08
-2.340e-03,0.112,0.052
-2.320e-03,0.104,0.032
-2.300e-03,0.104,0.056
-2.280e-03,0.104,0.084
-2.260e-03,0.104,0.092
-2.240e-03,0.104,0.056
-2.220e-03,0.096,0.076
-2.200e-03,0.104,0.036
-2.180e-03,0.104,0.06
-2.160e-03,0.112,0.052
-2.140e-03,0.104,0.052
-2.120e-03,0.096,0.08
-2.100e-03,0.096,0.044
-2.080e-03,0.104,0.076
-2.060e-03,0.104,0.076
-2.040e-03,0.096,0.052
-2.020e-03,0.104,0.06
-2.000e-03,0.104,0.06
-1.980e-03,0.08,0.024
-1.960e-03,0.104,0.068
-1.940e-03,0.096,0.06
-1.920e-03,0.096,0.08
-1.900e-03,0.104,0.064
-1.880e-03,0.096,0.088
-1.860e-03,0.112,0.068
-1.840e-03,0.112,0.088
-1.820e-03,0.104,0.06
-1.800e-03,0.088,0.04
-1.780e-03,0.096,0.052
-1.760e-03,0.096,0.06
-1.740e-03,0.096,0.06
-1.720e-03,0.104,0.06
-1.700e-03,0.096,0.048
-1.680e-03,0.112,0.064
-1.660e-03,0.104,0.064
-1.640e-03,0.096,0.06
-1.620e-03,0.104,0.06
-1.600e-03,0.088,0.068
-1.580e-03,0.112,0.052
-1.560e-03,0.112,0.044
-1.540e-03,0.088,0.056
-1.520e-03,0.088,0.04
-1.500e-03,0.096,0.064
-1.480e-03,0.096,0.08
-1.460e-03,0.096,0.072
-1.440e-03,0.104,0.06
-1.420e-03,0.104,0.056
-1.400e-03,0.088,0.056
-1.380e-03,0.096,0.076
-1.360e-03,0.096,0.056
-1.340e-03,0.104,0.056
-1.320e-03,0.112,0.04
-1.300e-03,0.112,0.064
-1.280e-03,0.096,0.064
-1.260e-03,0.104,0.06
-1.240e-03,0.096,0.064
-1.220e-03,0.104,0.072
-1.200e-03,0.112,0.08
-1.180e-03,0.096,0.056
-1.160e-03,0.112,0.088
-1.140e-03,0.144,0.092
-1.120e-03,0.128,0.084
-1.100e-03,0.136,0.072
-1.080e-03,0.168,0.1
-1.060e-03,0.16,0.108
-1.040e-03,0.176,0.112
-1.020e-03,0.192,0.084
-1.000e-03,0.192,0.128
-9.800e-04,0.208,0.124
-9.600e-04,0.216,0.104
-9.400e-04,0.232,0.14
-9.200e-04,0.176,0.084
-9.000e-04,0.256,0.164
-8.800e-04,0.264,0.128
-8.600e-04,0.256,0.148
-8.400e-04,0.272,0.148
-8.200e-04,0.296,0.168
-8.000e-04,0.296,0.172
-7.800e-04,0.32,0.18
-7.600e-04,0.328,0.2
-7.400e-04,0.336,0.196
-7.200e-04,0.336,0.2
-7.000e-04,0.352,0.212
-6.800e-04,0.36,0.192
-6.600e-04,0.36,0.244
-6.400e-04,0.368,0.192
-6.200e-04,0.408,0.216
-6.000e-04,0.4,0.236
-5.800e-04,0.408,0.24
-5.600e-04,0.408,0.248
-5.400e-04,0.432,0.24
-5.200e-04,0.44,0.276
-5.000e-04,0.432,0.26
-4.800e-04,0.456,0.268
-4.600e-04,0.472,0.28
-4.400e-04,0.48,0.26
-4.200e-04,0.496,0.3
-4.000e-04,0.512,0.304
-3.800e-04,0.488,0.272
-3.600e-04,0.528,0.304
-3.400e-04,0.536,0.304
-3.200e-04,0.544,0.3
-3.000e-04,0.552,0.332
-2.800e-04,0.576,0.312
-2.600e-04,0.584,0.308
-2.400e-04,0.584,0.332
-2.200e-04,0.6,0.344
-2.000e-04,0.6,0.356
-1.800e-04,0.608,0.332
-1.600e-04,0.616,0.384
-1.400e-04,0.632,0.368
-1.200e-04,0.632,0.372
-1.000e-04,0.656,0.384
-8.000e-05,0.664,0.396
-6.000e-05,0.664,0.376
-4.000e-05,0.68,0.388
-2.000e-05,0.696,0.384
1.687e-17,0.696,0.412
2.000e-05,0.712,0.4
4.000e-05,0.712,0.428
6.000e-05,0.736,0.448
8.000e-05,0.744,0.424
1.000e-04,0.744,0.456
1.200e-04,0.744,0.46
1.400e-04,0.76,0.464
1.600e-04,0.768,0.444
1.800e-04,0.792,0.44
2.000e-04,0.792,0.46
2.200e-04,0.808,0.488
2.400e-04,0.824,0.504
2.600e-04,0.824,0.476
2.800e-04,0.832,0.48
3.000e-04,0.856,0.504
3.200e-04,0.864,0.488
3.400e-04,0.872,0.504
3.600e-04,0.88,0.512
3.800e-04,0.872,0.52
4.000e-04,0.896,0.512
4.200e-04,0.904,0.504
4.400e-04,0.92,0.532
4.600e-04,0.936,0.536
4.800e-04,0.936,0.536
5.000e-04,0.944,0.544
5.200e-04,0.976,0.564
5.400e-04,0.96,0.576
5.600e-04,0.984,0.576
5.800e-04,0.984,0.576
6.000e-04,1.008,0.588
6.200e-04,1.024,0.6
6.400e-04,1.016,0.572
6.600e-04,1.008,0.58
6.800e-04,1.016,0.58
7.000e-04,1.008,0.584
7.200e-04,1,0.576
7.400e-04,1.016,0.568
7.600e-04,1.008,0.592
7.800e-04,1.008,0.576
8.000e-04,1.008,0.592
8.200e-04,1.016,0.6
8.400e-04,0.992,0.612
8.600e-04,1.016,0.588
8.800e-04,1.016,0.58
9.000e-04,1,0.592
9.200e-04,1.024,0.592
9.400e-04,1.008,0.604
9.600e-04,1.008,0.596
9.800e-04,1,0.564
1.000e-03,1.016,0.604
1.020e-03,1,0.576
1.040e-03,1,0.58
1.060e-03,1.024,0.576
1.080e-03,1,0.576
1.100e-03,1.008,0.596
1.120e-03,1,0.584
1.140e-03,1,0.576
1.160e-03,1.008,0.596
1.180e-03,1.008,0.568
1.200e-03,1.008,0.592
1.220e-03,1,0.58
1.240e-03,1.032,0.572
1.260e-03,1.016,0.588
1.280e-03,1.008,0.576
1.300e-03,1,0.568
1.320e-03,1.008,0.6
1.340e-03,1,0.592
1.360e-03,1.008,0.588
1.380e-03,1,0.592
1.400e-03,1.016,0.576
1.420e-03,1.016,0.58
1.440e-03,1.016,0.592
1.460e-03,1.008,0.572
1.480e-03,1.008,0.572
1.500e-03,1.016,0.596
1.520e-03,1.016,0.588
1.540e-03,1.008,0.588
1.560e-03,0.992,0.588
1.580e-03,1.016,0.58
1.600e-03,1.008,0.576
1.620e-03,1.008,0.596
1.640e-03,1.008,0.6
1.660e-03,1.008,0.564
1.680e-03,1.008,0.596
1.700e-03,1.008,0.596
1.720e-03,1,0.612
1.740e-03,1.008,0.588
1.760e-03,1.024,0.584
1.780e-03,1.008,0.596
1.800e-03,1.016,0.608
1.820e-03,1.008,0.592
1.840e-03,1.008,0.592
1.860e-03,1.016,0.596
1.880e-03,1.024,0.564
1.900e-03,1.016,0.58
1.920e-03,1.016,0.568
1.940e-03,1.008,0.588
1.960e-03,1.024,0.584
1.980e-03,1.016,0.58
2.000e-03,1.008,0.592
2.020e-03,1,0.588
2.040e-03,1.008,0.576
2.060e-03,1,0.584
2.080e-03,1.008,0.58
2.100e-03,1.008,0.608
2.120e-03,1,0.6
2.140e-03,1.008,0.568
2.160e-03,1.008,0.584
2.180e-03,1.008,0.584
2.200e-03,1.016,0.588
2.220e-03,1,0.596
2.240e-03,1.016,0.608
2.260e-03,1.024,0.588
2.280e-03,1,0.588
2.300e-03,1.016,0.576
2.320e-03,1.008,0.576
2.340e-03,1.008,0.588
2.360e-03,1.008,0.592
2.380e-03,1.008,0.596
2.400e-03,1.016,0.592
2.420e-03,1.008,0.596
2.440e-03,1.008,0.568
2.460e-03,1.008,0.588
2.480e-03,1,0.608
2.500e-03,0.992,0.6
2.520e-03,1.016,0.58
2.540e-03,1.008,0.592
2.560e-03,1.008,0.596
2.580e-03,1.008,0.604
2.600e-03,1.016,0.584
2.620e-03,1.008,0.6
2.640e-03,1.016,0.596
2.660e-03,1.008,0.596
2.680e-03,1.008,0.564
2.700e-03,1.008,0.604
2.720e-03,1,0.58
2.740e-03,1,0.58
2.760e-03,1.008,0.588
2.780e-03,1.016,0.592
2.800e-03,1.008,0.584
2.820e-03,1,0.568
2.840e-03,1.024,0.612
2.860e-03,1,0.6
2.880e-03,1,0.592
2.900e-03,1.016,0.596
2.920e-03,1.016,0.588
2.940e-03,0.992,0.56
2.960e-03,1.008,0.564
2.980e-03,1,0.58
3.000e-03,1.008,0.588
3.020e-03,1,0.584
3.040e-03,1.016,0.596
3.060e-03,1.016,0.6
3.080e-03,1.008,0.588
3.100e-03,0.992,0.592
3.120e-03,1.008,0.568
3.140e-03,1,0.556
3.160e-03,1,0.54
3.180e-03,1,0.588
3.200e-03,1.008,0.588
3.220e-03,1,0.596
3.240e-03,1,0.584
3.260e-03,1.008,0.576
3.280e-03,0.992,0.608
3.300e-03,1.016,0.58
3.320e-03,1.016,0.588
3.340e-03,1.008,0.604
3.360e-03,1.008,0.568
3.380e-03,1,0.584
3.400e-03,1.016,0.58
3.420e-03,1.016,0.596
3.440e-03,1,0.576
3.460e-03,1.008,0.58
3.480e-03,1,0.596
3.500e-03,1.008,0.58
3.520e-03,0.992,0.584
3.540e-03,1,0.596
3.560e-03,1.016,0.584
3.580e-03,1.024,0.576
3.600e-03,1,0.596
3.620e-03,1,0.576
3.640e-03,1.016,0.58
3.660e-03,1.008,0.604
3.680e-03,1.016,0.596
3.700e-03,1.016,0.6
3.720e-03,1.008,0.584
3.740e-03,1.008,0.584
3.760e-03,1.016,0.596
3.780e-03,1.008,0.596
3.800e-03,1.008,0.584
3.820e-03,1.016,0.572
3.840e-03,1.016,0.572
3.860e-03,1.024,0.592
3.880e-03,1.008,0.572
3.900e-03,1.024,0.604
3.920e-03,1.008,0.572
3.940e-03,1,0.584
3.960e-03,0.992,0.596
3.980e-03,1.016,0.592
4.000e-03,1.008,0.588
4.020e-03,1.008,0.564
4.040e-03,1.008,0.576
4.060e-03,1,0.576
4.080e-03,1.016,0.576
4.100e-03,1,0.58
4.120e-03,1.008,0.576
4.140e-03,1.016,0.6
4.160e-03,1,0.592
4.180e-03,1,0.584
4.200e-03,1.008,0.58
4.220e-03,0.992,0.536
4.240e-03,1.016,0.564
4.260e-03,1.016,0.588
4.280e-03,1.016,0.564
4.300e-03,1.008,0.576
4.320e-03,1.024,0.584
4.340e-03,1.024,0.584
4.360e-03,1.016,0.556
4.380e-03,1,0.588
4.400e-03,1.008,0.58
4.420e-03,0.992,0.596
4.440e-03,1,0.564
4.460e-03,1.008,0.588
4.480e-03,1.008,0.56
4.500e-03,1.024,0.576
4.520e-03,1.008,0.58
4.540e-03,1.008,0.612
4.560e-03,1.008,0.568
4.580e-03,1.008,0.596
4.600e-03,1.008,0.58
4.620e-03,1.008,0.584
4.640e-03,0.984,0.568
4.660e-03,1.008,0.568
4.680e-03,1.008,0.604
4.700e-03,1.024,0.568
4.720e-03,1.008,0.576
4.740e-03,1.016,0.608
4.760e-03,1.016,0.588
4.780e-03,1.008,0.6
4.800e-03,1.008,0.584
4.820e-03,1.024,0.584
4.840e-03,1.008,0.576
4.860e-03,1,0.58
4.880e-03,0.992,0.596
4.900e-03,1.008,0.588
4.920e-03,1.008,0.592
4.940e-03,1.016,0.568
4.960e-03,1.016,0.584
4.980e-03,1,0.596
5.000e-03,1,0.588
5.020e-03,1,0.588
5.040e-03,1.008,0.6
5.060e-03,1.016,0.584
5.080e-03,1.008,0.568
5.100e-03,1.016,0.576
5.120e-03,0.976,0.556
5.140e-03,1.024,0.596
5.160e-03,1.016,0.552
5.180e-03,1,0.592
5.200e-03,1.008,0.604
5.220e-03,1.008,0.596
5.240e-03,1,0.6
5.260e-03,1,0.62
5.280e-03,1.016,0.588
5.300e-03,1.024,0.584
5.320e-03,1,0.604
5.340e-03,1.016,0.588
5.360e-03,1,0.588
5.380e-03,1.016,0.596
5.400e-03,1.016,0.584
5.420e-03,1.008,0.588
5.440e-03,1.016,0.58
5.460e-03,1.016,0.568
5.480e-03,1.024,0.572
5.500e-03,1.016,0.58
5.520e-03,1.008,0.584
5.540e-03,1.008,0.58
5.560e-03,1,0.604
5.580e-03,1,0.596
5.600e-03,1.016,0.58
5.620e-03,1.008,0.588
5.640e-03,1.008,0.588
5.660e-03,1.008,0.608
5.680e-03,1.016,0.588
5.700e-03,1.04,0.6
5.720e-03,1.024,0.572
5.740e-03,1.008,0.588
5.760e-03,1,0.604
5.780e-03,0.992,0.576
5.800e-03,1.016,0.588
5.820e-03,1.024,0.6
5.840e-03,1.008,0.588
5.860e-03,0.992,0.592
5.880e-03,1.008,0.584
5.900e-03,1.008,0.584
5.920e-03,1,0.588
5.940e-03,1.016,0.58
5.960e-03,1.008,0.588
5.980e-03,1,0.54
6.000e-03,1,0.58
6.020e-03,1,0.564
6.040e-03,1,0.588
6.060e-03,0.984,0.592
6.080e-03,0.984,0.564
6.100e-03,0.968,0.568
6.120e-03,0.96,0.576
6.140e-03,0.944,0.552
6.160e-03,0.928,0.532
6.180e-03,0.936,0.532
6.200e-03,0.912,0.54
6.220e-03,0.912,0.524
6.240e-03,0.88,0.532
6.260e-03,0.872,0.512
6.280e-03,0.856,0.484
6.300e-03,0.88,0.488
6.320e-03,0.848,0.492
6.340e-03,0.856,0.512
6.360e-03,0.84,0.468
6.380e-03,0.832,0.476
6.400e-03,0.816,0.476
6.420e-03,0.808,0.492
6.440e-03,0.784,0.5
6.460e-03,0.792,0.504
6.480e-03,0.768,0.46
6.500e-03,0.76,0.46
6.520e-03,0.752,0.436
6.540e-03,0.752,0.448
6.560e-03,0.728,0.436
6.580e-03,0.712,0.412
6.600e-03,0.72,0.412
6.620e-03,0.704,0.404
6.640e-03,0.688,0.412
6.660e-03,0.68,0.404
6.680e-03,0.68,0.4
6.700e-03,0.656,0.38
6.720e-03,0.656,0.388
6.740e-03,0.64,0.38
6.760e-03,0.632,0.36
6.780e-03,0.624,0.36
6.800e-03,0.608,0.36
6.820e-03,0.6,0.352
6.840e-03,0.592,0.312
6.860e-03,0.584,0.352
6.880e-03,0.592,0.316
6.900e-03,0.584,0.34
6.920e-03,0.552,0.312
6.940e-03,0.536,0.3
6.960e-03,0.536,0.316
6.980e-03,0.528,0.304
7.000e-03,0.528,0.308
7.020e-03,0.504,0.308
7.040e-03,0.488,0.276
7.060e-03,0.488,0.268
7.080e-03,0.472,0.268
7.100e-03,0.472,0.268
7.120e-03,0.464,0.276
7.140e-03,0.448,0.276
7.160e-03,0.472,0.276
7.180e-03,0.424,0.236
7.200e-03,0.416,0.256
7.220e-03,0.4,0.232
7.240e-03,0.4,0.244
7.260e-03,0.392,0.224
7.280e-03,0.368,0.208
7.300e-03,0.352,0.16
7.320e-03,0.352,0.196
7.340e-03,0.344,0.2
7.360e-03,0.344,0.204
7.380e-03,0.32,0.196
7.400e-03,0.32,0.204
7.420e-03,0.296,0.172
7.440e-03,0.28,0.144
7.460e-03,0.288,0.16
7.480e-03,0.272,0.136
7.500e-03,0.264,0.168
7.520e-03,0.28,0.128
7.540e-03,0.256,0.16
7.560e-03,0.216,0.148
7.580e-03,0.208,0.116
7.600e-03,0.216,0.12
7.620e-03,0.208,0.088
7.640e-03,0.168,0.128
7.660e-03,0.176,0.096
7.680e-03,0.184,0.092
7.700e-03,0.144,0.096
7.720e-03,0.144,0.044
7.740e-03,0.136,0.076
7.760e-03,0.128,0.068
7.780e-03,0.104,0.072
7.800e-03,0.104,0.064
7.820e-03,0.112,0.08
7.840e-03,0.112,0.068
7.860e-03,0.104,0.068
7.880e-03,0.112,0.048
7.900e-03,0.112,0.064
7.920e-03,0.104,0.028
7.940e-03,0.112,0.048
7.960e-03,0.104,0.072
7.980e-03,0.112,0.056
8.000e-03,0.104,0.056
8.020e-03,0.104,0.064
8.040e-03,0.112,0.036
8.060e-03,0.104,0.052
8.080e-03,0.096,0.052
8.100e-03,0.096,0.06
8.120e-03,0.096,0.064
8.140e-03,0.136,0.104
8.160e-03,0.12,0.044
8.180e-03,0.104,0.072
8.200e-03,0.104,0.06
8.220e-03,0.112,0.06
8.240e-03,0.096,0.048
8.260e-03,0.088,0.04
8.280e-03,0.12,0.084
8.300e-03,0.104,0.056
8.320e-03,0.104,0.072
8.340e-03,0.112,0.064
8.360e-03,0.104,0.052
8.380e-03,0.104,0.068
8.400e-03,0.096,0.072
8.420e-03,0.112,0.072
8.440e-03,0.096,0.052
8.460e-03,0.104,0.06
8.480e-03,0.104,0.056
8.500e-03,0.096,0.056
8.520e-03,0.104,0.092
8.540e-03,0.104,0.056
8.560e-03,0.088,0.06
8.580e-03,0.128,0.056
8.600e-03,0.112,0.072
8.620e-03,0.096,0.056
8.640e-03,0.104,0.064
8.660e-03,0.112,0.048
8.680e-03,0.104,0.056
8.700e-03,0.104,0.076
8.720e-03,0.096,0.064
8.740e-03,0.112,0.06
8.760e-03,0.112,0.068
8.780e-03,0.104,0.056
8.800e-03,0.112,0.076
8.820e-03,0.104,0.044
8.840e-03,0.104,0.068
8.860e-03,0.104,0.06
8.880e-03,0.104,0.048
8.900e-03,0.096,0.052
8.920e-03,0.104,0.06
8.940e-03,0.12,0.048
8.960e-03,0.12,0.064
8.980e-03,0.104,0.068
9.000e-03,0.104,0.044
9.020e-03,0.104,0.068
9.040e-03,0.088,0.068
9.060e-03,0.12,0.076
9.080e-03,0.104,0.04
9.100e-03,0.104,0.06
9.120e-03,0.096,0.04
9.140e-03,0.096,0.056
9.160e-03,0.096,0.056
9.180e-03,0.104,0.056
9.200e-03,0.152,0.116
9.220e-03,0.096,0.04
9.240e-03,0.096,0.032
9.260e-03,0.088,0.06
9.280e-03,0.096,0.052
9.300e-03,0.104,0.068
9.320e-03,0.088,0.076
9.340e-03,0.104,0.064
9.360e-03,0.096,0.068
9.380e-03,0.096,0.068
9.400e-03,0.088,0.08
9.420e-03,0.096,0.092
9.440e-03,0.104,0.044
9.460e-03,0.096,0.068
9.480e-03,0.096,0.028
9.500e-03,0.104,0.06
9.520e-03,0.104,0.068
9.540e-03,0.096,0.052
9.560e-03,0.096,0.052
9.580e-03,0.096,0.056
9.600e-03,0.104,0.084
9.620e-03,0.104,0.068
9.640e-03,0.104,0.044
9.660e-03,0.096,0.076
9.680e-03,0.096,0.056
9.700e-03,0.096,0.064
9.720e-03,0.104,0.064
9.740e-03,0.104,0.052
9.760e-03,0.104,0.04
9.780e-03,0.096,0.044
9.800e-03,0.088,0.072
9.820e-03,0.088,0.076
9.840e-03,0.096,0.048
9.860e-03,0.088,0.04
9.880e-03,0.088,0.036
9.900e-03,0.08,0.076
9.920e-03,0.096,0.056
9.940e-03,0.08,0.048
9.960e-03,0.088,0.06
9.980e-03,0.08,0.04
1.000e-02,0.08,0.032
1.002e-02,0.08,0.056
1.004e-02,0.088,0.056
1.006e-02,0.072,0.052
1.008e-02,0.08,0.036
1.010e-02,0.08,0.048
1.012e-02,0.08,0.052
1.014e-02,0.08,0.048
1.016e-02,0.08,0.064
1.018e-02,0.064,0.032
1.020e-02,0.072,0.016
1.022e-02,0.072,0.048
1.024e-02,0.072,0.04
1.026e-02,0.08,0.044
1.028e-02,0.072,0.04
1.030e-02,0.064,0.04
1.032e-02,0.064,0.032
1.034e-02,0.072,0.04
1.036e-02,0.064,0.044
1.038e-02,0.064,0.032
1.040e-02,0.064,0.04
1.042e-02,0.064,0.032
1.044e-02,0.064,0.008
1.046e-02,0.064,0.048
1.048e-02,0.056,0.032
1.050e-02,0.056,0.004
1.052e-02,0.048,0.016
1.054e-02,0.064,0.04
1.056e-02,0.04,-0.012
1.058e-02,0.048,0.04
1.060e-02,0.056,0.04
1.062e-02,0.048,0.012
1.064e-02,0.048,0.048
1.066e-02,0.064,0.032
1.068e-02,0.056,0.024
1.070e-02,0.056,0.024
1.072e-02,0.056,0.032
1.074e-02,0.04,0.036
1.076e-02,0.04,0.04
1.078e-02,0.048,0.032
1.080e-02,0.048,0.04
1.082e-02,0.04,0.012
1.084e-02,0.048,0.016
1.086e-02,0.04,0.032
1.088e-02,0.032,0.036
1.090e-02,0.04,0.016
1.092e-02,0.032,0.036
1.094e-02,0.024,0.016
1.096e-02,0.04,0.02
1.098e-02,0.048,0.012
1.100e-02,0.032,0.024
1.102e-02,0.024,0.016
1.104e-02,0.024,0.02
1.106e-02,0.024,0.008
1.108e-02,0.024,0.016
1.110e-02,0.016,0.024
1.112e-02,0.024,0.016
1.114e-02,0.032,0.012
1.116e-02,0.04,0.004
1.118e-02,0.032,-0.004
1.120e-02,0.024,0.008
1.122e-02,0.04,-0.008
1.124e-02,0.024,0.012
1.126e-02,0.008,-0.012
1.128e-02,-0.008,0.004
1.130e-02,0.024,0.028
1.132e-02,0.008,-0.004
1.134e-02,0.016,0.008
1.136e-02,0.008,-0.012
1.138e-02,0,0.004
1.140e-02,0.008,0
1.142e-02,0,0.024
