Archivos Guadalupe/Data/1410-32-X4/23-10/D-23-10/tek0005ALL.csv

Model,DPO3034
Firmware Version,2.16

Point Format,Y,
Horizontal Units,S,
Horizontal Scale,4e-06,
Sample Interval,4e-08,
Record Length,1000,
Gating,0.0% to 100.0%,0.0% to 100.0%
Probe Attenuation,1,1
Vertical Units,V,V
Vertical Offset,0,0
Vertical Scale,2,1
Label,,
TIME,CH1,CH2
-1.216e-05,0.12,-0.1
-1.212e-05,0.04,-0.1
-1.208e-05,0.12,0.02
-1.204e-05,0.12,-0.02
-1.200e-05,0.04,-0.02
-1.196e-05,0.04,-0.02
-1.192e-05,0.2,-0.06
-1.188e-05,0.04,-0.06
-1.184e-05,0.04,-0.06
-1.180e-05,0.04,0.02
-1.176e-05,-0.04,-0.02
-1.172e-05,0.04,-0.06
-1.168e-05,0.2,0.02
-1.164e-05,0.04,-0.06
-1.160e-05,0.04,-0.02
-1.156e-05,-0.04,0.02
-1.152e-05,0.04,0.02
-1.148e-05,0.04,-0.02
-1.144e-05,0.12,-0.06
-1.140e-05,-0.04,-0.1
-1.136e-05,0.04,0.06
-1.132e-05,0.04,-0.02
-1.128e-05,0.2,0.02
-1.124e-05,0.04,-0.1
-1.120e-05,0.2,-0.02
-1.116e-05,0.12,0.02
-1.112e-05,0.04,-0.02
-1.108e-05,0.12,-0.02
-1.104e-05,0.12,0.06
-1.100e-05,0.12,-0.02
-1.096e-05,0.04,-0.02
-1.092e-05,0.04,-0.06
-1.088e-05,-0.04,0.02
-1.084e-05,0.28,0.02
-1.080e-05,0.04,0.02
-1.076e-05,0.12,-0.02
-1.072e-05,0.2,0.02
-1.068e-05,0.04,-0.14
-1.064e-05,0.12,0.02
-1.060e-05,0.12,-0.02
-1.056e-05,0.12,0.14
-1.052e-05,0.12,0.02
-1.048e-05,0.12,-0.02
-1.044e-05,0.12,0.02
-1.040e-05,0.12,0.02
-1.036e-05,0.12,0.02
-1.032e-05,0.12,0.02
-1.028e-05,0.28,0.02
-1.024e-05,0.2,0.06
-1.020e-05,0.12,0.02
-1.016e-05,0.28,0.06
-1.012e-05,0.28,0.06
-1.008e-05,0.12,0.02
-1.004e-05,0.44,0.06
-1.000e-05,0.36,0.1
-9.960e-06,0.28,0.1
-9.920e-06,0.36,0.06
-9.880e-06,0.52,0.02
-9.840e-06,0.36,0.14
-9.800e-06,0.52,0.1
-9.760e-06,0.6,0.18
-9.720e-06,0.36,0.14
-9.680e-06,0.36,0.14
-9.640e-06,0.52,0.06
-9.600e-06,0.44,0.1
-9.560e-06,0.44,0.14
-9.520e-06,0.52,0.14
-9.480e-06,0.52,0.14
-9.440e-06,0.76,0.14
-9.400e-06,0.6,0.18
-9.360e-06,0.6,0.18
-9.320e-06,0.76,0.22
-9.280e-06,0.84,0.26
-9.240e-06,0.76,0.22
-9.200e-06,0.84,0.22
-9.160e-06,0.92,0.3
-9.120e-06,0.84,0.34
-9.080e-06,0.76,0.26
-9.040e-06,0.92,0.3
-9.000e-06,1,0.26
-8.960e-06,1.08,0.3
-8.920e-06,0.92,0.3
-8.880e-06,1.16,0.38
-8.840e-06,0.92,0.3
-8.800e-06,1.24,0.22
-8.760e-06,1.08,0.26
-8.720e-06,1.08,0.42
-8.680e-06,1.08,0.34
-8.640e-06,1.24,0.34
-8.600e-06,1.24,0.34
-8.560e-06,1.16,0.34
-8.520e-06,1.16,0.34
-8.480e-06,1.08,0.42
-8.440e-06,1.24,0.34
-8.400e-06,1.16,0.42
-8.360e-06,1.16,0.38
-8.320e-06,1.4,0.38
-8.280e-06,1.32,0.38
-8.240e-06,1.24,0.34
-8.200e-06,1.4,0.34
-8.160e-06,1.4,0.34
-8.120e-06,1.48,0.38
-8.080e-06,1.4,0.38
-8.040e-06,1.4,0.38
-8.000e-06,1.32,0.42
-7.960e-06,1.48,0.34
-7.920e-06,1.32,0.46
-7.880e-06,1.32,0.34
-7.840e-06,1.4,0.38
-7.800e-06,1.56,0.42
-7.760e-06,1.48,0.42
-7.720e-06,1.48,0.38
-7.680e-06,1.56,0.42
-7.640e-06,1.48,0.42
-7.600e-06,1.56,0.46
-7.560e-06,1.56,0.54
-7.520e-06,1.72,0.46
-7.480e-06,1.56,0.42
-7.440e-06,1.48,0.42
-7.400e-06,1.56,0.42
-7.360e-06,1.72,0.5
-7.320e-06,1.88,0.5
-7.280e-06,1.56,0.42
-7.240e-06,1.88,0.42
-7.200e-06,1.64,0.5
-7.160e-06,1.8,0.38
-7.120e-06,1.72,0.46
-7.080e-06,1.64,0.46
-7.040e-06,1.8,0.5
-7.000e-06,1.72,0.42
-6.960e-06,1.8,0.42
-6.920e-06,1.72,0.46
-6.880e-06,1.8,0.42
-6.840e-06,1.72,0.42
-6.800e-06,1.72,0.42
-6.760e-06,1.8,0.5
-6.720e-06,1.72,0.42
-6.680e-06,1.8,0.46
-6.640e-06,1.72,0.42
-6.600e-06,1.8,0.46
-6.560e-06,1.8,0.42
-6.520e-06,1.88,0.42
-6.480e-06,1.72,0.42
-6.440e-06,1.88,0.46
-6.400e-06,1.88,0.42
-6.360e-06,1.64,0.42
-6.320e-06,1.8,0.42
-6.280e-06,1.88,0.46
-6.240e-06,1.64,0.34
-6.200e-06,1.64,0.42
-6.160e-06,1.88,0.42
-6.120e-06,1.8,0.42
-6.080e-06,1.8,0.38
-6.040e-06,1.8,0.42
-6.000e-06,1.72,0.34
-5.960e-06,1.96,0.42
-5.920e-06,1.64,0.46
-5.880e-06,1.8,0.42
-5.840e-06,1.72,0.42
-5.800e-06,1.8,0.38
-5.760e-06,1.8,0.38
-5.720e-06,1.8,0.34
-5.680e-06,1.8,0.38
-5.640e-06,1.64,0.42
-5.600e-06,1.64,0.34
-5.560e-06,1.72,0.38
-5.520e-06,1.64,0.42
-5.480e-06,1.8,0.3
-5.440e-06,1.8,0.38
-5.400e-06,1.8,0.42
-5.360e-06,1.8,0.3
-5.320e-06,1.96,0.42
-5.280e-06,1.8,0.34
-5.240e-06,1.8,0.3
-5.200e-06,1.88,0.42
-5.160e-06,1.72,0.3
-5.120e-06,1.8,0.34
-5.080e-06,1.8,0.3
-5.040e-06,1.72,0.34
-5.000e-06,1.8,0.34
-4.960e-06,1.8,0.34
-4.920e-06,1.8,0.34
-4.880e-06,1.8,0.26
-4.840e-06,1.8,0.3
-4.800e-06,1.72,0.34
-4.760e-06,1.8,0.34
-4.720e-06,1.8,0.38
-4.680e-06,1.64,0.3
-4.640e-06,1.8,0.34
-4.600e-06,1.8,0.26
-4.560e-06,1.72,0.34
-4.520e-06,1.8,0.42
-4.480e-06,1.88,0.34
-4.440e-06,1.72,0.34
-4.400e-06,1.8,0.34
-4.360e-06,1.88,0.38
-4.320e-06,1.72,0.38
-4.280e-06,1.8,0.34
-4.240e-06,1.8,0.26
-4.200e-06,1.72,0.34
-4.160e-06,1.88,0.3
-4.120e-06,1.8,0.26
-4.080e-06,1.8,0.34
-4.040e-06,1.72,0.3
-4.000e-06,1.88,0.34
-3.960e-06,1.72,0.3
-3.920e-06,1.8,0.3
-3.880e-06,1.88,0.3
-3.840e-06,1.88,0.3
-3.800e-06,1.8,0.22
-3.760e-06,1.72,0.34
-3.720e-06,1.8,0.22
-3.680e-06,1.72,0.3
-3.640e-06,1.72,0.3
-3.600e-06,1.8,0.22
-3.560e-06,1.64,0.3
-3.520e-06,1.88,0.22
-3.480e-06,1.72,0.3
-3.440e-06,1.72,0.22
-3.400e-06,1.8,0.26
-3.360e-06,1.72,0.3
-3.320e-06,1.8,0.22
-3.280e-06,1.8,0.22
-3.240e-06,1.88,0.26
-3.200e-06,1.72,0.34
-3.160e-06,1.88,0.3
-3.120e-06,1.8,0.26
-3.080e-06,1.8,0.34
-3.040e-06,1.96,0.3
-3.000e-06,1.88,0.3
-2.960e-06,1.8,0.26
-2.920e-06,2.12,0.38
-2.880e-06,1.96,0.34
-2.840e-06,2.2,0.42
-2.800e-06,2.2,0.38
-2.760e-06,2.2,0.42
-2.720e-06,2.36,0.42
-2.680e-06,2.6,0.42
-2.640e-06,2.52,0.46
-2.600e-06,2.76,0.54
-2.560e-06,2.68,0.54
-2.520e-06,2.76,0.66
-2.480e-06,2.92,0.62
-2.440e-06,3.08,0.62
-2.400e-06,2.92,0.62
-2.360e-06,3,0.66
-2.320e-06,3.24,0.7
-2.280e-06,3.16,0.74
-2.240e-06,3.32,0.74
-2.200e-06,3.48,0.78
-2.160e-06,3.48,0.78
-2.120e-06,3.48,0.82
-2.080e-06,3.72,0.9
-2.040e-06,3.8,0.86
-2.000e-06,3.72,0.86
-1.960e-06,3.8,0.9
-1.920e-06,3.8,0.98
-1.880e-06,3.96,0.94
-1.840e-06,4.04,0.94
-1.800e-06,3.96,1.02
-1.760e-06,4.2,0.98
-1.720e-06,4.28,1.06
-1.680e-06,4.44,1.06
-1.640e-06,4.36,1.1
-1.600e-06,4.52,1.18
-1.560e-06,4.44,1.1
-1.520e-06,4.68,1.1
-1.480e-06,4.68,1.1
-1.440e-06,4.68,1.22
-1.400e-06,4.92,1.22
-1.360e-06,4.92,1.26
-1.320e-06,5,1.26
-1.280e-06,5.08,1.3
-1.240e-06,5,1.3
-1.200e-06,5.08,1.34
-1.160e-06,5.32,1.3
-1.120e-06,5.32,1.38
-1.080e-06,5.4,1.34
-1.040e-06,5.64,1.38
-1.000e-06,5.64,1.42
-9.600e-07,5.64,1.42
-9.200e-07,5.64,1.54
-8.800e-07,5.8,1.54
-8.400e-07,5.88,1.58
-8.000e-07,5.88,1.58
-7.600e-07,6.12,1.54
-7.200e-07,6.04,1.62
-6.800e-07,6.12,1.62
-6.400e-07,6.12,1.58
-6.000e-07,6.28,1.62
-5.600e-07,6.2,1.62
-5.200e-07,6.44,1.62
-4.800e-07,6.44,1.66
-4.400e-07,6.52,1.7
-4.000e-07,6.68,1.78
-3.600e-07,6.6,1.74
-3.200e-07,6.76,1.66
-2.800e-07,6.92,1.74
-2.400e-07,6.84,1.78
-2.000e-07,6.92,1.82
-1.600e-07,7.08,1.86
-1.200e-07,7.08,1.9
-8.000e-08,7.16,1.82
-4.000e-08,7.32,1.94
-7.516e-20,7.24,1.86
4.000e-08,7.24,1.94
8.000e-08,7.4,1.94
1.200e-07,7.48,1.98
1.600e-07,7.56,2.02
2.000e-07,7.8,2.06
2.400e-07,7.72,2.06
2.800e-07,7.88,2.06
3.200e-07,7.96,2.02
3.600e-07,7.96,2.06
4.000e-07,7.96,2.18
4.400e-07,8.12,2.18
4.800e-07,8.28,2.18
5.200e-07,8.2,2.18
5.600e-07,8.2,2.14
6.000e-07,8.28,2.26
6.400e-07,8.44,2.18
6.800e-07,8.52,2.26
7.200e-07,8.44,2.26
7.600e-07,8.76,2.3
8.000e-07,8.68,2.3
8.400e-07,8.6,2.3
8.800e-07,8.76,2.3
9.200e-07,8.84,2.3
9.600e-07,8.6,2.34
1.000e-06,8.76,2.26
1.040e-06,8.76,2.34
1.080e-06,8.84,2.26
1.120e-06,8.76,2.3
1.160e-06,8.6,2.26
1.200e-06,8.76,2.22
1.240e-06,8.68,2.22
1.280e-06,8.76,2.22
1.320e-06,8.68,2.26
1.360e-06,8.76,2.26
1.400e-06,8.68,2.26
1.440e-06,8.76,2.18
1.480e-06,8.76,2.22
1.520e-06,8.76,2.26
1.560e-06,8.6,2.18
1.600e-06,8.68,2.18
1.640e-06,8.84,2.22
1.680e-06,8.68,2.18
1.720e-06,8.68,2.22
1.760e-06,8.76,2.22
1.800e-06,8.68,2.1
1.840e-06,8.68,2.14
1.880e-06,8.84,2.18
1.920e-06,8.84,2.18
1.960e-06,8.6,2.1
2.000e-06,8.84,2.14
2.040e-06,8.68,2.18
2.080e-06,8.68,2.14
2.120e-06,8.84,2.14
2.160e-06,8.76,2.1
2.200e-06,8.76,2.1
2.240e-06,8.68,2.14
2.280e-06,8.52,2.1
2.320e-06,8.68,2.1
2.360e-06,8.76,2.14
2.400e-06,8.68,2.1
2.440e-06,8.6,2.18
2.480e-06,8.76,2.14
2.520e-06,8.52,2.1
2.560e-06,8.76,1.98
2.600e-06,8.76,2.14
2.640e-06,8.76,2.02
2.680e-06,8.6,2.06
2.720e-06,8.68,2.1
2.760e-06,8.68,2.06
2.800e-06,8.84,2.1
2.840e-06,8.84,2.1
2.880e-06,8.68,2.1
2.920e-06,8.68,2.1
2.960e-06,8.84,2.02
3.000e-06,8.76,2.02
3.040e-06,8.76,2.02
3.080e-06,8.84,2.06
3.120e-06,8.76,2.06
3.160e-06,8.76,2.06
3.200e-06,8.84,2.02
3.240e-06,8.76,2.06
3.280e-06,8.68,1.98
3.320e-06,8.76,2.1
3.360e-06,8.68,2.02
3.400e-06,8.68,2.06
3.440e-06,8.76,2.02
3.480e-06,8.76,1.98
3.520e-06,8.76,2.06
3.560e-06,8.92,1.98
3.600e-06,8.76,2.1
3.640e-06,8.68,2.02
3.680e-06,8.84,1.94
3.720e-06,8.52,1.98
3.760e-06,8.76,2.02
3.800e-06,8.68,2.02
3.840e-06,8.84,2.02
3.880e-06,8.68,2.06
3.920e-06,8.76,2.02
3.960e-06,8.68,2.06
4.000e-06,8.76,1.94
4.040e-06,8.68,2.1
4.080e-06,8.84,1.94
4.120e-06,8.68,2.02
4.160e-06,8.68,2.06
4.200e-06,8.76,1.94
4.240e-06,8.6,1.98
4.280e-06,8.84,1.9
4.320e-06,8.84,1.94
4.360e-06,8.76,1.94
4.400e-06,8.76,2.06
4.440e-06,8.6,1.94
4.480e-06,8.68,1.9
4.520e-06,8.84,1.98
4.560e-06,8.76,1.9
4.600e-06,8.68,2.02
4.640e-06,8.76,2.02
4.680e-06,8.6,1.9
4.720e-06,8.76,1.94
4.760e-06,8.84,2.02
4.800e-06,8.84,1.98
4.840e-06,8.84,2.02
4.880e-06,8.84,1.94
4.920e-06,8.76,1.94
4.960e-06,8.68,1.98
5.000e-06,8.68,1.82
5.040e-06,8.6,1.86
5.080e-06,8.44,1.9
5.120e-06,8.52,1.86
5.160e-06,8.44,1.74
5.200e-06,8.28,1.82
5.240e-06,8.2,1.82
5.280e-06,8.12,1.82
5.320e-06,8.2,1.66
5.360e-06,8.04,1.66
5.400e-06,7.96,1.58
5.440e-06,7.8,1.58
5.480e-06,7.96,1.54
5.520e-06,7.8,1.54
5.560e-06,7.64,1.62
5.600e-06,7.48,1.54
5.640e-06,7.56,1.46
5.680e-06,7.4,1.42
5.720e-06,7.4,1.46
5.760e-06,7.32,1.34
5.800e-06,7.24,1.38
5.840e-06,7.16,1.34
5.880e-06,7.16,1.34
5.920e-06,6.92,1.34
5.960e-06,7,1.18
6.000e-06,6.84,1.18
6.040e-06,6.84,1.18
6.080e-06,6.68,1.1
6.120e-06,6.68,1.1
6.160e-06,6.6,1.1
6.200e-06,6.52,0.98
6.240e-06,6.44,0.98
6.280e-06,6.28,0.94
6.320e-06,6.36,0.9
6.360e-06,6.28,0.9
6.400e-06,6.04,0.94
6.440e-06,6.12,0.86
6.480e-06,6.12,0.9
6.520e-06,5.96,0.82
6.560e-06,5.96,0.86
6.600e-06,5.88,0.74
6.640e-06,5.72,0.7
6.680e-06,5.8,0.74
6.720e-06,5.64,0.74
6.760e-06,5.56,0.66
6.800e-06,5.56,0.7
6.840e-06,5.48,0.62
6.880e-06,5.4,0.58
6.920e-06,5.4,0.54
6.960e-06,5.32,0.5
7.000e-06,5.24,0.54
7.040e-06,5.16,0.46
7.080e-06,5,0.42
7.120e-06,5,0.42
7.160e-06,4.92,0.42
7.200e-06,4.76,0.38
7.240e-06,4.68,0.34
7.280e-06,4.68,0.34
7.320e-06,4.6,0.3
7.360e-06,4.44,0.3
7.400e-06,4.44,0.22
7.440e-06,4.44,0.22
7.480e-06,4.2,0.18
7.520e-06,4.2,0.18
7.560e-06,4.12,0.06
7.600e-06,4.2,0.06
7.640e-06,4.12,0.14
7.680e-06,3.96,0.02
7.720e-06,3.8,-0.02
7.760e-06,3.72,-0.06
7.800e-06,3.72,-0.02
7.840e-06,3.88,0.02
7.880e-06,3.64,-0.02
7.920e-06,3.72,-0.06
7.960e-06,3.4,-0.1
8.000e-06,3.48,-0.14
8.040e-06,3.24,-0.14
8.080e-06,3.32,-0.18
8.120e-06,3.24,-0.3
8.160e-06,3.16,-0.22
8.200e-06,3.08,-0.34
8.240e-06,3,-0.3
8.280e-06,2.92,-0.34
8.320e-06,2.92,-0.3
8.360e-06,2.84,-0.3
8.400e-06,2.76,-0.34
8.440e-06,2.6,-0.38
8.480e-06,2.52,-0.5
8.520e-06,2.44,-0.46
8.560e-06,2.28,-0.46
8.600e-06,2.36,-0.46
8.640e-06,2.28,-0.54
8.680e-06,2.28,-0.54
8.720e-06,2.2,-0.58
8.760e-06,2.04,-0.5
8.800e-06,2.04,-0.58
8.840e-06,1.96,-0.62
8.880e-06,1.8,-0.7
8.920e-06,1.88,-0.66
8.960e-06,2.04,-0.66
9.000e-06,1.8,-0.58
9.040e-06,1.8,-0.66
9.080e-06,1.72,-0.7
9.120e-06,1.64,-0.66
9.160e-06,1.88,-0.66
9.200e-06,1.8,-0.62
9.240e-06,1.64,-0.66
9.280e-06,1.88,-0.62
9.320e-06,1.8,-0.58
9.360e-06,1.72,-0.62
9.400e-06,1.64,-0.54
9.440e-06,1.72,-0.58
9.480e-06,1.96,-0.54
9.520e-06,1.96,-0.58
9.560e-06,1.72,-0.58
9.600e-06,1.96,-0.54
9.640e-06,1.8,-0.46
9.680e-06,1.8,-0.5
9.720e-06,1.88,-0.42
9.760e-06,1.72,-0.54
9.800e-06,1.88,-0.54
9.840e-06,1.72,-0.54
9.880e-06,1.88,-0.5
9.920e-06,1.88,-0.46
9.960e-06,1.88,-0.5
1.000e-05,1.88,-0.5
1.004e-05,1.88,-0.5
1.008e-05,1.8,-0.46
1.012e-05,1.8,-0.38
1.016e-05,1.88,-0.54
1.020e-05,1.8,-0.46
1.024e-05,1.88,-0.46
1.028e-05,1.88,-0.54
1.032e-05,1.8,-0.5
1.036e-05,1.64,-0.54
1.040e-05,1.88,-0.5
1.044e-05,1.8,-0.46
1.048e-05,1.8,-0.5
1.052e-05,1.88,-0.46
1.056e-05,1.8,-0.46
1.060e-05,1.88,-0.46
1.064e-05,1.8,-0.38
1.068e-05,1.8,-0.46
1.072e-05,1.8,-0.42
1.076e-05,1.88,-0.38
1.080e-05,1.88,-0.46
1.084e-05,1.72,-0.42
1.088e-05,1.8,-0.42
1.092e-05,1.88,-0.42
1.096e-05,1.96,-0.42
1.100e-05,1.88,-0.38
1.104e-05,1.64,-0.42
1.108e-05,1.72,-0.38
1.112e-05,1.72,-0.38
1.116e-05,1.64,-0.42
1.120e-05,1.88,-0.38
1.124e-05,1.72,-0.38
1.128e-05,1.8,-0.38
1.132e-05,1.8,-0.34
1.136e-05,1.88,-0.34
1.140e-05,1.8,-0.42
1.144e-05,1.88,-0.46
1.148e-05,1.88,-0.34
1.152e-05,1.72,-0.42
1.156e-05,1.8,-0.34
1.160e-05,1.72,-0.38
1.164e-05,1.8,-0.42
1.168e-05,1.8,-0.3
1.172e-05,1.88,-0.34
1.176e-05,1.64,-0.38
1.180e-05,1.8,-0.3
1.184e-05,1.8,-0.38
1.188e-05,1.8,-0.38
1.192e-05,1.88,-0.34
1.196e-05,1.88,-0.3
1.200e-05,1.88,-0.34
1.204e-05,1.88,-0.34
1.208e-05,1.8,-0.3
1.212e-05,1.88,-0.38
1.216e-05,1.8,-0.34
1.220e-05,1.8,-0.34
1.224e-05,1.8,-0.3
1.228e-05,1.8,-0.22
1.232e-05,1.88,-0.3
1.236e-05,1.8,-0.34
1.240e-05,1.88,-0.3
1.244e-05,1.8,-0.3
1.248e-05,1.88,-0.3
1.252e-05,1.8,-0.26
1.256e-05,1.88,-0.34
1.260e-05,1.8,-0.26
1.264e-05,1.88,-0.3
1.268e-05,1.72,-0.22
1.272e-05,1.72,-0.3
1.276e-05,1.88,-0.26
1.280e-05,1.8,-0.3
1.284e-05,1.72,-0.34
1.288e-05,1.88,-0.26
1.292e-05,1.8,-0.3
1.296e-05,1.8,-0.3
1.300e-05,1.8,-0.18
1.304e-05,1.8,-0.3
1.308e-05,1.64,-0.26
1.312e-05,1.8,-0.26
1.316e-05,1.8,-0.34
1.320e-05,1.88,-0.26
1.324e-05,1.8,-0.26
1.328e-05,1.88,-0.26
1.332e-05,1.8,-0.22
1.336e-05,1.72,-0.22
1.340e-05,1.8,-0.22
1.344e-05,1.88,-0.14
1.348e-05,1.88,-0.3
1.352e-05,1.8,-0.26
1.356e-05,1.88,-0.18
1.360e-05,1.64,-0.26
1.364e-05,1.8,-0.14
1.368e-05,1.72,-0.22
1.372e-05,1.64,-0.26
1.376e-05,1.88,-0.22
1.380e-05,1.8,-0.22
1.384e-05,1.88,-0.26
1.388e-05,1.96,-0.18
1.392e-05,1.96,-0.22
1.396e-05,1.8,-0.34
1.400e-05,1.72,-0.26
1.404e-05,1.8,-0.18
1.408e-05,1.88,-0.22
1.412e-05,1.8,-0.18
1.416e-05,1.8,-0.14
1.420e-05,1.8,-0.22
1.424e-05,1.8,-0.18
1.428e-05,1.72,-0.18
1.432e-05,1.72,-0.22
1.436e-05,1.8,-0.18
1.440e-05,1.8,-0.26
1.444e-05,1.88,-0.14
1.448e-05,1.8,-0.18
1.452e-05,1.88,-0.18
1.456e-05,1.8,-0.22
1.460e-05,1.88,-0.18
1.464e-05,1.8,-0.14
1.468e-05,1.88,-0.18
1.472e-05,1.88,-0.18
1.476e-05,1.8,-0.18
1.480e-05,1.8,-0.22
1.484e-05,1.88,-0.18
1.488e-05,1.8,-0.22
1.492e-05,1.8,-0.14
1.496e-05,1.72,-0.22
1.500e-05,1.88,-0.14
1.504e-05,1.8,-0.26
1.508e-05,1.88,-0.18
1.512e-05,1.8,-0.22
1.516e-05,1.72,-0.14
1.520e-05,1.72,-0.1
1.524e-05,1.72,-0.22
1.528e-05,1.8,-0.14
1.532e-05,1.88,-0.22
1.536e-05,1.72,-0.14
1.540e-05,1.72,-0.18
1.544e-05,1.88,-0.18
1.548e-05,1.8,-0.18
1.552e-05,1.8,-0.14
1.556e-05,1.8,-0.18
1.560e-05,1.72,-0.22
1.564e-05,1.64,-0.1
1.568e-05,1.8,-0.14
1.572e-05,1.72,-0.18
1.576e-05,1.8,-0.14
1.580e-05,1.8,-0.1
1.584e-05,1.72,-0.18
1.588e-05,1.96,-0.1
1.592e-05,1.8,-0.1
1.596e-05,1.88,-0.18
1.600e-05,1.8,-0.14
1.604e-05,1.88,-0.14
1.608e-05,1.8,-0.14
1.612e-05,1.8,-0.06
1.616e-05,1.96,-0.22
1.620e-05,1.72,-0.18
1.624e-05,1.8,-0.14
1.628e-05,1.8,-0.14
1.632e-05,1.72,-0.06
1.636e-05,1.8,-0.18
1.640e-05,1.8,-0.06
1.644e-05,1.8,-0.1
1.648e-05,1.8,-0.14
1.652e-05,1.88,-0.1
1.656e-05,1.64,-0.1
1.660e-05,1.72,-0.1
1.664e-05,1.8,-0.14
1.668e-05,1.8,-0.06
1.672e-05,1.72,-0.1
1.676e-05,1.8,-0.1
1.680e-05,1.8,-0.14
1.684e-05,1.88,-0.1
1.688e-05,1.8,-0.18
1.692e-05,1.64,-0.18
1.696e-05,1.8,-0.18
1.700e-05,1.72,-0.14
1.704e-05,1.72,-0.06
1.708e-05,1.72,-0.18
1.712e-05,1.72,-0.06
1.716e-05,1.8,-0.02
1.720e-05,1.88,-0.14
1.724e-05,1.88,-0.14
1.728e-05,1.8,-0.06
1.732e-05,1.72,-0.06
1.736e-05,1.72,-0.18
1.740e-05,1.72,-0.1
1.744e-05,1.88,-0.1
1.748e-05,1.8,-0.1
1.752e-05,1.8,-0.1
1.756e-05,1.72,-0.1
1.760e-05,1.88,-0.06
1.764e-05,1.8,-0.1
1.768e-05,1.72,-0.14
1.772e-05,1.8,-0.02
1.776e-05,1.88,-0.06
1.780e-05,1.72,-0.06
1.784e-05,1.8,-0.06
1.788e-05,1.8,-0.02
1.792e-05,1.8,-0.1
1.796e-05,1.72,-0.06
1.800e-05,1.88,-0.1
1.804e-05,1.8,-0.06
1.808e-05,1.8,-0.06
1.812e-05,1.88,0.02
1.816e-05,1.72,-0.06
1.820e-05,1.64,-0.02
1.824e-05,1.8,-0.02
1.828e-05,1.88,-0.1
1.832e-05,1.72,-0.06
1.836e-05,1.64,-0.06
1.840e-05,1.8,-0.06
1.844e-05,1.72,-0.1
1.848e-05,1.72,-0.06
1.852e-05,1.8,-0.06
1.856e-05,1.64,-0.1
1.860e-05,1.8,-0.02
1.864e-05,1.64,-0.14
1.868e-05,1.96,-0.1
1.872e-05,1.8,-0.06
1.876e-05,1.72,-0.14
1.880e-05,1.8,-0.06
1.884e-05,1.8,-0.14
1.888e-05,1.88,-0.14
1.892e-05,1.88,-0.06
1.896e-05,1.72,-0.02
1.900e-05,1.72,0.02
1.904e-05,1.8,-0.14
1.908e-05,1.8,-0.02
1.912e-05,1.8,-0.02
1.916e-05,1.8,-0.1
1.920e-05,1.64,-0.06
1.924e-05,1.72,-0.02
1.928e-05,1.88,-0.02
1.932e-05,1.72,0.02
1.936e-05,1.8,-0.06
1.940e-05,1.96,-0.1
1.944e-05,1.8,-0.1
1.948e-05,1.88,-0.02
1.952e-05,1.8,-0.02
1.956e-05,1.8,-0.14
1.960e-05,1.8,-0.02
1.964e-05,1.8,-0.06
1.968e-05,1.88,-0.06
1.972e-05,1.8,-0.02
1.976e-05,1.64,-0.06
1.980e-05,1.72,0.02
1.984e-05,1.88,-0.1
1.988e-05,1.88,-0.1
1.992e-05,1.8,-0.02
1.996e-05,1.72,0.06
2.000e-05,1.88,-0.06
2.004e-05,1.72,-0.02
2.008e-05,1.8,-0.06
2.012e-05,1.56,-0.1
2.016e-05,1.8,0.02
2.020e-05,1.8,-0.06
2.024e-05,1.64,-0.1
2.028e-05,1.8,-0.06
2.032e-05,1.88,-0.06
2.036e-05,1.72,-0.06
2.040e-05,1.8,0.06
2.044e-05,1.8,-0.02
2.048e-05,1.72,-0.06
2.052e-05,1.64,0.02
2.056e-05,1.8,0.02
2.060e-05,1.72,0.06
2.064e-05,1.8,-0.02
2.068e-05,1.8,-0.1
2.072e-05,1.88,0.02
2.076e-05,1.8,-0.02
2.080e-05,1.8,-0.02
2.084e-05,1.88,0.02
2.088e-05,1.72,-0.02
2.092e-05,1.72,0.02
2.096e-05,1.8,0.02
2.100e-05,1.72,-0.14
2.104e-05,1.8,-0.02
2.108e-05,1.88,-0.02
2.112e-05,1.8,-0.06
2.116e-05,1.72,-0.02
2.120e-05,1.8,-0.1
2.124e-05,1.8,0.02
2.128e-05,1.72,0.02
2.132e-05,1.72,-0.02
2.136e-05,1.72,-0.02
2.140e-05,1.72,-0.06
2.144e-05,1.8,-0.06
2.148e-05,1.72,-0.1
2.152e-05,1.64,-0.1
2.156e-05,1.88,-0.06
2.160e-05,1.72,-0.06
2.164e-05,1.8,-0.02
2.168e-05,1.64,-0.02
2.172e-05,1.8,0.02
2.176e-05,1.72,-0.06
2.180e-05,1.8,-0.06
2.184e-05,1.8,0.02
2.188e-05,1.72,-0.06
2.192e-05,1.8,-0.1
2.196e-05,1.8,0.02
2.200e-05,1.72,-0.06
2.204e-05,1.72,-0.02
2.208e-05,1.72,0.02
2.212e-05,1.8,0.06
2.216e-05,1.8,-0.06
2.220e-05,1.8,0.06
2.224e-05,1.8,-0.02
2.228e-05,1.8,-0.06
2.232e-05,1.72,-0.02
2.236e-05,1.8,-0.02
2.240e-05,1.72,0.02
2.244e-05,1.88,-0.02
2.248e-05,1.72,0.02
2.252e-05,1.8,-0.02
2.256e-05,1.8,-0.02
2.260e-05,1.72,-0.02
2.264e-05,1.8,-0.06
2.268e-05,1.8,-0.02
2.272e-05,1.8,0.02
2.276e-05,1.72,0.02
2.280e-05,1.72,-0.02
2.284e-05,1.8,-0.02
2.288e-05,1.88,-0.06
2.292e-05,1.72,0.02
2.296e-05,1.8,-0.06
2.300e-05,1.72,-0.06
2.304e-05,1.8,0.02
2.308e-05,1.64,-0.02
2.312e-05,1.88,-0.02
2.316e-05,1.64,0.02
2.320e-05,1.88,-0.02
2.324e-05,1.72,-0.06
2.328e-05,1.8,-0.06
2.332e-05,1.8,-0.14
2.336e-05,1.8,-0.02
2.340e-05,1.72,0.02
2.344e-05,1.8,0.02
2.348e-05,1.64,-0.1
2.352e-05,1.8,-0.06
2.356e-05,1.88,-0.1
2.360e-05,1.8,-0.02
2.364e-05,1.8,-0.06
2.368e-05,1.64,-0.02
2.372e-05,1.96,-0.06
2.376e-05,1.88,0.02
2.380e-05,1.72,-0.02
2.384e-05,1.8,0.02
2.388e-05,1.8,-0.06
2.392e-05,1.72,-0.06
2.396e-05,1.8,-0.02
2.400e-05,1.8,0.06
2.404e-05,1.8,0.02
2.408e-05,1.8,-0.02
2.412e-05,1.72,0.02
2.416e-05,1.8,-0.02
2.420e-05,1.8,0.02
2.424e-05,1.8,0.02
2.428e-05,1.8,-0.02
2.432e-05,1.96,0.02
2.436e-05,1.88,0.02
2.440e-05,1.88,-0.02
2.444e-05,1.8,0.06
2.448e-05,1.72,0.02
2.452e-05,1.88,-0.06
2.456e-05,1.8,0.02
2.460e-05,1.72,0.06
2.464e-05,1.8,0.06
2.468e-05,1.8,-0.02
2.472e-05,1.8,-0.02
2.476e-05,1.8,0.06
2.480e-05,1.88,0.02
2.484e-05,1.8,0.06
2.488e-05,1.8,0.1
2.492e-05,1.8,0.02
2.496e-05,1.8,-0.06
2.500e-05,1.88,0.02
2.504e-05,1.72,0.06
2.508e-05,1.8,0.02
2.512e-05,1.8,0.02
2.516e-05,1.64,0.02
2.520e-05,1.72,0.02
2.524e-05,1.88,0.06
2.528e-05,1.72,-0.14
2.532e-05,1.8,0.02
2.536e-05,1.88,-0.06
2.540e-05,1.72,0.1
2.544e-05,1.8,0.06
2.548e-05,1.64,0.02
2.552e-05,1.64,0.06
2.556e-05,1.72,0.02
2.560e-05,1.8,0.02
2.564e-05,1.8,-0.02
2.568e-05,1.8,-0.02
2.572e-05,1.8,0.02
2.576e-05,1.72,0.06
2.580e-05,1.8,0.02
2.584e-05,1.8,0.02
2.588e-05,1.64,0.1
2.592e-05,1.88,0.06
2.596e-05,1.72,-0.02
2.600e-05,1.8,0.02
2.604e-05,1.72,0.06
2.608e-05,1.8,-0.02
2.612e-05,1.8,0.06
2.616e-05,1.72,-0.02
2.620e-05,1.72,0.06
2.624e-05,1.8,-0.06
2.628e-05,1.8,0.02
2.632e-05,1.88,0.02
2.636e-05,1.72,-0.02
2.640e-05,1.8,-0.02
2.644e-05,1.72,0.02
2.648e-05,1.8,0.06
2.652e-05,1.8,0.06
2.656e-05,1.72,0.02
2.660e-05,1.8,-0.02
2.664e-05,1.8,-0.06
2.668e-05,1.8,-0.06
2.672e-05,1.8,0.02
2.676e-05,1.72,0.02
