Archivos Guadalupe/Data/1410-32-X4/23-10/D-23-10/tek0000ALL.csv

Model,DPO3034
Firmware Version,2.16

Point Format,Y,
Horizontal Units,S,
Horizontal Scale,4e-07,
Sample Interval,4e-09,
Record Length,1000,
Gating,0.0% to 100.0%,0.0% to 100.0%
Probe Attenuation,1,1
Vertical Units,V,V
Vertical Offset,0,0
Vertical Scale,2,0.5
Label,,
TIME,CH1,CH2
-3.280e-07,-0.12,0.03
-3.240e-07,-0.12,0.01
-3.200e-07,0.12,0.01
-3.160e-07,0.12,0.01
-3.120e-07,-0.04,0.01
-3.080e-07,0.12,0.05
-3.040e-07,0.12,0.03
-3.000e-07,-0.12,0.03
-2.960e-07,0.04,0.01
-2.920e-07,0.04,0.05
-2.880e-07,0.04,0.01
-2.840e-07,-0.12,0.03
-2.800e-07,0.04,-0.01
-2.760e-07,-0.04,0.01
-2.720e-07,-0.12,0.01
-2.680e-07,-0.04,-0.03
-2.640e-07,0.04,-0.01
-2.600e-07,-0.04,0.01
-2.560e-07,0.04,-0.01
-2.520e-07,0.04,-0.01
-2.480e-07,-0.04,0.01
-2.440e-07,-0.04,-0.01
-2.400e-07,-0.04,0.03
-2.360e-07,-0.04,0.03
-2.320e-07,0.04,0.01
-2.280e-07,0.04,0.03
-2.240e-07,0.04,0.01
-2.200e-07,-0.04,0.01
-2.160e-07,-0.12,0.05
-2.120e-07,0.12,0.03
-2.080e-07,0.04,0.01
-2.040e-07,0.04,0.01
-2.000e-07,-0.04,0.07
-1.960e-07,0.04,0.01
-1.920e-07,-0.04,0.03
-1.880e-07,0.04,-0.03
-1.840e-07,-0.12,0.01
-1.800e-07,-0.04,0.03
-1.760e-07,-0.2,-0.01
-1.720e-07,0.12,-0.01
-1.680e-07,0.04,-0.01
-1.640e-07,0.04,-0.05
-1.600e-07,-0.04,0.01
-1.560e-07,-0.04,-0.03
-1.520e-07,-0.04,-0.01
-1.480e-07,0.04,0.01
-1.440e-07,0.04,-0.01
-1.400e-07,0.04,-0.03
-1.360e-07,-0.04,-0.03
-1.320e-07,-0.04,-0.03
-1.280e-07,-0.12,0.03
-1.240e-07,-0.04,-0.01
-1.200e-07,0.04,-0.01
-1.160e-07,0.04,0.01
-1.120e-07,0.12,-0.01
-1.080e-07,0.12,-0.01
-1.040e-07,0.12,0.03
-1.000e-07,-0.04,-0.01
-9.600e-08,0.2,0.03
-9.200e-08,0.2,0.05
-8.800e-08,0.28,0.05
-8.400e-08,0.2,0.07
-8.000e-08,0.28,0.07
-7.600e-08,0.28,0.11
-7.200e-08,0.28,0.15
-6.800e-08,0.36,0.13
-6.400e-08,0.28,0.17
-6.000e-08,0.52,0.15
-5.600e-08,0.52,0.17
-5.200e-08,0.52,0.21
-4.800e-08,0.52,0.21
-4.400e-08,0.6,0.21
-4.000e-08,0.68,0.21
-3.600e-08,0.6,0.21
-3.200e-08,0.76,0.23
-2.800e-08,0.68,0.25
-2.400e-08,0.76,0.21
-2.000e-08,0.92,0.25
-1.600e-08,0.92,0.27
-1.200e-08,0.92,0.27
-8.000e-09,0.84,0.27
-4.000e-09,0.92,0.27
-5.294e-23,0.84,0.29
4.000e-09,0.92,0.31
8.000e-09,1,0.29
1.200e-08,1.16,0.33
1.600e-08,1.16,0.31
2.000e-08,1.24,0.35
2.400e-08,1.16,0.33
2.800e-08,1.24,0.35
3.200e-08,1.32,0.39
3.600e-08,1.4,0.43
4.000e-08,1.32,0.37
4.400e-08,1.24,0.39
4.800e-08,1.32,0.43
5.200e-08,1.4,0.41
5.600e-08,1.48,0.45
6.000e-08,1.48,0.45
6.400e-08,1.56,0.47
6.800e-08,1.56,0.47
7.200e-08,1.64,0.49
7.600e-08,1.64,0.51
8.000e-08,1.8,0.51
8.400e-08,1.72,0.53
8.800e-08,1.8,0.53
9.200e-08,1.72,0.55
9.600e-08,1.8,0.55
1.000e-07,1.72,0.51
1.040e-07,1.88,0.55
1.080e-07,1.96,0.53
1.120e-07,1.8,0.55
1.160e-07,1.96,0.57
1.200e-07,1.88,0.55
1.240e-07,1.8,0.59
1.280e-07,1.8,0.57
1.320e-07,1.88,0.57
1.360e-07,1.96,0.55
1.400e-07,2.04,0.57
1.440e-07,1.96,0.55
1.480e-07,1.88,0.59
1.520e-07,1.96,0.55
1.560e-07,1.96,0.59
1.600e-07,1.8,0.59
1.640e-07,1.72,0.61
1.680e-07,2.04,0.59
1.720e-07,2.04,0.55
1.760e-07,1.88,0.59
1.800e-07,1.96,0.63
1.840e-07,1.88,0.61
1.880e-07,2.04,0.63
1.920e-07,1.88,0.61
1.960e-07,1.96,0.61
2.000e-07,1.96,0.59
2.040e-07,2.12,0.59
2.080e-07,2.04,0.59
2.120e-07,1.96,0.59
2.160e-07,1.88,0.63
2.200e-07,2.04,0.57
2.240e-07,1.88,0.59
2.280e-07,1.96,0.61
2.320e-07,1.96,0.59
2.360e-07,1.88,0.61
2.400e-07,1.88,0.59
2.440e-07,1.96,0.61
2.480e-07,2.04,0.61
2.520e-07,1.96,0.61
2.560e-07,1.88,0.61
2.600e-07,1.96,0.59
2.640e-07,2.12,0.59
2.680e-07,2.04,0.61
2.720e-07,2.04,0.61
2.760e-07,1.96,0.61
2.800e-07,2.04,0.63
2.840e-07,2.2,0.61
2.880e-07,2.2,0.59
2.920e-07,2.2,0.59
2.960e-07,2.36,0.65
3.000e-07,2.44,0.65
3.040e-07,2.44,0.67
3.080e-07,2.76,0.73
3.120e-07,2.68,0.71
3.160e-07,2.76,0.79
3.200e-07,2.84,0.81
3.240e-07,2.92,0.83
3.280e-07,2.92,0.87
3.320e-07,3.16,0.91
3.360e-07,3.24,0.93
3.400e-07,3.48,0.97
3.440e-07,3.56,1.01
3.480e-07,3.64,1.03
3.520e-07,3.96,1.01
3.560e-07,4.04,1.09
3.600e-07,4.28,1.09
3.640e-07,4.28,1.13
3.680e-07,4.44,1.17
3.720e-07,4.6,1.15
3.760e-07,4.6,1.21
3.800e-07,4.76,1.21
3.840e-07,4.84,1.25
3.880e-07,5.16,1.27
3.920e-07,5.24,1.27
3.960e-07,5.48,1.35
4.000e-07,5.56,1.31
4.040e-07,5.8,1.33
4.080e-07,5.8,1.41
4.120e-07,5.96,1.41
4.160e-07,6.28,1.49
4.200e-07,6.28,1.49
4.240e-07,6.44,1.49
4.280e-07,6.52,1.55
4.320e-07,6.68,1.61
4.360e-07,6.92,1.59
4.400e-07,7,1.65
4.440e-07,7.24,1.69
4.480e-07,7.32,1.71
4.520e-07,7.48,1.73
4.560e-07,7.56,1.79
4.600e-07,7.88,1.85
4.640e-07,8.2,1.87
4.680e-07,8.2,1.91
4.720e-07,8.28,1.95
4.760e-07,8.6,1.95
4.800e-07,8.6,2.01
4.840e-07,8.68,2.07
4.880e-07,8.92,2.13
4.920e-07,8.92,2.13
4.960e-07,9,2.15
5.000e-07,9.08,2.15
5.040e-07,9.08,2.17
5.080e-07,9.16,2.15
5.120e-07,9.32,2.21
5.160e-07,9.32,2.19
5.200e-07,9.56,2.19
5.240e-07,9.32,2.21
5.280e-07,9.4,2.23
5.320e-07,9.48,2.19
5.360e-07,9.48,2.25
5.400e-07,9.72,2.21
5.440e-07,9.72,2.21
5.480e-07,9.56,2.23
5.520e-07,9.72,2.27
5.560e-07,9.72,2.25
5.600e-07,9.72,2.25
5.640e-07,9.8,2.27
5.680e-07,9.72,2.29
5.720e-07,9.88,2.29
5.760e-07,9.72,2.31
5.800e-07,9.64,2.31
5.840e-07,9.88,2.31
5.880e-07,9.88,2.31
5.920e-07,9.96,2.35
5.960e-07,9.88,2.33
6.000e-07,9.96,2.35
6.040e-07,9.88,2.31
6.080e-07,9.96,2.33
6.120e-07,9.88,2.35
6.160e-07,10.12,2.37
6.200e-07,9.96,2.37
6.240e-07,9.88,2.31
6.280e-07,9.96,2.35
6.320e-07,9.96,2.35
6.360e-07,9.96,2.37
6.400e-07,9.88,2.41
6.440e-07,9.96,2.37
6.480e-07,9.8,2.41
6.520e-07,10.04,2.43
6.560e-07,10.12,2.41
6.600e-07,10.12,2.43
6.640e-07,9.96,2.43
6.680e-07,10.04,2.41
6.720e-07,9.96,2.41
6.760e-07,9.96,2.39
6.800e-07,10.12,2.41
6.840e-07,9.96,2.37
6.880e-07,9.8,2.41
6.920e-07,9.72,2.39
6.960e-07,9.8,2.35
7.000e-07,9.72,2.31
7.040e-07,9.56,2.31
7.080e-07,9.4,2.25
7.120e-07,9.4,2.27
7.160e-07,9.24,2.19
7.200e-07,9.24,2.19
7.240e-07,9,2.13
7.280e-07,9,2.09
7.320e-07,8.92,2.07
7.360e-07,8.6,2.01
7.400e-07,8.44,2.03
7.440e-07,8.28,1.97
7.480e-07,8.2,1.93
7.520e-07,8.2,1.91
7.560e-07,8.04,1.85
7.600e-07,7.88,1.83
7.640e-07,7.64,1.81
7.680e-07,7.64,1.77
7.720e-07,7.56,1.77
7.760e-07,7.4,1.71
7.800e-07,7.08,1.71
7.840e-07,7.08,1.69
7.880e-07,6.84,1.67
7.920e-07,6.76,1.63
7.960e-07,6.52,1.61
8.000e-07,6.52,1.57
8.040e-07,6.12,1.55
8.080e-07,5.96,1.51
8.120e-07,5.8,1.49
8.160e-07,5.64,1.45
8.200e-07,5.48,1.39
8.240e-07,5.24,1.35
8.280e-07,5.08,1.27
8.320e-07,5,1.21
8.360e-07,4.76,1.15
8.400e-07,4.76,1.07
8.440e-07,4.44,1.05
8.480e-07,4.44,1.03
8.520e-07,4.2,0.99
8.560e-07,4.2,0.89
8.600e-07,4.04,0.85
8.640e-07,3.72,0.81
8.680e-07,3.72,0.81
8.720e-07,3.72,0.71
8.760e-07,3.24,0.69
8.800e-07,3.16,0.67
8.840e-07,3.24,0.61
8.880e-07,3,0.59
8.920e-07,2.76,0.55
8.960e-07,2.84,0.51
9.000e-07,2.68,0.51
9.040e-07,2.68,0.51
9.080e-07,2.76,0.45
9.120e-07,2.6,0.45
9.160e-07,2.52,0.45
9.200e-07,2.6,0.39
9.240e-07,2.52,0.39
9.280e-07,2.36,0.33
9.320e-07,2.36,0.39
9.360e-07,2.28,0.33
9.400e-07,2.2,0.33
9.440e-07,2.28,0.33
9.480e-07,2.2,0.29
9.520e-07,2.12,0.29
9.560e-07,2.28,0.27
9.600e-07,2.2,0.29
9.640e-07,2.04,0.27
9.680e-07,2.04,0.25
9.720e-07,2.12,0.23
9.760e-07,2.2,0.21
9.800e-07,1.96,0.23
9.840e-07,2.04,0.23
9.880e-07,2.12,0.23
9.920e-07,1.96,0.23
9.960e-07,1.96,0.21
1.000e-06,1.88,0.21
1.004e-06,1.8,0.21
1.008e-06,1.96,0.19
1.012e-06,1.96,0.21
1.016e-06,2.12,0.19
1.020e-06,1.96,0.21
1.024e-06,1.96,0.15
1.028e-06,1.8,0.15
1.032e-06,1.8,0.17
1.036e-06,1.96,0.19
1.040e-06,1.88,0.15
1.044e-06,1.96,0.19
1.048e-06,2.04,0.17
1.052e-06,1.88,0.19
1.056e-06,1.96,0.19
1.060e-06,1.96,0.23
1.064e-06,1.96,0.23
1.068e-06,2.04,0.19
1.072e-06,1.96,0.21
1.076e-06,2.04,0.19
1.080e-06,1.8,0.21
1.084e-06,1.96,0.23
1.088e-06,1.96,0.21
1.092e-06,1.88,0.21
1.096e-06,1.96,0.23
1.100e-06,1.96,0.25
1.104e-06,2.04,0.23
1.108e-06,2.04,0.23
1.112e-06,1.96,0.23
1.116e-06,1.96,0.23
1.120e-06,1.88,0.23
1.124e-06,1.88,0.23
1.128e-06,2.04,0.29
1.132e-06,2.04,0.23
1.136e-06,1.96,0.27
1.140e-06,2.04,0.23
1.144e-06,1.96,0.21
1.148e-06,1.8,0.27
1.152e-06,2.2,0.23
1.156e-06,1.88,0.23
1.160e-06,1.96,0.23
1.164e-06,2.04,0.23
1.168e-06,1.8,0.23
1.172e-06,2.04,0.23
1.176e-06,2.04,0.23
1.180e-06,1.88,0.27
1.184e-06,1.96,0.23
1.188e-06,1.88,0.25
1.192e-06,1.96,0.21
1.196e-06,1.96,0.19
1.200e-06,2.04,0.21
1.204e-06,1.88,0.21
1.208e-06,1.96,0.21
1.212e-06,1.8,0.19
1.216e-06,1.96,0.19
1.220e-06,1.96,0.21
1.224e-06,1.8,0.21
1.228e-06,1.96,0.19
1.232e-06,1.88,0.21
1.236e-06,1.8,0.17
1.240e-06,2.04,0.19
1.244e-06,2.04,0.19
1.248e-06,1.96,0.21
1.252e-06,1.88,0.19
1.256e-06,2.04,0.19
1.260e-06,1.8,0.21
1.264e-06,1.88,0.21
1.268e-06,2.12,0.21
1.272e-06,2.04,0.23
1.276e-06,2.04,0.21
1.280e-06,2.04,0.21
1.284e-06,2.12,0.21
1.288e-06,2.12,0.19
1.292e-06,2.12,0.21
1.296e-06,2.04,0.21
1.300e-06,1.96,0.25
1.304e-06,2.04,0.25
1.308e-06,2.04,0.21
1.312e-06,1.96,0.23
1.316e-06,2.04,0.23
1.320e-06,2.04,0.23
1.324e-06,2.04,0.27
1.328e-06,1.88,0.21
1.332e-06,1.88,0.27
1.336e-06,2.12,0.23
1.340e-06,1.88,0.21
1.344e-06,2.04,0.23
1.348e-06,1.96,0.21
1.352e-06,1.96,0.21
1.356e-06,1.96,0.23
1.360e-06,2.04,0.25
1.364e-06,2.12,0.21
1.368e-06,1.96,0.23
1.372e-06,2.04,0.21
1.376e-06,2.12,0.25
1.380e-06,2.04,0.21
1.384e-06,2.04,0.21
1.388e-06,2.04,0.21
1.392e-06,1.88,0.23
1.396e-06,2.12,0.23
1.400e-06,1.96,0.21
1.404e-06,2.04,0.19
1.408e-06,2.04,0.23
1.412e-06,2.04,0.25
1.416e-06,2.04,0.21
1.420e-06,1.88,0.21
1.424e-06,1.96,0.21
1.428e-06,2.04,0.17
1.432e-06,1.96,0.21
1.436e-06,2.04,0.23
1.440e-06,1.96,0.21
1.444e-06,2.04,0.21
1.448e-06,2.04,0.19
1.452e-06,1.96,0.23
1.456e-06,2.12,0.23
1.460e-06,2.04,0.21
1.464e-06,2.04,0.21
1.468e-06,1.96,0.25
1.472e-06,1.96,0.23
1.476e-06,1.96,0.23
1.480e-06,2.04,0.25
1.484e-06,1.96,0.27
1.488e-06,1.96,0.27
1.492e-06,2.04,0.27
1.496e-06,2.04,0.27
1.500e-06,2.04,0.25
1.504e-06,2.04,0.23
1.508e-06,1.96,0.23
1.512e-06,2.04,0.25
1.516e-06,1.96,0.21
1.520e-06,1.88,0.21
1.524e-06,2.04,0.25
1.528e-06,2.04,0.23
1.532e-06,1.96,0.21
1.536e-06,2.12,0.25
1.540e-06,2.12,0.23
1.544e-06,1.96,0.23
1.548e-06,2.12,0.23
1.552e-06,2.04,0.23
1.556e-06,2.12,0.27
1.560e-06,2.04,0.23
1.564e-06,1.96,0.21
1.568e-06,2.12,0.23
1.572e-06,2.04,0.19
1.576e-06,1.96,0.23
1.580e-06,2.12,0.27
1.584e-06,1.96,0.23
1.588e-06,1.96,0.25
1.592e-06,2.12,0.23
1.596e-06,1.88,0.23
1.600e-06,1.96,0.25
1.604e-06,1.96,0.19
1.608e-06,2.04,0.25
1.612e-06,2.04,0.23
1.616e-06,1.88,0.27
1.620e-06,2.04,0.25
1.624e-06,1.96,0.25
1.628e-06,2.04,0.25
1.632e-06,2.04,0.23
1.636e-06,2.04,0.23
1.640e-06,2.12,0.23
1.644e-06,2.04,0.21
1.648e-06,2.04,0.23
1.652e-06,2.04,0.23
1.656e-06,1.96,0.23
1.660e-06,1.88,0.27
1.664e-06,2.04,0.23
1.668e-06,2.12,0.27
1.672e-06,2.04,0.25
1.676e-06,1.96,0.21
1.680e-06,2.04,0.23
1.684e-06,1.88,0.25
1.688e-06,2.12,0.27
1.692e-06,2.04,0.25
1.696e-06,2.04,0.23
1.700e-06,2.04,0.25
1.704e-06,1.88,0.27
1.708e-06,1.96,0.23
1.712e-06,1.88,0.25
1.716e-06,1.96,0.25
1.720e-06,2.04,0.25
1.724e-06,1.88,0.23
1.728e-06,2.04,0.23
1.732e-06,1.88,0.27
1.736e-06,2.04,0.23
1.740e-06,2.04,0.27
1.744e-06,2.04,0.25
1.748e-06,2.04,0.23
1.752e-06,1.88,0.25
1.756e-06,1.96,0.25
1.760e-06,2.04,0.25
1.764e-06,1.88,0.25
1.768e-06,2.04,0.23
1.772e-06,1.96,0.23
1.776e-06,2.12,0.25
1.780e-06,1.88,0.23
1.784e-06,1.96,0.21
1.788e-06,2.04,0.27
1.792e-06,2.04,0.23
1.796e-06,2.04,0.23
1.800e-06,1.88,0.25
1.804e-06,1.8,0.25
1.808e-06,2.12,0.23
1.812e-06,2.04,0.23
1.816e-06,1.88,0.23
1.820e-06,2.04,0.25
1.824e-06,1.96,0.21
1.828e-06,2.04,0.25
1.832e-06,2.04,0.25
1.836e-06,2.04,0.23
1.840e-06,1.8,0.25
1.844e-06,1.96,0.19
1.848e-06,1.96,0.23
1.852e-06,1.88,0.25
1.856e-06,1.96,0.21
1.860e-06,2.04,0.23
1.864e-06,1.96,0.23
1.868e-06,2.12,0.25
1.872e-06,2.04,0.25
1.876e-06,2.04,0.25
1.880e-06,2.12,0.27
1.884e-06,1.96,0.21
1.888e-06,1.96,0.25
1.892e-06,2.04,0.25
1.896e-06,2.04,0.27
1.900e-06,2.12,0.27
1.904e-06,2.04,0.21
1.908e-06,2.04,0.27
1.912e-06,1.96,0.23
1.916e-06,2.04,0.27
1.920e-06,1.88,0.23
1.924e-06,1.88,0.29
1.928e-06,2.04,0.19
1.932e-06,1.96,0.23
1.936e-06,1.88,0.27
1.940e-06,1.96,0.27
1.944e-06,1.96,0.25
1.948e-06,1.96,0.23
1.952e-06,2.04,0.21
1.956e-06,2.04,0.23
1.960e-06,2.04,0.23
1.964e-06,2.04,0.25
1.968e-06,1.88,0.25
1.972e-06,2.04,0.25
1.976e-06,2.04,0.25
1.980e-06,1.88,0.23
1.984e-06,1.88,0.23
1.988e-06,2.04,0.21
1.992e-06,1.88,0.21
1.996e-06,1.96,0.25
2.000e-06,1.96,0.25
2.004e-06,1.96,0.21
2.008e-06,1.96,0.23
2.012e-06,2.04,0.23
2.016e-06,1.96,0.23
2.020e-06,1.96,0.23
2.024e-06,1.88,0.25
2.028e-06,1.8,0.25
2.032e-06,2.04,0.25
2.036e-06,1.96,0.25
2.040e-06,1.88,0.23
2.044e-06,2.04,0.23
2.048e-06,1.88,0.27
2.052e-06,2.04,0.25
2.056e-06,2.12,0.23
2.060e-06,2.04,0.23
2.064e-06,2.04,0.27
2.068e-06,1.96,0.27
2.072e-06,2.12,0.21
2.076e-06,2.04,0.23
2.080e-06,1.96,0.25
2.084e-06,2.04,0.25
2.088e-06,2.04,0.23
2.092e-06,2.12,0.27
2.096e-06,2.04,0.23
2.100e-06,2.04,0.23
2.104e-06,1.96,0.23
2.108e-06,1.96,0.23
2.112e-06,2.04,0.27
2.116e-06,1.88,0.25
2.120e-06,2.12,0.27
2.124e-06,2.04,0.25
2.128e-06,2.04,0.21
2.132e-06,2.12,0.25
2.136e-06,1.96,0.25
2.140e-06,1.96,0.25
2.144e-06,2.04,0.27
2.148e-06,1.88,0.23
2.152e-06,2.04,0.23
2.156e-06,2.12,0.27
2.160e-06,2.04,0.21
2.164e-06,2.04,0.21
2.168e-06,1.96,0.23
2.172e-06,1.96,0.25
2.176e-06,1.96,0.23
2.180e-06,2.04,0.25
2.184e-06,1.88,0.25
2.188e-06,2.04,0.25
2.192e-06,1.88,0.27
2.196e-06,1.96,0.23
2.200e-06,2.04,0.25
2.204e-06,1.96,0.21
2.208e-06,2.04,0.25
2.212e-06,2.04,0.27
2.216e-06,1.96,0.23
2.220e-06,1.88,0.25
2.224e-06,1.96,0.23
2.228e-06,1.96,0.21
2.232e-06,1.88,0.27
2.236e-06,1.96,0.23
2.240e-06,1.96,0.23
2.244e-06,2.04,0.25
2.248e-06,1.88,0.25
2.252e-06,1.96,0.23
2.256e-06,1.96,0.21
2.260e-06,1.96,0.25
2.264e-06,2.04,0.27
2.268e-06,2.12,0.25
2.272e-06,1.88,0.25
2.276e-06,2.12,0.27
2.280e-06,1.96,0.27
2.284e-06,1.8,0.23
2.288e-06,2.04,0.23
2.292e-06,1.96,0.27
2.296e-06,1.96,0.23
2.300e-06,2.04,0.25
2.304e-06,2.12,0.23
2.308e-06,1.96,0.25
2.312e-06,1.88,0.23
2.316e-06,1.96,0.25
2.320e-06,2.04,0.23
2.324e-06,1.96,0.25
2.328e-06,2.04,0.23
2.332e-06,1.96,0.27
2.336e-06,2.04,0.23
2.340e-06,2.04,0.23
2.344e-06,2.04,0.25
2.348e-06,2.12,0.23
2.352e-06,1.96,0.23
2.356e-06,1.96,0.27
2.360e-06,1.96,0.23
2.364e-06,1.96,0.25
2.368e-06,2.2,0.25
2.372e-06,2.04,0.27
2.376e-06,2.04,0.27
2.380e-06,2.04,0.25
2.384e-06,2.04,0.23
2.388e-06,1.88,0.23
2.392e-06,2.04,0.23
2.396e-06,1.96,0.25
2.400e-06,1.96,0.27
2.404e-06,1.96,0.21
2.408e-06,2.04,0.25
2.412e-06,1.88,0.21
2.416e-06,1.88,0.21
2.420e-06,1.96,0.25
2.424e-06,1.96,0.23
2.428e-06,1.96,0.23
2.432e-06,2.04,0.27
2.436e-06,1.88,0.27
2.440e-06,1.96,0.23
2.444e-06,2.04,0.23
2.448e-06,1.96,0.23
2.452e-06,2.04,0.21
2.456e-06,1.88,0.25
2.460e-06,1.8,0.21
2.464e-06,1.96,0.23
2.468e-06,2.04,0.23
2.472e-06,1.88,0.27
2.476e-06,1.96,0.23
2.480e-06,1.96,0.25
2.484e-06,2.04,0.23
2.488e-06,1.96,0.25
2.492e-06,2.04,0.23
2.496e-06,1.96,0.23
2.500e-06,1.96,0.23
2.504e-06,2.04,0.23
2.508e-06,1.88,0.23
2.512e-06,1.96,0.21
2.516e-06,2.04,0.21
2.520e-06,2.2,0.21
2.524e-06,1.88,0.21
2.528e-06,2.12,0.25
2.532e-06,2.04,0.23
2.536e-06,2.12,0.25
2.540e-06,1.96,0.25
2.544e-06,2.04,0.27
2.548e-06,1.96,0.23
2.552e-06,2.04,0.25
2.556e-06,1.88,0.23
2.560e-06,1.88,0.21
2.564e-06,2.04,0.25
2.568e-06,1.96,0.23
2.572e-06,2.04,0.23
2.576e-06,1.96,0.23
2.580e-06,1.96,0.21
2.584e-06,2.04,0.21
2.588e-06,1.88,0.21
2.592e-06,1.96,0.23
2.596e-06,1.88,0.27
2.600e-06,2.12,0.23
2.604e-06,1.96,0.23
2.608e-06,1.96,0.21
2.612e-06,2.2,0.23
2.616e-06,1.96,0.23
2.620e-06,2.12,0.21
2.624e-06,2.04,0.21
2.628e-06,2.04,0.23
2.632e-06,2.04,0.27
2.636e-06,2.04,0.21
2.640e-06,1.88,0.25
2.644e-06,2.04,0.25
2.648e-06,2.04,0.21
2.652e-06,2.04,0.23
2.656e-06,1.96,0.21
2.660e-06,1.88,0.23
2.664e-06,1.96,0.23
2.668e-06,1.96,0.23
2.672e-06,1.96,0.27
2.676e-06,2.04,0.21
2.680e-06,2.04,0.23
2.684e-06,2.04,0.23
2.688e-06,1.96,0.25
2.692e-06,2.04,0.21
2.696e-06,2.12,0.25
2.700e-06,1.96,0.23
2.704e-06,2.04,0.21
2.708e-06,1.88,0.21
2.712e-06,2.04,0.23
2.716e-06,1.96,0.23
2.720e-06,2.04,0.25
2.724e-06,1.88,0.21
2.728e-06,1.8,0.23
2.732e-06,2.04,0.27
2.736e-06,1.88,0.23
2.740e-06,1.88,0.25
2.744e-06,2.04,0.23
2.748e-06,2.04,0.19
2.752e-06,2.04,0.21
2.756e-06,2.12,0.25
2.760e-06,2.04,0.21
2.764e-06,2.04,0.19
2.768e-06,1.96,0.23
2.772e-06,1.96,0.21
2.776e-06,2.04,0.27
2.780e-06,2.12,0.21
2.784e-06,2.04,0.21
2.788e-06,2.04,0.23
2.792e-06,2.12,0.23
2.796e-06,1.96,0.23
2.800e-06,1.96,0.23
2.804e-06,1.96,0.21
2.808e-06,2.12,0.21
2.812e-06,1.96,0.23
2.816e-06,1.96,0.21
2.820e-06,2.04,0.23
2.824e-06,1.96,0.21
2.828e-06,2.04,0.23
2.832e-06,1.88,0.23
2.836e-06,2.04,0.23
2.840e-06,1.96,0.23
2.844e-06,1.96,0.21
2.848e-06,2.04,0.21
2.852e-06,1.96,0.21
2.856e-06,2.04,0.21
2.860e-06,1.88,0.21
2.864e-06,2.12,0.23
2.868e-06,1.88,0.23
2.872e-06,1.88,0.25
2.876e-06,1.96,0.23
2.880e-06,1.96,0.23
2.884e-06,2.04,0.23
2.888e-06,2.04,0.21
2.892e-06,2.04,0.25
2.896e-06,1.96,0.25
2.900e-06,1.96,0.23
2.904e-06,2.04,0.21
2.908e-06,2.04,0.21
2.912e-06,2.04,0.23
2.916e-06,2.12,0.23
2.920e-06,1.96,0.21
2.924e-06,2.04,0.21
2.928e-06,2.04,0.25
2.932e-06,1.88,0.25
2.936e-06,1.96,0.23
2.940e-06,1.88,0.23
2.944e-06,1.96,0.21
2.948e-06,2.04,0.23
2.952e-06,1.88,0.23
2.956e-06,1.96,0.23
2.960e-06,1.96,0.25
2.964e-06,2.12,0.23
2.968e-06,2.2,0.21
2.972e-06,2.04,0.23
2.976e-06,1.96,0.25
2.980e-06,2.04,0.21
2.984e-06,1.96,0.23
2.988e-06,1.96,0.23
2.992e-06,2.04,0.23
2.996e-06,2.12,0.23
3.000e-06,1.96,0.21
3.004e-06,2.04,0.23
3.008e-06,2.04,0.21
3.012e-06,1.88,0.23
3.016e-06,1.8,0.21
3.020e-06,2.04,0.21
3.024e-06,2.04,0.21
3.028e-06,1.96,0.25
3.032e-06,1.96,0.25
3.036e-06,1.88,0.23
3.040e-06,1.88,0.21
3.044e-06,1.88,0.21
3.048e-06,1.96,0.25
3.052e-06,2.12,0.25
3.056e-06,2.04,0.23
3.060e-06,1.96,0.23
3.064e-06,1.96,0.23
3.068e-06,2.12,0.23
3.072e-06,2.04,0.21
3.076e-06,1.96,0.21
3.080e-06,2.04,0.23
3.084e-06,2.04,0.23
3.088e-06,2.12,0.21
3.092e-06,1.96,0.21
3.096e-06,1.96,0.23
3.100e-06,2.04,0.21
3.104e-06,2.04,0.25
3.108e-06,2.04,0.21
3.112e-06,1.96,0.23
3.116e-06,1.88,0.23
3.120e-06,1.96,0.21
3.124e-06,1.96,0.23
3.128e-06,2.04,0.21
3.132e-06,1.88,0.23
3.136e-06,2.04,0.23
3.140e-06,2.04,0.21
3.144e-06,1.96,0.23
3.148e-06,2.04,0.21
3.152e-06,1.96,0.23
3.156e-06,1.88,0.21
3.160e-06,1.96,0.25
3.164e-06,1.96,0.23
3.168e-06,2.04,0.21
3.172e-06,2.04,0.23
3.176e-06,2.12,0.25
3.180e-06,2.12,0.21
3.184e-06,1.96,0.23
3.188e-06,2.04,0.23
3.192e-06,2.04,0.27
3.196e-06,1.96,0.23
3.200e-06,2.04,0.21
3.204e-06,1.96,0.23
3.208e-06,2.04,0.25
3.212e-06,2.04,0.21
3.216e-06,1.96,0.21
3.220e-06,2.04,0.23
3.224e-06,1.8,0.21
3.228e-06,1.88,0.23
3.232e-06,1.96,0.21
3.236e-06,1.96,0.25
3.240e-06,1.88,0.25
3.244e-06,1.96,0.23
3.248e-06,1.88,0.23
3.252e-06,2.04,0.23
3.256e-06,2.04,0.21
3.260e-06,1.96,0.25
3.264e-06,2.04,0.21
3.268e-06,2.04,0.23
3.272e-06,1.96,0.23
3.276e-06,2.12,0.23
3.280e-06,2.04,0.21
3.284e-06,1.96,0.27
3.288e-06,2.04,0.17
3.292e-06,2.04,0.23
3.296e-06,2.04,0.23
3.300e-06,1.88,0.21
3.304e-06,1.96,0.23
3.308e-06,2.04,0.23
3.312e-06,2.04,0.21
3.316e-06,2.04,0.25
3.320e-06,2.12,0.23
3.324e-06,2.04,0.25
3.328e-06,1.96,0.23
3.332e-06,2.04,0.23
3.336e-06,1.96,0.21
3.340e-06,1.96,0.23
3.344e-06,2.04,0.21
3.348e-06,2.04,0.21
3.352e-06,2.04,0.21
3.356e-06,2.04,0.25
3.360e-06,1.96,0.21
3.364e-06,1.8,0.21
3.368e-06,1.96,0.23
3.372e-06,2.04,0.23
3.376e-06,2.04,0.23
3.380e-06,2.04,0.23
3.384e-06,2.04,0.27
3.388e-06,1.96,0.21
3.392e-06,2.04,0.23
3.396e-06,1.96,0.25
3.400e-06,1.96,0.21
3.404e-06,1.96,0.23
3.408e-06,2.04,0.23
3.412e-06,1.88,0.19
3.416e-06,1.96,0.23
3.420e-06,1.88,0.23
3.424e-06,1.96,0.21
3.428e-06,2.04,0.25
3.432e-06,2.04,0.23
3.436e-06,2.04,0.21
3.440e-06,2.04,0.27
3.444e-06,1.96,0.21
3.448e-06,2.28,0.23
3.452e-06,2.04,0.23
3.456e-06,2.04,0.23
3.460e-06,1.96,0.25
3.464e-06,2.04,0.21
3.468e-06,2.04,0.25
3.472e-06,1.88,0.23
3.476e-06,1.96,0.21
3.480e-06,1.96,0.21
3.484e-06,2.04,0.25
3.488e-06,1.96,0.27
3.492e-06,2.04,0.23
3.496e-06,2.04,0.25
3.500e-06,2.04,0.23
3.504e-06,1.88,0.25
3.508e-06,2.04,0.21
3.512e-06,1.88,0.21
3.516e-06,1.96,0.25
3.520e-06,2.04,0.23
3.524e-06,1.88,0.27
3.528e-06,2.04,0.23
3.532e-06,2.12,0.21
3.536e-06,1.88,0.27
3.540e-06,2.04,0.21
3.544e-06,2.04,0.23
3.548e-06,1.96,0.21
3.552e-06,2.04,0.25
3.556e-06,1.88,0.21
3.560e-06,2.04,0.21
3.564e-06,2.12,0.21
3.568e-06,1.88,0.25
3.572e-06,1.96,0.23
3.576e-06,2.04,0.23
3.580e-06,2.04,0.23
3.584e-06,2.04,0.25
3.588e-06,1.96,0.23
3.592e-06,2.2,0.25
3.596e-06,2.04,0.25
3.600e-06,1.96,0.19
