Archivos Guadalupe/Data/1410-32-X4/23-10/D-23-10/tek0003ALL.csv

Model,DPO3034
Firmware Version,2.16

Point Format,Y,
Horizontal Units,S,
Horizontal Scale,1e-05,
Sample Interval,1e-07,
Record Length,1000,
Gating,0.0% to 100.0%,0.0% to 100.0%
Probe Attenuation,1,1
Vertical Units,V,V
Vertical Offset,0,0
Vertical Scale,2,0.5
Label,,
TIME,CH1,CH2
-5.800e-06,-0.12,0.01
-5.700e-06,-0.04,0.03
-5.600e-06,-0.2,-0.05
-5.500e-06,-0.04,0.01
-5.400e-06,0.04,-0.01
-5.300e-06,0.04,-0.01
-5.200e-06,-0.04,0.03
-5.100e-06,0.04,0.03
-5.000e-06,-0.04,0.01
-4.900e-06,-0.04,0.03
-4.800e-06,-0.04,0.03
-4.700e-06,-0.04,-0.01
-4.600e-06,-0.12,0.01
-4.500e-06,-0.2,0.03
-4.400e-06,0.04,0.01
-4.300e-06,-0.04,0.05
-4.200e-06,-0.04,0.01
-4.100e-06,-0.04,0.01
-4.000e-06,-0.12,-0.03
-3.900e-06,0.04,0.05
-3.800e-06,0.04,0.05
-3.700e-06,-0.04,0.03
-3.600e-06,-0.04,0.03
-3.500e-06,-0.04,0.03
-3.400e-06,0.04,0.01
-3.300e-06,-0.04,-0.03
-3.200e-06,0.12,-0.01
-3.100e-06,-0.12,-0.01
-3.000e-06,-0.04,0.01
-2.900e-06,-0.04,0.03
-2.800e-06,0.12,0.01
-2.700e-06,0.12,0.03
-2.600e-06,-0.12,0.01
-2.500e-06,-0.04,0.05
-2.400e-06,0.04,-0.01
-2.300e-06,-0.04,-0.01
-2.200e-06,0.04,0.03
-2.100e-06,0.2,-0.01
-2.000e-06,0.12,0.01
-1.900e-06,0.04,0.01
-1.800e-06,0.04,0.01
-1.700e-06,0.04,-0.01
-1.600e-06,0.04,0.03
-1.500e-06,-0.12,0.01
-1.400e-06,0.04,0.01
-1.300e-06,-0.04,0.01
-1.200e-06,-0.04,0.07
-1.100e-06,-0.04,-0.01
-1.000e-06,-0.04,0.01
-9.000e-07,0.2,0.03
-8.000e-07,0.04,0.01
-7.000e-07,-0.04,0.01
-6.000e-07,-0.12,-0.01
-5.000e-07,0.12,-0.01
-4.000e-07,0.04,0.01
-3.000e-07,0.04,-0.01
-2.000e-07,0.04,-0.01
-1.000e-07,0.84,0.25
-8.656e-21,1.72,0.53
1.000e-07,1.88,0.57
2.000e-07,2.12,0.61
3.000e-07,5.16,1.27
4.000e-07,8.84,2.11
5.000e-07,9.8,2.35
6.000e-07,9.72,2.39
7.000e-07,6.68,1.63
8.000e-07,2.84,0.55
9.000e-07,1.88,0.17
1.000e-06,2.04,0.23
1.100e-06,2.04,0.21
1.200e-06,1.96,0.23
1.300e-06,1.96,0.25
1.400e-06,2.04,0.23
1.500e-06,2.12,0.23
1.600e-06,1.88,0.23
1.700e-06,1.88,0.27
1.800e-06,2.04,0.21
1.900e-06,2.04,0.25
2.000e-06,1.96,0.23
2.100e-06,2.04,0.23
2.200e-06,2.04,0.21
2.300e-06,1.8,0.23
2.400e-06,1.88,0.21
2.500e-06,2.12,0.27
2.600e-06,2.04,0.23
2.700e-06,1.96,0.23
2.800e-06,2.04,0.27
2.900e-06,2.04,0.23
3.000e-06,1.96,0.25
3.100e-06,2.04,0.21
3.200e-06,2.12,0.21
3.300e-06,2.04,0.25
3.400e-06,1.96,0.23
3.500e-06,2.04,0.23
3.600e-06,2.04,0.23
3.700e-06,2.12,0.23
3.800e-06,2.12,0.21
3.900e-06,2.04,0.21
4.000e-06,2.04,0.21
4.100e-06,1.96,0.23
4.200e-06,1.88,0.21
4.300e-06,2.12,0.23
4.400e-06,1.96,0.23
4.500e-06,1.96,0.23
4.600e-06,1.96,0.25
4.700e-06,2.04,0.23
4.800e-06,2.04,0.21
4.900e-06,2.12,0.23
5.000e-06,2.04,0.23
5.100e-06,2.04,0.21
5.200e-06,2.04,0.17
5.300e-06,2.04,0.21
5.400e-06,1.96,0.21
5.500e-06,1.96,0.21
5.600e-06,2.04,0.19
5.700e-06,1.88,0.21
5.800e-06,2.04,0.19
5.900e-06,2.04,0.19
6.000e-06,1.88,0.21
6.100e-06,1.96,0.21
6.200e-06,1.96,0.21
6.300e-06,1.96,0.19
6.400e-06,1.88,0.19
6.500e-06,1.96,0.21
6.600e-06,2.04,0.17
6.700e-06,2.04,0.17
6.800e-06,1.96,0.15
6.900e-06,2.04,0.17
7.000e-06,1.88,0.21
7.100e-06,1.96,0.19
7.200e-06,2.04,0.21
7.300e-06,1.96,0.19
7.400e-06,1.96,0.19
7.500e-06,1.88,0.17
7.600e-06,2.04,0.21
7.700e-06,1.96,0.17
7.800e-06,1.96,0.15
7.900e-06,2.04,0.21
8.000e-06,2.04,0.17
8.100e-06,2.04,0.21
8.200e-06,2.04,0.21
8.300e-06,2.04,0.17
8.400e-06,1.88,0.21
8.500e-06,1.88,0.19
8.600e-06,1.88,0.17
8.700e-06,2.04,0.17
8.800e-06,1.8,0.19
8.900e-06,1.88,0.19
9.000e-06,2.04,0.21
9.100e-06,2.2,0.19
9.200e-06,1.96,0.21
9.300e-06,2.04,0.17
9.400e-06,2.04,0.19
9.500e-06,1.88,0.17
9.600e-06,1.96,0.17
9.700e-06,2.04,0.17
9.800e-06,1.96,0.19
9.900e-06,1.96,0.19
1.000e-05,2.04,0.19
1.010e-05,2.04,0.19
1.020e-05,1.96,0.17
1.030e-05,1.96,0.21
1.040e-05,1.88,0.11
1.050e-05,1.96,0.19
1.060e-05,2.04,0.19
1.070e-05,2.12,0.17
1.080e-05,1.96,0.17
1.090e-05,1.96,0.13
1.100e-05,2.04,0.15
1.110e-05,1.96,0.19
1.120e-05,1.96,0.17
1.130e-05,2.04,0.17
1.140e-05,1.96,0.15
1.150e-05,1.96,0.17
1.160e-05,2.04,0.17
1.170e-05,1.96,0.17
1.180e-05,1.88,0.17
1.190e-05,2.04,0.17
1.200e-05,1.96,0.17
1.210e-05,2.12,0.19
1.220e-05,2.04,0.15
1.230e-05,2.04,0.19
1.240e-05,2.04,0.15
1.250e-05,1.96,0.15
1.260e-05,2.04,0.15
1.270e-05,2.04,0.15
1.280e-05,2.12,0.17
1.290e-05,2.12,0.15
1.300e-05,1.96,0.15
1.310e-05,1.88,0.13
1.320e-05,2.04,0.15
1.330e-05,2.12,0.15
1.340e-05,2.04,0.17
1.350e-05,1.96,0.13
1.360e-05,1.96,0.15
1.370e-05,2.12,0.19
1.380e-05,2.04,0.17
1.390e-05,1.96,0.19
1.400e-05,2.04,0.15
1.410e-05,1.96,0.17
1.420e-05,2.04,0.19
1.430e-05,1.88,0.17
1.440e-05,2.04,0.17
1.450e-05,2.04,0.15
1.460e-05,2.04,0.17
1.470e-05,2.04,0.15
1.480e-05,2.04,0.15
1.490e-05,2.04,0.15
1.500e-05,2.12,0.17
1.510e-05,1.96,0.13
1.520e-05,2.04,0.17
1.530e-05,1.96,0.13
1.540e-05,2.04,0.13
1.550e-05,2.04,0.11
1.560e-05,1.96,0.15
1.570e-05,1.88,0.15
1.580e-05,1.96,0.15
1.590e-05,1.96,0.15
1.600e-05,2.04,0.15
1.610e-05,1.96,0.13
1.620e-05,2.12,0.13
1.630e-05,2.04,0.13
1.640e-05,2.12,0.11
1.650e-05,2.04,0.15
1.660e-05,2.04,0.15
1.670e-05,2.04,0.17
1.680e-05,1.96,0.13
1.690e-05,2.04,0.11
1.700e-05,2.04,0.17
1.710e-05,2.04,0.11
1.720e-05,2.04,0.15
1.730e-05,1.88,0.17
1.740e-05,1.96,0.11
1.750e-05,2.12,0.13
1.760e-05,1.88,0.13
1.770e-05,2.04,0.11
1.780e-05,2.04,0.13
1.790e-05,2.04,0.17
1.800e-05,2.12,0.15
1.810e-05,2.04,0.15
1.820e-05,2.12,0.13
1.830e-05,1.96,0.15
1.840e-05,2.04,0.13
1.850e-05,2.12,0.13
1.860e-05,2.04,0.11
1.870e-05,2.2,0.19
1.880e-05,2.04,0.11
1.890e-05,1.96,0.11
1.900e-05,2.04,0.15
1.910e-05,1.96,0.13
1.920e-05,2.12,0.11
1.930e-05,1.88,0.15
1.940e-05,1.96,0.13
1.950e-05,1.96,0.13
1.960e-05,2.04,0.11
1.970e-05,1.96,0.15
1.980e-05,1.96,0.13
1.990e-05,2.12,0.11
2.000e-05,1.88,0.11
2.010e-05,2.04,0.11
2.020e-05,2.04,0.09
2.030e-05,1.96,0.11
2.040e-05,1.96,0.11
2.050e-05,2.04,0.13
2.060e-05,1.96,0.11
2.070e-05,1.96,0.15
2.080e-05,1.96,0.13
2.090e-05,2.2,0.13
2.100e-05,1.88,0.15
2.110e-05,2.04,0.15
2.120e-05,1.88,0.13
2.130e-05,1.96,0.13
2.140e-05,2.04,0.15
2.150e-05,2.04,0.15
2.160e-05,2.04,0.13
2.170e-05,1.96,0.11
2.180e-05,2.04,0.15
2.190e-05,2.12,0.13
2.200e-05,2.04,0.11
2.210e-05,2.04,0.15
2.220e-05,1.88,0.11
2.230e-05,1.88,0.15
2.240e-05,2.12,0.11
2.250e-05,2.12,0.11
2.260e-05,1.96,0.11
2.270e-05,1.96,0.11
2.280e-05,1.96,0.13
2.290e-05,2.12,0.13
2.300e-05,2.04,0.11
2.310e-05,2.04,0.13
2.320e-05,2.04,0.13
2.330e-05,1.88,0.11
2.340e-05,1.96,0.11
2.350e-05,1.96,0.13
2.360e-05,1.96,0.13
2.370e-05,1.96,0.11
2.380e-05,2.04,0.11
2.390e-05,2.04,0.07
2.400e-05,1.96,0.11
2.410e-05,2.04,0.11
2.420e-05,2.04,0.15
2.430e-05,1.96,0.11
2.440e-05,2.04,0.11
2.450e-05,1.96,0.13
2.460e-05,2.12,0.11
2.470e-05,2.04,0.11
2.480e-05,2.04,0.15
2.490e-05,1.8,0.11
2.500e-05,1.96,0.13
2.510e-05,1.96,0.11
2.520e-05,2.12,0.13
2.530e-05,1.96,0.09
2.540e-05,1.96,0.13
2.550e-05,1.96,0.11
2.560e-05,1.8,0.11
2.570e-05,2.04,0.15
2.580e-05,2.04,0.11
2.590e-05,1.88,0.13
2.600e-05,2.12,0.13
2.610e-05,2.04,0.07
2.620e-05,2.04,0.09
2.630e-05,1.96,0.15
2.640e-05,2.04,0.09
2.650e-05,2.12,0.11
2.660e-05,1.96,0.15
2.670e-05,2.12,0.07
2.680e-05,1.96,0.11
2.690e-05,2.04,0.11
2.700e-05,1.88,0.11
2.710e-05,2.04,0.09
2.720e-05,2.12,0.07
2.730e-05,2.04,0.09
2.740e-05,1.88,0.07
2.750e-05,1.96,0.11
2.760e-05,1.96,0.11
2.770e-05,2.04,0.09
2.780e-05,2.04,0.09
2.790e-05,2.04,0.11
2.800e-05,1.96,0.13
2.810e-05,2.04,0.13
2.820e-05,2.04,0.11
2.830e-05,2.04,0.15
2.840e-05,1.96,0.09
2.850e-05,2.04,0.09
2.860e-05,1.88,0.11
2.870e-05,2.04,0.09
2.880e-05,2.04,0.09
2.890e-05,2.12,0.15
2.900e-05,2.04,0.11
2.910e-05,2.12,0.11
2.920e-05,1.96,0.13
2.930e-05,1.88,0.13
2.940e-05,1.96,0.11
2.950e-05,2.04,0.13
2.960e-05,1.96,0.13
2.970e-05,2.04,0.13
2.980e-05,2.04,0.09
2.990e-05,2.04,0.09
3.000e-05,2.04,0.11
3.010e-05,1.88,0.09
3.020e-05,2.04,0.11
3.030e-05,1.96,0.13
3.040e-05,2.04,0.09
3.050e-05,2.04,0.11
3.060e-05,2.04,0.09
3.070e-05,1.96,0.13
3.080e-05,2.04,0.11
3.090e-05,1.96,0.13
3.100e-05,1.96,0.11
3.110e-05,1.96,0.11
3.120e-05,1.96,0.13
3.130e-05,2.04,0.11
3.140e-05,2.04,0.11
3.150e-05,1.96,0.13
3.160e-05,2.04,0.09
3.170e-05,1.88,0.13
3.180e-05,1.96,0.13
3.190e-05,2.04,0.09
3.200e-05,2.04,0.09
3.210e-05,2.04,0.13
3.220e-05,2.04,0.13
3.230e-05,1.96,0.11
3.240e-05,2.04,0.13
3.250e-05,2.12,0.09
3.260e-05,2.04,0.13
3.270e-05,1.96,0.09
3.280e-05,2.04,0.09
3.290e-05,2.04,0.09
3.300e-05,2.04,0.09
3.310e-05,1.88,0.07
3.320e-05,2.04,0.09
3.330e-05,2.04,0.07
3.340e-05,2.04,0.11
3.350e-05,2.12,0.09
3.360e-05,2.04,0.09
3.370e-05,2.04,0.09
3.380e-05,2.12,0.09
3.390e-05,2.04,0.11
3.400e-05,1.96,0.11
3.410e-05,2.12,0.11
3.420e-05,2.04,0.13
3.430e-05,1.96,0.11
3.440e-05,2.04,0.13
3.450e-05,2.04,0.09
3.460e-05,2.04,0.15
3.470e-05,2.04,0.09
3.480e-05,1.96,0.11
3.490e-05,1.96,0.11
3.500e-05,1.88,0.13
3.510e-05,2.04,0.07
3.520e-05,1.88,0.11
3.530e-05,1.96,0.11
3.540e-05,1.96,0.09
3.550e-05,1.96,0.13
3.560e-05,2.12,0.09
3.570e-05,2.04,0.09
3.580e-05,2.04,0.13
3.590e-05,1.96,0.11
3.600e-05,2.12,0.13
3.610e-05,1.96,0.07
3.620e-05,1.96,0.13
3.630e-05,2.12,0.07
3.640e-05,2.04,0.09
3.650e-05,2.12,0.09
3.660e-05,1.88,0.09
3.670e-05,1.88,0.09
3.680e-05,1.96,0.11
3.690e-05,2.04,0.09
3.700e-05,1.96,0.11
3.710e-05,2.12,0.05
3.720e-05,1.96,0.09
3.730e-05,2.04,0.09
3.740e-05,2.04,0.07
3.750e-05,1.96,0.11
3.760e-05,1.96,0.13
3.770e-05,1.88,0.09
3.780e-05,2.12,0.09
3.790e-05,1.88,0.15
3.800e-05,1.96,0.11
3.810e-05,1.88,0.11
3.820e-05,2.12,0.11
3.830e-05,1.96,0.13
3.840e-05,2.04,0.13
3.850e-05,2.04,0.11
3.860e-05,2.04,0.09
3.870e-05,2.12,0.09
3.880e-05,2.04,0.09
3.890e-05,2.04,0.11
3.900e-05,1.88,0.07
3.910e-05,2.04,0.11
3.920e-05,2.04,0.09
3.930e-05,2.12,0.09
3.940e-05,2.04,0.09
3.950e-05,2.04,0.09
3.960e-05,1.88,0.11
3.970e-05,2.04,0.11
3.980e-05,2.04,0.11
3.990e-05,2.04,0.13
4.000e-05,2.04,0.13
4.010e-05,2.12,0.09
4.020e-05,1.8,0.11
4.030e-05,2.12,0.09
4.040e-05,2.04,0.09
4.050e-05,2.04,0.11
4.060e-05,1.96,0.13
4.070e-05,1.96,0.11
4.080e-05,2.04,0.11
4.090e-05,1.96,0.13
4.100e-05,1.96,0.13
4.110e-05,2.12,0.09
4.120e-05,2.04,0.11
4.130e-05,1.96,0.11
4.140e-05,2.04,0.11
4.150e-05,1.96,0.11
4.160e-05,2.04,0.09
4.170e-05,2.04,0.09
4.180e-05,2.04,0.13
4.190e-05,2.04,0.13
4.200e-05,1.88,0.09
4.210e-05,2.04,0.11
4.220e-05,2.04,0.09
4.230e-05,1.96,0.09
4.240e-05,2.04,0.09
4.250e-05,1.96,0.09
4.260e-05,2.04,0.09
4.270e-05,2.04,0.11
4.280e-05,2.04,0.13
4.290e-05,2.04,0.11
4.300e-05,1.96,0.11
4.310e-05,1.96,0.05
4.320e-05,2.04,0.11
4.330e-05,2.04,0.05
4.340e-05,1.96,0.13
4.350e-05,2.04,0.09
4.360e-05,2.04,0.09
4.370e-05,1.96,0.09
4.380e-05,2.12,0.13
4.390e-05,2.12,0.11
4.400e-05,1.96,0.11
4.410e-05,2.04,0.09
4.420e-05,2.04,0.09
4.430e-05,1.96,0.09
4.440e-05,2.04,0.15
4.450e-05,2.04,0.13
4.460e-05,1.96,0.11
4.470e-05,2.04,0.11
4.480e-05,2.12,0.09
4.490e-05,2.04,0.11
4.500e-05,1.96,0.09
4.510e-05,1.96,0.11
4.520e-05,2.04,0.11
4.530e-05,1.96,0.07
4.540e-05,2.04,0.07
4.550e-05,2.04,0.07
4.560e-05,1.88,0.11
4.570e-05,1.96,0.09
4.580e-05,2.04,0.11
4.590e-05,1.96,0.09
4.600e-05,1.96,0.13
4.610e-05,2.12,0.05
4.620e-05,1.96,0.11
4.630e-05,1.88,0.11
4.640e-05,2.04,0.09
4.650e-05,2.04,0.09
4.660e-05,2.04,0.11
4.670e-05,2.04,0.07
4.680e-05,2.04,0.11
4.690e-05,2.12,0.09
4.700e-05,2.04,0.09
4.710e-05,2.04,0.11
4.720e-05,1.96,0.11
4.730e-05,1.96,0.07
4.740e-05,1.88,0.09
4.750e-05,1.88,0.11
4.760e-05,1.96,0.11
4.770e-05,1.96,0.07
4.780e-05,2.04,0.11
4.790e-05,2.04,0.09
4.800e-05,2.04,0.11
4.810e-05,2.04,0.07
4.820e-05,1.96,0.09
4.830e-05,2.04,0.09
4.840e-05,1.88,0.11
4.850e-05,2.04,0.11
4.860e-05,2.12,0.11
4.870e-05,1.96,0.09
4.880e-05,2.04,0.11
4.890e-05,2.04,0.11
4.900e-05,1.96,0.09
4.910e-05,2.04,0.11
4.920e-05,2.12,0.09
4.930e-05,1.88,0.09
4.940e-05,1.96,0.07
4.950e-05,1.96,0.07
4.960e-05,2.04,0.11
4.970e-05,2.04,0.07
4.980e-05,2.04,0.11
4.990e-05,2.04,0.09
5.000e-05,1.96,0.13
5.010e-05,2.04,0.11
5.020e-05,1.96,0.09
5.030e-05,2.04,0.11
5.040e-05,2.04,0.07
5.050e-05,2.04,0.09
5.060e-05,1.96,0.11
5.070e-05,2.04,0.11
5.080e-05,2.04,0.09
5.090e-05,2.12,0.07
5.100e-05,2.04,0.11
5.110e-05,2.04,0.11
5.120e-05,2.12,0.11
5.130e-05,2.04,0.09
5.140e-05,2.04,0.09
5.150e-05,2.04,0.13
5.160e-05,1.96,0.09
5.170e-05,2.04,0.13
5.180e-05,1.96,0.07
5.190e-05,1.96,0.11
5.200e-05,2.2,0.09
5.210e-05,2.04,0.11
5.220e-05,1.96,0.09
5.230e-05,1.96,0.11
5.240e-05,2.12,0.09
5.250e-05,2.04,0.09
5.260e-05,1.96,0.09
5.270e-05,2.04,0.11
5.280e-05,2.12,0.09
5.290e-05,1.96,0.13
5.300e-05,1.96,0.09
5.310e-05,2.2,0.11
5.320e-05,1.88,0.07
5.330e-05,2.04,0.11
5.340e-05,1.88,0.07
5.350e-05,2.04,0.13
5.360e-05,2.04,0.09
5.370e-05,2.04,0.11
5.380e-05,1.96,0.09
5.390e-05,2.04,0.07
5.400e-05,2.12,0.07
5.410e-05,2.04,0.09
5.420e-05,1.96,0.07
5.430e-05,2.04,0.09
5.440e-05,1.96,0.09
5.450e-05,2.12,0.11
5.460e-05,2.04,0.11
5.470e-05,1.96,0.09
5.480e-05,2.04,0.11
5.490e-05,1.88,0.07
5.500e-05,2.04,0.07
5.510e-05,1.96,0.13
5.520e-05,2.04,0.13
5.530e-05,2.12,0.11
5.540e-05,1.96,0.11
5.550e-05,2.04,0.09
5.560e-05,2.04,0.07
5.570e-05,2.2,0.09
5.580e-05,2.04,0.09
5.590e-05,2.04,0.11
5.600e-05,2.12,0.09
5.610e-05,1.96,0.09
5.620e-05,1.96,0.11
5.630e-05,1.96,0.09
5.640e-05,1.96,0.09
5.650e-05,2.04,0.11
5.660e-05,2.04,0.11
5.670e-05,2.04,0.09
5.680e-05,2.04,0.09
5.690e-05,2.04,0.09
5.700e-05,2.04,0.11
5.710e-05,2.12,0.09
5.720e-05,1.88,0.09
5.730e-05,2.12,0.05
5.740e-05,2.04,0.11
5.750e-05,2.04,0.09
5.760e-05,2.04,0.07
5.770e-05,1.96,0.11
5.780e-05,2.12,0.11
5.790e-05,1.96,0.11
5.800e-05,1.96,0.11
5.810e-05,2.04,0.07
5.820e-05,1.96,0.09
5.830e-05,1.88,0.09
5.840e-05,1.96,0.09
5.850e-05,1.96,0.09
5.860e-05,1.96,0.11
5.870e-05,2.04,0.09
5.880e-05,1.96,0.13
5.890e-05,2.04,0.09
5.900e-05,2.04,0.13
5.910e-05,1.96,0.09
5.920e-05,2.04,0.11
5.930e-05,2.04,0.11
5.940e-05,2.04,0.09
5.950e-05,1.96,0.07
5.960e-05,2.04,0.09
5.970e-05,2.04,0.07
5.980e-05,2.04,0.13
5.990e-05,2.04,0.11
6.000e-05,2.04,0.11
6.010e-05,2.04,0.09
6.020e-05,2.12,0.11
6.030e-05,2.04,0.09
6.040e-05,2.04,0.09
6.050e-05,2.12,0.09
6.060e-05,2.04,0.09
6.070e-05,2.04,0.09
6.080e-05,2.04,0.13
6.090e-05,2.12,0.09
6.100e-05,1.96,0.11
6.110e-05,2.2,0.05
6.120e-05,2.04,0.11
6.130e-05,1.96,0.09
6.140e-05,2.12,0.09
6.150e-05,2.04,0.07
6.160e-05,2.04,0.11
6.170e-05,1.96,0.09
6.180e-05,1.96,0.09
6.190e-05,1.96,0.09
6.200e-05,2.04,0.09
6.210e-05,2.04,0.09
6.220e-05,2.04,0.11
6.230e-05,2.04,0.09
6.240e-05,2.12,0.09
6.250e-05,2.2,0.09
6.260e-05,2.04,0.11
6.270e-05,2.12,0.09
6.280e-05,1.88,0.09
6.290e-05,2.12,0.11
6.300e-05,2.12,0.07
6.310e-05,2.12,0.07
6.320e-05,1.96,0.11
6.330e-05,1.88,0.11
6.340e-05,2.12,0.09
6.350e-05,2.04,0.07
6.360e-05,1.96,0.07
6.370e-05,1.88,0.09
6.380e-05,1.96,0.11
6.390e-05,2.12,0.11
6.400e-05,2.04,0.11
6.410e-05,2.12,0.11
6.420e-05,1.8,0.09
6.430e-05,2.04,0.11
6.440e-05,1.96,0.11
6.450e-05,2.04,0.09
6.460e-05,1.96,0.09
6.470e-05,2.2,0.13
6.480e-05,2.04,0.07
6.490e-05,2.2,0.09
6.500e-05,2.12,0.11
6.510e-05,1.96,0.11
6.520e-05,1.88,0.09
6.530e-05,2.12,0.11
6.540e-05,2.04,0.11
6.550e-05,2.04,0.07
6.560e-05,1.96,0.09
6.570e-05,2.12,0.07
6.580e-05,2.04,0.09
6.590e-05,1.96,0.07
6.600e-05,2.04,0.09
6.610e-05,1.88,0.09
6.620e-05,1.96,0.11
6.630e-05,1.96,0.11
6.640e-05,1.96,0.07
6.650e-05,2.12,0.09
6.660e-05,2.04,0.09
6.670e-05,2.12,0.09
6.680e-05,1.96,0.11
6.690e-05,1.96,0.09
6.700e-05,2.04,0.09
6.710e-05,1.96,0.11
6.720e-05,2.12,0.09
6.730e-05,1.88,0.09
6.740e-05,2.04,0.03
6.750e-05,1.96,0.11
6.760e-05,2.12,0.11
6.770e-05,2.04,0.11
6.780e-05,2.04,0.09
6.790e-05,1.96,0.09
6.800e-05,2.12,0.11
6.810e-05,2.04,0.07
6.820e-05,1.96,0.05
6.830e-05,2.04,0.09
6.840e-05,1.96,0.07
6.850e-05,2.04,0.13
6.860e-05,2.04,0.11
6.870e-05,2.04,0.07
6.880e-05,1.96,0.09
6.890e-05,2.04,0.11
6.900e-05,2.2,0.11
6.910e-05,2.04,0.09
6.920e-05,2.12,0.09
6.930e-05,2.04,0.09
6.940e-05,2.04,0.07
6.950e-05,2.12,0.09
6.960e-05,2.04,0.09
6.970e-05,2.04,0.09
6.980e-05,2.12,0.13
6.990e-05,1.96,0.11
7.000e-05,1.96,0.09
7.010e-05,1.96,0.09
7.020e-05,1.96,0.09
7.030e-05,1.8,0.11
7.040e-05,1.96,0.09
7.050e-05,2.04,0.07
7.060e-05,1.8,0.09
7.070e-05,1.96,0.09
7.080e-05,2.04,0.07
7.090e-05,2.12,0.09
7.100e-05,2.04,0.09
7.110e-05,1.96,0.09
7.120e-05,2.04,0.09
7.130e-05,2.04,0.11
7.140e-05,1.96,0.09
7.150e-05,1.96,0.11
7.160e-05,2.04,0.09
7.170e-05,2.04,0.09
7.180e-05,2.04,0.09
7.190e-05,2.04,0.09
7.200e-05,1.96,0.13
7.210e-05,2.12,0.11
7.220e-05,2.04,0.13
7.230e-05,1.88,0.09
7.240e-05,2.12,0.11
7.250e-05,2.04,0.09
7.260e-05,1.96,0.11
7.270e-05,1.96,0.09
7.280e-05,2.04,0.07
7.290e-05,1.96,0.07
7.300e-05,1.96,0.11
7.310e-05,1.96,0.09
7.320e-05,2.04,0.09
7.330e-05,1.96,0.13
7.340e-05,1.96,0.09
7.350e-05,2.04,0.13
7.360e-05,1.88,0.09
7.370e-05,2.12,0.05
7.380e-05,2.04,0.13
7.390e-05,1.88,0.09
7.400e-05,2.12,0.09
7.410e-05,2.04,0.11
7.420e-05,1.96,0.07
7.430e-05,2.04,0.09
7.440e-05,1.96,0.07
7.450e-05,1.96,0.09
7.460e-05,1.96,0.09
7.470e-05,2.04,0.09
7.480e-05,1.96,0.09
7.490e-05,1.96,0.13
7.500e-05,2.04,0.05
7.510e-05,1.96,0.07
7.520e-05,1.96,0.11
7.530e-05,2.12,0.09
7.540e-05,1.96,0.09
7.550e-05,1.96,0.09
7.560e-05,1.96,0.11
7.570e-05,1.8,0.07
7.580e-05,1.96,0.09
7.590e-05,1.96,0.07
7.600e-05,1.88,0.09
7.610e-05,2.12,0.09
7.620e-05,2.04,0.07
7.630e-05,2.04,0.09
7.640e-05,2.04,0.07
7.650e-05,2.04,0.09
7.660e-05,1.96,0.09
7.670e-05,2.12,0.11
7.680e-05,2.04,0.09
7.690e-05,1.96,0.09
7.700e-05,2.04,0.11
7.710e-05,2.04,0.09
7.720e-05,2.04,0.11
7.730e-05,1.96,0.09
7.740e-05,1.96,0.09
7.750e-05,2.04,0.09
7.760e-05,1.96,0.09
7.770e-05,1.96,0.11
7.780e-05,2.04,0.09
7.790e-05,1.96,0.09
7.800e-05,1.96,0.11
7.810e-05,1.88,0.09
7.820e-05,2.04,0.13
7.830e-05,2.12,0.11
7.840e-05,2.04,0.09
7.850e-05,2.12,0.11
7.860e-05,2.04,0.11
7.870e-05,1.96,0.11
7.880e-05,1.96,0.07
7.890e-05,1.96,0.11
7.900e-05,1.96,0.09
7.910e-05,1.96,0.11
7.920e-05,1.96,0.09
7.930e-05,1.88,0.09
7.940e-05,1.96,0.09
7.950e-05,1.96,0.07
7.960e-05,1.96,0.09
7.970e-05,2.04,0.11
7.980e-05,2.04,0.11
7.990e-05,2.04,0.11
8.000e-05,2.04,0.09
8.010e-05,1.96,0.09
8.020e-05,2.04,0.11
8.030e-05,1.96,0.09
8.040e-05,2.12,0.07
8.050e-05,2.12,0.09
8.060e-05,1.96,0.09
8.070e-05,1.88,0.09
8.080e-05,2.04,0.07
8.090e-05,1.96,0.09
8.100e-05,1.96,0.11
8.110e-05,1.96,0.11
8.120e-05,2.04,0.09
8.130e-05,2.04,0.07
8.140e-05,1.96,0.09
8.150e-05,2.12,0.07
8.160e-05,2.04,0.09
8.170e-05,2.04,0.09
8.180e-05,1.88,0.13
8.190e-05,1.96,0.11
8.200e-05,2.04,0.11
8.210e-05,1.96,0.07
8.220e-05,2.12,0.11
8.230e-05,1.96,0.09
8.240e-05,2.12,0.09
8.250e-05,2.04,0.09
8.260e-05,1.96,0.09
8.270e-05,2.04,0.07
8.280e-05,2.04,0.11
8.290e-05,1.96,0.11
8.300e-05,2.12,0.07
8.310e-05,2.04,0.09
8.320e-05,1.8,0.09
8.330e-05,2.04,0.11
8.340e-05,1.88,0.09
8.350e-05,2.04,0.09
8.360e-05,2.04,0.09
8.370e-05,2.12,0.09
8.380e-05,2.04,0.11
8.390e-05,1.88,0.03
8.400e-05,1.88,0.07
8.410e-05,2.04,0.09
8.420e-05,1.96,0.09
8.430e-05,1.96,0.11
8.440e-05,2.04,0.11
8.450e-05,2.04,0.07
8.460e-05,1.96,0.09
8.470e-05,2.04,0.13
8.480e-05,2.12,0.09
8.490e-05,1.88,0.09
8.500e-05,2.04,0.11
8.510e-05,2.12,0.11
8.520e-05,2.04,0.09
8.530e-05,2.04,0.09
8.540e-05,1.96,0.09
8.550e-05,2.2,0.09
8.560e-05,1.96,0.09
8.570e-05,2.04,0.09
8.580e-05,1.96,0.07
8.590e-05,1.96,0.09
8.600e-05,1.96,0.07
8.610e-05,1.96,0.07
8.620e-05,2.12,0.07
8.630e-05,1.88,0.11
8.640e-05,1.96,0.07
8.650e-05,2.04,0.09
8.660e-05,2.04,0.09
8.670e-05,1.96,0.11
8.680e-05,1.96,0.05
8.690e-05,1.96,0.07
8.700e-05,1.8,0.11
8.710e-05,1.96,0.11
8.720e-05,1.96,0.09
8.730e-05,1.88,0.13
8.740e-05,1.96,0.07
8.750e-05,2.12,0.11
8.760e-05,1.96,0.11
8.770e-05,2.04,0.09
8.780e-05,2.12,0.09
8.790e-05,2.04,0.11
8.800e-05,2.04,0.11
8.810e-05,1.96,0.09
8.820e-05,1.96,0.09
8.830e-05,2.04,0.09
8.840e-05,2.04,0.09
8.850e-05,2.04,0.07
8.860e-05,1.96,0.07
8.870e-05,1.96,0.09
8.880e-05,2.04,0.11
8.890e-05,2.04,0.09
8.900e-05,2.04,0.09
8.910e-05,2.04,0.11
8.920e-05,2.04,0.07
8.930e-05,2.04,0.13
8.940e-05,1.96,0.09
8.950e-05,1.88,0.09
8.960e-05,2.04,0.09
8.970e-05,1.96,0.09
8.980e-05,1.96,0.09
8.990e-05,2.04,0.07
9.000e-05,2.04,0.09
9.010e-05,2.04,0.09
9.020e-05,1.96,0.07
9.030e-05,2.04,0.09
9.040e-05,1.88,0.11
9.050e-05,2.12,0.11
9.060e-05,1.96,0.11
9.070e-05,2.04,0.11
9.080e-05,2.04,0.09
9.090e-05,1.88,0.11
9.100e-05,2.04,0.11
9.110e-05,2.04,0.11
9.120e-05,2.04,0.07
9.130e-05,2.04,0.09
9.140e-05,1.96,0.09
9.150e-05,2.04,0.05
9.160e-05,2.04,0.11
9.170e-05,1.88,0.05
9.180e-05,2.04,0.09
9.190e-05,2.04,0.13
9.200e-05,1.96,0.11
9.210e-05,1.96,0.07
9.220e-05,1.96,0.09
9.230e-05,2.04,0.07
