Archivos Guadalupe/Data/1410-32-X4/19-10/D-19-10/tek0019ALL.csv

Model,DPO3034
Firmware Version,2.16

Point Format,Y,
Horizontal Units,S,
Horizontal Scale,1e-06,
Sample Interval,1e-08,
Record Length,1000,
Gating,0.0% to 100.0%,0.0% to 100.0%
Probe Attenuation,1,1
Vertical Units,V,V
Vertical Offset,0,0
Vertical Scale,1,0.5
Label,,
TIME,CH1,CH2
-1.150e-06,-0.08,-0.01
-1.140e-06,0.12,-0.03
-1.130e-06,0.08,0.01
-1.120e-06,0.08,0.01
-1.110e-06,-0.04,-0.03
-1.100e-06,0.04,0.01
-1.090e-06,0,0.01
-1.080e-06,0.04,0.01
-1.070e-06,0.04,0.01
-1.060e-06,0.04,0.01
-1.050e-06,-0.04,-0.01
-1.040e-06,0,0.03
-1.030e-06,0,-0.01
-1.020e-06,0,0.03
-1.010e-06,-0.04,0.05
-1.000e-06,0,0.03
-9.900e-07,0,0.01
-9.800e-07,0.04,0.01
-9.700e-07,0.04,-0.01
-9.600e-07,0.04,0.07
-9.500e-07,0,0.07
-9.400e-07,0.08,-0.01
-9.300e-07,-0.04,0.01
-9.200e-07,-0.04,0.01
-9.100e-07,0,0.01
-9.000e-07,0,0.01
-8.900e-07,0.08,0.01
-8.800e-07,0.04,0.01
-8.700e-07,-0.04,0.01
-8.600e-07,0,-0.01
-8.500e-07,-0.04,0.01
-8.400e-07,0.04,0.01
-8.300e-07,0,0.03
-8.200e-07,0,-0.01
-8.100e-07,-0.04,0.01
-8.000e-07,0.08,-0.01
-7.900e-07,0.04,0.05
-7.800e-07,0.08,0.01
-7.700e-07,0.08,0.05
-7.600e-07,0,0.03
-7.500e-07,0,0.01
-7.400e-07,0,-0.01
-7.300e-07,0,0.01
-7.200e-07,0.04,-0.01
-7.100e-07,0.08,0.03
-7.000e-07,-0.12,0.05
-6.900e-07,0.04,0.05
-6.800e-07,0,0.01
-6.700e-07,-0.04,0.01
-6.600e-07,0.08,-0.01
-6.500e-07,0.04,-0.01
-6.400e-07,0,0.03
-6.300e-07,0,0.01
-6.200e-07,0,0.05
-6.100e-07,-0.04,-0.01
-6.000e-07,0,0.01
-5.900e-07,0.04,0.03
-5.800e-07,0.04,0.03
-5.700e-07,0,0.05
-5.600e-07,0,0.03
-5.500e-07,0.04,0.03
-5.400e-07,0,0.03
-5.300e-07,0.08,0.05
-5.200e-07,0.12,0.05
-5.100e-07,0.04,0.01
-5.000e-07,0.04,0.01
-4.900e-07,0.04,0.01
-4.800e-07,0.04,0.03
-4.700e-07,0.16,0.03
-4.600e-07,0.08,0.03
-4.500e-07,0.12,0.01
-4.400e-07,0.08,0.05
-4.300e-07,0.08,0.05
-4.200e-07,0.12,0.07
-4.100e-07,0.2,0.05
-4.000e-07,0.16,0.07
-3.900e-07,0.16,0.05
-3.800e-07,0.2,0.09
-3.700e-07,0.2,0.11
-3.600e-07,0.2,0.13
-3.500e-07,0.28,0.09
-3.400e-07,0.28,0.09
-3.300e-07,0.32,0.07
-3.200e-07,0.32,0.09
-3.100e-07,0.32,0.13
-3.000e-07,0.36,0.09
-2.900e-07,0.32,0.09
-2.800e-07,0.32,0.11
-2.700e-07,0.36,0.09
-2.600e-07,0.36,0.13
-2.500e-07,0.32,0.09
-2.400e-07,0.36,0.11
-2.300e-07,0.28,0.15
-2.200e-07,0.32,0.13
-2.100e-07,0.28,0.13
-2.000e-07,0.32,0.15
-1.900e-07,0.32,0.13
-1.800e-07,0.32,0.11
-1.700e-07,0.36,0.11
-1.600e-07,0.36,0.13
-1.500e-07,0.28,0.13
-1.400e-07,0.32,0.13
-1.300e-07,0.28,0.11
-1.200e-07,0.32,0.09
-1.100e-07,0.36,0.15
-1.000e-07,0.48,0.13
-9.000e-08,0.72,0.11
-8.000e-08,0.96,0.25
-7.000e-08,1.08,0.35
-6.000e-08,1.28,0.51
-5.000e-08,1.52,0.63
-4.000e-08,1.84,0.73
-3.000e-08,2.12,0.77
-2.000e-08,2.48,0.81
-1.000e-08,2.6,0.81
-1.003e-21,2.92,0.87
1.000e-08,3.12,0.97
2.000e-08,3.52,1.07
3.000e-08,3.72,1.19
4.000e-08,3.96,1.29
5.000e-08,4.36,1.37
6.000e-08,4.68,1.45
7.000e-08,4.96,1.49
8.000e-08,5.36,1.65
9.000e-08,5.56,1.69
1.000e-07,5.56,1.77
1.100e-07,5.64,1.87
1.200e-07,5.76,1.87
1.300e-07,5.84,1.83
1.400e-07,5.96,1.79
1.500e-07,6,1.75
1.600e-07,5.92,1.75
1.700e-07,6,1.81
1.800e-07,6.04,1.89
1.900e-07,5.96,1.89
2.000e-07,6,1.97
2.100e-07,6.04,1.93
2.200e-07,6.08,1.95
2.300e-07,6,1.93
2.400e-07,6.08,1.93
2.500e-07,5.96,1.93
2.600e-07,5.92,1.91
2.700e-07,6,1.93
2.800e-07,5.96,1.91
2.900e-07,6,1.89
3.000e-07,5.84,1.85
3.100e-07,5.64,1.83
3.200e-07,5.44,1.71
3.300e-07,5.2,1.55
3.400e-07,5,1.49
3.500e-07,4.8,1.39
3.600e-07,4.4,1.25
3.700e-07,4.24,1.23
3.800e-07,4,1.15
3.900e-07,3.72,1.13
4.000e-07,3.48,1.09
4.100e-07,3.16,1.03
4.200e-07,2.84,0.91
4.300e-07,2.6,0.83
4.400e-07,2.4,0.71
4.500e-07,2.04,0.61
4.600e-07,1.72,0.53
4.700e-07,1.28,0.45
4.800e-07,1.04,0.35
4.900e-07,0.84,0.21
5.000e-07,0.64,0.15
5.100e-07,0.52,0.05
5.200e-07,0.52,-0.03
5.300e-07,0.4,0.01
5.400e-07,0.28,0.09
5.500e-07,0.2,0.13
5.600e-07,0.2,0.09
5.700e-07,0.24,0.09
5.800e-07,0.28,-0.01
5.900e-07,0.32,0.01
6.000e-07,0.28,-0.03
6.100e-07,0.24,-0.05
6.200e-07,0.24,-0.01
6.300e-07,0.2,-0.01
6.400e-07,0.28,0.05
6.500e-07,0.28,0.05
6.600e-07,0.24,0.05
6.700e-07,0.24,0.03
6.800e-07,0.28,0.01
6.900e-07,0.32,0.01
7.000e-07,0.32,0.01
7.100e-07,0.36,0.05
7.200e-07,0.32,0.07
7.300e-07,0.32,0.09
7.400e-07,0.36,0.07
7.500e-07,0.32,0.01
7.600e-07,0.32,0.01
7.700e-07,0.32,0.01
7.800e-07,0.24,0.03
7.900e-07,0.28,0.03
8.000e-07,0.36,0.01
8.100e-07,0.36,0.03
8.200e-07,0.36,0.01
8.300e-07,0.28,0.05
8.400e-07,0.32,0.05
8.500e-07,0.32,0.05
8.600e-07,0.32,0.01
8.700e-07,0.32,0.05
8.800e-07,0.4,0.07
8.900e-07,0.28,0.03
9.000e-07,0.32,-0.01
9.100e-07,0.36,0.03
9.200e-07,0.36,0.01
9.300e-07,0.36,0.01
9.400e-07,0.36,0.05
9.500e-07,0.36,0.03
9.600e-07,0.32,0.05
9.700e-07,0.24,0.05
9.800e-07,0.32,0.03
9.900e-07,0.36,0.01
1.000e-06,0.4,0.07
1.010e-06,0.32,0.01
1.020e-06,0.32,0.05
1.030e-06,0.28,0.05
1.040e-06,0.32,0.09
1.050e-06,0.32,0.05
1.060e-06,0.4,0.07
1.070e-06,0.36,0.05
1.080e-06,0.4,0.07
1.090e-06,0.4,0.07
1.100e-06,0.4,0.07
1.110e-06,0.4,0.07
1.120e-06,0.36,0.05
1.130e-06,0.32,0.03
1.140e-06,0.32,0.01
1.150e-06,0.32,-0.01
1.160e-06,0.4,0.03
1.170e-06,0.28,0.03
1.180e-06,0.4,0.05
1.190e-06,0.32,0.11
1.200e-06,0.32,0.05
1.210e-06,0.28,0.07
1.220e-06,0.36,0.05
1.230e-06,0.28,0.03
1.240e-06,0.36,0.05
1.250e-06,0.36,0.05
1.260e-06,0.36,0.09
1.270e-06,0.36,0.03
1.280e-06,0.32,0.03
1.290e-06,0.32,0.07
1.300e-06,0.32,0.05
1.310e-06,0.28,0.03
1.320e-06,0.32,0.07
1.330e-06,0.36,0.05
1.340e-06,0.4,0.03
1.350e-06,0.28,0.05
1.360e-06,0.28,0.03
1.370e-06,0.36,0.01
1.380e-06,0.36,0.01
1.390e-06,0.36,0.03
1.400e-06,0.32,0.05
1.410e-06,0.32,0.05
1.420e-06,0.36,0.03
1.430e-06,0.32,0.05
1.440e-06,0.36,0.07
1.450e-06,0.36,0.05
1.460e-06,0.32,0.05
1.470e-06,0.32,0.07
1.480e-06,0.28,0.05
1.490e-06,0.36,0.03
1.500e-06,0.36,0.05
1.510e-06,0.36,0.07
1.520e-06,0.32,0.03
1.530e-06,0.32,0.01
1.540e-06,0.36,0.03
1.550e-06,0.32,0.07
1.560e-06,0.32,0.05
1.570e-06,0.32,0.07
1.580e-06,0.32,0.03
1.590e-06,0.32,0.03
1.600e-06,0.32,0.03
1.610e-06,0.32,0.05
1.620e-06,0.2,0.05
1.630e-06,0.36,0.03
1.640e-06,0.32,0.03
1.650e-06,0.28,0.05
1.660e-06,0.28,0.03
1.670e-06,0.36,0.07
1.680e-06,0.32,0.01
1.690e-06,0.32,0.01
1.700e-06,0.24,0.05
1.710e-06,0.32,0.01
1.720e-06,0.32,0.05
1.730e-06,0.28,0.01
1.740e-06,0.36,0.03
1.750e-06,0.36,0.05
1.760e-06,0.36,0.03
1.770e-06,0.36,0.01
1.780e-06,0.36,0.05
1.790e-06,0.4,0.05
1.800e-06,0.32,0.05
1.810e-06,0.32,0.09
1.820e-06,0.4,0.03
1.830e-06,0.28,0.05
1.840e-06,0.4,0.05
1.850e-06,0.32,0.01
1.860e-06,0.32,0.05
1.870e-06,0.32,0.01
1.880e-06,0.36,-0.01
1.890e-06,0.36,0.05
1.900e-06,0.36,0.03
1.910e-06,0.32,0.03
1.920e-06,0.32,0.03
1.930e-06,0.36,0.01
1.940e-06,0.24,0.05
1.950e-06,0.28,0.01
1.960e-06,0.36,0.05
1.970e-06,0.32,0.01
1.980e-06,0.28,0.05
1.990e-06,0.32,0.01
2.000e-06,0.28,0.03
2.010e-06,0.32,0.05
2.020e-06,0.36,0.03
2.030e-06,0.32,0.05
2.040e-06,0.28,0.03
2.050e-06,0.36,-0.01
2.060e-06,0.32,0.07
2.070e-06,0.4,0.07
2.080e-06,0.32,0.03
2.090e-06,0.32,0.05
2.100e-06,0.36,0.03
2.110e-06,0.32,0.05
2.120e-06,0.36,0.03
2.130e-06,0.32,-0.01
2.140e-06,0.4,-0.01
2.150e-06,0.32,-0.01
2.160e-06,0.32,-0.01
2.170e-06,0.32,0.03
2.180e-06,0.28,0.03
2.190e-06,0.24,0.03
2.200e-06,0.36,0.07
2.210e-06,0.32,0.03
2.220e-06,0.36,0.07
2.230e-06,0.36,0.09
2.240e-06,0.32,0.05
2.250e-06,0.32,0.03
2.260e-06,0.4,0.03
2.270e-06,0.36,0.05
2.280e-06,0.36,0.05
2.290e-06,0.32,0.01
2.300e-06,0.32,0.05
2.310e-06,0.28,0.03
2.320e-06,0.32,0.05
2.330e-06,0.32,0.03
2.340e-06,0.28,0.03
2.350e-06,0.36,0.01
2.360e-06,0.28,0.07
2.370e-06,0.28,0.03
2.380e-06,0.28,0.03
2.390e-06,0.32,0.03
2.400e-06,0.32,0.03
2.410e-06,0.28,0.07
2.420e-06,0.36,0.07
2.430e-06,0.32,0.05
2.440e-06,0.4,0.03
2.450e-06,0.28,0.05
2.460e-06,0.32,0.05
2.470e-06,0.32,0.03
2.480e-06,0.28,0.01
2.490e-06,0.24,0.05
2.500e-06,0.36,0.07
2.510e-06,0.32,0.07
2.520e-06,0.32,0.01
2.530e-06,0.36,0.07
2.540e-06,0.32,0.03
2.550e-06,0.28,0.01
2.560e-06,0.36,-0.01
2.570e-06,0.28,0.03
2.580e-06,0.32,0.03
2.590e-06,0.28,0.01
2.600e-06,0.24,0.03
2.610e-06,0.36,0.05
2.620e-06,0.32,-0.01
2.630e-06,0.4,0.03
2.640e-06,0.32,0.05
2.650e-06,0.36,0.05
2.660e-06,0.4,0.03
2.670e-06,0.32,0.05
2.680e-06,0.32,0.01
2.690e-06,0.36,0.03
2.700e-06,0.36,0.03
2.710e-06,0.32,0.05
2.720e-06,0.32,0.01
2.730e-06,0.36,0.05
2.740e-06,0.28,0.03
2.750e-06,0.32,0.03
2.760e-06,0.32,-0.01
2.770e-06,0.24,0.01
2.780e-06,0.36,0.01
2.790e-06,0.44,0.05
2.800e-06,0.36,-0.01
2.810e-06,0.24,-0.01
2.820e-06,0.32,0.05
2.830e-06,0.32,0.05
2.840e-06,0.36,0.01
2.850e-06,0.32,0.03
2.860e-06,0.32,0.03
2.870e-06,0.32,0.05
2.880e-06,0.36,0.05
2.890e-06,0.32,0.01
2.900e-06,0.36,0.03
2.910e-06,0.36,0.03
2.920e-06,0.36,0.03
2.930e-06,0.36,0.03
2.940e-06,0.36,0.03
2.950e-06,0.36,-0.01
2.960e-06,0.32,0.03
2.970e-06,0.28,0.03
2.980e-06,0.36,0.05
2.990e-06,0.28,0.05
3.000e-06,0.28,0.05
3.010e-06,0.32,0.03
3.020e-06,0.32,0.05
3.030e-06,0.36,0.05
3.040e-06,0.32,0.05
3.050e-06,0.28,0.03
3.060e-06,0.36,0.03
3.070e-06,0.32,0.03
3.080e-06,0.32,0.05
3.090e-06,0.36,0.05
3.100e-06,0.36,0.01
3.110e-06,0.32,-0.03
3.120e-06,0.36,-0.01
3.130e-06,0.36,0.03
3.140e-06,0.32,0.01
3.150e-06,0.32,0.01
3.160e-06,0.36,0.01
3.170e-06,0.36,0.01
3.180e-06,0.32,-0.01
3.190e-06,0.36,0.03
3.200e-06,0.32,-0.01
3.210e-06,0.4,0.03
3.220e-06,0.28,0.03
3.230e-06,0.32,0.03
3.240e-06,0.32,0.01
3.250e-06,0.32,0.05
3.260e-06,0.28,0.03
3.270e-06,0.36,0.03
3.280e-06,0.32,0.01
3.290e-06,0.36,0.03
3.300e-06,0.32,-0.03
3.310e-06,0.36,0.01
3.320e-06,0.28,0.03
3.330e-06,0.36,0.03
3.340e-06,0.36,0.05
3.350e-06,0.28,0.01
3.360e-06,0.36,0.01
3.370e-06,0.36,-0.01
3.380e-06,0.28,0.03
3.390e-06,0.32,0.01
3.400e-06,0.32,0.03
3.410e-06,0.36,0.03
3.420e-06,0.32,0.03
3.430e-06,0.28,0.03
3.440e-06,0.28,0.03
3.450e-06,0.28,0.05
3.460e-06,0.24,0.03
3.470e-06,0.32,0.03
3.480e-06,0.36,0.03
3.490e-06,0.32,0.01
3.500e-06,0.24,0.01
3.510e-06,0.32,0.05
3.520e-06,0.36,0.01
3.530e-06,0.36,0.03
3.540e-06,0.36,-0.01
3.550e-06,0.32,0.01
3.560e-06,0.28,0.05
3.570e-06,0.28,0.05
3.580e-06,0.32,0.03
3.590e-06,0.36,0.01
3.600e-06,0.32,0.03
3.610e-06,0.32,0.03
3.620e-06,0.28,0.07
3.630e-06,0.2,0.01
3.640e-06,0.28,0.03
3.650e-06,0.28,0.03
3.660e-06,0.4,0.03
3.670e-06,0.28,0.05
3.680e-06,0.28,0.03
3.690e-06,0.32,0.05
3.700e-06,0.4,0.03
3.710e-06,0.32,0.01
3.720e-06,0.32,0.03
3.730e-06,0.24,-0.01
3.740e-06,0.32,0.01
3.750e-06,0.36,0.01
3.760e-06,0.32,0.03
3.770e-06,0.28,0.03
3.780e-06,0.32,0.03
3.790e-06,0.36,0.03
3.800e-06,0.4,-0.01
3.810e-06,0.32,0.03
3.820e-06,0.24,0.03
3.830e-06,0.28,0.05
3.840e-06,0.28,0.05
3.850e-06,0.32,0.07
3.860e-06,0.36,0.05
3.870e-06,0.28,0.07
3.880e-06,0.28,0.03
3.890e-06,0.28,0.03
3.900e-06,0.32,0.03
3.910e-06,0.32,0.03
3.920e-06,0.32,0.03
3.930e-06,0.4,0.03
3.940e-06,0.32,0.01
3.950e-06,0.36,0.03
3.960e-06,0.36,0.05
3.970e-06,0.36,0.03
3.980e-06,0.32,0.03
3.990e-06,0.32,0.03
4.000e-06,0.36,0.03
4.010e-06,0.28,0.01
4.020e-06,0.28,0.01
4.030e-06,0.32,-0.01
4.040e-06,0.4,0.03
4.050e-06,0.32,0.03
4.060e-06,0.36,0.05
4.070e-06,0.32,0.01
4.080e-06,0.32,0.07
4.090e-06,0.36,0.03
4.100e-06,0.36,0.01
4.110e-06,0.4,0.01
4.120e-06,0.28,0.03
4.130e-06,0.36,0.01
4.140e-06,0.32,-0.01
4.150e-06,0.32,0.03
4.160e-06,0.36,0.03
4.170e-06,0.28,0.01
4.180e-06,0.24,0.03
4.190e-06,0.36,0.01
4.200e-06,0.28,0.03
4.210e-06,0.28,0.01
4.220e-06,0.36,0.05
4.230e-06,0.36,0.05
4.240e-06,0.4,0.05
4.250e-06,0.24,0.05
4.260e-06,0.36,0.03
4.270e-06,0.4,0.03
4.280e-06,0.32,0.03
4.290e-06,0.36,0.03
4.300e-06,0.36,0.01
4.310e-06,0.32,0.01
4.320e-06,0.4,0.01
4.330e-06,0.32,0.01
4.340e-06,0.36,-0.01
4.350e-06,0.32,0.01
4.360e-06,0.4,0.05
4.370e-06,0.32,0.03
4.380e-06,0.28,0.05
4.390e-06,0.32,0.05
4.400e-06,0.24,0.03
4.410e-06,0.36,0.01
4.420e-06,0.36,0.03
4.430e-06,0.32,-0.01
4.440e-06,0.4,0.05
4.450e-06,0.36,0.01
4.460e-06,0.36,0.03
4.470e-06,0.36,0.05
4.480e-06,0.36,0.05
4.490e-06,0.32,0.03
4.500e-06,0.32,0.03
4.510e-06,0.28,0.05
4.520e-06,0.32,-0.01
4.530e-06,0.32,0.03
4.540e-06,0.36,0.03
4.550e-06,0.32,0.05
4.560e-06,0.36,0.01
4.570e-06,0.32,0.03
4.580e-06,0.36,0.05
4.590e-06,0.4,0.03
4.600e-06,0.36,0.05
4.610e-06,0.32,0.03
4.620e-06,0.4,-0.01
4.630e-06,0.32,0.05
4.640e-06,0.32,0.07
4.650e-06,0.32,0.05
4.660e-06,0.32,0.03
4.670e-06,0.32,0.03
4.680e-06,0.36,0.01
4.690e-06,0.36,0.03
4.700e-06,0.4,0.05
4.710e-06,0.36,0.01
4.720e-06,0.28,0.05
4.730e-06,0.28,0.03
4.740e-06,0.4,0.03
4.750e-06,0.36,0.01
4.760e-06,0.32,0.03
4.770e-06,0.32,0.03
4.780e-06,0.32,0.03
4.790e-06,0.32,-0.01
4.800e-06,0.28,0.05
4.810e-06,0.32,0.05
4.820e-06,0.32,0.01
4.830e-06,0.32,0.05
4.840e-06,0.32,0.03
4.850e-06,0.36,0.05
4.860e-06,0.32,0.05
4.870e-06,0.36,0.01
4.880e-06,0.32,0.03
4.890e-06,0.28,0.03
4.900e-06,0.32,0.05
4.910e-06,0.32,0.05
4.920e-06,0.36,-0.01
4.930e-06,0.32,0.01
4.940e-06,0.4,0.03
4.950e-06,0.36,-0.01
4.960e-06,0.36,-0.01
4.970e-06,0.28,0.01
4.980e-06,0.28,0.03
4.990e-06,0.24,0.03
5.000e-06,0.32,0.09
5.010e-06,0.32,0.01
5.020e-06,0.32,0.03
5.030e-06,0.36,0.01
5.040e-06,0.32,0.01
5.050e-06,0.36,0.05
5.060e-06,0.36,0.05
5.070e-06,0.32,0.03
5.080e-06,0.32,0.05
5.090e-06,0.32,0.03
5.100e-06,0.28,0.01
5.110e-06,0.36,0.01
5.120e-06,0.32,0.01
5.130e-06,0.28,0.01
5.140e-06,0.4,0.05
5.150e-06,0.32,0.03
5.160e-06,0.32,-0.01
5.170e-06,0.32,0.01
5.180e-06,0.32,0.03
5.190e-06,0.24,0.05
5.200e-06,0.4,0.01
5.210e-06,0.32,0.03
5.220e-06,0.36,0.07
5.230e-06,0.28,0.05
5.240e-06,0.36,0.07
5.250e-06,0.36,0.01
5.260e-06,0.32,0.07
5.270e-06,0.36,0.03
5.280e-06,0.36,0.05
5.290e-06,0.28,0.03
5.300e-06,0.32,0.03
5.310e-06,0.32,0.03
5.320e-06,0.36,0.05
5.330e-06,0.36,0.01
5.340e-06,0.4,0.05
5.350e-06,0.32,-0.01
5.360e-06,0.32,0.01
5.370e-06,0.36,0.01
5.380e-06,0.36,0.03
5.390e-06,0.32,0.03
5.400e-06,0.28,0.01
5.410e-06,0.36,0.03
5.420e-06,0.4,0.05
5.430e-06,0.36,0.05
5.440e-06,0.36,0.01
5.450e-06,0.36,0.01
5.460e-06,0.28,0.05
5.470e-06,0.32,0.03
5.480e-06,0.36,0.03
5.490e-06,0.24,0.05
5.500e-06,0.36,0.07
5.510e-06,0.32,0.01
5.520e-06,0.32,0.05
5.530e-06,0.36,0.01
5.540e-06,0.36,0.05
5.550e-06,0.32,0.03
5.560e-06,0.36,0.03
5.570e-06,0.32,-0.01
5.580e-06,0.32,0.03
5.590e-06,0.36,0.03
5.600e-06,0.32,0.01
5.610e-06,0.36,0.05
5.620e-06,0.32,0.05
5.630e-06,0.32,0.09
5.640e-06,0.32,0.07
5.650e-06,0.32,0.05
5.660e-06,0.4,0.03
5.670e-06,0.32,0.05
5.680e-06,0.4,0.01
5.690e-06,0.28,0.03
5.700e-06,0.36,0.01
5.710e-06,0.36,0.07
5.720e-06,0.2,0.05
5.730e-06,0.24,0.05
5.740e-06,0.36,0.03
5.750e-06,0.32,0.01
5.760e-06,0.32,0.03
5.770e-06,0.32,0.01
5.780e-06,0.36,0.01
5.790e-06,0.32,0.01
5.800e-06,0.4,0.01
5.810e-06,0.32,0.03
5.820e-06,0.36,0.01
5.830e-06,0.36,-0.01
5.840e-06,0.2,0.05
5.850e-06,0.36,0.05
5.860e-06,0.4,0.05
5.870e-06,0.32,0.03
5.880e-06,0.36,0.05
5.890e-06,0.4,0.03
5.900e-06,0.4,0.05
5.910e-06,0.32,0.03
5.920e-06,0.36,0.03
5.930e-06,0.36,0.05
5.940e-06,0.4,0.01
5.950e-06,0.4,0.01
5.960e-06,0.36,0.01
5.970e-06,0.36,0.01
5.980e-06,0.4,0.03
5.990e-06,0.32,0.03
6.000e-06,0.32,0.05
6.010e-06,0.36,0.05
6.020e-06,0.32,0.03
6.030e-06,0.4,0.03
6.040e-06,0.4,0.05
6.050e-06,0.32,0.01
6.060e-06,0.32,0.01
6.070e-06,0.28,0.01
6.080e-06,0.4,0.01
6.090e-06,0.28,0.01
6.100e-06,0.36,0.01
6.110e-06,0.36,0.01
6.120e-06,0.32,0.01
6.130e-06,0.28,-0.01
6.140e-06,0.28,0.01
6.150e-06,0.36,0.01
6.160e-06,0.32,0.03
6.170e-06,0.32,0.03
6.180e-06,0.36,-0.01
6.190e-06,0.4,0.03
6.200e-06,0.32,0.01
6.210e-06,0.32,0.01
6.220e-06,0.36,0.05
6.230e-06,0.28,0.05
6.240e-06,0.32,0.05
6.250e-06,0.32,0.05
6.260e-06,0.32,0.03
6.270e-06,0.36,0.07
6.280e-06,0.36,0.03
6.290e-06,0.28,0.03
6.300e-06,0.32,0.03
6.310e-06,0.32,0.05
6.320e-06,0.28,0.03
6.330e-06,0.4,0.07
6.340e-06,0.4,0.01
6.350e-06,0.4,0.03
6.360e-06,0.36,0.03
6.370e-06,0.36,0.05
6.380e-06,0.36,0.03
6.390e-06,0.32,0.01
6.400e-06,0.32,0.01
6.410e-06,0.32,0.03
6.420e-06,0.32,-0.01
6.430e-06,0.28,0.05
6.440e-06,0.36,0.03
6.450e-06,0.28,0.03
6.460e-06,0.32,0.05
6.470e-06,0.32,0.01
6.480e-06,0.36,-0.01
6.490e-06,0.32,0.03
6.500e-06,0.32,0.05
6.510e-06,0.28,0.01
6.520e-06,0.32,0.05
6.530e-06,0.32,0.03
6.540e-06,0.32,0.03
6.550e-06,0.36,0.01
6.560e-06,0.28,0.03
6.570e-06,0.2,0.01
6.580e-06,0.32,-0.01
6.590e-06,0.4,0.03
6.600e-06,0.36,0.03
6.610e-06,0.32,0.05
6.620e-06,0.36,0.03
6.630e-06,0.36,0.07
6.640e-06,0.32,0.07
6.650e-06,0.32,0.07
6.660e-06,0.36,0.07
6.670e-06,0.32,0.07
6.680e-06,0.36,0.09
6.690e-06,0.32,0.05
6.700e-06,0.4,0.05
6.710e-06,0.36,0.03
6.720e-06,0.32,0.01
6.730e-06,0.32,0.03
6.740e-06,0.32,0.01
6.750e-06,0.32,0.01
6.760e-06,0.28,0.03
6.770e-06,0.36,0.03
6.780e-06,0.32,0.01
6.790e-06,0.32,0.01
6.800e-06,0.32,0.03
6.810e-06,0.36,0.03
6.820e-06,0.32,0.03
6.830e-06,0.36,0.03
6.840e-06,0.32,0.03
6.850e-06,0.36,0.03
6.860e-06,0.32,0.07
6.870e-06,0.32,0.07
6.880e-06,0.32,0.05
6.890e-06,0.32,0.07
6.900e-06,0.36,0.01
6.910e-06,0.44,0.01
6.920e-06,0.36,0.01
6.930e-06,0.32,0.03
6.940e-06,0.28,0.03
6.950e-06,0.36,0.05
6.960e-06,0.36,0.03
6.970e-06,0.36,0.03
6.980e-06,0.32,0.01
6.990e-06,0.32,-0.01
7.000e-06,0.24,0.01
7.010e-06,0.32,-0.03
7.020e-06,0.28,0.03
7.030e-06,0.32,0.01
7.040e-06,0.4,0.03
7.050e-06,0.24,0.05
7.060e-06,0.4,-0.01
7.070e-06,0.32,0.05
7.080e-06,0.24,0.05
7.090e-06,0.28,0.03
7.100e-06,0.28,0.03
7.110e-06,0.28,0.01
7.120e-06,0.32,0.03
7.130e-06,0.4,0.03
7.140e-06,0.28,0.03
7.150e-06,0.24,0.03
7.160e-06,0.32,-0.01
7.170e-06,0.36,-0.01
7.180e-06,0.32,0.01
7.190e-06,0.28,-0.01
7.200e-06,0.36,0.01
7.210e-06,0.4,0.01
7.220e-06,0.32,0.03
7.230e-06,0.28,0.03
7.240e-06,0.36,0.05
7.250e-06,0.24,0.07
7.260e-06,0.32,0.09
7.270e-06,0.28,0.05
7.280e-06,0.32,0.03
7.290e-06,0.24,0.05
7.300e-06,0.32,0.05
7.310e-06,0.28,0.03
7.320e-06,0.24,0.01
7.330e-06,0.4,0.01
7.340e-06,0.36,0.03
7.350e-06,0.32,0.01
7.360e-06,0.32,0.03
7.370e-06,0.32,0.01
7.380e-06,0.32,0.03
7.390e-06,0.32,-0.01
7.400e-06,0.32,-0.03
7.410e-06,0.32,-0.01
7.420e-06,0.32,-0.01
7.430e-06,0.36,0.03
7.440e-06,0.36,0.01
7.450e-06,0.2,0.05
7.460e-06,0.32,0.03
7.470e-06,0.32,0.03
7.480e-06,0.4,0.03
7.490e-06,0.36,0.05
7.500e-06,0.28,0.03
7.510e-06,0.32,0.05
7.520e-06,0.32,0.01
7.530e-06,0.32,0.01
7.540e-06,0.28,0.05
7.550e-06,0.32,0.01
7.560e-06,0.4,0.01
7.570e-06,0.4,0.03
7.580e-06,0.32,0.01
7.590e-06,0.24,0.03
7.600e-06,0.32,0.01
7.610e-06,0.28,0.01
7.620e-06,0.32,0.01
7.630e-06,0.28,0.03
7.640e-06,0.4,-0.03
7.650e-06,0.28,0.01
7.660e-06,0.32,0.01
7.670e-06,0.36,0.07
7.680e-06,0.32,0.05
7.690e-06,0.4,0.05
7.700e-06,0.36,0.03
7.710e-06,0.28,0.05
7.720e-06,0.36,0.03
7.730e-06,0.36,-0.05
7.740e-06,0.32,0.01
7.750e-06,0.32,0.05
7.760e-06,0.36,0.03
7.770e-06,0.32,0.03
7.780e-06,0.36,0.05
7.790e-06,0.36,0.01
7.800e-06,0.32,0.03
7.810e-06,0.32,0.03
7.820e-06,0.36,0.07
7.830e-06,0.36,0.03
7.840e-06,0.24,0.01
7.850e-06,0.28,0.03
7.860e-06,0.36,0.07
7.870e-06,0.36,0.03
7.880e-06,0.36,0.05
7.890e-06,0.32,0.05
7.900e-06,0.32,0.05
7.910e-06,0.28,0.05
7.920e-06,0.28,0.03
7.930e-06,0.4,0.05
7.940e-06,0.36,0.03
7.950e-06,0.36,0.01
7.960e-06,0.32,-0.01
7.970e-06,0.32,0.01
7.980e-06,0.32,0.01
7.990e-06,0.32,0.03
8.000e-06,0.4,0.01
8.010e-06,0.32,0.03
8.020e-06,0.32,0.05
8.030e-06,0.28,0.01
8.040e-06,0.28,0.01
8.050e-06,0.32,0.01
8.060e-06,0.28,0.01
8.070e-06,0.32,0.01
8.080e-06,0.24,0.05
8.090e-06,0.28,0.05
8.100e-06,0.32,0.03
8.110e-06,0.28,0.07
8.120e-06,0.32,0.03
8.130e-06,0.28,0.01
8.140e-06,0.32,0.01
8.150e-06,0.32,0.01
8.160e-06,0.4,-0.01
8.170e-06,0.32,-0.01
8.180e-06,0.28,0.01
8.190e-06,0.32,0.05
8.200e-06,0.36,0.03
8.210e-06,0.32,-0.01
8.220e-06,0.4,0.01
8.230e-06,0.32,0.03
8.240e-06,0.32,0.01
8.250e-06,0.32,0.03
8.260e-06,0.32,-0.01
8.270e-06,0.32,0.03
8.280e-06,0.2,-0.01
8.290e-06,0.36,0.01
8.300e-06,0.32,0.05
8.310e-06,0.32,0.03
8.320e-06,0.32,0.05
8.330e-06,0.28,0.01
8.340e-06,0.32,0.03
8.350e-06,0.28,0.05
8.360e-06,0.28,0.03
8.370e-06,0.32,0.01
8.380e-06,0.32,0.03
8.390e-06,0.32,0.05
8.400e-06,0.32,0.05
8.410e-06,0.36,0.05
8.420e-06,0.32,0.01
8.430e-06,0.36,0.03
8.440e-06,0.4,0.01
8.450e-06,0.32,0.03
8.460e-06,0.32,0.03
8.470e-06,0.4,0.05
8.480e-06,0.32,0.05
8.490e-06,0.36,0.07
8.500e-06,0.36,0.03
8.510e-06,0.28,0.05
8.520e-06,0.36,0.03
8.530e-06,0.28,0.01
8.540e-06,0.28,0.03
8.550e-06,0.32,0.03
8.560e-06,0.32,0.01
8.570e-06,0.28,0.01
8.580e-06,0.36,0.01
8.590e-06,0.2,-0.01
8.600e-06,0.32,0.01
8.610e-06,0.32,0.01
8.620e-06,0.36,0.01
8.630e-06,0.36,0.01
8.640e-06,0.32,0.03
8.650e-06,0.28,0.01
8.660e-06,0.36,0.03
8.670e-06,0.32,0.03
8.680e-06,0.32,0.03
8.690e-06,0.28,0.05
