Archivos Guadalupe/Data/1410-32-X4/19-10/D-19-10/tek0025ALL.csv

Model,DPO3034
Firmware Version,2.16

Point Format,Y,
Horizontal Units,S,
Horizontal Scale,2e-07,
Sample Interval,2e-09,
Record Length,1000,
Gating,0.0% to 100.0%,0.0% to 100.0%
Probe Attenuation,1,1
Vertical Units,V,V
Vertical Offset,0,0
Vertical Scale,2,0.5
Label,,
TIME,CH1,CH2
-6.820e-07,-0.16,0
-6.800e-07,-0.08,0.02
-6.780e-07,-0.24,-0.02
-6.760e-07,-0.08,0
-6.740e-07,-0.16,0.04
-6.720e-07,-0.24,0.02
-6.700e-07,-0.24,0.02
-6.680e-07,-0.24,0
-6.660e-07,-0.16,0.04
-6.640e-07,-0.32,0.02
-6.620e-07,-0.08,0.04
-6.600e-07,0,0
-6.580e-07,-0.08,0.02
-6.560e-07,-0.24,0.04
-6.540e-07,-0.24,0
-6.520e-07,-0.16,0.02
-6.500e-07,-0.24,0.04
-6.480e-07,-0.08,0
-6.460e-07,-0.08,-0.02
-6.440e-07,-0.16,0.04
-6.420e-07,-0.16,0.04
-6.400e-07,0,0.02
-6.380e-07,-0.16,0
-6.360e-07,-0.08,0.02
-6.340e-07,-0.08,0.02
-6.320e-07,-0.16,0.06
-6.300e-07,-0.16,0
-6.280e-07,-0.16,-0.04
-6.260e-07,-0.08,0.04
-6.240e-07,-0.16,0.02
-6.220e-07,-0.16,0.04
-6.200e-07,-0.24,0.02
-6.180e-07,-0.16,0
-6.160e-07,-0.16,0
-6.140e-07,-0.08,0.04
-6.120e-07,-0.16,0.02
-6.100e-07,-0.24,-0.02
-6.080e-07,-0.08,0.02
-6.060e-07,-0.16,0
-6.040e-07,-0.16,0.06
-6.020e-07,0,0.04
-6.000e-07,-0.16,0.04
-5.980e-07,-0.08,0.02
-5.960e-07,-0.16,0
-5.940e-07,-0.16,0.02
-5.920e-07,-0.16,0.02
-5.900e-07,-0.08,0
-5.880e-07,-0.16,0.02
-5.860e-07,-0.08,0
-5.840e-07,-0.16,0.02
-5.820e-07,-0.08,0
-5.800e-07,-0.08,0.02
-5.780e-07,-0.16,0
-5.760e-07,0,0
-5.740e-07,-0.16,-0.04
-5.720e-07,-0.08,0.06
-5.700e-07,-0.08,0.04
-5.680e-07,-0.16,0.04
-5.660e-07,-0.32,0.02
-5.640e-07,-0.16,0.02
-5.620e-07,-0.16,0
-5.600e-07,0,0.04
-5.580e-07,-0.16,0.02
-5.560e-07,-0.08,-0.02
-5.540e-07,-0.24,0.02
-5.520e-07,-0.16,0.02
-5.500e-07,-0.08,0
-5.480e-07,-0.24,0.04
-5.460e-07,-0.24,0.06
-5.440e-07,-0.08,0.02
-5.420e-07,-0.08,0.02
-5.400e-07,-0.16,0.02
-5.380e-07,-0.08,0.02
-5.360e-07,-0.24,0
-5.340e-07,-0.16,0.02
-5.320e-07,-0.24,-0.02
-5.300e-07,0.08,0.02
-5.280e-07,0,0.02
-5.260e-07,0,0.06
-5.240e-07,-0.24,0.02
-5.220e-07,-0.24,0
-5.200e-07,-0.16,-0.02
-5.180e-07,-0.16,0.02
-5.160e-07,-0.16,0.04
-5.140e-07,-0.08,0
-5.120e-07,-0.32,-0.02
-5.100e-07,0,0
-5.080e-07,-0.16,0.02
-5.060e-07,-0.16,0.02
-5.040e-07,-0.24,0
-5.020e-07,0,0
-5.000e-07,-0.16,0.02
-4.980e-07,-0.08,0.02
-4.960e-07,-0.16,0.02
-4.940e-07,-0.16,0.04
-4.920e-07,-0.16,0
-4.900e-07,-0.16,0
-4.880e-07,-0.24,0.02
-4.860e-07,-0.08,0
-4.840e-07,-0.08,0.02
-4.820e-07,-0.16,0.02
-4.800e-07,-0.16,0.02
-4.780e-07,-0.08,0.04
-4.760e-07,-0.24,0
-4.740e-07,-0.08,0.04
-4.720e-07,-0.16,0.04
-4.700e-07,-0.08,0.02
-4.680e-07,-0.16,0.06
-4.660e-07,-0.08,0.02
-4.640e-07,-0.16,-0.02
-4.620e-07,-0.08,0.02
-4.600e-07,-0.16,0.02
-4.580e-07,-0.24,0
-4.560e-07,-0.08,0
-4.540e-07,-0.16,0.02
-4.520e-07,-0.16,0.04
-4.500e-07,-0.08,0.04
-4.480e-07,-0.24,-0.02
-4.460e-07,-0.16,0.02
-4.440e-07,-0.08,0.02
-4.420e-07,0,0.04
-4.400e-07,-0.16,0.02
-4.380e-07,-0.08,0
-4.360e-07,-0.08,0.02
-4.340e-07,-0.16,0.06
-4.320e-07,-0.08,0.02
-4.300e-07,-0.08,0
-4.280e-07,0,0.02
-4.260e-07,-0.08,0
-4.240e-07,-0.08,0.04
-4.220e-07,-0.08,-0.02
-4.200e-07,0,0.02
-4.180e-07,0,0.02
-4.160e-07,-0.16,0
-4.140e-07,0,0.06
-4.120e-07,-0.08,0.04
-4.100e-07,0,0.08
-4.080e-07,0.08,0.04
-4.060e-07,0.08,0.08
-4.040e-07,-0.08,0.08
-4.020e-07,0.08,0.08
-4.000e-07,0.08,0.08
-3.980e-07,0.16,0.08
-3.960e-07,0.16,0.08
-3.940e-07,0.08,0.12
-3.920e-07,0.24,0.14
-3.900e-07,0.16,0.14
-3.880e-07,0.16,0.12
-3.860e-07,0.16,0.14
-3.840e-07,0.16,0.16
-3.820e-07,0.24,0.18
-3.800e-07,0.24,0.16
-3.780e-07,0.4,0.18
-3.760e-07,0.24,0.16
-3.740e-07,0.24,0.14
-3.720e-07,0.4,0.18
-3.700e-07,0.32,0.22
-3.680e-07,0.32,0.2
-3.660e-07,0.32,0.22
-3.640e-07,0.4,0.2
-3.620e-07,0.4,0.26
-3.600e-07,0.4,0.24
-3.580e-07,0.32,0.2
-3.560e-07,0.48,0.26
-3.540e-07,0.4,0.24
-3.520e-07,0.48,0.26
-3.500e-07,0.48,0.26
-3.480e-07,0.48,0.28
-3.460e-07,0.56,0.22
-3.440e-07,0.48,0.22
-3.420e-07,0.64,0.28
-3.400e-07,0.72,0.3
-3.380e-07,0.8,0.28
-3.360e-07,0.64,0.24
-3.340e-07,0.64,0.26
-3.320e-07,0.72,0.24
-3.300e-07,0.64,0.26
-3.280e-07,0.72,0.28
-3.260e-07,0.72,0.3
-3.240e-07,0.64,0.24
-3.220e-07,0.88,0.26
-3.200e-07,0.8,0.3
-3.180e-07,0.88,0.32
-3.160e-07,0.8,0.32
-3.140e-07,0.8,0.32
-3.120e-07,0.8,0.28
-3.100e-07,0.88,0.32
-3.080e-07,0.8,0.36
-3.060e-07,0.96,0.34
-3.040e-07,0.96,0.34
-3.020e-07,0.96,0.34
-3.000e-07,0.96,0.34
-2.980e-07,1.04,0.4
-2.960e-07,1.04,0.42
-2.940e-07,1.04,0.36
-2.920e-07,1.04,0.38
-2.900e-07,1.12,0.4
-2.880e-07,1.28,0.4
-2.860e-07,1.04,0.44
-2.840e-07,0.88,0.42
-2.820e-07,1.04,0.42
-2.800e-07,1.2,0.42
-2.780e-07,1.28,0.44
-2.760e-07,1.2,0.48
-2.740e-07,1.28,0.42
-2.720e-07,1.28,0.48
-2.700e-07,1.28,0.46
-2.680e-07,1.28,0.46
-2.660e-07,1.2,0.48
-2.640e-07,1.2,0.5
-2.620e-07,1.44,0.5
-2.600e-07,1.44,0.48
-2.580e-07,1.44,0.48
-2.560e-07,1.44,0.52
-2.540e-07,1.44,0.52
-2.520e-07,1.52,0.54
-2.500e-07,1.44,0.54
-2.480e-07,1.52,0.54
-2.460e-07,1.52,0.52
-2.440e-07,1.52,0.52
-2.420e-07,1.52,0.54
-2.400e-07,1.52,0.58
-2.380e-07,1.6,0.56
-2.360e-07,1.6,0.52
-2.340e-07,1.6,0.58
-2.320e-07,1.76,0.6
-2.300e-07,1.6,0.6
-2.280e-07,1.68,0.6
-2.260e-07,1.68,0.62
-2.240e-07,1.68,0.58
-2.220e-07,1.68,0.62
-2.200e-07,1.76,0.62
-2.180e-07,1.76,0.62
-2.160e-07,1.76,0.6
-2.140e-07,1.76,0.62
-2.120e-07,1.68,0.62
-2.100e-07,1.76,0.62
-2.080e-07,1.84,0.64
-2.060e-07,1.76,0.6
-2.040e-07,1.76,0.64
-2.020e-07,1.84,0.66
-2.000e-07,1.84,0.66
-1.980e-07,1.76,0.64
-1.960e-07,1.76,0.6
-1.940e-07,1.84,0.62
-1.920e-07,1.76,0.62
-1.900e-07,1.76,0.62
-1.880e-07,1.76,0.64
-1.860e-07,1.84,0.62
-1.840e-07,1.76,0.6
-1.820e-07,1.84,0.58
-1.800e-07,1.76,0.64
-1.780e-07,1.92,0.64
-1.760e-07,1.84,0.6
-1.740e-07,1.76,0.6
-1.720e-07,1.84,0.6
-1.700e-07,1.76,0.62
-1.680e-07,1.92,0.6
-1.660e-07,1.84,0.58
-1.640e-07,1.92,0.56
-1.620e-07,2,0.62
-1.600e-07,1.92,0.64
-1.580e-07,1.84,0.58
-1.560e-07,1.92,0.58
-1.540e-07,1.84,0.6
-1.520e-07,1.84,0.62
-1.500e-07,1.92,0.62
-1.480e-07,1.84,0.66
-1.460e-07,1.76,0.62
-1.440e-07,1.92,0.58
-1.420e-07,1.92,0.62
-1.400e-07,1.92,0.64
-1.380e-07,1.76,0.64
-1.360e-07,1.76,0.64
-1.340e-07,1.92,0.62
-1.320e-07,1.76,0.6
-1.300e-07,1.84,0.66
-1.280e-07,1.76,0.64
-1.260e-07,1.84,0.66
-1.240e-07,1.76,0.66
-1.220e-07,1.76,0.62
-1.200e-07,1.76,0.64
-1.180e-07,1.92,0.68
-1.160e-07,1.68,0.68
-1.140e-07,1.84,0.64
-1.120e-07,1.84,0.62
-1.100e-07,1.92,0.68
-1.080e-07,1.76,0.64
-1.060e-07,1.92,0.66
-1.040e-07,1.84,0.66
-1.020e-07,1.92,0.66
-1.000e-07,1.76,0.64
-9.800e-08,1.84,0.66
-9.600e-08,1.92,0.64
-9.400e-08,1.92,0.64
-9.200e-08,1.84,0.66
-9.000e-08,1.84,0.64
-8.800e-08,1.92,0.62
-8.600e-08,1.84,0.66
-8.400e-08,1.76,0.64
-8.200e-08,2,0.66
-8.000e-08,1.92,0.64
-7.800e-08,1.84,0.62
-7.600e-08,1.84,0.6
-7.400e-08,1.92,0.66
-7.200e-08,1.76,0.66
-7.000e-08,1.68,0.66
-6.800e-08,1.92,0.6
-6.600e-08,1.76,0.62
-6.400e-08,1.92,0.64
-6.200e-08,2,0.64
-6.000e-08,1.68,0.64
-5.800e-08,1.76,0.66
-5.600e-08,1.92,0.64
-5.400e-08,1.84,0.64
-5.200e-08,1.76,0.64
-5.000e-08,1.84,0.62
-4.800e-08,1.84,0.66
-4.600e-08,1.76,0.64
-4.400e-08,1.84,0.62
-4.200e-08,1.84,0.64
-4.000e-08,1.92,0.64
-3.800e-08,1.76,0.6
-3.600e-08,1.76,0.62
-3.400e-08,1.84,0.64
-3.200e-08,1.76,0.66
-3.000e-08,1.92,0.66
-2.800e-08,1.84,0.62
-2.600e-08,1.92,0.6
-2.400e-08,2,0.6
-2.200e-08,2.16,0.64
-2.000e-08,2,0.64
-1.800e-08,2.08,0.64
-1.600e-08,2.24,0.68
-1.400e-08,2.32,0.68
-1.200e-08,2.32,0.7
-1.000e-08,2.32,0.72
-8.000e-09,2.48,0.66
-6.000e-09,2.56,0.74
-4.000e-09,2.72,0.74
-2.000e-09,2.72,0.76
3.097e-21,2.64,0.8
2.000e-09,2.8,0.84
4.000e-09,2.8,0.86
6.000e-09,2.64,0.88
8.000e-09,2.96,0.94
1.000e-08,2.96,0.98
1.200e-08,3.04,0.98
1.400e-08,3.12,1.06
1.600e-08,2.88,1.1
1.800e-08,3.12,1.18
2.000e-08,3.12,1.18
2.200e-08,3.36,1.24
2.400e-08,3.36,1.24
2.600e-08,3.52,1.3
2.800e-08,3.44,1.32
3.000e-08,3.44,1.36
3.200e-08,3.6,1.38
3.400e-08,3.68,1.42
3.600e-08,3.76,1.44
3.800e-08,3.76,1.48
4.000e-08,3.84,1.48
4.200e-08,4,1.5
4.400e-08,4.16,1.52
4.600e-08,4.16,1.5
4.800e-08,4.32,1.56
5.000e-08,4.48,1.6
5.200e-08,4.4,1.6
5.400e-08,4.48,1.6
5.600e-08,4.64,1.58
5.800e-08,4.72,1.6
6.000e-08,4.64,1.6
6.200e-08,4.96,1.6
6.400e-08,4.72,1.58
6.600e-08,4.96,1.6
6.800e-08,4.96,1.62
7.000e-08,5.12,1.62
7.200e-08,5.12,1.66
7.400e-08,5.2,1.7
7.600e-08,5.36,1.7
7.800e-08,5.44,1.7
8.000e-08,5.36,1.74
8.200e-08,5.36,1.78
8.400e-08,5.52,1.78
8.600e-08,5.6,1.78
8.800e-08,5.76,1.76
9.000e-08,5.6,1.8
9.200e-08,5.76,1.86
9.400e-08,6,1.92
9.600e-08,6.08,1.9
9.800e-08,6.08,1.94
1.000e-07,6.4,1.96
1.020e-07,6.16,2.04
1.040e-07,6.4,2.06
1.060e-07,6.48,2.04
1.080e-07,6.48,2.06
1.100e-07,6.56,2.1
1.120e-07,6.64,2.12
1.140e-07,6.64,2.18
1.160e-07,6.88,2.16
1.180e-07,7.04,2.2
1.200e-07,6.96,2.2
1.220e-07,7.12,2.24
1.240e-07,7.2,2.28
1.260e-07,7.04,2.32
1.280e-07,7.44,2.34
1.300e-07,7.44,2.38
1.320e-07,7.44,2.4
1.340e-07,7.68,2.4
1.360e-07,7.68,2.46
1.380e-07,7.76,2.46
1.400e-07,7.84,2.48
1.420e-07,7.92,2.48
1.440e-07,8,2.5
1.460e-07,8.16,2.58
1.480e-07,8.08,2.56
1.500e-07,8.32,2.58
1.520e-07,8.4,2.62
1.540e-07,8.48,2.64
1.560e-07,8.48,2.66
1.580e-07,8.64,2.72
1.600e-07,8.88,2.74
1.620e-07,8.8,2.72
1.640e-07,8.88,2.8
1.660e-07,9.04,2.82
1.680e-07,9.04,2.82
1.700e-07,9.12,2.84
1.720e-07,9.04,2.86
1.740e-07,9.2,2.92
1.760e-07,9.2,2.96
1.780e-07,9.12,2.98
1.800e-07,9.28,3.02
1.820e-07,9.2,3
1.840e-07,9.2,3.02
1.860e-07,9.28,3.06
1.880e-07,9.36,3.1
1.900e-07,9.2,3.08
1.920e-07,9.2,3.1
1.940e-07,9.44,3.08
1.960e-07,9.52,3.08
1.980e-07,9.44,3.1
2.000e-07,9.52,3.12
2.020e-07,9.44,3.08
2.040e-07,9.52,3.06
2.060e-07,9.68,3.04
2.080e-07,9.6,3.06
2.100e-07,9.6,3
2.120e-07,9.52,3.04
2.140e-07,9.44,3.02
2.160e-07,9.6,3.04
2.180e-07,9.68,3.04
2.200e-07,9.68,2.98
2.220e-07,9.76,2.92
2.240e-07,9.68,2.92
2.260e-07,9.68,2.94
2.280e-07,9.76,2.96
2.300e-07,9.84,2.92
2.320e-07,9.68,2.88
2.340e-07,9.76,2.88
2.360e-07,9.92,2.92
2.380e-07,9.76,2.94
2.400e-07,9.68,2.94
2.420e-07,9.68,2.96
2.440e-07,9.68,2.98
2.460e-07,9.76,2.94
2.480e-07,9.84,2.98
2.500e-07,10,3.02
2.520e-07,9.76,3.02
2.540e-07,9.84,3.04
2.560e-07,9.84,3.02
2.580e-07,9.92,3.06
2.600e-07,9.76,3.12
2.620e-07,9.76,3.1
2.640e-07,9.76,3.08
2.660e-07,9.84,3.1
2.680e-07,9.84,3.14
2.700e-07,9.84,3.14
2.720e-07,9.68,3.2
2.740e-07,9.68,3.2
2.760e-07,9.76,3.2
2.780e-07,9.76,3.22
2.800e-07,9.76,3.22
2.820e-07,9.92,3.24
2.840e-07,9.76,3.2
2.860e-07,9.92,3.18
2.880e-07,9.84,3.2
2.900e-07,9.92,3.14
2.920e-07,9.92,3.18
2.940e-07,9.68,3.16
2.960e-07,9.92,3.18
2.980e-07,9.84,3.14
3.000e-07,9.92,3.14
3.020e-07,9.84,3.14
3.040e-07,9.92,3.16
3.060e-07,9.92,3.14
3.080e-07,9.92,3.12
3.100e-07,10,3.12
3.120e-07,9.92,3.14
3.140e-07,10,3.14
3.160e-07,9.92,3.12
3.180e-07,9.92,3.1
3.200e-07,9.92,3.08
3.220e-07,9.84,3.1
3.240e-07,9.84,3.1
3.260e-07,9.76,3.14
3.280e-07,9.76,3.1
3.300e-07,9.68,3.14
3.320e-07,9.76,3.06
3.340e-07,9.92,3.12
3.360e-07,9.76,3.14
3.380e-07,9.84,3.16
3.400e-07,9.84,3.1
3.420e-07,9.84,3.12
3.440e-07,9.68,3.18
3.460e-07,9.68,3.14
3.480e-07,9.84,3.16
3.500e-07,9.76,3.16
3.520e-07,9.68,3.1
3.540e-07,9.76,3.18
3.560e-07,9.68,3.2
3.580e-07,9.76,3.16
3.600e-07,9.68,3.1
3.620e-07,9.84,3.12
3.640e-07,9.76,3.14
3.660e-07,9.68,3.14
3.680e-07,9.68,3.14
3.700e-07,9.76,3.14
3.720e-07,9.76,3.12
3.740e-07,9.76,3.12
3.760e-07,9.68,3.12
3.780e-07,9.6,3.1
3.800e-07,9.68,3.06
3.820e-07,9.44,3.04
3.840e-07,9.44,3.02
3.860e-07,9.44,3.06
3.880e-07,9.36,3.02
3.900e-07,9.2,2.98
3.920e-07,9.28,2.96
3.940e-07,9.28,2.92
3.960e-07,9.2,2.9
3.980e-07,9.04,2.88
4.000e-07,9.12,2.82
4.020e-07,8.88,2.82
4.040e-07,8.88,2.8
4.060e-07,8.96,2.78
4.080e-07,8.8,2.76
4.100e-07,8.64,2.72
4.120e-07,8.64,2.64
4.140e-07,8.64,2.58
4.160e-07,8.48,2.6
4.180e-07,8.48,2.58
4.200e-07,8.56,2.56
4.220e-07,8.4,2.52
4.240e-07,8.24,2.46
4.260e-07,8.24,2.4
4.280e-07,8.08,2.42
4.300e-07,8.08,2.4
4.320e-07,7.92,2.34
4.340e-07,7.84,2.32
4.360e-07,7.76,2.24
4.380e-07,7.68,2.24
4.400e-07,7.52,2.2
4.420e-07,7.6,2.2
4.440e-07,7.52,2.14
4.460e-07,7.52,2.12
4.480e-07,7.28,2.18
4.500e-07,7.28,2.14
4.520e-07,7.12,2.14
4.540e-07,7.2,2.08
4.560e-07,7.12,2.04
4.580e-07,7.12,2.06
4.600e-07,6.96,2.04
4.620e-07,6.88,2.02
4.640e-07,6.96,2
4.660e-07,6.72,1.98
4.680e-07,6.8,1.94
4.700e-07,6.56,1.96
4.720e-07,6.56,2
4.740e-07,6.56,1.96
4.760e-07,6.32,1.9
4.780e-07,6.32,1.92
4.800e-07,6.32,1.94
4.820e-07,6.16,1.94
4.840e-07,6.08,1.94
4.860e-07,5.84,1.86
4.880e-07,5.92,1.86
4.900e-07,5.84,1.88
4.920e-07,5.68,1.84
4.940e-07,5.6,1.82
4.960e-07,5.52,1.78
4.980e-07,5.36,1.74
5.000e-07,5.36,1.72
5.020e-07,5.36,1.7
5.040e-07,5.28,1.74
5.060e-07,5.2,1.66
5.080e-07,5.04,1.62
5.100e-07,5.2,1.58
5.120e-07,5.12,1.6
5.140e-07,4.88,1.56
5.160e-07,4.8,1.5
5.180e-07,4.96,1.4
5.200e-07,4.64,1.4
5.220e-07,4.56,1.38
5.240e-07,4.48,1.4
5.260e-07,4.48,1.36
5.280e-07,4.48,1.34
5.300e-07,4.24,1.28
5.320e-07,4.24,1.26
5.340e-07,4.16,1.24
5.360e-07,4,1.22
5.380e-07,3.92,1.18
5.400e-07,3.76,1.18
5.420e-07,3.68,1.16
5.440e-07,3.52,1.16
5.460e-07,3.44,1.14
5.480e-07,3.36,1.08
5.500e-07,3.28,1.04
5.520e-07,3.2,1.04
5.540e-07,3.2,1.04
5.560e-07,2.96,1.02
5.580e-07,3.04,0.96
5.600e-07,2.8,0.92
5.620e-07,2.8,0.9
5.640e-07,2.72,0.9
5.660e-07,2.64,0.86
5.680e-07,2.64,0.84
5.700e-07,2.56,0.76
5.720e-07,2.32,0.74
5.740e-07,2.4,0.72
5.760e-07,2.24,0.66
5.780e-07,2.4,0.68
5.800e-07,2.32,0.66
5.820e-07,2.08,0.6
5.840e-07,2.4,0.62
5.860e-07,2.32,0.56
5.880e-07,2.16,0.54
5.900e-07,2.24,0.54
5.920e-07,2.08,0.52
5.940e-07,2.08,0.48
5.960e-07,2.08,0.5
5.980e-07,2.16,0.5
6.000e-07,2.08,0.48
6.020e-07,2.08,0.4
6.040e-07,2.08,0.46
6.060e-07,2,0.46
6.080e-07,1.84,0.48
6.100e-07,1.92,0.48
6.120e-07,2,0.5
6.140e-07,1.84,0.52
6.160e-07,1.84,0.54
6.180e-07,1.76,0.54
6.200e-07,2,0.56
6.220e-07,1.92,0.56
6.240e-07,1.68,0.56
6.260e-07,1.76,0.56
6.280e-07,1.68,0.6
6.300e-07,1.84,0.6
6.320e-07,1.84,0.6
6.340e-07,1.84,0.58
6.360e-07,1.68,0.58
6.380e-07,1.68,0.64
6.400e-07,1.68,0.62
6.420e-07,1.68,0.58
6.440e-07,1.76,0.62
6.460e-07,1.76,0.6
6.480e-07,1.6,0.58
6.500e-07,1.76,0.62
6.520e-07,1.84,0.54
6.540e-07,1.6,0.5
6.560e-07,1.68,0.52
6.580e-07,1.68,0.5
6.600e-07,1.68,0.52
6.620e-07,1.76,0.5
6.640e-07,1.76,0.46
6.660e-07,1.76,0.4
6.680e-07,1.84,0.44
6.700e-07,1.84,0.42
6.720e-07,1.76,0.46
6.740e-07,1.84,0.4
6.760e-07,1.76,0.4
6.780e-07,1.68,0.38
6.800e-07,1.76,0.4
6.820e-07,1.6,0.42
6.840e-07,1.68,0.34
6.860e-07,1.68,0.36
6.880e-07,1.84,0.38
6.900e-07,1.68,0.4
6.920e-07,1.68,0.4
6.940e-07,1.76,0.44
6.960e-07,1.76,0.32
6.980e-07,1.68,0.34
7.000e-07,1.68,0.38
7.020e-07,1.52,0.44
7.040e-07,1.76,0.44
7.060e-07,1.68,0.44
7.080e-07,1.68,0.48
7.100e-07,1.6,0.44
7.120e-07,1.76,0.46
7.140e-07,1.6,0.48
7.160e-07,1.68,0.5
7.180e-07,1.68,0.48
7.200e-07,1.6,0.46
7.220e-07,1.6,0.46
7.240e-07,1.6,0.48
7.260e-07,1.76,0.48
7.280e-07,1.68,0.48
7.300e-07,1.76,0.48
7.320e-07,1.68,0.46
7.340e-07,1.76,0.48
7.360e-07,1.68,0.5
7.380e-07,1.76,0.44
7.400e-07,1.84,0.46
7.420e-07,1.68,0.48
7.440e-07,1.76,0.52
7.460e-07,1.84,0.46
7.480e-07,1.76,0.44
7.500e-07,1.68,0.42
7.520e-07,1.84,0.42
7.540e-07,1.68,0.4
7.560e-07,1.76,0.44
7.580e-07,1.92,0.46
7.600e-07,1.92,0.46
7.620e-07,1.84,0.38
7.640e-07,1.84,0.42
7.660e-07,1.84,0.44
7.680e-07,1.84,0.48
7.700e-07,2,0.46
7.720e-07,1.68,0.46
7.740e-07,1.92,0.42
7.760e-07,1.68,0.46
7.780e-07,1.68,0.46
7.800e-07,1.76,0.46
7.820e-07,1.84,0.48
7.840e-07,1.76,0.5
7.860e-07,1.84,0.46
7.880e-07,1.68,0.52
7.900e-07,1.76,0.52
7.920e-07,1.76,0.48
7.940e-07,1.76,0.48
7.960e-07,1.84,0.48
7.980e-07,1.76,0.52
8.000e-07,1.76,0.52
8.020e-07,1.68,0.52
8.040e-07,1.76,0.54
8.060e-07,1.68,0.54
8.080e-07,1.76,0.52
8.100e-07,1.68,0.5
8.120e-07,1.92,0.54
8.140e-07,1.84,0.52
8.160e-07,1.76,0.5
8.180e-07,1.76,0.5
8.200e-07,1.84,0.5
8.220e-07,1.92,0.52
8.240e-07,1.68,0.48
8.260e-07,1.92,0.52
8.280e-07,1.92,0.52
8.300e-07,1.92,0.5
8.320e-07,1.84,0.48
8.340e-07,1.92,0.48
8.360e-07,1.92,0.48
8.380e-07,1.68,0.48
8.400e-07,1.84,0.48
8.420e-07,1.84,0.46
8.440e-07,1.76,0.46
8.460e-07,1.92,0.5
8.480e-07,1.92,0.44
8.500e-07,1.92,0.48
8.520e-07,1.68,0.46
8.540e-07,1.76,0.46
8.560e-07,1.84,0.48
8.580e-07,1.84,0.48
8.600e-07,1.84,0.48
8.620e-07,1.84,0.48
8.640e-07,1.6,0.48
8.660e-07,1.76,0.46
8.680e-07,1.68,0.48
8.700e-07,1.84,0.48
8.720e-07,1.68,0.46
8.740e-07,1.68,0.46
8.760e-07,1.76,0.48
8.780e-07,1.76,0.48
8.800e-07,1.84,0.5
8.820e-07,1.76,0.48
8.840e-07,1.84,0.48
8.860e-07,1.76,0.46
8.880e-07,1.84,0.5
8.900e-07,1.84,0.5
8.920e-07,1.6,0.46
8.940e-07,1.92,0.46
8.960e-07,1.68,0.44
8.980e-07,1.76,0.44
9.000e-07,1.84,0.46
9.020e-07,1.84,0.48
9.040e-07,1.76,0.46
9.060e-07,1.68,0.44
9.080e-07,1.76,0.46
9.100e-07,1.84,0.44
9.120e-07,1.76,0.46
9.140e-07,1.84,0.46
9.160e-07,1.68,0.44
9.180e-07,1.76,0.42
9.200e-07,1.76,0.42
9.220e-07,1.84,0.46
9.240e-07,1.92,0.44
9.260e-07,1.76,0.44
9.280e-07,1.84,0.4
9.300e-07,1.84,0.42
9.320e-07,1.76,0.46
9.340e-07,1.84,0.46
9.360e-07,1.76,0.44
9.380e-07,1.92,0.42
9.400e-07,1.76,0.42
9.420e-07,1.68,0.48
9.440e-07,1.92,0.44
9.460e-07,1.84,0.44
9.480e-07,1.84,0.46
9.500e-07,1.84,0.48
9.520e-07,1.84,0.46
9.540e-07,1.84,0.48
9.560e-07,1.84,0.48
9.580e-07,1.68,0.48
9.600e-07,1.76,0.46
9.620e-07,1.76,0.46
9.640e-07,1.84,0.52
9.660e-07,1.92,0.48
9.680e-07,1.68,0.46
9.700e-07,1.84,0.5
9.720e-07,1.84,0.48
9.740e-07,1.84,0.48
9.760e-07,1.76,0.5
9.780e-07,1.76,0.46
9.800e-07,1.84,0.48
9.820e-07,1.92,0.48
9.840e-07,1.92,0.5
9.860e-07,1.84,0.48
9.880e-07,1.76,0.48
9.900e-07,1.68,0.46
9.920e-07,1.92,0.52
9.940e-07,1.84,0.5
9.960e-07,1.92,0.48
9.980e-07,1.92,0.48
1.000e-06,1.76,0.48
1.002e-06,1.92,0.5
1.004e-06,1.84,0.46
1.006e-06,1.84,0.46
1.008e-06,1.84,0.52
1.010e-06,1.92,0.5
1.012e-06,1.84,0.48
1.014e-06,1.76,0.46
1.016e-06,1.92,0.46
1.018e-06,1.92,0.48
1.020e-06,1.68,0.5
1.022e-06,1.84,0.52
1.024e-06,1.84,0.46
1.026e-06,1.76,0.44
1.028e-06,1.84,0.5
1.030e-06,1.84,0.5
1.032e-06,1.92,0.5
1.034e-06,1.76,0.46
1.036e-06,1.76,0.46
1.038e-06,1.92,0.46
1.040e-06,1.76,0.5
1.042e-06,1.84,0.48
1.044e-06,1.76,0.46
1.046e-06,1.84,0.5
1.048e-06,1.84,0.48
1.050e-06,1.76,0.48
1.052e-06,1.92,0.5
1.054e-06,1.92,0.48
1.056e-06,1.76,0.46
1.058e-06,1.92,0.48
1.060e-06,1.84,0.48
1.062e-06,1.76,0.48
1.064e-06,1.76,0.44
1.066e-06,1.84,0.46
1.068e-06,1.84,0.42
1.070e-06,1.76,0.46
1.072e-06,1.84,0.5
1.074e-06,1.92,0.44
1.076e-06,1.84,0.46
1.078e-06,1.92,0.46
1.080e-06,1.92,0.48
1.082e-06,1.84,0.48
1.084e-06,1.92,0.44
1.086e-06,1.84,0.42
1.088e-06,1.92,0.42
1.090e-06,1.84,0.46
1.092e-06,1.76,0.48
1.094e-06,1.84,0.48
1.096e-06,1.84,0.46
1.098e-06,1.92,0.44
1.100e-06,1.84,0.48
1.102e-06,1.84,0.46
1.104e-06,1.68,0.46
1.106e-06,1.84,0.46
1.108e-06,1.68,0.46
1.110e-06,1.84,0.48
1.112e-06,1.92,0.46
1.114e-06,1.92,0.46
1.116e-06,1.92,0.44
1.118e-06,1.76,0.42
1.120e-06,1.76,0.48
1.122e-06,1.84,0.48
1.124e-06,1.92,0.48
1.126e-06,1.92,0.44
1.128e-06,1.84,0.46
1.130e-06,1.84,0.44
1.132e-06,1.84,0.48
1.134e-06,1.68,0.46
1.136e-06,1.76,0.48
1.138e-06,1.84,0.44
1.140e-06,1.76,0.48
1.142e-06,1.92,0.44
1.144e-06,1.84,0.48
1.146e-06,1.76,0.48
1.148e-06,1.92,0.48
1.150e-06,1.84,0.44
1.152e-06,1.76,0.48
1.154e-06,1.76,0.48
1.156e-06,1.92,0.5
1.158e-06,1.76,0.46
1.160e-06,1.92,0.46
1.162e-06,1.84,0.46
1.164e-06,1.84,0.46
1.166e-06,1.84,0.46
1.168e-06,1.92,0.5
1.170e-06,1.84,0.48
1.172e-06,1.84,0.46
1.174e-06,1.76,0.46
1.176e-06,1.84,0.48
1.178e-06,1.84,0.5
1.180e-06,1.84,0.48
1.182e-06,1.92,0.48
1.184e-06,1.76,0.48
1.186e-06,1.84,0.46
1.188e-06,1.92,0.5
1.190e-06,1.92,0.48
1.192e-06,1.76,0.46
1.194e-06,1.92,0.46
1.196e-06,1.84,0.48
1.198e-06,2.08,0.46
1.200e-06,1.76,0.5
1.202e-06,1.84,0.5
1.204e-06,1.92,0.44
1.206e-06,1.92,0.48
1.208e-06,1.84,0.46
1.210e-06,1.84,0.48
1.212e-06,1.92,0.48
1.214e-06,1.76,0.48
1.216e-06,1.76,0.46
1.218e-06,1.92,0.48
1.220e-06,1.84,0.48
1.222e-06,1.92,0.48
1.224e-06,1.84,0.46
1.226e-06,1.92,0.46
1.228e-06,1.92,0.46
1.230e-06,1.92,0.46
1.232e-06,1.92,0.44
1.234e-06,1.92,0.48
1.236e-06,1.92,0.44
1.238e-06,1.92,0.48
1.240e-06,1.92,0.44
1.242e-06,1.84,0.5
1.244e-06,1.84,0.46
1.246e-06,1.84,0.46
1.248e-06,1.84,0.46
1.250e-06,2,0.46
1.252e-06,1.76,0.46
1.254e-06,1.76,0.5
1.256e-06,1.84,0.5
1.258e-06,1.76,0.48
1.260e-06,1.84,0.46
1.262e-06,1.92,0.46
1.264e-06,2,0.48
1.266e-06,1.84,0.46
1.268e-06,1.92,0.48
1.270e-06,1.84,0.44
1.272e-06,1.84,0.46
1.274e-06,1.92,0.42
1.276e-06,1.92,0.48
1.278e-06,1.76,0.46
1.280e-06,1.92,0.48
1.282e-06,1.76,0.48
