Archivos Guadalupe/Data/1410-32-X4/19-10/D-19-10/tek0024ALL.csv

Model,DPO3034
Firmware Version,2.16

Point Format,Y,
Horizontal Units,S,
Horizontal Scale,2e-07,
Sample Interval,2e-09,
Record Length,1000,
Gating,0.0% to 100.0%,0.0% to 100.0%
Probe Attenuation,1,1
Vertical Units,V,V
Vertical Offset,0,0
Vertical Scale,2,0.5
Label,,
TIME,CH1,CH2
-6.820e-07,0.16,0
-6.800e-07,-0.08,0
-6.780e-07,0.08,0.02
-6.760e-07,0.16,0
-6.740e-07,0,0
-6.720e-07,0.08,-0.02
-6.700e-07,0.08,-0.02
-6.680e-07,0,0.02
-6.660e-07,0.16,0.04
-6.640e-07,0.16,0.04
-6.620e-07,0,0
-6.600e-07,0.16,0
-6.580e-07,0.24,0
-6.560e-07,-0.08,0.04
-6.540e-07,0.08,0.04
-6.520e-07,0.16,0
-6.500e-07,0,-0.04
-6.480e-07,0.08,-0.02
-6.460e-07,0.08,0.02
-6.440e-07,-0.08,0.02
-6.420e-07,0.16,0.02
-6.400e-07,0.08,0
-6.380e-07,0,-0.04
-6.360e-07,0.08,0
-6.340e-07,0.08,-0.02
-6.320e-07,-0.16,0.04
-6.300e-07,0.08,0.02
-6.280e-07,0.08,-0.04
-6.260e-07,0.08,0
-6.240e-07,0.08,0.02
-6.220e-07,0.16,0.04
-6.200e-07,0,0
-6.180e-07,0,-0.04
-6.160e-07,0.16,-0.02
-6.140e-07,0.08,0.04
-6.120e-07,0.16,0.04
-6.100e-07,0.08,0
-6.080e-07,0.16,0.02
-6.060e-07,0,-0.04
-6.040e-07,-0.08,0.02
-6.020e-07,0.16,0.02
-6.000e-07,0,0
-5.980e-07,0,0.02
-5.960e-07,0.24,0.02
-5.940e-07,0,-0.02
-5.920e-07,0,0
-5.900e-07,0,0.04
-5.880e-07,0.08,0
-5.860e-07,0.16,0.02
-5.840e-07,0,0.04
-5.820e-07,0.08,0.02
-5.800e-07,0.24,0.04
-5.780e-07,0,0.04
-5.760e-07,0.08,0
-5.740e-07,0.16,-0.02
-5.720e-07,0.08,-0.02
-5.700e-07,0,0.04
-5.680e-07,0.16,0.04
-5.660e-07,0,-0.02
-5.640e-07,-0.08,-0.02
-5.620e-07,0.08,0.02
-5.600e-07,0.24,0.04
-5.580e-07,0,0.04
-5.560e-07,0.16,0.02
-5.540e-07,0.16,-0.02
-5.520e-07,0,0
-5.500e-07,0.08,0
-5.480e-07,0.08,0.02
-5.460e-07,0.08,0
-5.440e-07,0.16,-0.02
-5.420e-07,0.16,-0.02
-5.400e-07,0,0.02
-5.380e-07,0,0.04
-5.360e-07,0,0.02
-5.340e-07,0,0
-5.320e-07,0,-0.02
-5.300e-07,0.16,-0.02
-5.280e-07,0.08,0
-5.260e-07,0.16,0.02
-5.240e-07,0.16,0
-5.220e-07,0,-0.02
-5.200e-07,0.16,-0.02
-5.180e-07,-0.08,-0.02
-5.160e-07,0,0.04
-5.140e-07,0,0.06
-5.120e-07,0,0
-5.100e-07,0.08,-0.04
-5.080e-07,0,0
-5.060e-07,0,0.02
-5.040e-07,0,0.02
-5.020e-07,0.16,0
-5.000e-07,0,0
-4.980e-07,0,0
-4.960e-07,0,0.04
-4.940e-07,0.08,0.02
-4.920e-07,0,0
-4.900e-07,0,0.02
-4.880e-07,-0.08,0.02
-4.860e-07,0.08,0
-4.840e-07,0.08,0.04
-4.820e-07,0.08,0.02
-4.800e-07,0.08,0
-4.780e-07,0.08,0
-4.760e-07,0.08,0.02
-4.740e-07,0.08,0
-4.720e-07,0,0
-4.700e-07,0.08,0
-4.680e-07,0.16,-0.04
-4.660e-07,0.16,0.02
-4.640e-07,0,-0.02
-4.620e-07,0.08,0
-4.600e-07,0.08,0.02
-4.580e-07,0,0
-4.560e-07,0.08,-0.02
-4.540e-07,0,0
-4.520e-07,0.16,0.02
-4.500e-07,0,0
-4.480e-07,0,-0.02
-4.460e-07,0,0
-4.440e-07,0,0.02
-4.420e-07,0,-0.02
-4.400e-07,0.08,-0.02
-4.380e-07,0.08,0
-4.360e-07,0.16,0
-4.340e-07,0.08,0
-4.320e-07,0.16,-0.02
-4.300e-07,0.16,0.02
-4.280e-07,0.08,0
-4.260e-07,0,0.04
-4.240e-07,0.24,0.02
-4.220e-07,0.24,0.04
-4.200e-07,0.24,0
-4.180e-07,0.16,0.02
-4.160e-07,0.24,0.02
-4.140e-07,0.24,0.08
-4.120e-07,0.16,0.04
-4.100e-07,0.24,0.04
-4.080e-07,0.24,0.06
-4.060e-07,0.24,0.06
-4.040e-07,0.32,0.04
-4.020e-07,0.32,0.04
-4.000e-07,0.4,0.08
-3.980e-07,0.16,0.04
-3.960e-07,0.4,0.1
-3.940e-07,0.4,0.08
-3.920e-07,0.24,0.12
-3.900e-07,0.4,0.12
-3.880e-07,0.24,0.14
-3.860e-07,0.4,0.1
-3.840e-07,0.4,0.16
-3.820e-07,0.4,0.16
-3.800e-07,0.4,0.16
-3.780e-07,0.56,0.16
-3.760e-07,0.48,0.16
-3.740e-07,0.4,0.18
-3.720e-07,0.56,0.18
-3.700e-07,0.56,0.2
-3.680e-07,0.48,0.2
-3.660e-07,0.56,0.18
-3.640e-07,0.48,0.2
-3.620e-07,0.48,0.2
-3.600e-07,0.64,0.2
-3.580e-07,0.64,0.22
-3.560e-07,0.72,0.2
-3.540e-07,0.56,0.2
-3.520e-07,0.72,0.2
-3.500e-07,0.72,0.2
-3.480e-07,0.72,0.2
-3.460e-07,0.8,0.2
-3.440e-07,0.72,0.22
-3.420e-07,0.8,0.2
-3.400e-07,0.8,0.22
-3.380e-07,0.8,0.26
-3.360e-07,0.8,0.24
-3.340e-07,0.8,0.22
-3.320e-07,0.8,0.2
-3.300e-07,0.88,0.24
-3.280e-07,0.88,0.28
-3.260e-07,0.8,0.26
-3.240e-07,0.88,0.28
-3.220e-07,0.88,0.24
-3.200e-07,0.96,0.26
-3.180e-07,0.96,0.28
-3.160e-07,0.88,0.3
-3.140e-07,0.8,0.3
-3.120e-07,1.04,0.28
-3.100e-07,1.04,0.32
-3.080e-07,0.96,0.32
-3.060e-07,1.12,0.34
-3.040e-07,1.04,0.32
-3.020e-07,1.04,0.3
-3.000e-07,1.04,0.36
-2.980e-07,1.2,0.34
-2.960e-07,1.04,0.38
-2.940e-07,1.28,0.36
-2.920e-07,1.2,0.36
-2.900e-07,1.2,0.34
-2.880e-07,1.28,0.38
-2.860e-07,1.28,0.38
-2.840e-07,1.28,0.42
-2.820e-07,1.28,0.42
-2.800e-07,1.28,0.38
-2.780e-07,1.28,0.42
-2.760e-07,1.44,0.42
-2.740e-07,1.44,0.4
-2.720e-07,1.36,0.42
-2.700e-07,1.36,0.42
-2.680e-07,1.44,0.42
-2.660e-07,1.36,0.44
-2.640e-07,1.44,0.44
-2.620e-07,1.36,0.42
-2.600e-07,1.44,0.46
-2.580e-07,1.44,0.42
-2.560e-07,1.52,0.5
-2.540e-07,1.44,0.48
-2.520e-07,1.44,0.48
-2.500e-07,1.52,0.44
-2.480e-07,1.68,0.5
-2.460e-07,1.68,0.48
-2.440e-07,1.6,0.5
-2.420e-07,1.6,0.5
-2.400e-07,1.6,0.52
-2.380e-07,1.68,0.48
-2.360e-07,1.6,0.56
-2.340e-07,1.68,0.52
-2.320e-07,1.6,0.54
-2.300e-07,1.68,0.54
-2.280e-07,1.6,0.54
-2.260e-07,1.76,0.54
-2.240e-07,1.68,0.5
-2.220e-07,1.84,0.58
-2.200e-07,1.68,0.56
-2.180e-07,1.68,0.56
-2.160e-07,1.68,0.58
-2.140e-07,1.76,0.56
-2.120e-07,1.68,0.58
-2.100e-07,1.76,0.54
-2.080e-07,1.84,0.58
-2.060e-07,1.68,0.58
-2.040e-07,1.76,0.54
-2.020e-07,1.68,0.58
-2.000e-07,1.68,0.58
-1.980e-07,1.76,0.56
-1.960e-07,1.84,0.56
-1.940e-07,1.76,0.58
-1.920e-07,1.68,0.56
-1.900e-07,1.84,0.54
-1.880e-07,1.76,0.52
-1.860e-07,1.92,0.58
-1.840e-07,1.84,0.56
-1.820e-07,1.92,0.54
-1.800e-07,1.84,0.54
-1.780e-07,1.84,0.54
-1.760e-07,1.84,0.56
-1.740e-07,1.76,0.54
-1.720e-07,1.84,0.56
-1.700e-07,1.84,0.5
-1.680e-07,1.92,0.5
-1.660e-07,1.92,0.52
-1.640e-07,1.76,0.54
-1.620e-07,1.84,0.54
-1.600e-07,1.92,0.58
-1.580e-07,1.84,0.58
-1.560e-07,1.76,0.52
-1.540e-07,1.84,0.54
-1.520e-07,1.76,0.56
-1.500e-07,1.68,0.54
-1.480e-07,2,0.62
-1.460e-07,1.76,0.58
-1.440e-07,1.92,0.56
-1.420e-07,1.84,0.54
-1.400e-07,1.92,0.58
-1.380e-07,1.92,0.6
-1.360e-07,1.84,0.58
-1.340e-07,1.84,0.58
-1.320e-07,1.84,0.56
-1.300e-07,1.84,0.58
-1.280e-07,1.76,0.58
-1.260e-07,1.76,0.56
-1.240e-07,1.84,0.56
-1.220e-07,1.76,0.52
-1.200e-07,1.76,0.6
-1.180e-07,2,0.6
-1.160e-07,1.76,0.58
-1.140e-07,1.84,0.54
-1.120e-07,1.92,0.58
-1.100e-07,1.84,0.58
-1.080e-07,1.84,0.56
-1.060e-07,1.92,0.58
-1.040e-07,1.84,0.56
-1.020e-07,1.92,0.56
-1.000e-07,2.08,0.54
-9.800e-08,2,0.56
-9.600e-08,1.84,0.58
-9.400e-08,1.92,0.54
-9.200e-08,1.84,0.56
-9.000e-08,1.84,0.56
-8.800e-08,1.84,0.56
-8.600e-08,1.84,0.58
-8.400e-08,1.92,0.56
-8.200e-08,1.76,0.54
-8.000e-08,1.76,0.58
-7.800e-08,1.92,0.58
-7.600e-08,1.92,0.56
-7.400e-08,1.84,0.56
-7.200e-08,1.68,0.56
-7.000e-08,1.76,0.58
-6.800e-08,1.76,0.54
-6.600e-08,1.92,0.56
-6.400e-08,1.84,0.62
-6.200e-08,1.76,0.6
-6.000e-08,1.76,0.56
-5.800e-08,1.76,0.58
-5.600e-08,1.84,0.58
-5.400e-08,1.84,0.58
-5.200e-08,1.84,0.58
-5.000e-08,1.76,0.56
-4.800e-08,1.68,0.58
-4.600e-08,1.84,0.56
-4.400e-08,1.76,0.56
-4.200e-08,1.92,0.58
-4.000e-08,1.92,0.54
-3.800e-08,1.68,0.58
-3.600e-08,1.92,0.58
-3.400e-08,1.92,0.56
-3.200e-08,2,0.56
-3.000e-08,1.92,0.54
-2.800e-08,2,0.54
-2.600e-08,1.84,0.58
-2.400e-08,2.08,0.58
-2.200e-08,2,0.62
-2.000e-08,2.16,0.56
-1.800e-08,2.24,0.6
-1.600e-08,2.24,0.6
-1.400e-08,2.24,0.64
-1.200e-08,2.24,0.68
-1.000e-08,2.56,0.66
-8.000e-09,2.56,0.66
-6.000e-09,2.56,0.72
-4.000e-09,2.8,0.72
-2.000e-09,2.56,0.82
3.097e-21,2.72,0.78
2.000e-09,2.88,0.82
4.000e-09,2.8,0.84
6.000e-09,2.88,0.92
8.000e-09,2.88,0.94
1.000e-08,2.8,0.98
1.200e-08,2.96,1.02
1.400e-08,3.04,1
1.600e-08,3.12,1.06
1.800e-08,3.12,1.14
2.000e-08,3.28,1.16
2.200e-08,3.12,1.2
2.400e-08,3.36,1.18
2.600e-08,3.44,1.2
2.800e-08,3.44,1.26
3.000e-08,3.44,1.32
3.200e-08,3.68,1.32
3.400e-08,3.6,1.3
3.600e-08,3.68,1.32
3.800e-08,3.84,1.32
4.000e-08,3.84,1.42
4.200e-08,3.92,1.4
4.400e-08,4.08,1.42
4.600e-08,4.24,1.4
4.800e-08,4.16,1.42
5.000e-08,4.4,1.44
5.200e-08,4.4,1.42
5.400e-08,4.48,1.46
5.600e-08,4.56,1.44
5.800e-08,4.56,1.4
6.000e-08,4.72,1.44
6.200e-08,4.64,1.46
6.400e-08,4.72,1.48
6.600e-08,4.88,1.52
6.800e-08,4.88,1.52
7.000e-08,4.88,1.52
7.200e-08,5.04,1.54
7.400e-08,5.04,1.56
7.600e-08,5.12,1.56
7.800e-08,5.12,1.58
8.000e-08,5.28,1.6
8.200e-08,5.2,1.58
8.400e-08,5.36,1.64
8.600e-08,5.44,1.66
8.800e-08,5.44,1.64
9.000e-08,5.6,1.68
9.200e-08,5.84,1.76
9.400e-08,5.84,1.76
9.600e-08,5.84,1.76
9.800e-08,5.92,1.78
1.000e-07,6.08,1.84
1.020e-07,6.08,1.9
1.040e-07,6.16,1.92
1.060e-07,6.16,1.9
1.080e-07,6.16,1.92
1.100e-07,6.24,1.92
1.120e-07,6.32,1.96
1.140e-07,6.4,2
1.160e-07,6.56,2.02
1.180e-07,6.56,2.04
1.200e-07,6.64,2.06
1.220e-07,6.72,2.08
1.240e-07,6.8,2.16
1.260e-07,6.88,2.18
1.280e-07,6.88,2.2
1.300e-07,7.04,2.18
1.320e-07,7.2,2.2
1.340e-07,7.2,2.2
1.360e-07,7.28,2.24
1.380e-07,7.2,2.26
1.400e-07,7.36,2.28
1.420e-07,7.52,2.3
1.440e-07,7.6,2.32
1.460e-07,7.52,2.34
1.480e-07,7.76,2.36
1.500e-07,7.92,2.36
1.520e-07,8.08,2.36
1.540e-07,8.16,2.42
1.560e-07,8.16,2.48
1.580e-07,8.24,2.5
1.600e-07,8.32,2.48
1.620e-07,8.32,2.5
1.640e-07,8.32,2.56
1.660e-07,8.48,2.58
1.680e-07,8.4,2.62
1.700e-07,8.48,2.64
1.720e-07,8.48,2.62
1.740e-07,8.48,2.66
1.760e-07,8.48,2.72
1.780e-07,8.48,2.74
1.800e-07,8.4,2.76
1.820e-07,8.48,2.74
1.840e-07,8.72,2.76
1.860e-07,8.48,2.78
1.880e-07,8.56,2.76
1.900e-07,8.64,2.78
1.920e-07,8.48,2.74
1.940e-07,8.56,2.76
1.960e-07,8.72,2.76
1.980e-07,8.72,2.78
2.000e-07,8.64,2.76
2.020e-07,8.72,2.74
2.040e-07,8.72,2.74
2.060e-07,8.8,2.72
2.080e-07,8.8,2.74
2.100e-07,8.88,2.74
2.120e-07,8.96,2.72
2.140e-07,8.96,2.7
2.160e-07,8.88,2.7
2.180e-07,8.8,2.66
2.200e-07,8.96,2.66
2.220e-07,8.96,2.6
2.240e-07,9.04,2.64
2.260e-07,8.96,2.62
2.280e-07,8.88,2.64
2.300e-07,9.12,2.64
2.320e-07,9.12,2.6
2.340e-07,8.96,2.6
2.360e-07,8.88,2.62
2.380e-07,9.04,2.64
2.400e-07,8.96,2.72
2.420e-07,8.96,2.68
2.440e-07,8.96,2.7
2.460e-07,8.96,2.7
2.480e-07,9.04,2.72
2.500e-07,8.88,2.72
2.520e-07,8.96,2.76
2.540e-07,9.04,2.78
2.560e-07,8.88,2.76
2.580e-07,9.04,2.78
2.600e-07,8.96,2.78
2.620e-07,8.88,2.82
2.640e-07,8.96,2.82
2.660e-07,8.96,2.84
2.680e-07,9.12,2.88
2.700e-07,8.96,2.88
2.720e-07,8.96,2.9
2.740e-07,8.96,2.86
2.760e-07,8.96,2.88
2.780e-07,9.12,2.9
2.800e-07,8.96,2.9
2.820e-07,9.12,2.9
2.840e-07,8.96,2.88
2.860e-07,8.96,2.88
2.880e-07,8.96,2.82
2.900e-07,9.12,2.84
2.920e-07,9.12,2.86
2.940e-07,8.96,2.84
2.960e-07,9.2,2.8
2.980e-07,9.12,2.82
3.000e-07,9.04,2.84
3.020e-07,8.96,2.84
3.040e-07,9.12,2.8
3.060e-07,8.96,2.82
3.080e-07,9.12,2.82
3.100e-07,9.2,2.84
3.120e-07,9.12,2.8
3.140e-07,9.04,2.82
3.160e-07,9.12,2.78
3.180e-07,9.04,2.8
3.200e-07,8.96,2.78
3.220e-07,9.12,2.78
3.240e-07,8.96,2.8
3.260e-07,8.96,2.82
3.280e-07,8.96,2.82
3.300e-07,8.88,2.82
3.320e-07,9.12,2.82
3.340e-07,8.88,2.84
3.360e-07,9.04,2.82
3.380e-07,9.04,2.82
3.400e-07,8.96,2.86
3.420e-07,8.88,2.84
3.440e-07,9.04,2.86
3.460e-07,9.12,2.82
3.480e-07,8.88,2.78
3.500e-07,8.88,2.84
3.520e-07,9.04,2.84
3.540e-07,9.04,2.84
3.560e-07,8.88,2.84
3.580e-07,8.88,2.78
3.600e-07,8.88,2.8
3.620e-07,8.88,2.82
3.640e-07,9.04,2.84
3.660e-07,8.96,2.82
3.680e-07,9.12,2.8
3.700e-07,8.8,2.78
3.720e-07,8.72,2.8
3.740e-07,8.8,2.78
3.760e-07,8.88,2.78
3.780e-07,8.8,2.76
3.800e-07,8.72,2.72
3.820e-07,8.64,2.72
3.840e-07,8.56,2.7
3.860e-07,8.56,2.7
3.880e-07,8.4,2.68
3.900e-07,8.32,2.62
3.920e-07,8.48,2.62
3.940e-07,8.32,2.56
3.960e-07,8.32,2.6
3.980e-07,8.16,2.58
4.000e-07,8.16,2.56
4.020e-07,8.08,2.48
4.040e-07,8.08,2.46
4.060e-07,7.92,2.44
4.080e-07,7.92,2.38
4.100e-07,7.76,2.36
4.120e-07,7.84,2.3
4.140e-07,7.84,2.26
4.160e-07,7.76,2.26
4.180e-07,7.68,2.26
4.200e-07,7.68,2.24
4.220e-07,7.6,2.16
4.240e-07,7.44,2.12
4.260e-07,7.28,2.12
4.280e-07,7.44,2.12
4.300e-07,7.28,2.08
4.320e-07,7.04,2.06
4.340e-07,7.12,1.96
4.360e-07,7.2,1.96
4.380e-07,7.04,1.94
4.400e-07,6.8,1.94
4.420e-07,6.8,1.94
4.440e-07,6.8,1.88
4.460e-07,6.72,1.9
4.480e-07,6.64,1.9
4.500e-07,6.56,1.92
4.520e-07,6.64,1.88
4.540e-07,6.56,1.82
4.560e-07,6.48,1.8
4.580e-07,6.48,1.8
4.600e-07,6.24,1.82
4.620e-07,6.32,1.8
4.640e-07,6.24,1.76
4.660e-07,6.16,1.76
4.680e-07,6.32,1.76
4.700e-07,6,1.76
4.720e-07,6,1.8
4.740e-07,5.76,1.74
4.760e-07,5.76,1.74
4.780e-07,5.76,1.74
4.800e-07,5.44,1.72
4.820e-07,5.6,1.72
4.840e-07,5.44,1.7
4.860e-07,5.36,1.68
4.880e-07,5.36,1.66
4.900e-07,5.2,1.62
4.920e-07,5.12,1.64
4.940e-07,5.04,1.58
4.960e-07,4.88,1.52
4.980e-07,4.88,1.5
5.000e-07,4.96,1.5
5.020e-07,4.72,1.5
5.040e-07,4.8,1.48
5.060e-07,4.8,1.46
5.080e-07,4.56,1.4
5.100e-07,4.56,1.38
5.120e-07,4.56,1.34
5.140e-07,4.4,1.3
5.160e-07,4.32,1.22
5.180e-07,4.32,1.24
5.200e-07,4.24,1.22
5.220e-07,4.24,1.24
5.240e-07,4.24,1.18
5.260e-07,4.08,1.16
5.280e-07,4,1.14
5.300e-07,3.76,1.1
5.320e-07,3.68,1.1
5.340e-07,3.68,1.1
5.360e-07,3.52,1.04
5.380e-07,3.52,1
5.400e-07,3.36,1.02
5.420e-07,3.2,1.02
5.440e-07,3.12,0.98
5.460e-07,3.12,0.92
5.480e-07,3.04,0.9
5.500e-07,2.88,0.9
5.520e-07,2.88,0.92
5.540e-07,2.88,0.84
5.560e-07,2.64,0.88
5.580e-07,2.72,0.84
5.600e-07,2.64,0.76
5.620e-07,2.64,0.78
5.640e-07,2.48,0.78
5.660e-07,2.4,0.7
5.680e-07,2.32,0.66
5.700e-07,2.16,0.6
5.720e-07,2.32,0.6
5.740e-07,2.16,0.58
5.760e-07,2.32,0.58
5.780e-07,2.16,0.54
5.800e-07,2.08,0.5
5.820e-07,2.16,0.48
5.840e-07,2.24,0.48
5.860e-07,2,0.48
5.880e-07,2.08,0.46
5.900e-07,2.16,0.42
5.920e-07,1.92,0.4
5.940e-07,2.16,0.42
5.960e-07,2,0.44
5.980e-07,1.92,0.42
6.000e-07,2.16,0.4
6.020e-07,2.08,0.4
6.040e-07,2,0.4
6.060e-07,1.92,0.44
6.080e-07,1.92,0.46
6.100e-07,1.76,0.48
6.120e-07,1.84,0.46
6.140e-07,1.92,0.46
6.160e-07,1.76,0.5
6.180e-07,1.76,0.52
6.200e-07,1.84,0.52
6.220e-07,1.68,0.54
6.240e-07,1.84,0.54
6.260e-07,1.84,0.54
6.280e-07,1.92,0.58
6.300e-07,1.84,0.54
6.320e-07,1.76,0.54
6.340e-07,1.6,0.5
6.360e-07,1.76,0.56
6.380e-07,1.68,0.56
6.400e-07,1.76,0.58
6.420e-07,1.68,0.52
6.440e-07,1.84,0.52
6.460e-07,1.68,0.48
6.480e-07,1.76,0.5
6.500e-07,1.84,0.48
6.520e-07,1.68,0.48
6.540e-07,1.84,0.4
6.560e-07,1.84,0.4
6.580e-07,1.76,0.38
6.600e-07,1.84,0.4
6.620e-07,1.68,0.38
6.640e-07,1.76,0.36
6.660e-07,1.68,0.32
6.680e-07,1.84,0.32
6.700e-07,1.6,0.34
6.720e-07,1.76,0.32
6.740e-07,1.84,0.34
6.760e-07,1.76,0.26
6.780e-07,1.76,0.3
6.800e-07,1.92,0.3
6.820e-07,1.76,0.32
6.840e-07,1.76,0.3
6.860e-07,1.68,0.28
6.880e-07,1.92,0.3
6.900e-07,1.6,0.3
6.920e-07,1.84,0.34
6.940e-07,1.68,0.38
6.960e-07,1.84,0.34
6.980e-07,1.6,0.36
7.000e-07,1.6,0.34
7.020e-07,1.6,0.42
7.040e-07,1.84,0.44
7.060e-07,1.6,0.4
7.080e-07,1.76,0.42
7.100e-07,1.84,0.42
7.120e-07,1.76,0.46
7.140e-07,1.68,0.44
7.160e-07,1.68,0.46
7.180e-07,1.76,0.46
7.200e-07,1.76,0.46
7.220e-07,1.76,0.48
7.240e-07,1.68,0.48
7.260e-07,1.84,0.48
7.280e-07,1.84,0.46
7.300e-07,1.68,0.46
7.320e-07,1.84,0.42
7.340e-07,1.84,0.48
7.360e-07,1.84,0.46
7.380e-07,1.92,0.42
7.400e-07,1.84,0.42
7.420e-07,1.76,0.4
7.440e-07,1.76,0.38
7.460e-07,1.76,0.38
7.480e-07,1.84,0.38
7.500e-07,1.76,0.4
7.520e-07,1.84,0.36
7.540e-07,1.84,0.34
7.560e-07,1.84,0.36
7.580e-07,1.76,0.36
7.600e-07,1.92,0.38
7.620e-07,1.92,0.38
7.640e-07,1.84,0.36
7.660e-07,1.76,0.44
7.680e-07,1.84,0.36
7.700e-07,1.84,0.42
7.720e-07,1.76,0.38
7.740e-07,1.92,0.42
7.760e-07,1.92,0.42
7.780e-07,1.84,0.42
7.800e-07,1.84,0.44
7.820e-07,1.84,0.44
7.840e-07,1.68,0.46
7.860e-07,1.76,0.48
7.880e-07,1.6,0.46
7.900e-07,1.84,0.46
7.920e-07,1.84,0.46
7.940e-07,1.84,0.48
7.960e-07,1.76,0.5
7.980e-07,1.68,0.48
8.000e-07,1.76,0.46
8.020e-07,1.84,0.48
8.040e-07,1.76,0.48
8.060e-07,1.84,0.46
8.080e-07,1.76,0.48
8.100e-07,1.68,0.46
8.120e-07,1.76,0.48
8.140e-07,1.68,0.5
8.160e-07,1.92,0.48
8.180e-07,1.68,0.46
8.200e-07,1.84,0.46
8.220e-07,1.84,0.42
8.240e-07,1.76,0.42
8.260e-07,1.76,0.44
8.280e-07,1.76,0.44
8.300e-07,1.92,0.44
8.320e-07,1.76,0.4
8.340e-07,1.92,0.38
8.360e-07,1.76,0.42
8.380e-07,1.68,0.4
8.400e-07,1.76,0.42
8.420e-07,1.68,0.4
8.440e-07,1.84,0.4
8.460e-07,1.76,0.42
8.480e-07,1.76,0.4
8.500e-07,1.84,0.4
8.520e-07,1.92,0.4
8.540e-07,1.84,0.38
8.560e-07,1.68,0.4
8.580e-07,1.68,0.36
8.600e-07,1.84,0.42
8.620e-07,1.76,0.38
8.640e-07,1.76,0.42
8.660e-07,1.6,0.42
8.680e-07,1.84,0.42
8.700e-07,1.68,0.4
8.720e-07,1.76,0.42
8.740e-07,1.68,0.42
8.760e-07,1.76,0.42
8.780e-07,1.76,0.42
8.800e-07,1.76,0.42
8.820e-07,1.76,0.4
8.840e-07,1.84,0.42
8.860e-07,1.76,0.42
8.880e-07,1.84,0.38
8.900e-07,1.76,0.4
8.920e-07,1.76,0.42
8.940e-07,1.76,0.4
8.960e-07,1.68,0.44
8.980e-07,1.84,0.38
9.000e-07,1.84,0.4
9.020e-07,1.76,0.38
9.040e-07,1.76,0.38
9.060e-07,1.92,0.42
9.080e-07,1.76,0.4
9.100e-07,1.68,0.38
9.120e-07,1.92,0.38
9.140e-07,1.84,0.38
9.160e-07,1.84,0.42
9.180e-07,1.68,0.42
9.200e-07,1.76,0.42
9.220e-07,1.76,0.36
9.240e-07,1.76,0.38
9.260e-07,1.76,0.4
9.280e-07,1.84,0.42
9.300e-07,1.76,0.4
9.320e-07,1.68,0.38
9.340e-07,1.92,0.38
9.360e-07,1.76,0.42
9.380e-07,1.84,0.36
9.400e-07,1.76,0.42
9.420e-07,1.68,0.42
9.440e-07,1.84,0.4
9.460e-07,1.84,0.4
9.480e-07,1.84,0.44
9.500e-07,1.76,0.42
9.520e-07,1.92,0.42
9.540e-07,1.76,0.42
9.560e-07,1.68,0.38
9.580e-07,1.76,0.4
9.600e-07,1.92,0.4
9.620e-07,1.76,0.44
9.640e-07,1.84,0.4
9.660e-07,1.68,0.42
9.680e-07,1.92,0.4
9.700e-07,1.76,0.42
9.720e-07,1.92,0.4
9.740e-07,1.84,0.4
9.760e-07,1.84,0.42
9.780e-07,1.84,0.4
9.800e-07,1.92,0.42
9.820e-07,1.76,0.42
9.840e-07,1.76,0.42
9.860e-07,1.76,0.44
9.880e-07,1.68,0.42
9.900e-07,1.76,0.4
9.920e-07,1.92,0.42
9.940e-07,1.84,0.4
9.960e-07,1.76,0.4
9.980e-07,1.92,0.42
1.000e-06,1.76,0.4
1.002e-06,1.92,0.42
1.004e-06,2.08,0.46
1.006e-06,1.84,0.46
1.008e-06,1.84,0.42
1.010e-06,1.92,0.4
1.012e-06,1.92,0.42
1.014e-06,1.68,0.46
1.016e-06,2,0.44
1.018e-06,1.76,0.42
1.020e-06,1.84,0.42
1.022e-06,1.92,0.42
1.024e-06,1.84,0.42
1.026e-06,1.92,0.42
1.028e-06,1.76,0.46
1.030e-06,1.76,0.44
1.032e-06,1.84,0.38
1.034e-06,1.92,0.42
1.036e-06,1.92,0.42
1.038e-06,1.92,0.42
1.040e-06,2,0.46
1.042e-06,1.68,0.42
1.044e-06,1.76,0.42
1.046e-06,1.92,0.46
1.048e-06,1.76,0.42
1.050e-06,1.84,0.38
1.052e-06,1.76,0.42
1.054e-06,1.84,0.42
1.056e-06,1.84,0.46
1.058e-06,1.84,0.44
1.060e-06,1.84,0.38
1.062e-06,1.84,0.42
1.064e-06,1.76,0.4
1.066e-06,1.76,0.42
1.068e-06,1.76,0.42
1.070e-06,2,0.42
1.072e-06,1.92,0.42
1.074e-06,1.84,0.36
1.076e-06,1.76,0.42
1.078e-06,1.76,0.42
1.080e-06,1.76,0.4
1.082e-06,1.92,0.42
1.084e-06,1.68,0.4
1.086e-06,1.84,0.42
1.088e-06,1.92,0.38
1.090e-06,1.68,0.4
1.092e-06,1.68,0.4
1.094e-06,1.92,0.4
1.096e-06,2,0.38
1.098e-06,1.92,0.4
1.100e-06,1.92,0.42
1.102e-06,1.76,0.44
1.104e-06,1.84,0.42
1.106e-06,2,0.42
1.108e-06,1.84,0.36
1.110e-06,1.68,0.4
1.112e-06,1.76,0.42
1.114e-06,1.84,0.42
1.116e-06,1.76,0.4
1.118e-06,1.92,0.36
1.120e-06,1.92,0.42
1.122e-06,1.84,0.4
1.124e-06,1.92,0.42
1.126e-06,1.92,0.44
1.128e-06,1.84,0.4
1.130e-06,1.84,0.4
1.132e-06,1.84,0.42
1.134e-06,1.76,0.44
1.136e-06,2,0.46
1.138e-06,1.92,0.4
1.140e-06,1.92,0.4
1.142e-06,1.84,0.42
1.144e-06,1.92,0.46
1.146e-06,1.68,0.44
1.148e-06,1.84,0.4
1.150e-06,1.76,0.38
1.152e-06,1.92,0.42
1.154e-06,1.92,0.42
1.156e-06,1.76,0.48
1.158e-06,1.84,0.38
1.160e-06,1.92,0.4
1.162e-06,1.92,0.38
1.164e-06,1.84,0.44
1.166e-06,1.92,0.46
1.168e-06,1.84,0.42
1.170e-06,1.84,0.4
1.172e-06,1.84,0.4
1.174e-06,1.76,0.4
1.176e-06,1.84,0.4
1.178e-06,1.84,0.42
1.180e-06,1.84,0.4
1.182e-06,1.76,0.44
1.184e-06,1.92,0.42
1.186e-06,1.84,0.42
1.188e-06,1.84,0.4
1.190e-06,1.92,0.4
1.192e-06,1.84,0.42
1.194e-06,1.76,0.42
1.196e-06,1.84,0.46
1.198e-06,1.76,0.38
1.200e-06,1.92,0.4
1.202e-06,1.84,0.38
1.204e-06,1.76,0.44
1.206e-06,1.84,0.42
1.208e-06,1.92,0.42
1.210e-06,1.84,0.42
1.212e-06,1.92,0.44
1.214e-06,1.92,0.42
1.216e-06,1.92,0.44
1.218e-06,1.76,0.4
1.220e-06,1.92,0.42
1.222e-06,1.84,0.4
1.224e-06,1.84,0.44
1.226e-06,1.84,0.4
1.228e-06,1.68,0.4
1.230e-06,1.68,0.4
1.232e-06,1.68,0.4
1.234e-06,1.76,0.42
1.236e-06,1.84,0.44
1.238e-06,1.84,0.44
1.240e-06,1.76,0.42
1.242e-06,1.92,0.42
1.244e-06,1.76,0.42
1.246e-06,1.92,0.44
1.248e-06,1.6,0.44
1.250e-06,2,0.44
1.252e-06,1.76,0.42
1.254e-06,1.68,0.42
1.256e-06,2,0.4
1.258e-06,1.92,0.44
1.260e-06,1.84,0.42
1.262e-06,2,0.4
1.264e-06,1.84,0.38
1.266e-06,1.68,0.42
1.268e-06,1.84,0.44
1.270e-06,1.84,0.46
1.272e-06,1.76,0.42
1.274e-06,1.84,0.38
1.276e-06,1.84,0.42
1.278e-06,1.68,0.4
1.280e-06,1.92,0.42
1.282e-06,1.76,0.38
1.284e-06,1.92,0.38
1.286e-06,1.92,0.36
1.288e-06,1.84,0.4
1.290e-06,1.92,0.46
1.292e-06,1.84,0.4
1.294e-06,1.76,0.4
1.296e-06,1.68,0.42
1.298e-06,1.76,0.4
1.300e-06,1.92,0.44
1.302e-06,1.84,0.46
1.304e-06,1.76,0.46
1.306e-06,1.76,0.4
1.308e-06,2,0.4
1.310e-06,1.84,0.42
