Archivos Guadalupe/Data/1410-32-X4/24-10/D-24-10/tek0044ALL.csv

Model,DPO3034
Firmware Version,2.16

Point Format,Y,
Horizontal Units,S,
Horizontal Scale,4e-07,
Sample Interval,4e-09,
Record Length,1000,
Gating,0.0% to 100.0%,0.0% to 100.0%
Probe Attenuation,1,1
Vertical Units,V,V
Vertical Offset,0,0
Vertical Scale,10,5
Label,,
TIME,CH1,CH2
-1.052e-06,-0.2,0.1
-1.048e-06,0.2,-0.1
-1.044e-06,-0.2,0.1
-1.040e-06,-0.2,-0.1
-1.036e-06,0.2,0.1
-1.032e-06,0.2,-0.1
-1.028e-06,-0.2,0.3
-1.024e-06,0.2,0.1
-1.020e-06,0.2,0.1
-1.016e-06,-0.6,-0.1
-1.012e-06,0.2,-0.1
-1.008e-06,-0.2,-0.1
-1.004e-06,-0.2,0.1
-1.000e-06,-0.2,-0.1
-9.960e-07,-0.2,0.1
-9.920e-07,0.2,0.5
-9.880e-07,0.2,-0.1
-9.840e-07,-0.2,-0.1
-9.800e-07,-0.2,0.1
-9.760e-07,0.2,0.3
-9.720e-07,0.2,-0.1
-9.680e-07,0.2,-0.1
-9.640e-07,0.2,0.1
-9.600e-07,-0.6,-0.1
-9.560e-07,0.2,-0.1
-9.520e-07,0.6,0.1
-9.480e-07,0.2,-0.1
-9.440e-07,0.2,0.1
-9.400e-07,0.2,0.3
-9.360e-07,0.2,0.1
-9.320e-07,0.6,0.5
-9.280e-07,-0.2,0.1
-9.240e-07,0.2,-0.1
-9.200e-07,0.6,0.1
-9.160e-07,1,-0.1
-9.120e-07,-0.2,0.1
-9.080e-07,0.6,0.1
-9.040e-07,-0.2,0.1
-9.000e-07,0.2,0.1
-8.960e-07,0.2,0.3
-8.920e-07,0.2,0.1
-8.880e-07,-0.6,0.3
-8.840e-07,0.2,0.3
-8.800e-07,0.2,0.1
-8.760e-07,0.2,0.1
-8.720e-07,0.2,0.1
-8.680e-07,0.2,0.1
-8.640e-07,0.2,-0.1
-8.600e-07,0.2,-0.1
-8.560e-07,0.6,-0.1
-8.520e-07,0.2,-0.1
-8.480e-07,0.6,-0.1
-8.440e-07,0.6,0.1
-8.400e-07,0.2,0.3
-8.360e-07,0.6,0.1
-8.320e-07,0.2,0.1
-8.280e-07,1,0.1
-8.240e-07,0.6,0.5
-8.200e-07,0.6,0.1
-8.160e-07,-0.2,0.3
-8.120e-07,1,0.3
-8.080e-07,0.2,0.3
-8.040e-07,0.2,0.3
-8.000e-07,0.6,-0.1
-7.960e-07,0.2,0.3
-7.920e-07,0.2,-0.1
-7.880e-07,0.2,0.3
-7.840e-07,0.2,0.1
-7.800e-07,0.6,0.1
-7.760e-07,0.2,0.3
-7.720e-07,0.6,0.1
-7.680e-07,1,0.3
-7.640e-07,1.4,0.1
-7.600e-07,1,0.1
-7.560e-07,1,0.1
-7.520e-07,1.4,0.5
-7.480e-07,1.4,0.5
-7.440e-07,0.2,0.1
-7.400e-07,0.6,0.1
-7.360e-07,0.6,-0.1
-7.320e-07,0.2,0.3
-7.280e-07,1,0.1
-7.240e-07,0.2,0.5
-7.200e-07,1,0.5
-7.160e-07,0.2,0.1
-7.120e-07,0.6,0.7
-7.080e-07,0.2,0.3
-7.040e-07,1,0.3
-7.000e-07,1,0.3
-6.960e-07,0.6,0.3
-6.920e-07,0.6,0.5
-6.880e-07,0.6,0.5
-6.840e-07,0.6,0.3
-6.800e-07,1,0.1
-6.760e-07,1,0.5
-6.720e-07,0.6,0.5
-6.680e-07,1,0.3
-6.640e-07,1.4,0.5
-6.600e-07,1,0.5
-6.560e-07,1.4,0.7
-6.520e-07,1,0.5
-6.480e-07,1.8,0.5
-6.440e-07,1.4,0.5
-6.400e-07,0.6,0.5
-6.360e-07,1.4,0.5
-6.320e-07,1.8,0.7
-6.280e-07,1,0.5
-6.240e-07,1,0.7
-6.200e-07,1.8,0.7
-6.160e-07,1.8,0.7
-6.120e-07,1.8,0.5
-6.080e-07,1.4,0.5
-6.040e-07,1,0.7
-6.000e-07,1.4,0.5
-5.960e-07,2.2,0.9
-5.920e-07,1.4,0.9
-5.880e-07,2.6,0.7
-5.840e-07,1.8,0.9
-5.800e-07,1.8,0.9
-5.760e-07,2.2,0.9
-5.720e-07,2.6,0.9
-5.680e-07,2.6,0.9
-5.640e-07,2.2,1.1
-5.600e-07,2.6,0.9
-5.560e-07,2.6,1.3
-5.520e-07,1.8,1.1
-5.480e-07,2.6,1.3
-5.440e-07,2.2,0.7
-5.400e-07,2.6,0.7
-5.360e-07,3.4,1.1
-5.320e-07,3,1.5
-5.280e-07,2.6,1.3
-5.240e-07,3,1.3
-5.200e-07,3,1.3
-5.160e-07,3,1.5
-5.120e-07,3,1.3
-5.080e-07,3.4,1.1
-5.040e-07,3.4,1.5
-5.000e-07,3.4,1.3
-4.960e-07,3.4,1.5
-4.920e-07,3.4,1.3
-4.880e-07,3.8,1.1
-4.840e-07,3.4,1.3
-4.800e-07,3.8,1.7
-4.760e-07,3,1.5
-4.720e-07,3.8,1.7
-4.680e-07,4.2,1.5
-4.640e-07,4.2,1.7
-4.600e-07,3.4,1.7
-4.560e-07,4.6,1.7
-4.520e-07,3.4,1.7
-4.480e-07,3.8,1.5
-4.440e-07,3.8,1.3
-4.400e-07,3.8,1.5
-4.360e-07,3.8,1.5
-4.320e-07,3.4,1.5
-4.280e-07,4.2,1.7
-4.240e-07,3.8,1.7
-4.200e-07,3.4,1.5
-4.160e-07,4.2,1.7
-4.120e-07,3.4,1.9
-4.080e-07,3.8,1.7
-4.040e-07,4.2,1.7
-4.000e-07,4.2,1.7
-3.960e-07,3.8,1.7
-3.920e-07,4.6,1.9
-3.880e-07,4.2,1.7
-3.840e-07,4.6,1.7
-3.800e-07,4.2,2.1
-3.760e-07,4.6,1.5
-3.720e-07,3.8,1.9
-3.680e-07,4.6,2.1
-3.640e-07,4.6,1.5
-3.600e-07,4.6,1.9
-3.560e-07,3.8,1.5
-3.520e-07,4.2,1.7
-3.480e-07,4.2,1.7
-3.440e-07,4.6,1.9
-3.400e-07,4.6,1.7
-3.360e-07,4.6,1.9
-3.320e-07,4.6,1.7
-3.280e-07,4.2,1.9
-3.240e-07,4.6,2.1
-3.200e-07,4.6,1.9
-3.160e-07,3.8,1.9
-3.120e-07,5,1.9
-3.080e-07,4.2,1.9
-3.040e-07,4.2,1.7
-3.000e-07,3.8,2.1
-2.960e-07,4.6,2.1
-2.920e-07,4.2,2.1
-2.880e-07,4.6,1.9
-2.840e-07,5,1.9
-2.800e-07,4.6,1.9
-2.760e-07,5.4,2.1
-2.720e-07,5,1.9
-2.680e-07,4.6,1.9
-2.640e-07,4.6,1.7
-2.600e-07,5,1.9
-2.560e-07,5,1.9
-2.520e-07,5,1.7
-2.480e-07,4.6,1.9
-2.440e-07,5,1.9
-2.400e-07,4.6,1.9
-2.360e-07,4.6,2.1
-2.320e-07,4.6,2.1
-2.280e-07,5,1.9
-2.240e-07,4.6,2.1
-2.200e-07,4.6,2.3
-2.160e-07,4.6,2.3
-2.120e-07,5,1.9
-2.080e-07,5.4,2.1
-2.040e-07,4.6,1.9
-2.000e-07,4.2,2.1
-1.960e-07,5.4,2.1
-1.920e-07,4.6,2.1
-1.880e-07,5,1.9
-1.840e-07,4.6,2.1
-1.800e-07,4.2,1.9
-1.760e-07,5.4,1.9
-1.720e-07,5.4,2.1
-1.680e-07,5,2.3
-1.640e-07,5,2.1
-1.600e-07,5,2.1
-1.560e-07,4.6,2.1
-1.520e-07,4.6,1.9
-1.480e-07,4.2,2.1
-1.440e-07,4.6,1.9
-1.400e-07,5,1.9
-1.360e-07,4.6,2.3
-1.320e-07,5.4,2.1
-1.280e-07,4.6,2.1
-1.240e-07,4.2,2.1
-1.200e-07,4.6,1.9
-1.160e-07,4.6,2.1
-1.120e-07,5,2.3
-1.080e-07,4.6,1.9
-1.040e-07,5.4,1.9
-1.000e-07,5,2.1
-9.600e-08,5,1.7
-9.200e-08,5,2.1
-8.800e-08,5,2.1
-8.400e-08,4.6,2.1
-8.000e-08,5,2.3
-7.600e-08,5.4,2.5
-7.200e-08,5.8,2.7
-6.800e-08,5.8,2.5
-6.400e-08,5.4,2.5
-6.000e-08,5.8,2.7
-5.600e-08,6.2,2.5
-5.200e-08,5.4,2.5
-4.800e-08,5.8,2.5
-4.400e-08,6.6,2.5
-4.000e-08,7,3.1
-3.600e-08,6.6,3.1
-3.200e-08,7,2.9
-2.800e-08,7.4,3.5
-2.400e-08,7.8,3.1
-2.000e-08,9,3.5
-1.600e-08,8.6,3.7
-1.200e-08,8.6,4.1
-8.000e-09,9.8,4.3
-4.000e-09,9.8,4.1
-5.823e-22,9.8,4.5
4.000e-09,11,4.5
8.000e-09,11,4.7
1.200e-08,11.4,5.3
1.600e-08,12.2,5.3
2.000e-08,12.2,5.3
2.400e-08,12.6,5.3
2.800e-08,13.4,5.7
3.200e-08,13,5.7
3.600e-08,13.8,6.1
4.000e-08,13.8,6.3
4.400e-08,14.2,6.3
4.800e-08,14.6,6.3
5.200e-08,14.6,6.3
5.600e-08,15.4,6.5
6.000e-08,15,6.3
6.400e-08,15.8,6.5
6.800e-08,16.6,6.7
7.200e-08,15.8,6.5
7.600e-08,16.6,6.7
8.000e-08,16.6,6.3
8.400e-08,16.6,6.7
8.800e-08,17.4,6.7
9.200e-08,18.6,6.5
9.600e-08,17.8,6.9
1.000e-07,18.2,7.3
1.040e-07,18.6,6.9
1.080e-07,19,7.5
1.120e-07,19.4,7.5
1.160e-07,19.8,7.7
1.200e-07,21,8.1
1.240e-07,20.6,8.1
1.280e-07,20.6,8.5
1.320e-07,21,8.7
1.360e-07,21.8,9.1
1.400e-07,22.2,8.9
1.440e-07,23,9.3
1.480e-07,23,9.7
1.520e-07,23.4,9.5
1.560e-07,23.4,10.1
1.600e-07,24.6,10.3
1.640e-07,25,10.1
1.680e-07,25.4,10.3
1.720e-07,25,10.7
1.760e-07,24.6,10.9
1.800e-07,26.2,11.1
1.840e-07,26.6,11.3
1.880e-07,26.6,11.5
1.920e-07,26.2,11.5
1.960e-07,27.4,11.9
2.000e-07,27.4,11.9
2.040e-07,27.8,11.7
2.080e-07,27.8,11.9
2.120e-07,28.2,12.1
2.160e-07,28.6,12.3
2.200e-07,28.6,12.3
2.240e-07,29.8,12.3
2.280e-07,29.4,12.5
2.320e-07,30.2,12.9
2.360e-07,30.2,13.1
2.400e-07,30.6,13.1
2.440e-07,31.8,12.9
2.480e-07,31.8,13.5
2.520e-07,31.8,13.3
2.560e-07,32.6,13.7
2.600e-07,32.6,13.7
2.640e-07,33.8,14.1
2.680e-07,33.8,14.3
2.720e-07,33.4,14.3
2.760e-07,34.6,14.7
2.800e-07,35,15.1
2.840e-07,35.8,15.3
2.880e-07,36.2,15.1
2.920e-07,35.8,15.5
2.960e-07,36.6,15.9
3.000e-07,37.4,15.7
3.040e-07,37.4,16.1
3.080e-07,37.8,16.5
3.120e-07,37.8,16.9
3.160e-07,38.2,16.5
3.200e-07,38.6,16.9
3.240e-07,39,16.9
3.280e-07,39.4,17.3
3.320e-07,39.4,17.5
3.360e-07,40.2,17.7
3.400e-07,40.6,17.9
3.440e-07,40.2,18.3
3.480e-07,41,18.3
3.520e-07,40.6,18.3
3.560e-07,41.4,18.7
3.600e-07,41.8,18.7
3.640e-07,41.8,18.7
3.680e-07,42.2,19.1
3.720e-07,42.2,19.3
3.760e-07,42.2,19.5
3.800e-07,43,19.3
3.840e-07,42.6,19.3
3.880e-07,43,19.5
3.920e-07,43,19.9
3.960e-07,43,20.3
4.000e-07,43.8,20.1
4.040e-07,43.8,20.1
4.080e-07,43.8,20.1
4.120e-07,43.8,20.3
4.160e-07,43.8,20.5
4.200e-07,44.6,20.5
4.240e-07,45,20.5
4.280e-07,44.2,20.9
4.320e-07,44.2,20.7
4.360e-07,45,21.1
4.400e-07,45,21.3
4.440e-07,45,21.3
4.480e-07,45.4,21.5
4.520e-07,45,21.5
4.560e-07,44.6,21.7
4.600e-07,45.4,21.7
4.640e-07,45,21.9
4.680e-07,45.4,22.1
4.720e-07,45.8,22.3
4.760e-07,45.4,22.3
4.800e-07,46.2,22.3
4.840e-07,45.8,22.5
4.880e-07,45.8,22.5
4.920e-07,46.2,23.1
4.960e-07,46.6,22.9
5.000e-07,46.2,23.3
5.040e-07,46.6,23.5
5.080e-07,46.2,23.3
5.120e-07,47,23.3
5.160e-07,47,23.5
5.200e-07,47,24.3
5.240e-07,47.4,23.7
5.280e-07,47,24.1
5.320e-07,47,24.3
5.360e-07,47,24.3
5.400e-07,46.6,24.3
5.440e-07,47.4,24.1
5.480e-07,46.6,24.3
5.520e-07,47,24.5
5.560e-07,47.4,24.5
5.600e-07,47.4,24.9
5.640e-07,47.4,24.7
5.680e-07,47.4,24.7
5.720e-07,47.4,24.5
5.760e-07,47.8,24.9
5.800e-07,47.4,25.1
5.840e-07,47.4,25.1
5.880e-07,47.4,25.1
5.920e-07,47.8,25.3
5.960e-07,47.8,25.3
6.000e-07,48.2,25.5
6.040e-07,48.2,25.5
6.080e-07,48.2,25.5
6.120e-07,48.2,25.7
6.160e-07,48.6,25.9
6.200e-07,47.8,25.7
6.240e-07,49,25.9
6.280e-07,48.2,26.1
6.320e-07,48.6,26.1
6.360e-07,48.2,26.3
6.400e-07,48.2,26.3
6.440e-07,47.8,26.5
6.480e-07,48.2,26.3
6.520e-07,48.6,26.5
6.560e-07,48.2,26.7
6.600e-07,48.6,26.5
6.640e-07,48.2,27.1
6.680e-07,47.8,27.1
6.720e-07,48.6,27.1
6.760e-07,48.6,27.1
6.800e-07,47.8,27.1
6.840e-07,48.6,27.3
6.880e-07,49,27.3
6.920e-07,48.2,27.7
6.960e-07,48.2,27.5
7.000e-07,49,27.9
7.040e-07,48.6,27.7
7.080e-07,48.6,27.7
7.120e-07,49,27.7
7.160e-07,47.8,28.1
7.200e-07,49.4,28.3
7.240e-07,49,28.5
7.280e-07,49,28.3
7.320e-07,48.6,28.1
7.360e-07,48.6,28.5
7.400e-07,49.4,28.5
7.440e-07,49.4,28.7
7.480e-07,48.6,28.9
7.520e-07,49,28.7
7.560e-07,48.6,28.9
7.600e-07,49.4,28.7
7.640e-07,48.6,28.7
7.680e-07,49,29.3
7.720e-07,49.4,29.1
7.760e-07,48.6,29.3
7.800e-07,49,29.5
7.840e-07,49.4,29.5
7.880e-07,49.4,29.7
7.920e-07,49.4,29.5
7.960e-07,49.4,29.5
8.000e-07,49,29.5
8.040e-07,49.4,29.3
8.080e-07,49.4,29.7
8.120e-07,49.4,29.9
8.160e-07,49,29.9
8.200e-07,49.4,29.5
8.240e-07,49,30.3
8.280e-07,49.4,30.1
8.320e-07,49,30.3
8.360e-07,49.4,30.1
8.400e-07,49.4,30.5
8.440e-07,49,30.3
8.480e-07,49.4,30.3
8.520e-07,49,30.5
8.560e-07,49.4,30.7
8.600e-07,49.8,30.7
8.640e-07,48.6,30.9
8.680e-07,48.6,30.9
8.720e-07,48.6,31.1
8.760e-07,49,31.1
8.800e-07,49,30.9
8.840e-07,49.4,31.1
8.880e-07,49.4,31.3
8.920e-07,49.8,30.9
8.960e-07,49.4,31.1
9.000e-07,49.8,31.3
9.040e-07,49.4,31.7
9.080e-07,49,31.5
9.120e-07,49.8,31.7
9.160e-07,49.4,31.9
9.200e-07,49.4,31.7
9.240e-07,49.4,31.7
9.280e-07,49.4,31.7
9.320e-07,49,31.5
9.360e-07,49,31.7
9.400e-07,48.6,32.3
9.440e-07,49.4,31.7
9.480e-07,49.4,31.7
9.520e-07,48.2,31.7
9.560e-07,48.6,31.9
9.600e-07,47.8,31.9
9.640e-07,47.8,32.1
9.680e-07,48.2,31.9
9.720e-07,48.2,31.9
9.760e-07,47.8,31.9
9.800e-07,47,31.7
9.840e-07,47.8,31.7
9.880e-07,47.8,31.9
9.920e-07,47.4,31.5
9.960e-07,47,31.5
1.000e-06,46.2,31.5
1.004e-06,46.2,31.5
1.008e-06,46.2,31.7
1.012e-06,46.2,31.3
1.016e-06,45.8,31.5
1.020e-06,45.4,31.7
1.024e-06,45.4,31.5
1.028e-06,45.4,31.3
1.032e-06,44.2,31.5
1.036e-06,45,31.3
1.040e-06,44.6,31.1
1.044e-06,43.8,31.1
1.048e-06,44.2,31.3
1.052e-06,43.8,30.7
1.056e-06,43.8,30.7
1.060e-06,43,30.7
1.064e-06,42.6,30.9
1.068e-06,43,30.5
1.072e-06,42.6,30.3
1.076e-06,42.2,30.3
1.080e-06,42.2,30.7
1.084e-06,41,30.5
1.088e-06,41.8,29.9
1.092e-06,40.6,30.1
1.096e-06,40.6,30.1
1.100e-06,40.2,29.9
1.104e-06,39.8,29.7
1.108e-06,39,29.9
1.112e-06,39,29.7
1.116e-06,39,29.5
1.120e-06,39,29.1
1.124e-06,37.8,29.5
1.128e-06,37.4,29.1
1.132e-06,37,28.9
1.136e-06,36.6,28.7
1.140e-06,36.6,28.5
1.144e-06,37,28.5
1.148e-06,35.4,28.3
1.152e-06,35.4,28.1
1.156e-06,35,27.7
1.160e-06,34.2,27.9
1.164e-06,33.8,27.9
1.168e-06,33.8,27.5
1.172e-06,33.4,27.3
1.176e-06,32.6,27.5
1.180e-06,32.6,27.3
1.184e-06,32.2,27.1
1.188e-06,31.4,26.9
1.192e-06,31,26.9
1.196e-06,31.4,26.7
1.200e-06,31,26.3
1.204e-06,30.6,26.5
1.208e-06,29.8,26.3
1.212e-06,29.8,26.1
1.216e-06,29.4,25.9
1.220e-06,28.6,25.7
1.224e-06,28.2,25.5
1.228e-06,28.2,25.5
1.232e-06,27.4,25.1
1.236e-06,27,25.1
1.240e-06,26.6,24.9
1.244e-06,26.6,25.3
1.248e-06,26.2,24.3
1.252e-06,25.4,24.3
1.256e-06,25.4,24.3
1.260e-06,25,24.3
1.264e-06,23.8,23.9
1.268e-06,23.8,23.5
1.272e-06,23.8,23.5
1.276e-06,23.4,23.1
1.280e-06,23,23.1
1.284e-06,22.2,22.7
1.288e-06,22.2,22.7
1.292e-06,21.4,22.3
1.296e-06,21,22.1
1.300e-06,20.2,21.9
1.304e-06,20.2,21.9
1.308e-06,20.2,21.7
1.312e-06,19.8,21.7
1.316e-06,18.2,21.5
1.320e-06,19,21.1
1.324e-06,18.6,21.3
1.328e-06,17.8,21.1
1.332e-06,17.4,20.7
1.336e-06,17.4,20.3
1.340e-06,17,20.7
1.344e-06,16.2,19.9
1.348e-06,16.2,20.1
1.352e-06,15,19.9
1.356e-06,15.4,19.9
1.360e-06,14.6,19.9
1.364e-06,14.2,19.7
1.368e-06,14.2,19.3
1.372e-06,14.2,19.3
1.376e-06,13.4,18.9
1.380e-06,13.4,18.7
1.384e-06,13,18.3
1.388e-06,13,18.7
1.392e-06,12.2,18.5
1.396e-06,12.2,17.9
1.400e-06,11.8,18.1
1.404e-06,11.8,17.9
1.408e-06,11.8,17.9
1.412e-06,11.4,18.1
1.416e-06,11,17.9
1.420e-06,11,17.7
1.424e-06,11,17.7
1.428e-06,11.4,17.7
1.432e-06,10.2,17.7
1.436e-06,10.2,17.3
1.440e-06,11,17.3
1.444e-06,10.2,17.5
1.448e-06,9.8,17.5
1.452e-06,9.8,17.1
1.456e-06,10.2,17.1
1.460e-06,9.4,16.5
1.464e-06,9,16.7
1.468e-06,9,16.5
1.472e-06,8.6,16.3
1.476e-06,8.6,16.3
1.480e-06,9,16.1
1.484e-06,8.6,16.1
1.488e-06,8.6,15.9
1.492e-06,9,15.9
1.496e-06,7.8,15.7
1.500e-06,8.2,15.7
1.504e-06,7.4,15.5
1.508e-06,7.8,15.5
1.512e-06,8.6,15.3
1.516e-06,8.2,15.3
1.520e-06,7,14.9
1.524e-06,7.4,14.9
1.528e-06,7,14.9
1.532e-06,7,15.3
1.536e-06,7.4,14.5
1.540e-06,7.4,14.5
1.544e-06,7,14.5
1.548e-06,7.4,14.5
1.552e-06,7,14.7
1.556e-06,7.4,13.9
1.560e-06,6.6,14.5
1.564e-06,7,14.7
1.568e-06,7,14.5
1.572e-06,6.2,14.3
1.576e-06,6.6,14.5
1.580e-06,6.2,14.1
1.584e-06,6.2,14.1
1.588e-06,6.6,14.3
1.592e-06,5.8,13.9
1.596e-06,5.8,13.7
1.600e-06,6.2,13.7
1.604e-06,6.6,13.9
1.608e-06,6.2,13.7
1.612e-06,5.4,13.5
1.616e-06,5.4,13.9
1.620e-06,6.2,13.7
1.624e-06,6.2,13.5
1.628e-06,5.8,13.5
1.632e-06,6.2,13.3
1.636e-06,5.4,13.3
1.640e-06,5.4,13.1
1.644e-06,5,13.5
1.648e-06,5.4,12.9
1.652e-06,6.2,12.9
1.656e-06,4.6,13.1
1.660e-06,5,12.5
1.664e-06,5,12.9
1.668e-06,5.4,12.7
1.672e-06,5,12.9
1.676e-06,4.6,13.1
1.680e-06,5,12.9
1.684e-06,5.4,12.3
1.688e-06,5,12.7
1.692e-06,5.4,12.5
1.696e-06,5,12.7
1.700e-06,5,11.9
1.704e-06,5.4,12.3
1.708e-06,5.4,12.3
1.712e-06,4.6,12.3
1.716e-06,4.6,12.5
1.720e-06,4.6,12.1
1.724e-06,4.2,11.7
1.728e-06,5,11.9
1.732e-06,5,11.7
1.736e-06,4.2,12.1
1.740e-06,4.2,11.7
1.744e-06,3.8,11.9
1.748e-06,4.6,11.9
1.752e-06,5,11.9
1.756e-06,4.6,11.9
1.760e-06,4.6,11.5
1.764e-06,4.2,11.5
1.768e-06,4.6,11.3
1.772e-06,4.6,11.1
1.776e-06,4.6,11.5
1.780e-06,3.8,11.3
1.784e-06,4.6,11.5
1.788e-06,4.2,11.7
1.792e-06,4.6,11.3
1.796e-06,4.2,11.3
1.800e-06,4.2,11.3
1.804e-06,4.6,11.1
1.808e-06,4.6,11.1
1.812e-06,4.6,11.3
1.816e-06,4.6,11.3
1.820e-06,3.4,11.5
1.824e-06,3.8,11.1
1.828e-06,4.6,11.1
1.832e-06,4.6,10.9
1.836e-06,4.2,10.9
1.840e-06,3.8,10.9
1.844e-06,4.2,10.7
1.848e-06,3.8,10.5
1.852e-06,3.4,10.5
1.856e-06,4.2,10.5
1.860e-06,4.2,10.7
1.864e-06,5,10.5
1.868e-06,4.6,10.7
1.872e-06,4.6,10.7
1.876e-06,3.8,10.5
1.880e-06,4.6,10.5
1.884e-06,4.6,10.1
1.888e-06,4.6,10.5
1.892e-06,3.8,10.7
1.896e-06,4.2,10.7
1.900e-06,4.6,10.7
1.904e-06,3.8,10.3
1.908e-06,4.2,10.3
1.912e-06,4.6,10.1
1.916e-06,4.6,10.1
1.920e-06,4.6,10.3
1.924e-06,4.6,10.3
1.928e-06,4.6,9.9
1.932e-06,4.2,10.3
1.936e-06,4.6,10.3
1.940e-06,4.2,9.7
1.944e-06,3.8,10.1
1.948e-06,4.2,10.1
1.952e-06,3.8,10.1
1.956e-06,4.2,10.1
1.960e-06,4.2,10.3
1.964e-06,4.2,10.1
1.968e-06,3.8,9.9
1.972e-06,3.8,9.9
1.976e-06,4.2,10.1
1.980e-06,3.8,9.9
1.984e-06,4.6,9.9
1.988e-06,4.2,9.9
1.992e-06,3.8,9.7
1.996e-06,4.6,9.7
2.000e-06,3.8,9.7
2.004e-06,3.8,9.7
2.008e-06,4.2,10.1
2.012e-06,3.8,9.7
2.016e-06,4.2,9.5
2.020e-06,4.6,9.5
2.024e-06,3.8,9.5
2.028e-06,5,9.7
2.032e-06,3.8,9.7
2.036e-06,5,9.5
2.040e-06,4.2,9.5
2.044e-06,4.6,9.7
2.048e-06,4.6,9.5
2.052e-06,4.6,9.5
2.056e-06,4.2,9.5
2.060e-06,4.6,9.5
2.064e-06,4.6,9.3
2.068e-06,4.2,9.5
2.072e-06,4.6,9.5
2.076e-06,4.6,9.3
2.080e-06,4.6,9.1
2.084e-06,4.6,9.5
2.088e-06,3.8,9.5
2.092e-06,4.2,9.3
2.096e-06,4.6,9.7
2.100e-06,4.6,9.3
2.104e-06,4.6,9.5
2.108e-06,3.8,9.1
2.112e-06,4.6,9.1
2.116e-06,5,9.5
2.120e-06,4.6,9.1
2.124e-06,4.2,9.1
2.128e-06,5,9.1
2.132e-06,4.6,8.7
2.136e-06,5,9.1
2.140e-06,4.2,9.3
2.144e-06,4.6,9.1
2.148e-06,3.8,8.9
2.152e-06,4.6,9.1
2.156e-06,5,9.1
2.160e-06,5,9.3
2.164e-06,5,8.7
2.168e-06,5.4,8.9
2.172e-06,4.6,9.1
2.176e-06,5,8.9
2.180e-06,4.6,8.9
2.184e-06,3.8,9.1
2.188e-06,5,8.7
2.192e-06,5,8.7
2.196e-06,4.6,8.9
2.200e-06,4.6,8.5
2.204e-06,4.6,8.7
2.208e-06,4.6,8.5
2.212e-06,4.6,8.9
2.216e-06,5,8.7
2.220e-06,4.6,8.5
2.224e-06,4.6,8.5
2.228e-06,5,8.7
2.232e-06,5.4,8.5
2.236e-06,4.6,9.1
2.240e-06,4.6,8.3
2.244e-06,4.6,8.7
2.248e-06,5,9.1
2.252e-06,5,8.7
2.256e-06,4.6,9.1
2.260e-06,5,8.9
2.264e-06,5,8.5
2.268e-06,5,8.3
2.272e-06,4.6,8.5
2.276e-06,5,8.3
2.280e-06,4.6,8.7
2.284e-06,4.6,8.7
2.288e-06,4.6,8.7
2.292e-06,5,8.7
2.296e-06,5,8.1
2.300e-06,4.2,8.7
2.304e-06,5,8.7
2.308e-06,4.6,8.7
2.312e-06,5,8.5
2.316e-06,5,8.5
2.320e-06,5,8.3
2.324e-06,4.6,8.5
2.328e-06,5.8,8.3
2.332e-06,4.6,8.7
2.336e-06,4.6,8.1
2.340e-06,5.8,8.5
2.344e-06,5,8.3
2.348e-06,4.6,8.5
2.352e-06,5.4,8.7
2.356e-06,5,8.1
2.360e-06,4.6,8.1
2.364e-06,5,8.1
2.368e-06,4.6,8.3
2.372e-06,5,8.3
2.376e-06,5,8.1
2.380e-06,4.6,8.3
2.384e-06,4.6,8.1
2.388e-06,5,8.3
2.392e-06,4.6,8.3
2.396e-06,4.6,8.1
2.400e-06,5,7.9
2.404e-06,4.6,7.9
2.408e-06,5.4,8.1
2.412e-06,5.8,7.7
2.416e-06,5.4,8.1
2.420e-06,4.6,8.1
2.424e-06,4.6,8.1
2.428e-06,5,7.9
2.432e-06,5,8.1
2.436e-06,5,8.1
2.440e-06,5,7.9
2.444e-06,5,7.9
2.448e-06,5.4,8.1
2.452e-06,5,7.9
2.456e-06,5,7.7
2.460e-06,5.4,8.3
2.464e-06,5,7.7
2.468e-06,5.4,7.7
2.472e-06,5,7.9
2.476e-06,5,7.9
2.480e-06,4.6,7.7
2.484e-06,5,7.7
2.488e-06,5,7.7
2.492e-06,5.4,7.5
2.496e-06,5,7.5
2.500e-06,4.6,7.5
2.504e-06,5,7.7
2.508e-06,5.4,7.5
2.512e-06,4.6,7.7
2.516e-06,4.6,7.9
2.520e-06,5,7.9
2.524e-06,5,7.5
2.528e-06,4.6,7.7
2.532e-06,5,7.5
2.536e-06,5.8,7.7
2.540e-06,5,7.5
2.544e-06,5,7.7
2.548e-06,5,7.5
2.552e-06,4.6,7.7
2.556e-06,5.8,7.7
2.560e-06,4.6,7.5
2.564e-06,5,7.7
2.568e-06,5,7.3
2.572e-06,5,7.3
2.576e-06,4.2,7.5
2.580e-06,4.6,7.3
2.584e-06,4.6,7.1
2.588e-06,5,7.5
2.592e-06,5,7.9
2.596e-06,4.6,7.5
2.600e-06,5.4,7.5
2.604e-06,5,7.5
2.608e-06,4.6,7.7
2.612e-06,5.4,7.3
2.616e-06,5,7.3
2.620e-06,5.8,7.3
2.624e-06,4.6,7.1
2.628e-06,5.4,7.1
2.632e-06,5,7.5
2.636e-06,5,7.3
2.640e-06,4.6,7.3
2.644e-06,4.6,7.1
2.648e-06,5.4,7.1
2.652e-06,5,7.3
2.656e-06,5,6.9
2.660e-06,5,7.1
2.664e-06,5.4,7.5
2.668e-06,5.8,7.5
2.672e-06,5,7.1
2.676e-06,4.6,7.5
2.680e-06,4.6,7.1
2.684e-06,4.2,7.1
2.688e-06,4.6,7.1
2.692e-06,5,7.3
2.696e-06,4.2,7.1
2.700e-06,5,7.1
2.704e-06,5.4,7.5
2.708e-06,5.4,7.1
2.712e-06,5,6.9
2.716e-06,4.6,7.1
2.720e-06,5.4,7.1
2.724e-06,5,7.1
2.728e-06,5.4,7.1
2.732e-06,4.6,6.9
2.736e-06,5.8,7.3
2.740e-06,5,6.9
2.744e-06,4.6,7.1
2.748e-06,5,7.3
2.752e-06,5,6.9
2.756e-06,5.4,6.9
2.760e-06,4.6,6.9
2.764e-06,5.4,6.9
2.768e-06,5,7.1
2.772e-06,4.6,6.9
2.776e-06,4.6,6.9
2.780e-06,5,7.1
2.784e-06,4.6,6.9
2.788e-06,4.6,6.9
2.792e-06,5.4,6.9
2.796e-06,5.4,6.9
2.800e-06,4.6,6.9
2.804e-06,5,6.9
2.808e-06,5,6.5
2.812e-06,5,6.9
2.816e-06,5,6.7
2.820e-06,5,6.7
2.824e-06,5,6.9
2.828e-06,5,6.9
2.832e-06,4.6,6.9
2.836e-06,5.4,6.9
2.840e-06,5.4,6.5
2.844e-06,5,6.9
2.848e-06,5.8,6.7
2.852e-06,4.2,6.9
2.856e-06,5.4,6.7
2.860e-06,5,6.5
2.864e-06,5,7.3
2.868e-06,5.4,6.7
2.872e-06,5.4,6.9
2.876e-06,4.2,6.7
2.880e-06,5,6.9
2.884e-06,5,6.7
2.888e-06,4.6,6.9
2.892e-06,5,6.9
2.896e-06,4.6,6.7
2.900e-06,4.6,6.3
2.904e-06,5.4,6.7
2.908e-06,5,6.9
2.912e-06,5,6.5
2.916e-06,4.2,6.7
2.920e-06,5,6.7
2.924e-06,4.6,6.9
2.928e-06,5,6.3
2.932e-06,5,6.5
2.936e-06,5,6.9
2.940e-06,5,6.7
2.944e-06,5.4,6.9

