Archivos Guadalupe/Data/1410-32-X4/24-10/D-24-10/tek0004ALL.csv

Model,DPO3034
Firmware Version,2.16

Point Format,Y,
Horizontal Units,S,
Horizontal Scale,2e-06,
Sample Interval,2e-08,
Record Length,1000,
Gating,0.0% to 100.0%,0.0% to 100.0%
Probe Attenuation,1,1
Vertical Units,V,V
Vertical Offset,0,0
Vertical Scale,5,1
Label,,
TIME,CH1,CH2
-2.620e-06,0,-0.06
-2.600e-06,-0.2,-0.02
-2.580e-06,0,-0.06
-2.560e-06,0,-0.02
-2.540e-06,-0.2,-0.02
-2.520e-06,0.2,-0.06
-2.500e-06,0,-0.06
-2.480e-06,0.4,-0.02
-2.460e-06,0,-0.06
-2.440e-06,0,-0.06
-2.420e-06,0,-0.02
-2.400e-06,0,-0.02
-2.380e-06,0.2,0.02
-2.360e-06,0.2,-0.02
-2.340e-06,0.2,-0.02
-2.320e-06,0.4,-0.02
-2.300e-06,0.4,0.02
-2.280e-06,0.2,0.06
-2.260e-06,0.2,-0.02
-2.240e-06,0.2,0.06
-2.220e-06,0,-0.02
-2.200e-06,0.2,0.02
-2.180e-06,0.4,0.1
-2.160e-06,0.4,0.06
-2.140e-06,0.2,0.02
-2.120e-06,0.4,0.06
-2.100e-06,0.2,0.02
-2.080e-06,0.6,0.06
-2.060e-06,0.4,0.1
-2.040e-06,0.6,-0.02
-2.020e-06,0.2,0.06
-2.000e-06,0,0.1
-1.980e-06,0.4,0.1
-1.960e-06,0,0.1
-1.940e-06,0.2,0.06
-1.920e-06,0.4,0.1
-1.900e-06,0.8,0.1
-1.880e-06,0.4,0.14
-1.860e-06,0.4,0.18
-1.840e-06,0.8,0.14
-1.820e-06,0.4,0.1
-1.800e-06,0.6,0.1
-1.780e-06,0.6,0.14
-1.760e-06,0.6,0.22
-1.740e-06,0.8,0.22
-1.720e-06,1,0.3
-1.700e-06,1,0.22
-1.680e-06,1,0.18
-1.660e-06,1,0.3
-1.640e-06,0.6,0.26
-1.620e-06,1.2,0.26
-1.600e-06,0.8,0.3
-1.580e-06,1.2,0.34
-1.560e-06,1.4,0.38
-1.540e-06,1.4,0.42
-1.520e-06,1.4,0.38
-1.500e-06,1.2,0.42
-1.480e-06,1.4,0.34
-1.460e-06,1.2,0.38
-1.440e-06,1.2,0.42
-1.420e-06,1.6,0.46
-1.400e-06,1.6,0.46
-1.380e-06,1.4,0.5
-1.360e-06,1.8,0.42
-1.340e-06,1.2,0.5
-1.320e-06,1.4,0.5
-1.300e-06,1.4,0.5
-1.280e-06,1.2,0.5
-1.260e-06,1.8,0.5
-1.240e-06,1.6,0.5
-1.220e-06,1.2,0.54
-1.200e-06,1.6,0.46
-1.180e-06,1.6,0.5
-1.160e-06,1.6,0.54
-1.140e-06,1.6,0.5
-1.120e-06,1.6,0.46
-1.100e-06,1.6,0.42
-1.080e-06,1.6,0.54
-1.060e-06,2,0.54
-1.040e-06,1.8,0.5
-1.020e-06,1.4,0.46
-1.000e-06,1.6,0.5
-9.800e-07,1.6,0.62
-9.600e-07,1.8,0.5
-9.400e-07,1.6,0.5
-9.200e-07,1.6,0.46
-9.000e-07,1.6,0.5
-8.800e-07,1.4,0.58
-8.600e-07,1.4,0.46
-8.400e-07,1.4,0.5
-8.200e-07,1.8,0.46
-8.000e-07,1.6,0.5
-7.800e-07,1.6,0.54
-7.600e-07,1.8,0.42
-7.400e-07,1.8,0.54
-7.200e-07,1.6,0.38
-7.000e-07,1.8,0.54
-6.800e-07,1.8,0.46
-6.600e-07,1.6,0.46
-6.400e-07,1.8,0.42
-6.200e-07,1.6,0.46
-6.000e-07,1.6,0.5
-5.800e-07,1.8,0.38
-5.600e-07,1.8,0.46
-5.400e-07,1.4,0.46
-5.200e-07,1.6,0.58
-5.000e-07,1.6,0.54
-4.800e-07,1.8,0.62
-4.600e-07,2.2,0.7
-4.400e-07,2.2,0.7
-4.200e-07,2.6,0.74
-4.000e-07,3,0.9
-3.800e-07,3.2,1.02
-3.600e-07,3.2,1.1
-3.400e-07,3.8,1.26
-3.200e-07,4,1.34
-3.000e-07,4.4,1.46
-2.800e-07,4.4,1.58
-2.600e-07,4.6,1.66
-2.400e-07,5,1.7
-2.200e-07,5.2,1.86
-2.000e-07,5.8,1.98
-1.800e-07,6,2.06
-1.600e-07,5.8,2.1
-1.400e-07,6.4,2.26
-1.200e-07,6.8,2.38
-1.000e-07,7.4,2.54
-8.000e-08,7.2,2.58
-6.000e-08,7.4,2.7
-4.000e-08,8,2.74
-2.000e-08,8.4,2.86
-5.393e-21,8.6,2.98
2.000e-08,9,3.1
4.000e-08,9.2,3.22
6.000e-08,9.6,3.26
8.000e-08,10,3.5
1.000e-07,10,3.5
1.200e-07,10.2,3.66
1.400e-07,10.6,3.74
1.600e-07,11,3.82
1.800e-07,10.8,3.98
2.000e-07,11.4,4.14
2.200e-07,11.6,4.14
2.400e-07,12.2,4.26
2.600e-07,12.4,4.42
2.800e-07,12.4,4.54
3.000e-07,13,4.58
3.200e-07,13.2,4.74
3.400e-07,13.4,4.74
3.600e-07,14,4.98
3.800e-07,14,5.02
4.000e-07,14.6,5.1
4.200e-07,14.4,5.26
4.400e-07,14.8,5.26
4.600e-07,15,5.22
4.800e-07,14.8,5.38
5.000e-07,14.8,5.42
5.200e-07,15,5.42
5.400e-07,15.2,5.54
5.600e-07,15.2,5.5
5.800e-07,15,5.58
6.000e-07,15,5.58
6.200e-07,14.8,5.54
6.400e-07,15.4,5.54
6.600e-07,15,5.58
6.800e-07,15,5.54
7.000e-07,15.2,5.62
7.200e-07,15.4,5.66
7.400e-07,15,5.58
7.600e-07,15,5.58
7.800e-07,15,5.7
8.000e-07,15,5.62
8.200e-07,15,5.7
8.400e-07,15.2,5.58
8.600e-07,15.6,5.62
8.800e-07,15.4,5.66
9.000e-07,15.6,5.66
9.200e-07,15,5.62
9.400e-07,15.2,5.74
9.600e-07,15,5.7
9.800e-07,15.4,5.7
1.000e-06,15.2,5.74
1.020e-06,15.4,5.7
1.040e-06,15.6,5.74
1.060e-06,15.2,5.74
1.080e-06,15.4,5.66
1.100e-06,15.2,5.78
1.120e-06,15.2,5.82
1.140e-06,15.2,5.74
1.160e-06,15.4,5.78
1.180e-06,15.2,5.74
1.200e-06,15.2,5.7
1.220e-06,15.4,5.7
1.240e-06,15.4,5.74
1.260e-06,15.2,5.66
1.280e-06,15.4,5.74
1.300e-06,15.2,5.78
1.320e-06,15.2,5.78
1.340e-06,15,5.74
1.360e-06,15,5.74
1.380e-06,15.4,5.74
1.400e-06,15.4,5.74
1.420e-06,15.2,5.74
1.440e-06,15,5.86
1.460e-06,15.2,5.7
1.480e-06,15.2,5.74
1.500e-06,15,5.78
1.520e-06,15,5.66
1.540e-06,14.8,5.66
1.560e-06,14.8,5.58
1.580e-06,14.6,5.5
1.600e-06,14.6,5.42
1.620e-06,14.2,5.42
1.640e-06,14,5.22
1.660e-06,14,5.22
1.680e-06,13.4,5.02
1.700e-06,13.4,4.98
1.720e-06,13,4.82
1.740e-06,12.4,4.78
1.760e-06,12.2,4.58
1.780e-06,12.2,4.54
1.800e-06,11.6,4.38
1.820e-06,11.4,4.26
1.840e-06,11.2,4.1
1.860e-06,10.8,4.02
1.880e-06,10.6,3.86
1.900e-06,9.8,3.7
1.920e-06,9.8,3.54
1.940e-06,9.6,3.5
1.960e-06,8.8,3.3
1.980e-06,8.6,3.18
2.000e-06,8,3.02
2.020e-06,8.2,2.98
2.040e-06,7.8,2.86
2.060e-06,7.4,2.7
2.080e-06,7.4,2.54
2.100e-06,7,2.5
2.120e-06,6.8,2.34
2.140e-06,6.6,2.3
2.160e-06,6.2,2.14
2.180e-06,5.8,2.1
2.200e-06,5.6,1.9
2.220e-06,5.4,1.86
2.240e-06,5.4,1.7
2.260e-06,5,1.62
2.280e-06,4.6,1.54
2.300e-06,4.2,1.42
2.320e-06,4,1.34
2.340e-06,3.6,1.18
2.360e-06,3.6,1.18
2.380e-06,3.6,1.02
2.400e-06,3.2,0.9
2.420e-06,3,0.82
2.440e-06,2.2,0.78
2.460e-06,2.4,0.66
2.480e-06,2,0.58
2.500e-06,2,0.54
2.520e-06,2.2,0.5
2.540e-06,1.6,0.46
2.560e-06,1.6,0.3
2.580e-06,1.8,0.42
2.600e-06,1.6,0.42
2.620e-06,1.8,0.3
2.640e-06,1.2,0.22
2.660e-06,1.8,0.22
2.680e-06,1.2,0.26
2.700e-06,1.2,0.22
2.720e-06,1.2,0.22
2.740e-06,1.6,0.22
2.760e-06,1.4,0.18
2.780e-06,1,0.1
2.800e-06,1.4,0.14
2.820e-06,1.2,0.1
2.840e-06,1,0.06
2.860e-06,1.4,0.14
2.880e-06,1.4,0.18
2.900e-06,1.4,0.14
2.920e-06,1.4,0.18
2.940e-06,1.2,0.14
2.960e-06,1.4,0.18
2.980e-06,1.4,0.18
3.000e-06,1.6,0.18
3.020e-06,1.2,0.14
3.040e-06,1.2,0.26
3.060e-06,1.4,0.22
3.080e-06,1.6,0.26
3.100e-06,1.6,0.18
3.120e-06,1.4,0.3
3.140e-06,1.4,0.22
3.160e-06,1.4,0.26
3.180e-06,1.2,0.26
3.200e-06,1.2,0.22
3.220e-06,1.8,0.26
3.240e-06,1.4,0.18
3.260e-06,1.6,0.26
3.280e-06,1.4,0.3
3.300e-06,1.6,0.22
3.320e-06,1.6,0.3
3.340e-06,1.6,0.38
3.360e-06,1.8,0.26
3.380e-06,1.6,0.3
3.400e-06,1.6,0.3
3.420e-06,1.6,0.26
3.440e-06,1.8,0.22
3.460e-06,1.4,0.26
3.480e-06,1.6,0.34
3.500e-06,1.6,0.3
3.520e-06,1.6,0.26
3.540e-06,1.6,0.34
3.560e-06,1.6,0.34
3.580e-06,1.6,0.26
3.600e-06,1.6,0.26
3.620e-06,2,0.26
3.640e-06,1.8,0.26
3.660e-06,1.8,0.34
3.680e-06,1.8,0.3
3.700e-06,1.6,0.34
3.720e-06,1.6,0.26
3.740e-06,1.6,0.38
3.760e-06,1.6,0.3
3.780e-06,1.6,0.3
3.800e-06,1.6,0.22
3.820e-06,1.6,0.3
3.840e-06,1.6,0.3
3.860e-06,2,0.3
3.880e-06,1.6,0.22
3.900e-06,1.6,0.22
3.920e-06,1.8,0.34
3.940e-06,1.6,0.26
3.960e-06,1.8,0.3
3.980e-06,1.6,0.22
4.000e-06,1.4,0.34
4.020e-06,1.6,0.3
4.040e-06,1.6,0.26
4.060e-06,1.6,0.3
4.080e-06,1.6,0.3
4.100e-06,1.8,0.34
4.120e-06,1.8,0.38
4.140e-06,1.6,0.3
4.160e-06,2,0.3
4.180e-06,1.8,0.26
4.200e-06,1.4,0.22
4.220e-06,1.6,0.34
4.240e-06,1.4,0.26
4.260e-06,2,0.18
4.280e-06,1.8,0.26
4.300e-06,1.6,0.18
4.320e-06,1.8,0.26
4.340e-06,1.8,0.22
4.360e-06,1.8,0.22
4.380e-06,1.8,0.3
4.400e-06,1.6,0.22
4.420e-06,1.8,0.22
4.440e-06,1.6,0.3
4.460e-06,1.6,0.3
4.480e-06,2,0.22
4.500e-06,1.6,0.26
4.520e-06,2,0.22
4.540e-06,1.6,0.26
4.560e-06,1.8,0.22
4.580e-06,1.8,0.26
4.600e-06,1.4,0.3
4.620e-06,1.8,0.3
4.640e-06,1.6,0.18
4.660e-06,1.8,0.26
4.680e-06,1.8,0.26
4.700e-06,1.6,0.3
4.720e-06,1.8,0.34
4.740e-06,1.8,0.18
4.760e-06,1.8,0.22
4.780e-06,1.4,0.26
4.800e-06,1.4,0.26
4.820e-06,1.6,0.3
4.840e-06,2,0.22
4.860e-06,1.4,0.26
4.880e-06,1.6,0.3
4.900e-06,1.8,0.22
4.920e-06,1.6,0.22
4.940e-06,1.6,0.3
4.960e-06,2,0.26
4.980e-06,1.6,0.18
5.000e-06,1.6,0.18
5.020e-06,1.6,0.18
5.040e-06,1.8,0.22
5.060e-06,1.8,0.3
5.080e-06,1.4,0.22
5.100e-06,1.6,0.26
5.120e-06,1.6,0.3
5.140e-06,1.8,0.18
5.160e-06,1.6,0.26
5.180e-06,2,0.22
5.200e-06,1.4,0.26
5.220e-06,1.8,0.3
5.240e-06,2,0.18
5.260e-06,2,0.22
5.280e-06,1.6,0.26
5.300e-06,1.8,0.18
5.320e-06,1.4,0.22
5.340e-06,1.4,0.26
5.360e-06,1.6,0.22
5.380e-06,1.8,0.26
5.400e-06,1.6,0.3
5.420e-06,1.6,0.18
5.440e-06,1.8,0.22
5.460e-06,1.8,0.22
5.480e-06,2,0.22
5.500e-06,1.6,0.18
5.520e-06,1.6,0.26
5.540e-06,1.8,0.22
5.560e-06,1.8,0.18
5.580e-06,1.6,0.26
5.600e-06,1.4,0.22
5.620e-06,1.6,0.18
5.640e-06,1.6,0.26
5.660e-06,1.8,0.22
5.680e-06,1.4,0.26
5.700e-06,1.6,0.26
5.720e-06,1.6,0.14
5.740e-06,2,0.22
5.760e-06,1.8,0.18
5.780e-06,1.8,0.22
5.800e-06,1.8,0.22
5.820e-06,1.6,0.14
5.840e-06,1.4,0.26
5.860e-06,2,0.18
5.880e-06,1.6,0.22
5.900e-06,1.6,0.18
5.920e-06,1.6,0.14
5.940e-06,1.8,0.18
5.960e-06,1.6,0.18
5.980e-06,1.6,0.22
6.000e-06,1.6,0.18
6.020e-06,1.6,0.22
6.040e-06,1.8,0.14
6.060e-06,1.6,0.1
6.080e-06,1.8,0.22
6.100e-06,1.8,0.18
6.120e-06,1.8,0.22
6.140e-06,1.6,0.22
6.160e-06,1.8,0.14
6.180e-06,1.4,0.26
6.200e-06,1.6,0.1
6.220e-06,1.6,0.18
6.240e-06,2,0.22
6.260e-06,1.6,0.18
6.280e-06,2,0.22
6.300e-06,1.6,0.26
6.320e-06,1.6,0.22
6.340e-06,1.6,0.1
6.360e-06,1.4,0.18
6.380e-06,1.6,0.18
6.400e-06,1.6,0.18
6.420e-06,1.8,0.22
6.440e-06,1.6,0.22
6.460e-06,1.8,0.18
6.480e-06,1.6,0.18
6.500e-06,1.8,0.14
6.520e-06,1.8,0.22
6.540e-06,2,0.18
6.560e-06,1.6,0.22
6.580e-06,1.6,0.22
6.600e-06,1.6,0.14
6.620e-06,1.4,0.22
6.640e-06,1.8,0.14
6.660e-06,1.2,0.14
6.680e-06,1.8,0.14
6.700e-06,1.6,0.22
6.720e-06,1.4,0.18
6.740e-06,1.8,0.18
6.760e-06,1.6,0.06
6.780e-06,1.4,0.14
6.800e-06,1.6,0.14
6.820e-06,1.6,0.22
6.840e-06,1.6,0.26
6.860e-06,1.4,0.18
6.880e-06,1.4,0.14
6.900e-06,1.4,0.18
6.920e-06,1.8,0.14
6.940e-06,1.8,0.14
6.960e-06,1.6,0.1
6.980e-06,1.8,0.14
7.000e-06,1.8,0.18
7.020e-06,1.4,0.18
7.040e-06,1.8,0.22
7.060e-06,1.6,0.14
7.080e-06,1.8,0.1
7.100e-06,1.8,0.18
7.120e-06,1.8,0.18
7.140e-06,1.6,0.18
7.160e-06,1.8,0.18
7.180e-06,1.6,0.14
7.200e-06,1.8,0.18
7.220e-06,1.4,0.18
7.240e-06,1.6,0.14
7.260e-06,1.6,0.26
7.280e-06,2,0.26
7.300e-06,1.4,0.1
7.320e-06,1.8,0.18
7.340e-06,1.6,0.18
7.360e-06,1.8,0.14
7.380e-06,1.6,0.22
7.400e-06,1.4,0.26
7.420e-06,1.6,0.14
7.440e-06,1.6,0.18
7.460e-06,1.6,0.14
7.480e-06,1.2,0.22
7.500e-06,1.6,0.14
7.520e-06,1.8,0.18
7.540e-06,1.6,0.18
7.560e-06,1.8,0.18
7.580e-06,1.8,0.1
7.600e-06,1.6,0.14
7.620e-06,1.8,0.18
7.640e-06,1.6,0.18
7.660e-06,1.4,0.18
7.680e-06,1.4,0.22
7.700e-06,1.6,0.14
7.720e-06,1.8,0.1
7.740e-06,1.6,0.18
7.760e-06,1.6,0.14
7.780e-06,1.8,0.1
7.800e-06,1.4,0.14
7.820e-06,1.6,0.1
7.840e-06,1.6,0.14
7.860e-06,1.6,0.18
7.880e-06,1.8,0.14
7.900e-06,1.2,0.18
7.920e-06,1.6,0.18
7.940e-06,1.4,0.18
7.960e-06,1.6,0.14
7.980e-06,1.8,0.1
8.000e-06,1.6,0.14
8.020e-06,1.6,0.18
8.040e-06,1.6,0.18
8.060e-06,1.6,0.18
8.080e-06,1.8,0.18
8.100e-06,1.6,0.18
8.120e-06,1.8,0.14
8.140e-06,1.4,0.18
8.160e-06,1.6,0.22
8.180e-06,1.8,0.18
8.200e-06,1.6,0.18
8.220e-06,1.8,0.18
8.240e-06,1.6,0.14
8.260e-06,1,0.1
8.280e-06,1.4,0.1
8.300e-06,1.8,0.18
8.320e-06,1.8,0.22
8.340e-06,1.8,0.18
8.360e-06,1.6,0.18
8.380e-06,1.4,0.18
8.400e-06,1.8,0.14
8.420e-06,1.6,0.18
8.440e-06,1.6,0.1
8.460e-06,1.6,0.14
8.480e-06,1.4,0.18
8.500e-06,1.8,0.26
8.520e-06,1.8,0.18
8.540e-06,1.8,0.14
8.560e-06,1.4,0.1
8.580e-06,1.6,0.18
8.600e-06,1.8,0.18
8.620e-06,1.6,0.14
8.640e-06,1.8,0.18
8.660e-06,1.6,0.22
8.680e-06,1.8,0.14
8.700e-06,1.6,0.14
8.720e-06,1.6,0.14
8.740e-06,1.4,0.14
8.760e-06,1.8,0.14
8.780e-06,1.6,0.14
8.800e-06,1.8,0.14
8.820e-06,1.6,0.14
8.840e-06,2,0.14
8.860e-06,1.6,0.14
8.880e-06,1.6,0.18
8.900e-06,1.6,0.18
8.920e-06,1.8,0.1
8.940e-06,1.4,0.14
8.960e-06,1.8,0.22
8.980e-06,1.8,0.14
9.000e-06,1.6,0.06
9.020e-06,1.6,0.06
9.040e-06,2,0.18
9.060e-06,1.6,0.1
9.080e-06,1.6,0.14
9.100e-06,2,0.18
9.120e-06,1.6,0.18
9.140e-06,1.6,0.14
9.160e-06,1.6,0.18
9.180e-06,1.2,0.14
9.200e-06,2,0.14
9.220e-06,1.8,0.14
9.240e-06,1.6,0.18
9.260e-06,1.6,0.14
9.280e-06,1.6,0.18
9.300e-06,1.6,0.18
9.320e-06,1.8,0.18
9.340e-06,1.4,0.14
9.360e-06,1.6,0.18
9.380e-06,1.8,0.1
9.400e-06,1.8,0.1
9.420e-06,1.6,0.1
9.440e-06,1.6,0.1
9.460e-06,1.6,0.1
9.480e-06,1.6,0.22
9.500e-06,2,0.18
9.520e-06,1.8,0.18
9.540e-06,1.4,0.06
9.560e-06,1.6,0.14
9.580e-06,1.8,0.1
9.600e-06,1.6,0.18
9.620e-06,1.6,0.14
9.640e-06,1.4,0.02
9.660e-06,1.4,0.06
9.680e-06,2,0.22
9.700e-06,1.6,0.06
9.720e-06,1.8,0.1
9.740e-06,1.6,0.14
9.760e-06,1.2,0.1
9.780e-06,1.4,0.18
9.800e-06,1.8,0.14
9.820e-06,1.8,0.14
9.840e-06,1.6,0.1
9.860e-06,2,0.06
9.880e-06,1.6,0.18
9.900e-06,1.8,0.14
9.920e-06,1.6,0.14
9.940e-06,1.6,0.1
9.960e-06,1.6,0.18
9.980e-06,1.6,0.14
1.000e-05,1.8,0.06
1.002e-05,1.6,0.1
1.004e-05,1.8,0.1
1.006e-05,1.6,0.1
1.008e-05,1.6,0.1
1.010e-05,1.8,0.1
1.012e-05,1.4,0.1
1.014e-05,1.6,0.1
1.016e-05,1.6,0.1
1.018e-05,1.6,0.18
1.020e-05,1.8,0.06
1.022e-05,1.8,0.06
1.024e-05,1.8,0.1
1.026e-05,1.6,0.1
1.028e-05,1.4,0.1
1.030e-05,1.2,0.14
1.032e-05,1.4,0.1
1.034e-05,1.6,0.14
1.036e-05,1.4,0.18
1.038e-05,1.8,0.18
1.040e-05,1.6,0.18
1.042e-05,1.8,0.06
1.044e-05,1.6,0.14
1.046e-05,1.6,0.14
1.048e-05,1.4,0.18
1.050e-05,1.6,0.18
1.052e-05,1.8,0.14
1.054e-05,1.2,0.22
1.056e-05,1.8,0.14
1.058e-05,1.6,0.18
1.060e-05,1.8,0.18
1.062e-05,1.6,0.14
1.064e-05,2,0.06
1.066e-05,1.6,0.14
1.068e-05,1.6,0.1
1.070e-05,1.6,0.18
1.072e-05,1.6,0.1
1.074e-05,1.6,0.22
1.076e-05,1.6,0.18
1.078e-05,1.8,0.22
1.080e-05,1.6,0.14
1.082e-05,2,0.1
1.084e-05,1.8,0.14
1.086e-05,1.8,0.06
1.088e-05,2,0.06
1.090e-05,1.8,0.14
1.092e-05,2,0.14
1.094e-05,1.8,0.1
1.096e-05,1.8,0.1
1.098e-05,1.6,0.1
1.100e-05,1.4,0.18
1.102e-05,1.6,0.14
1.104e-05,1.4,0.18
1.106e-05,1.2,0.14
1.108e-05,1.4,-0.02
1.110e-05,1.6,0.14
1.112e-05,1.8,0.06
1.114e-05,1.6,0.14
1.116e-05,1.4,0.1
1.118e-05,1.8,0.06
1.120e-05,1.8,0.1
1.122e-05,1.6,0.14
1.124e-05,1.4,0.1
1.126e-05,1.8,0.14
1.128e-05,1.6,0.14
1.130e-05,1.6,0.18
1.132e-05,1.4,0.14
1.134e-05,1.6,0.14
1.136e-05,1.4,0.02
1.138e-05,1.6,0.1
1.140e-05,1.6,0.18
1.142e-05,1,0.1
1.144e-05,1.6,0.14
1.146e-05,1.8,0.18
1.148e-05,1.8,0.1
1.150e-05,1.4,0.1
1.152e-05,1.6,0.14
1.154e-05,1.4,0.06
1.156e-05,1.2,0.14
1.158e-05,1.6,0.18
1.160e-05,1.8,0.1
1.162e-05,1.6,0.1
1.164e-05,1.8,0.06
1.166e-05,1.2,0.1
1.168e-05,1.6,0.18
1.170e-05,1.6,0.1
1.172e-05,1.6,0.1
1.174e-05,1.6,0.14
1.176e-05,1.8,0.06
1.178e-05,1.8,0.1
1.180e-05,1.4,0.06
1.182e-05,1.6,0.06
1.184e-05,1.8,0.02
1.186e-05,1.6,0.06
1.188e-05,1.6,0.1
1.190e-05,1.6,0.14
1.192e-05,1.8,0.1
1.194e-05,1.4,0.1
1.196e-05,1.4,0.18
1.198e-05,1.6,0.14
1.200e-05,1.6,0.18
1.202e-05,1.6,0.1
1.204e-05,1.8,0.1
1.206e-05,1.2,0.06
1.208e-05,1.8,0.1
1.210e-05,1.6,0.1
1.212e-05,1.6,0.14
1.214e-05,1.6,0.06
1.216e-05,1.6,0.14
1.218e-05,1.6,0.1
1.220e-05,1.4,0.14
1.222e-05,1.6,0.14
1.224e-05,1.6,0.1
1.226e-05,1.6,0.14
1.228e-05,1.6,0.14
1.230e-05,1.6,0.1
1.232e-05,1.6,0.18
1.234e-05,1.8,0.1
1.236e-05,1.8,0.14
1.238e-05,1.8,0.02
1.240e-05,1.8,0.14
1.242e-05,1.4,0.1
1.244e-05,1.8,0.1
1.246e-05,1.6,0.02
1.248e-05,1.6,0.1
1.250e-05,1.8,0.06
1.252e-05,1.4,0.14
1.254e-05,1.6,0.06
1.256e-05,1.6,0.06
1.258e-05,1.8,0.14
1.260e-05,1.6,0.18
1.262e-05,1.8,0.1
1.264e-05,1.6,0.1
1.266e-05,1.8,0.1
1.268e-05,1.6,0.18
1.270e-05,1.6,0.14
1.272e-05,1.8,0.06
1.274e-05,1.2,0.14
1.276e-05,1.8,0.1
1.278e-05,1.6,0.1
1.280e-05,2,0.1
1.282e-05,1.6,0.14
1.284e-05,1.4,0.02
1.286e-05,1.6,0.06
1.288e-05,1.6,0.22
1.290e-05,1.4,0.14
1.292e-05,1.6,0.1
1.294e-05,1.6,0.14
1.296e-05,1.8,0.1
1.298e-05,1.6,0.1
1.300e-05,1.4,0.14
1.302e-05,1.4,0.14
1.304e-05,1.6,0.1
1.306e-05,1.8,0.14
1.308e-05,1.6,0.06
1.310e-05,1.6,0.1
1.312e-05,1.6,0.06
1.314e-05,1.6,0.02
1.316e-05,1.4,0.1
1.318e-05,1.8,0.14
1.320e-05,1.6,0.14
1.322e-05,1.6,0.1
1.324e-05,1.6,0.06
1.326e-05,1.6,0.1
1.328e-05,1.6,0.14
1.330e-05,1.8,0.06
1.332e-05,1.6,0.14
1.334e-05,1.6,0.18
1.336e-05,1.8,0.1
1.338e-05,1.8,0.06
1.340e-05,1.6,0.14
1.342e-05,1.8,0.1
1.344e-05,1.6,0.1
1.346e-05,1.4,0.06
1.348e-05,1.8,0.18
1.350e-05,1.6,0.18
1.352e-05,1.6,0.1
1.354e-05,1.4,0.14
1.356e-05,1.6,0.1
1.358e-05,1.4,0.06
1.360e-05,1.6,0.1
1.362e-05,1.2,0.1
1.364e-05,1.8,0.14
1.366e-05,1.8,0.14
1.368e-05,1.8,0.1
1.370e-05,1.8,0.02
1.372e-05,1.8,0.1
1.374e-05,1.6,0.06
1.376e-05,1.6,0.1
1.378e-05,1.6,0.1
1.380e-05,1.6,0.06
1.382e-05,1.8,0.14
1.384e-05,1.6,0.18
1.386e-05,1.6,0.14
1.388e-05,1.6,0.06
1.390e-05,1.8,0.1
1.392e-05,1.4,0.02
1.394e-05,1.6,0.14
1.396e-05,1.8,0.14
1.398e-05,1.4,0.1
1.400e-05,1.8,0.06
1.402e-05,1.6,0.1
1.404e-05,1.4,0.18
1.406e-05,1.8,0.06
1.408e-05,1.6,0.06
1.410e-05,1.4,0.14
1.412e-05,1.8,0.06
1.414e-05,1.6,0.18
1.416e-05,1.8,0.1
1.418e-05,1.4,0.18
1.420e-05,1.6,0.1
1.422e-05,1.8,0.14
1.424e-05,1.8,0.14
1.426e-05,1.8,0.1
1.428e-05,1.4,0.14
1.430e-05,1.2,0.1
1.432e-05,1.6,0.1
1.434e-05,1.8,0.06
1.436e-05,1.4,0.06
1.438e-05,1.8,0.14
1.440e-05,1.8,0.18
1.442e-05,1.6,0.1
1.444e-05,1.4,0.1
1.446e-05,1.6,0.18
1.448e-05,1.4,0.1
1.450e-05,1.6,0.1
1.452e-05,1.4,0.14
1.454e-05,1.6,0.1
1.456e-05,2,0.1
1.458e-05,1.8,0.1
1.460e-05,1.6,0.1
1.462e-05,1.6,0.14
1.464e-05,1.6,0.1
1.466e-05,1.6,0.14
1.468e-05,1.6,0.1
1.470e-05,1.6,0.14
1.472e-05,1.6,0.1
1.474e-05,1.6,0.1
1.476e-05,1.8,0.06
1.478e-05,1.8,0.02
1.480e-05,1.8,0.14
1.482e-05,1.6,0.06
1.484e-05,1.8,0.1
1.486e-05,1.6,0.1
1.488e-05,1.8,0.1
1.490e-05,2,0.18
1.492e-05,1.6,0.1
1.494e-05,1.6,0.1
1.496e-05,1.6,0.1
1.498e-05,1.6,0.06
1.500e-05,1.6,0.1
1.502e-05,1.4,0.18
1.504e-05,1.6,0.1
1.506e-05,1.6,0.06
1.508e-05,1.8,0.02
1.510e-05,1.6,0.1
1.512e-05,1.6,0.06
1.514e-05,1.6,0.1
1.516e-05,1.6,0.14
1.518e-05,1.4,0.06
1.520e-05,1.6,0.1
1.522e-05,1.8,0.1
1.524e-05,1.6,0.14
1.526e-05,1.4,0.1
1.528e-05,1.4,0.14
1.530e-05,1.8,0.1
1.532e-05,1.4,0.1
1.534e-05,1.4,0.14
1.536e-05,1.4,0.02
1.538e-05,1.8,0.06
1.540e-05,1.6,0.14
1.542e-05,2,0.1
1.544e-05,1.6,0.06
1.546e-05,1.6,0.14
1.548e-05,1.6,0.1
1.550e-05,1.8,0.06
1.552e-05,1.8,0.06
1.554e-05,1.6,0.18
1.556e-05,1.8,0.1
1.558e-05,1.6,0.1
1.560e-05,1.6,0.06
1.562e-05,1.4,0.06
1.564e-05,1.8,0.14
1.566e-05,1.6,0.22
1.568e-05,1.6,0.1
1.570e-05,1.6,0.1
1.572e-05,1.6,0.06
1.574e-05,1.8,0.14
1.576e-05,1.6,0.14
1.578e-05,1.4,0.1
1.580e-05,1.6,0.26
1.582e-05,1.8,0.18
1.584e-05,1.4,0.1
1.586e-05,1.8,0.14
1.588e-05,1.6,0.14
1.590e-05,2,0.14
1.592e-05,1.8,0.14
1.594e-05,1.6,0.14
1.596e-05,1.4,0.06
1.598e-05,1.8,0.14
1.600e-05,1.6,0.02
1.602e-05,1.6,0.06
1.604e-05,1.8,0.06
1.606e-05,1.6,0.06
1.608e-05,1.6,0.1
1.610e-05,1.8,0.1
1.612e-05,1.6,0.14
1.614e-05,1.6,0.06
1.616e-05,1.4,0.06
1.618e-05,1.6,0.18
1.620e-05,1.4,0.1
1.622e-05,1.8,0.1
1.624e-05,1.6,0.02
1.626e-05,1.6,0.1
1.628e-05,1.8,0.14
1.630e-05,1.2,0.02
1.632e-05,1.4,0.1
1.634e-05,1.6,0.1
1.636e-05,1.8,0.1
1.638e-05,1.6,0.1
1.640e-05,1.8,0.06
1.642e-05,1.6,0.14
1.644e-05,1.6,0.14
1.646e-05,1.8,0.18
1.648e-05,1.2,0.06
1.650e-05,1.8,0.1
1.652e-05,1.4,0.14
1.654e-05,1.8,0.14
1.656e-05,1.6,0.1
1.658e-05,1.8,0.1
1.660e-05,1.8,0.02
1.662e-05,1.8,0.1
1.664e-05,1.6,0.06
1.666e-05,1.6,0.1
1.668e-05,1.4,0.06
1.670e-05,1.6,0.14
1.672e-05,1.4,0.14
1.674e-05,1.4,0.14
1.676e-05,1.6,0.1
1.678e-05,1.8,0.1
1.680e-05,1.6,0.06
1.682e-05,1.6,0.14
1.684e-05,1.6,0.1
1.686e-05,1.6,0.14
1.688e-05,1.6,0.1
1.690e-05,1.6,0.14
1.692e-05,1.4,0.22
1.694e-05,1.6,0.06
1.696e-05,1.6,0.1
1.698e-05,1.6,0.1
1.700e-05,1.6,0.1
1.702e-05,1.4,0.1
1.704e-05,1.4,0.06
1.706e-05,1.4,0.06
1.708e-05,1.4,0.14
1.710e-05,1.4,0.06
1.712e-05,1.8,0.06
1.714e-05,1.4,0.14
1.716e-05,1.6,0.1
1.718e-05,1.6,0.1
1.720e-05,1.6,0.14
1.722e-05,1.8,0.1
1.724e-05,1.8,0.1
1.726e-05,1.6,0.06
1.728e-05,1.6,0.18
1.730e-05,1.8,0.14
1.732e-05,1.6,0.1
1.734e-05,1.6,0.18
1.736e-05,1.4,0.1

