Archivos Guadalupe/Data/1410-32-X4/24-10/D-24-10/tek0031ALL.csv

Model,DPO3034
Firmware Version,2.16

Point Format,Y,
Horizontal Units,S,
Horizontal Scale,4e-07,
Sample Interval,4e-09,
Record Length,1000,
Gating,0.0% to 100.0%,0.0% to 100.0%
Probe Attenuation,1,1
Vertical Units,V,V
Vertical Offset,0,0
Vertical Scale,5,5
Label,,
TIME,CH1,CH2
-1.368e-06,0.2,0.1
-1.364e-06,0.2,0.1
-1.360e-06,0,-0.1
-1.356e-06,0.2,-0.1
-1.352e-06,0,0.1
-1.348e-06,0.6,0.3
-1.344e-06,0,0.1
-1.340e-06,0,0.1
-1.336e-06,0,-0.1
-1.332e-06,0.4,0.1
-1.328e-06,0.2,0.3
-1.324e-06,0,0.3
-1.320e-06,0.2,0.3
-1.316e-06,0.2,0.1
-1.312e-06,0,0.7
-1.308e-06,0.2,0.3
-1.304e-06,0,-0.1
-1.300e-06,0,-0.1
-1.296e-06,0.4,0.1
-1.292e-06,0.4,-0.1
-1.288e-06,0.2,0.1
-1.284e-06,0.2,-0.3
-1.280e-06,0.2,0.1
-1.276e-06,0,-0.1
-1.272e-06,0.4,0.1
-1.268e-06,0,0.1
-1.264e-06,0,-0.1
-1.260e-06,0.2,0.1
-1.256e-06,0.2,-0.1
-1.252e-06,0.2,0.1
-1.248e-06,0,-0.1
-1.244e-06,0.2,0.1
-1.240e-06,0,0.1
-1.236e-06,-0.2,0.1
-1.232e-06,0.2,-0.1
-1.228e-06,0.4,-0.1
-1.224e-06,0,0.3
-1.220e-06,0.4,-0.3
-1.216e-06,0,-0.1
-1.212e-06,0.2,-0.1
-1.208e-06,0,0.3
-1.204e-06,0,-0.1
-1.200e-06,0,0.1
-1.196e-06,0.4,0.1
-1.192e-06,0,-0.1
-1.188e-06,0.2,0.1
-1.184e-06,0.4,0.1
-1.180e-06,0.4,0.1
-1.176e-06,0,0.3
-1.172e-06,0.4,0.1
-1.168e-06,0.2,0.1
-1.164e-06,0.4,0.3
-1.160e-06,0,-0.1
-1.156e-06,0,0.3
-1.152e-06,0,0.1
-1.148e-06,0.2,-0.1
-1.144e-06,-0.2,-0.3
-1.140e-06,0.2,-0.1
-1.136e-06,0.4,-0.3
-1.132e-06,0,0.1
-1.128e-06,0,0.1
-1.124e-06,0.2,0.1
-1.120e-06,0.2,0.3
-1.116e-06,0.2,-0.1
-1.112e-06,0.4,0.1
-1.108e-06,0.4,0.1
-1.104e-06,0.4,0.1
-1.100e-06,0.4,0.3
-1.096e-06,0.6,0.1
-1.092e-06,0.2,0.1
-1.088e-06,0,0.1
-1.084e-06,0.2,0.1
-1.080e-06,0.4,-0.1
-1.076e-06,0.2,0.1
-1.072e-06,0.4,-0.1
-1.068e-06,0,0.1
-1.064e-06,0.4,-0.1
-1.060e-06,0,0.1
-1.056e-06,0,0.5
-1.052e-06,0.2,0.3
-1.048e-06,0.2,0.3
-1.044e-06,-0.2,0.3
-1.040e-06,0.4,0.3
-1.036e-06,0.2,0.1
-1.032e-06,0.4,-0.1
-1.028e-06,0.4,0.1
-1.024e-06,0.4,0.3
-1.020e-06,0.4,0.3
-1.016e-06,0.4,-0.3
-1.012e-06,0.4,0.1
-1.008e-06,0.2,0.1
-1.004e-06,0.4,0.5
-1.000e-06,0.2,0.1
-9.960e-07,0.4,0.1
-9.920e-07,0.4,0.1
-9.880e-07,0,0.1
-9.840e-07,0.4,0.3
-9.800e-07,0.4,0.3
-9.760e-07,0.4,-0.1
-9.720e-07,0.4,0.1
-9.680e-07,0.2,0.3
-9.640e-07,0.4,-0.1
-9.600e-07,0.6,0.5
-9.560e-07,0.4,0.5
-9.520e-07,0.2,0.1
-9.480e-07,0.6,0.3
-9.440e-07,0.2,-0.1
-9.400e-07,0.4,-0.1
-9.360e-07,0.2,0.1
-9.320e-07,0.6,-0.3
-9.280e-07,0.6,0.3
-9.240e-07,0.2,0.1
-9.200e-07,0.6,0.1
-9.160e-07,0.4,0.1
-9.120e-07,0.2,0.1
-9.080e-07,0.6,-0.1
-9.040e-07,0.6,-0.1
-9.000e-07,0.8,-0.1
-8.960e-07,0.6,-0.3
-8.920e-07,0.2,-0.1
-8.880e-07,0.6,0.1
-8.840e-07,0.4,0.3
-8.800e-07,0.6,0.3
-8.760e-07,0.6,0.3
-8.720e-07,0.4,0.3
-8.680e-07,0.6,0.1
-8.640e-07,0.6,0.5
-8.600e-07,0.6,0.5
-8.560e-07,0.6,-0.1
-8.520e-07,1,0.3
-8.480e-07,0.6,0.5
-8.440e-07,0.4,0.1
-8.400e-07,0.6,0.3
-8.360e-07,0.8,0.3
-8.320e-07,0.6,0.5
-8.280e-07,0.2,0.1
-8.240e-07,0.6,0.1
-8.200e-07,0.8,0.3
-8.160e-07,0.8,0.1
-8.120e-07,0.8,0.5
-8.080e-07,0.8,0.1
-8.040e-07,0.6,0.3
-8.000e-07,0.8,0.3
-7.960e-07,0.8,0.3
-7.920e-07,0.6,0.5
-7.880e-07,0.8,0.7
-7.840e-07,1,0.1
-7.800e-07,1,0.3
-7.760e-07,0.6,0.3
-7.720e-07,1.2,0.5
-7.680e-07,0.6,0.3
-7.640e-07,1,0.3
-7.600e-07,1,0.5
-7.560e-07,1,0.1
-7.520e-07,1,0.3
-7.480e-07,1,0.3
-7.440e-07,1.2,0.3
-7.400e-07,1,0.5
-7.360e-07,1,0.3
-7.320e-07,0.8,0.5
-7.280e-07,1,0.1
-7.240e-07,1.2,0.3
-7.200e-07,1.4,0.5
-7.160e-07,1.2,0.3
-7.120e-07,1.2,0.1
-7.080e-07,1,0.5
-7.040e-07,1.2,0.3
-7.000e-07,1.2,0.5
-6.960e-07,1.2,0.3
-6.920e-07,1,0.5
-6.880e-07,1.2,0.7
-6.840e-07,1.6,0.7
-6.800e-07,1.4,0.7
-6.760e-07,1.4,0.3
-6.720e-07,1.4,0.5
-6.680e-07,1.2,0.3
-6.640e-07,1.6,0.7
-6.600e-07,1.4,0.5
-6.560e-07,1.6,0.3
-6.520e-07,1.6,0.9
-6.480e-07,1.6,0.9
-6.440e-07,1.8,0.9
-6.400e-07,1.8,0.9
-6.360e-07,1.6,0.7
-6.320e-07,1.8,0.9
-6.280e-07,1.6,0.7
-6.240e-07,2,0.9
-6.200e-07,2,0.5
-6.160e-07,2,0.7
-6.120e-07,1.6,0.9
-6.080e-07,2,0.9
-6.040e-07,2,1.1
-6.000e-07,2,0.9
-5.960e-07,2,0.9
-5.920e-07,1.8,0.9
-5.880e-07,1.6,0.9
-5.840e-07,2.2,0.7
-5.800e-07,2,0.5
-5.760e-07,2.2,0.7
-5.720e-07,2.2,0.7
-5.680e-07,2.4,0.9
-5.640e-07,2.2,0.7
-5.600e-07,2,0.7
-5.560e-07,2,0.7
-5.520e-07,2.6,1.3
-5.480e-07,2.2,0.9
-5.440e-07,2.4,1.3
-5.400e-07,2.6,1.1
-5.360e-07,2.4,1.1
-5.320e-07,2.2,0.9
-5.280e-07,2.4,0.7
-5.240e-07,2.8,1.1
-5.200e-07,2.4,0.7
-5.160e-07,2.6,1.1
-5.120e-07,2.4,1.1
-5.080e-07,2.6,1.3
-5.040e-07,2.6,1.1
-5.000e-07,2.6,0.7
-4.960e-07,2.8,1.1
-4.920e-07,2.6,1.3
-4.880e-07,2.4,1.1
-4.840e-07,2.8,1.1
-4.800e-07,3.2,1.1
-4.760e-07,2.8,1.3
-4.720e-07,2.6,1.1
-4.680e-07,2.8,1.3
-4.640e-07,2.6,1.1
-4.600e-07,2.6,1.1
-4.560e-07,3,1.3
-4.520e-07,2.8,1.1
-4.480e-07,3,0.9
-4.440e-07,3,0.9
-4.400e-07,2.8,1.3
-4.360e-07,3,1.3
-4.320e-07,3,1.3
-4.280e-07,2.6,1.3
-4.240e-07,3,1.5
-4.200e-07,3,1.1
-4.160e-07,2.6,1.3
-4.120e-07,2.8,1.1
-4.080e-07,3,1.1
-4.040e-07,3,0.9
-4.000e-07,3,1.3
-3.960e-07,3.4,1.1
-3.920e-07,3.2,1.3
-3.880e-07,2.8,1.3
-3.840e-07,3,1.5
-3.800e-07,3,1.3
-3.760e-07,3.2,1.5
-3.720e-07,2.8,1.5
-3.680e-07,3,0.9
-3.640e-07,3,1.1
-3.600e-07,3.2,1.1
-3.560e-07,3,1.3
-3.520e-07,3,1.3
-3.480e-07,3.4,1.3
-3.440e-07,3.2,1.5
-3.400e-07,3.4,1.1
-3.360e-07,3,1.1
-3.320e-07,3.2,1.3
-3.280e-07,3.2,1.1
-3.240e-07,3,1.1
-3.200e-07,3.4,1.1
-3.160e-07,3.2,0.9
-3.120e-07,3,1.3
-3.080e-07,3.2,1.3
-3.040e-07,3.2,1.3
-3.000e-07,3.2,1.3
-2.960e-07,3.2,1.5
-2.920e-07,3.6,1.3
-2.880e-07,3.2,1.5
-2.840e-07,3.4,1.5
-2.800e-07,3.2,1.1
-2.760e-07,3.2,1.1
-2.720e-07,3.2,1.3
-2.680e-07,3.4,0.9
-2.640e-07,3,1.3
-2.600e-07,3,1.1
-2.560e-07,3.2,1.3
-2.520e-07,3.2,1.3
-2.480e-07,3,1.1
-2.440e-07,3.4,1.3
-2.400e-07,3.2,1.5
-2.360e-07,3.2,1.5
-2.320e-07,3,1.5
-2.280e-07,3.2,1.1
-2.240e-07,3.6,1.7
-2.200e-07,3.2,1.3
-2.160e-07,3.2,1.1
-2.120e-07,3.2,1.3
-2.080e-07,3.2,1.1
-2.040e-07,3.6,1.1
-2.000e-07,3.2,1.1
-1.960e-07,3,1.3
-1.920e-07,3.2,1.3
-1.880e-07,3.2,1.3
-1.840e-07,3.4,1.1
-1.800e-07,3.2,1.3
-1.760e-07,3.2,0.9
-1.720e-07,3.4,1.3
-1.680e-07,3.2,1.3
-1.640e-07,3.6,0.9
-1.600e-07,3.6,1.1
-1.560e-07,3.6,1.3
-1.520e-07,3.4,1.3
-1.480e-07,3.2,1.1
-1.440e-07,3.2,1.1
-1.400e-07,3.2,1.3
-1.360e-07,3.2,1.3
-1.320e-07,3.6,1.5
-1.280e-07,3.4,1.3
-1.240e-07,3.6,1.1
-1.200e-07,3.8,1.3
-1.160e-07,3.6,1.5
-1.120e-07,3.8,1.3
-1.080e-07,4,1.3
-1.040e-07,3.6,1.3
-1.000e-07,3.8,1.5
-9.600e-08,4.2,1.9
-9.200e-08,4,1.5
-8.800e-08,4.4,1.3
-8.400e-08,4.4,1.5
-8.000e-08,4.4,1.7
-7.600e-08,4.8,1.7
-7.200e-08,4.6,1.7
-6.800e-08,5,2.3
-6.400e-08,5.2,1.7
-6.000e-08,5.2,1.9
-5.600e-08,5.8,1.9
-5.200e-08,5.6,2.1
-4.800e-08,5.8,2.1
-4.400e-08,6.2,2.3
-4.000e-08,6.4,2.5
-3.600e-08,6.4,2.3
-3.200e-08,7,2.5
-2.800e-08,6.8,2.7
-2.400e-08,7.4,2.7
-2.000e-08,7.6,2.7
-1.600e-08,7.6,3.1
-1.200e-08,8,2.7
-8.000e-09,8,3.1
-4.000e-09,8.6,3.5
6.406e-21,8.6,3.3
4.000e-09,9,3.5
8.000e-09,9.2,3.5
1.200e-08,9.4,3.7
1.600e-08,9.4,3.5
2.000e-08,9.6,3.9
2.400e-08,10.2,3.7
2.800e-08,10.4,3.7
3.200e-08,10.4,3.7
3.600e-08,10.6,4.1
4.000e-08,11,4.1
4.400e-08,11,4.1
4.800e-08,11.6,4.1
5.200e-08,11.4,4.3
5.600e-08,11.8,4.1
6.000e-08,11.8,4.3
6.400e-08,12.2,4.5
6.800e-08,12.4,4.5
7.200e-08,12.6,4.5
7.600e-08,12.8,4.5
8.000e-08,13,4.7
8.400e-08,13.4,4.7
8.800e-08,13.6,5.1
9.200e-08,14,4.7
9.600e-08,14,4.9
1.000e-07,14.2,5.1
1.040e-07,14.6,5.3
1.080e-07,14.8,5.7
1.120e-07,15,5.7
1.160e-07,15.6,5.7
1.200e-07,15.4,5.7
1.240e-07,15.6,5.9
1.280e-07,16,5.9
1.320e-07,16.2,6.1
1.360e-07,16.4,6.1
1.400e-07,17,6.3
1.440e-07,16.8,6.3
1.480e-07,17.2,6.3
1.520e-07,17.4,6.5
1.560e-07,17.6,6.7
1.600e-07,18,6.9
1.640e-07,17.8,6.9
1.680e-07,18.8,6.9
1.720e-07,18.4,7.1
1.760e-07,18.8,7.1
1.800e-07,19,7.1
1.840e-07,19.2,7.3
1.880e-07,19.4,7.5
1.920e-07,19.6,7.7
1.960e-07,20,7.5
2.000e-07,20.2,7.5
2.040e-07,20.4,7.7
2.080e-07,20.4,8.1
2.120e-07,20.8,8.1
2.160e-07,21.2,7.9
2.200e-07,21.4,8.1
2.240e-07,21.6,8.1
2.280e-07,21.8,8.1
2.320e-07,22,8.3
2.360e-07,22.6,8.3
2.400e-07,22.4,8.9
2.440e-07,22.8,8.7
2.480e-07,23.4,8.7
2.520e-07,23.2,8.9
2.560e-07,23.6,9.1
2.600e-07,23.6,9.1
2.640e-07,24,9.1
2.680e-07,24.2,9.3
2.720e-07,24.2,9.5
2.760e-07,24.8,9.7
2.800e-07,25.4,9.5
2.840e-07,25.2,9.7
2.880e-07,25.4,9.5
2.920e-07,25.8,9.9
2.960e-07,25.8,9.7
3.000e-07,26.4,9.9
3.040e-07,26.6,10.1
3.080e-07,26.8,10.5
3.120e-07,26.6,10.5
3.160e-07,27.2,10.3
3.200e-07,27.6,10.9
3.240e-07,27.6,10.5
3.280e-07,27.8,10.7
3.320e-07,27.6,10.9
3.360e-07,28,10.7
3.400e-07,28.2,10.9
3.440e-07,28,10.9
3.480e-07,28.6,11.1
3.520e-07,28.6,10.9
3.560e-07,28.6,11.3
3.600e-07,28.8,11.5
3.640e-07,29.2,11.5
3.680e-07,29.4,11.3
3.720e-07,29,11.7
3.760e-07,29.4,11.3
3.800e-07,29.2,11.5
3.840e-07,29.6,11.9
3.880e-07,29.4,11.5
3.920e-07,29.6,11.9
3.960e-07,29.8,11.7
4.000e-07,29.6,11.9
4.040e-07,29.8,11.9
4.080e-07,29.4,12.1
4.120e-07,29.6,12.1
4.160e-07,29.8,11.9
4.200e-07,29.8,11.9
4.240e-07,29.8,11.9
4.280e-07,30,12.5
4.320e-07,30.2,12.1
4.360e-07,30.2,12.1
4.400e-07,30.4,11.7
4.440e-07,30.2,12.3
4.480e-07,30.4,12.5
4.520e-07,30.8,12.3
4.560e-07,30.4,12.7
4.600e-07,30.6,12.7
4.640e-07,30.6,12.9
4.680e-07,30.8,12.7
4.720e-07,31,12.7
4.760e-07,30.8,12.5
4.800e-07,30.6,13.3
4.840e-07,31,12.9
4.880e-07,31,12.7
4.920e-07,31.2,12.9
4.960e-07,30.8,13.1
5.000e-07,31,12.9
5.040e-07,31,12.7
5.080e-07,31,12.9
5.120e-07,31,13.1
5.160e-07,31,12.7
5.200e-07,31.4,13.3
5.240e-07,31.2,13.1
5.280e-07,31.2,13.1
5.320e-07,31.4,13.1
5.360e-07,31.6,13.3
5.400e-07,31.8,13.1
5.440e-07,31.4,13.3
5.480e-07,31,13.1
5.520e-07,31.8,13.3
5.560e-07,31.2,13.5
5.600e-07,31.4,13.3
5.640e-07,31.6,13.3
5.680e-07,31.8,13.5
5.720e-07,31.4,13.3
5.760e-07,31.8,13.3
5.800e-07,31.8,13.5
5.840e-07,31.8,13.7
5.880e-07,31.6,13.7
5.920e-07,32,13.5
5.960e-07,31.8,13.3
6.000e-07,31.8,13.7
6.040e-07,31.8,13.9
6.080e-07,32,13.5
6.120e-07,32,13.7
6.160e-07,31.8,13.5
6.200e-07,32,13.9
6.240e-07,31.6,13.9
6.280e-07,32,13.9
6.320e-07,31.8,13.9
6.360e-07,32,13.9
6.400e-07,32.2,13.7
6.440e-07,32,13.7
6.480e-07,32,13.7
6.520e-07,32,14.1
6.560e-07,32.2,14.1
6.600e-07,32,14.3
6.640e-07,32,13.7
6.680e-07,31.8,14.1
6.720e-07,32,14.1
6.760e-07,32,14.1
6.800e-07,32.2,13.9
6.840e-07,31.8,13.9
6.880e-07,32.2,14.1
6.920e-07,32,14.1
6.960e-07,31.8,14.3
7.000e-07,32,14.3
7.040e-07,31.6,13.9
7.080e-07,32,14.5
7.120e-07,32,14.3
7.160e-07,32.2,14.1
7.200e-07,32,14.3
7.240e-07,31.4,14.3
7.280e-07,32.2,14.5
7.320e-07,32,14.3
7.360e-07,32,14.7
7.400e-07,32.4,14.7
7.440e-07,31.8,14.5
7.480e-07,32,14.5
7.520e-07,32,14.3
7.560e-07,32,14.1
7.600e-07,32.4,14.3
7.640e-07,32,14.7
7.680e-07,32.4,14.3
7.720e-07,32.2,14.3
7.760e-07,32.2,14.5
7.800e-07,32,14.3
7.840e-07,32.2,14.3
7.880e-07,32.4,14.7
7.920e-07,32.6,14.7
7.960e-07,32,14.5
8.000e-07,32,14.7
8.040e-07,32.2,14.7
8.080e-07,32.2,14.5
8.120e-07,32,14.3
8.160e-07,32.4,14.3
8.200e-07,32.2,14.5
8.240e-07,32.4,14.7
8.280e-07,32.2,14.7
8.320e-07,32.2,14.7
8.360e-07,32.4,14.7
8.400e-07,32.2,14.7
8.440e-07,32.2,15.1
8.480e-07,32.4,14.7
8.520e-07,32,14.7
8.560e-07,32.4,14.9
8.600e-07,32.2,14.9
8.640e-07,32,14.9
8.680e-07,32.4,14.9
8.720e-07,32.2,15.1
8.760e-07,32,14.9
8.800e-07,32,14.7
8.840e-07,32,15.1
8.880e-07,32,15.1
8.920e-07,32,14.9
8.960e-07,32,14.9
9.000e-07,31.8,14.9
9.040e-07,31.8,14.9
9.080e-07,31.6,14.9
9.120e-07,31.8,15.1
9.160e-07,31.4,14.9
9.200e-07,31.6,14.9
9.240e-07,31,14.9
9.280e-07,31.2,14.9
9.320e-07,31.2,14.5
9.360e-07,31,14.9
9.400e-07,30.8,14.7
9.440e-07,30.6,14.7
9.480e-07,30.4,14.7
9.520e-07,30.6,14.7
9.560e-07,30.4,14.7
9.600e-07,30.4,14.7
9.640e-07,30.4,14.5
9.680e-07,29.8,14.5
9.720e-07,29.8,14.3
9.760e-07,29.8,14.5
9.800e-07,29.6,14.7
9.840e-07,29.2,14.3
9.880e-07,29,14.3
9.920e-07,28.8,14.1
9.960e-07,28.8,14.3
1.000e-06,28.8,14.1
1.004e-06,28.2,13.9
1.008e-06,28,13.7
1.012e-06,27.6,14.1
1.016e-06,27.8,13.7
1.020e-06,27.8,14.1
1.024e-06,27.4,13.9
1.028e-06,27.2,13.9
1.032e-06,27,13.9
1.036e-06,26.6,13.5
1.040e-06,27,13.5
1.044e-06,26.2,13.3
1.048e-06,26,13.3
1.052e-06,25.8,13.3
1.056e-06,25.2,13.3
1.060e-06,25.2,13.1
1.064e-06,25,12.9
1.068e-06,24.6,12.9
1.072e-06,24.2,13.1
1.076e-06,24.2,12.7
1.080e-06,24,12.5
1.084e-06,23.8,12.3
1.088e-06,23.6,12.3
1.092e-06,23.4,12.1
1.096e-06,22.8,12.1
1.100e-06,22.8,12.1
1.104e-06,22.4,12.1
1.108e-06,22.2,11.9
1.112e-06,21.8,11.9
1.116e-06,21.6,11.9
1.120e-06,21.6,12.1
1.124e-06,21.2,11.5
1.128e-06,20.8,11.5
1.132e-06,20.6,11.5
1.136e-06,20.4,11.1
1.140e-06,20,11.1
1.144e-06,19.8,11.5
1.148e-06,19.8,11.1
1.152e-06,19.8,11.1
1.156e-06,19.6,11.1
1.160e-06,19.2,10.5
1.164e-06,19,10.7
1.168e-06,18.4,10.7
1.172e-06,18.4,10.3
1.176e-06,18.2,10.5
1.180e-06,17.8,10.7
1.184e-06,17.8,10.1
1.188e-06,17.6,10.3
1.192e-06,17,10.1
1.196e-06,17,10.1
1.200e-06,16.8,9.9
1.204e-06,16,10.3
1.208e-06,16.4,9.5
1.212e-06,16,9.5
1.216e-06,15.6,9.5
1.220e-06,15.4,9.3
1.224e-06,15.4,9.3
1.228e-06,15,9.5
1.232e-06,14.4,9.5
1.236e-06,14.4,8.9
1.240e-06,14.2,9.1
1.244e-06,13.8,8.9
1.248e-06,13.8,8.7
1.252e-06,13.6,8.5
1.256e-06,13.4,8.5
1.260e-06,12.8,8.5
1.264e-06,12.4,8.3
1.268e-06,12.2,8.3
1.272e-06,12.4,8.1
1.276e-06,11.8,8.3
1.280e-06,11.4,7.9
1.284e-06,11.4,7.7
1.288e-06,11.2,7.7
1.292e-06,11.2,7.5
1.296e-06,10.8,7.7
1.300e-06,10.4,7.3
1.304e-06,10.4,7.3
1.308e-06,10,7.3
1.312e-06,10.2,7.3
1.316e-06,10,7.1
1.320e-06,9.8,7.1
1.324e-06,9,6.9
1.328e-06,9.2,6.5
1.332e-06,9,7.1
1.336e-06,8.8,6.7
1.340e-06,8.4,6.7
1.344e-06,8.8,6.3
1.348e-06,8.6,6.7
1.352e-06,8.2,6.3
1.356e-06,7.8,6.1
1.360e-06,8,6.3
1.364e-06,7.4,5.9
1.368e-06,7.8,6.5
1.372e-06,7.2,6.1
1.376e-06,7,5.9
1.380e-06,7.2,5.9
1.384e-06,7,5.9
1.388e-06,7,5.9
1.392e-06,6.6,5.9
1.396e-06,6.4,5.9
1.400e-06,6.8,5.7
1.404e-06,6.6,5.9
1.408e-06,6.2,5.7
1.412e-06,6.2,5.7
1.416e-06,6.2,5.7
1.420e-06,6,5.7
1.424e-06,5.6,5.7
1.428e-06,5.8,5.5
1.432e-06,5.8,5.7
1.436e-06,5.8,5.5
1.440e-06,5,5.3
1.444e-06,5.2,5.3
1.448e-06,5.2,4.9
1.452e-06,5.2,5.3
1.456e-06,5,4.9
1.460e-06,4.6,4.9
1.464e-06,5.2,5.1
1.468e-06,5,4.7
1.472e-06,4.6,4.9
1.476e-06,4.8,5.1
1.480e-06,4.6,4.7
1.484e-06,4.4,4.7
1.488e-06,4.8,4.7
1.492e-06,4.8,4.3
1.496e-06,4.4,4.7
1.500e-06,4,4.7
1.504e-06,4,4.7
1.508e-06,4,4.9
1.512e-06,4.2,4.7
1.516e-06,4.2,4.5
1.520e-06,4.2,4.7
1.524e-06,4.2,4.7
1.528e-06,3.8,4.5
1.532e-06,3.8,4.3
1.536e-06,3.8,4.7
1.540e-06,4,4.3
1.544e-06,3.8,4.5
1.548e-06,3.6,4.3
1.552e-06,4,4.7
1.556e-06,3.6,4.5
1.560e-06,3.2,4.1
1.564e-06,3.6,4.3
1.568e-06,3.8,4.1
1.572e-06,3.2,4.3
1.576e-06,3.4,4.3
1.580e-06,3.2,4.5
1.584e-06,3.2,4.5
1.588e-06,3.4,4.7
1.592e-06,3.2,4.3
1.596e-06,3.2,4.1
1.600e-06,3.4,4.1
1.604e-06,3.2,3.7
1.608e-06,3,4.1
1.612e-06,3,4.5
1.616e-06,3,4.1
1.620e-06,2.8,4.5
1.624e-06,3.2,4.1
1.628e-06,2.8,3.9
1.632e-06,2.8,4.3
1.636e-06,3.2,4.1
1.640e-06,3,3.9
1.644e-06,3,3.9
1.648e-06,2.6,3.9
1.652e-06,3,3.9
1.656e-06,2.6,3.7
1.660e-06,2.6,3.9
1.664e-06,2.4,3.9
1.668e-06,2.6,4.1
1.672e-06,2.6,3.7
1.676e-06,2.8,3.9
1.680e-06,2.4,3.7
1.684e-06,2.8,3.9
1.688e-06,2.6,4.1
1.692e-06,2.6,3.7
1.696e-06,2.4,4.1
1.700e-06,2.6,3.9
1.704e-06,2.4,3.7
1.708e-06,2.4,3.7
1.712e-06,2.6,3.9
1.716e-06,2.4,3.9
1.720e-06,2.6,3.7
1.724e-06,2.8,3.9
1.728e-06,2.6,3.5
1.732e-06,2.4,3.9
1.736e-06,2.4,3.7
1.740e-06,2.6,4.1
1.744e-06,2.4,3.3
1.748e-06,2.4,3.5
1.752e-06,2.6,3.5
1.756e-06,2.6,3.7
1.760e-06,2.4,3.7
1.764e-06,2,3.5
1.768e-06,2.4,3.5
1.772e-06,2.4,3.9
1.776e-06,2.4,3.9
1.780e-06,2.4,3.5
1.784e-06,2.4,3.5
1.788e-06,2.6,3.5
1.792e-06,2.4,3.5
1.796e-06,2.6,3.7
1.800e-06,2.6,3.5
1.804e-06,2.4,3.5
1.808e-06,2.6,3.5
1.812e-06,2,3.7
1.816e-06,2.6,3.5
1.820e-06,2.6,3.7
1.824e-06,2.4,3.7
1.828e-06,2.6,3.9
1.832e-06,2.4,3.3
1.836e-06,2.4,3.5
1.840e-06,2.6,3.7
1.844e-06,2.4,3.5
1.848e-06,2.6,3.7
1.852e-06,2.6,3.7
1.856e-06,2.4,3.5
1.860e-06,2.4,3.7
1.864e-06,2.6,3.5
1.868e-06,2.6,3.7
1.872e-06,2.6,3.7
1.876e-06,2.4,3.5
1.880e-06,2.2,3.9
1.884e-06,2.8,3.5
1.888e-06,2.6,3.5
1.892e-06,2.4,3.3
1.896e-06,2.6,3.3
1.900e-06,2.8,3.7
1.904e-06,2.4,3.7
1.908e-06,2.6,3.7
1.912e-06,2.6,3.5
1.916e-06,2.8,3.7
1.920e-06,2.6,3.7
1.924e-06,2.4,3.7
1.928e-06,2.4,3.3
1.932e-06,2.6,4.1
1.936e-06,2.6,3.7
1.940e-06,2.8,3.5
1.944e-06,2.4,3.3
1.948e-06,2.8,3.3
1.952e-06,2.6,3.5
1.956e-06,3,3.7
1.960e-06,2.8,3.5
1.964e-06,3,3.7
1.968e-06,3,3.7
1.972e-06,2.6,3.5
1.976e-06,3,3.7
1.980e-06,3,3.5
1.984e-06,2.6,3.7
1.988e-06,2.8,3.7
1.992e-06,2.6,3.7
1.996e-06,3,3.5
2.000e-06,2.4,3.3
2.004e-06,3,3.9
2.008e-06,3.2,3.5
2.012e-06,3,3.9
2.016e-06,2.8,3.5
2.020e-06,2.6,3.9
2.024e-06,2.8,3.7
2.028e-06,3,3.7
2.032e-06,2.8,3.7
2.036e-06,3.2,3.9
2.040e-06,3,3.7
2.044e-06,3,3.9
2.048e-06,3,3.9
2.052e-06,2.8,3.7
2.056e-06,2.6,3.5
2.060e-06,3,3.7
2.064e-06,3.2,3.3
2.068e-06,3.2,3.5
2.072e-06,3.2,3.7
2.076e-06,3,3.7
2.080e-06,3,3.7
2.084e-06,3.2,3.7
2.088e-06,3,3.7
2.092e-06,3,3.9
2.096e-06,3.4,3.7
2.100e-06,3.2,3.9
2.104e-06,2.8,3.5
2.108e-06,3.2,3.5
2.112e-06,3.4,3.7
2.116e-06,2.8,3.5
2.120e-06,3.2,3.7
2.124e-06,3.2,3.5
2.128e-06,3.2,3.7
2.132e-06,3.2,3.3
2.136e-06,3.2,3.7
2.140e-06,3,3.5
2.144e-06,3.2,3.3
2.148e-06,3.2,3.7
2.152e-06,3.4,3.7
2.156e-06,3.2,3.3
2.160e-06,3,3.7
2.164e-06,3,3.5
2.168e-06,3.2,3.9
2.172e-06,2.8,3.7
2.176e-06,3,3.9
2.180e-06,3.2,3.5
2.184e-06,3.4,3.7
2.188e-06,3.2,3.3
2.192e-06,3.2,3.5
2.196e-06,3.4,3.5
2.200e-06,3.2,3.7
2.204e-06,3.2,3.5
2.208e-06,3.2,3.7
2.212e-06,3.2,3.3
2.216e-06,3.2,3.1
2.220e-06,3.4,3.7
2.224e-06,3.4,3.7
2.228e-06,3.4,3.3
2.232e-06,3.2,3.5
2.236e-06,3.4,3.9
2.240e-06,3.2,3.7
2.244e-06,3,3.5
2.248e-06,3.6,3.5
2.252e-06,3.4,3.7
2.256e-06,3,3.7
2.260e-06,3.4,3.7
2.264e-06,3,3.3
2.268e-06,3.2,3.7
2.272e-06,3.2,3.7
2.276e-06,3.2,3.7
2.280e-06,3.2,3.7
2.284e-06,3.2,3.3
2.288e-06,3.2,3.3
2.292e-06,3.2,3.3
2.296e-06,3.4,3.3
2.300e-06,3.4,3.7
2.304e-06,3,3.5
2.308e-06,3.2,3.5
2.312e-06,3.2,3.3
2.316e-06,3.2,3.5
2.320e-06,3.2,3.5
2.324e-06,3,3.3
2.328e-06,3.6,3.9
2.332e-06,3.4,3.5
2.336e-06,3.2,3.5
2.340e-06,3.2,3.7
2.344e-06,3.2,3.5
2.348e-06,3.2,3.3
2.352e-06,3.2,3.7
2.356e-06,3.2,3.5
2.360e-06,3.2,3.5
2.364e-06,3.4,3.7
2.368e-06,3.2,3.5
2.372e-06,3.2,3.1
2.376e-06,3.6,3.5
2.380e-06,3.2,3.5
2.384e-06,3.4,3.5
2.388e-06,3.2,3.5
2.392e-06,3.4,3.5
2.396e-06,3.2,3.7
2.400e-06,3.2,3.3
2.404e-06,3,3.5
2.408e-06,3.2,3.5
2.412e-06,3.2,3.7
2.416e-06,3.4,3.5
2.420e-06,3.2,3.7
2.424e-06,3.4,3.5
2.428e-06,3.8,3.7
2.432e-06,3.2,3.3
2.436e-06,3.4,3.7
2.440e-06,3.2,3.5
2.444e-06,3.6,3.5
2.448e-06,3.2,3.3
2.452e-06,3.2,3.3
2.456e-06,3.2,3.5
2.460e-06,3.2,3.3
2.464e-06,3.6,3.5
2.468e-06,3.4,3.5
2.472e-06,3.2,3.1
2.476e-06,3.2,3.7
2.480e-06,3.4,3.5
2.484e-06,3.2,3.5
2.488e-06,3.2,3.1
2.492e-06,3.4,3.1
2.496e-06,3.2,3.3
2.500e-06,3.4,3.5
2.504e-06,3.2,3.5
2.508e-06,3,3.5
2.512e-06,3.4,3.3
2.516e-06,3.2,3.7
2.520e-06,3.6,3.3
2.524e-06,3.2,3.5
2.528e-06,3.6,3.1
2.532e-06,3,3.5
2.536e-06,3.2,3.3
2.540e-06,3.2,3.5
2.544e-06,3.2,3.3
2.548e-06,3.8,3.7
2.552e-06,3.4,3.3
2.556e-06,3.4,3.5
2.560e-06,3,3.5
2.564e-06,3,3.5
2.568e-06,3.6,3.9
2.572e-06,3.2,3.3
2.576e-06,3.2,3.3
2.580e-06,3.2,3.3
2.584e-06,3.2,3.5
2.588e-06,3.4,3.7
2.592e-06,3.4,3.3
2.596e-06,3.4,3.5
2.600e-06,3.4,3.3
2.604e-06,3.6,3.5
2.608e-06,3.2,3.3
2.612e-06,3.2,3.3
2.616e-06,3.6,3.3
2.620e-06,3.2,3.3
2.624e-06,3.4,3.3
2.628e-06,3.2,3.3

