Archivos Guadalupe/Data/1410-32-X4/24-10/D-24-10/tek0026ALL.csv

Model,DPO3034
Firmware Version,2.16

Point Format,Y,
Horizontal Units,S,
Horizontal Scale,4e-07,
Sample Interval,4e-09,
Record Length,1000,
Gating,0.0% to 100.0%,0.0% to 100.0%
Probe Attenuation,1,1
Vertical Units,V,V
Vertical Offset,0,0
Vertical Scale,5,2
Label,,
TIME,CH1,CH2
-1.368e-06,0,-0.04
-1.364e-06,0.2,-0.04
-1.360e-06,0,0.04
-1.356e-06,0.6,-0.04
-1.352e-06,0,0.28
-1.348e-06,0.2,0.04
-1.344e-06,-0.2,-0.04
-1.340e-06,0.2,-0.12
-1.336e-06,-0.2,0.04
-1.332e-06,0,-0.04
-1.328e-06,0.2,0.04
-1.324e-06,0,-0.12
-1.320e-06,0.2,-0.04
-1.316e-06,0,-0.04
-1.312e-06,0,0.04
-1.308e-06,0,0.04
-1.304e-06,0.2,0.12
-1.300e-06,0,0.04
-1.296e-06,0.2,0.12
-1.292e-06,0,0.04
-1.288e-06,0.2,0.04
-1.284e-06,0.2,0.04
-1.280e-06,0,0.04
-1.276e-06,-0.2,-0.12
-1.272e-06,0,-0.04
-1.268e-06,0,-0.04
-1.264e-06,0,0.04
-1.260e-06,-0.2,0.12
-1.256e-06,0,-0.04
-1.252e-06,-0.2,-0.04
-1.248e-06,0.2,-0.04
-1.244e-06,0,-0.04
-1.240e-06,-0.2,-0.12
-1.236e-06,0.4,-0.04
-1.232e-06,0,0.12
-1.228e-06,0.2,0.04
-1.224e-06,0.2,-0.04
-1.220e-06,0.2,-0.04
-1.216e-06,0,0.12
-1.212e-06,0.2,-0.04
-1.208e-06,0,0.04
-1.204e-06,-0.4,-0.04
-1.200e-06,0,0.04
-1.196e-06,0,0.04
-1.192e-06,-0.2,0.04
-1.188e-06,0,-0.04
-1.184e-06,-0.2,0.04
-1.180e-06,0.2,-0.04
-1.176e-06,0,-0.12
-1.172e-06,0.2,-0.04
-1.168e-06,-0.2,-0.04
-1.164e-06,0.2,0.12
-1.160e-06,0.2,-0.04
-1.156e-06,0,0.04
-1.152e-06,0.2,-0.12
-1.148e-06,0.4,-0.04
-1.144e-06,0.4,0.04
-1.140e-06,0.4,0.12
-1.136e-06,0.2,0.04
-1.132e-06,0.2,0.12
-1.128e-06,0,-0.12
-1.124e-06,-0.2,0.12
-1.120e-06,0.2,0.04
-1.116e-06,0.4,-0.04
-1.112e-06,0,-0.12
-1.108e-06,0.2,0.04
-1.104e-06,0.2,0.04
-1.100e-06,0.2,0.04
-1.096e-06,-0.2,0.04
-1.092e-06,0.4,0.12
-1.088e-06,0.2,-0.04
-1.084e-06,0,-0.04
-1.080e-06,0.4,0.04
-1.076e-06,0.2,0.12
-1.072e-06,0,-0.2
-1.068e-06,0.4,0.04
-1.064e-06,0,0.04
-1.060e-06,0.2,0.04
-1.056e-06,0,0.04
-1.052e-06,0.2,-0.12
-1.048e-06,0.4,0.04
-1.044e-06,0,-0.04
-1.040e-06,0.2,0.12
-1.036e-06,0.4,0.04
-1.032e-06,0.2,-0.04
-1.028e-06,0.4,0.04
-1.024e-06,0.2,0.12
-1.020e-06,0.4,0.04
-1.016e-06,0.6,-0.04
-1.012e-06,0.2,0.12
-1.008e-06,1,0.12
-1.004e-06,0.4,0.04
-1.000e-06,0.2,0.12
-9.960e-07,0.2,0.04
-9.920e-07,0.4,0.04
-9.880e-07,-0.2,0.04
-9.840e-07,0.6,0.2
-9.800e-07,0.2,0.04
-9.760e-07,0.4,-0.04
-9.720e-07,0.2,0.12
-9.680e-07,0.4,0.2
-9.640e-07,0.2,0.04
-9.600e-07,0.2,0.04
-9.560e-07,0.6,-0.04
-9.520e-07,0.4,0.28
-9.480e-07,0.4,-0.12
-9.440e-07,0.2,0.12
-9.400e-07,0,0.12
-9.360e-07,0.6,-0.04
-9.320e-07,0.6,0.04
-9.280e-07,0.2,0.2
-9.240e-07,0.4,-0.04
-9.200e-07,0.4,0.04
-9.160e-07,0.4,0.2
-9.120e-07,0.4,-0.04
-9.080e-07,0.4,0.12
-9.040e-07,0.2,0.04
-9.000e-07,0.8,0.2
-8.960e-07,0.2,0.12
-8.920e-07,0.4,0.12
-8.880e-07,0.4,0.2
-8.840e-07,0.6,0.2
-8.800e-07,0.6,0.04
-8.760e-07,0.4,0.12
-8.720e-07,0.4,0.12
-8.680e-07,0.4,0.12
-8.640e-07,0.8,0.12
-8.600e-07,0.8,0.04
-8.560e-07,0.8,0.2
-8.520e-07,0.4,0.2
-8.480e-07,0.6,0.28
-8.440e-07,0.4,0.12
-8.400e-07,0.6,0.04
-8.360e-07,0.4,0.28
-8.320e-07,0.8,0.12
-8.280e-07,0.6,0.12
-8.240e-07,0.6,0.2
-8.200e-07,0.4,0.2
-8.160e-07,0.8,0.2
-8.120e-07,0.6,0.28
-8.080e-07,0.6,0.28
-8.040e-07,0.4,0.2
-8.000e-07,1,0.28
-7.960e-07,0.6,0.2
-7.920e-07,0.6,0.2
-7.880e-07,0.8,0.12
-7.840e-07,0.6,0.36
-7.800e-07,0.8,0.28
-7.760e-07,0.6,0.2
-7.720e-07,0.8,0.12
-7.680e-07,0.6,0.2
-7.640e-07,0.8,0.2
-7.600e-07,0.6,0.2
-7.560e-07,1,0.28
-7.520e-07,0.8,0.28
-7.480e-07,0.6,0.28
-7.440e-07,0.4,0.28
-7.400e-07,1.2,0.28
-7.360e-07,0.8,0.36
-7.320e-07,0.8,0.28
-7.280e-07,0.6,0.2
-7.240e-07,0.8,0.2
-7.200e-07,0.8,0.36
-7.160e-07,1.2,0.28
-7.120e-07,0.8,0.2
-7.080e-07,0.6,0.36
-7.040e-07,1,0.28
-7.000e-07,1,0.44
-6.960e-07,1.2,0.28
-6.920e-07,1.2,0.36
-6.880e-07,1.2,0.36
-6.840e-07,1,0.28
-6.800e-07,0.8,0.44
-6.760e-07,1,0.36
-6.720e-07,1.2,0.36
-6.680e-07,1.2,0.36
-6.640e-07,1,0.52
-6.600e-07,1,0.36
-6.560e-07,1.6,0.44
-6.520e-07,1,0.44
-6.480e-07,1,0.36
-6.440e-07,1.2,0.28
-6.400e-07,1.2,0.44
-6.360e-07,1.4,0.36
-6.320e-07,1.4,0.44
-6.280e-07,1.6,0.52
-6.240e-07,1,0.36
-6.200e-07,1.4,0.52
-6.160e-07,1.2,0.52
-6.120e-07,1.6,0.44
-6.080e-07,1.8,0.44
-6.040e-07,1.2,0.52
-6.000e-07,1.8,0.6
-5.960e-07,1.6,0.52
-5.920e-07,1.8,0.52
-5.880e-07,1.6,0.52
-5.840e-07,1.6,0.68
-5.800e-07,1.6,0.6
-5.760e-07,2,0.52
-5.720e-07,1.8,0.68
-5.680e-07,1.6,0.44
-5.640e-07,2,0.44
-5.600e-07,1.6,0.52
-5.560e-07,1.8,0.44
-5.520e-07,1.8,0.6
-5.480e-07,1.8,0.6
-5.440e-07,2,0.6
-5.400e-07,2,0.76
-5.360e-07,1.8,0.52
-5.320e-07,1.8,0.68
-5.280e-07,2,0.44
-5.240e-07,2,0.6
-5.200e-07,1.8,0.68
-5.160e-07,2,0.76
-5.120e-07,2,0.6
-5.080e-07,1.8,0.6
-5.040e-07,2.4,0.76
-5.000e-07,1.8,0.76
-4.960e-07,1.8,0.68
-4.920e-07,2.4,0.76
-4.880e-07,2,0.76
-4.840e-07,2.2,0.6
-4.800e-07,2.4,0.76
-4.760e-07,2,0.6
-4.720e-07,2,0.68
-4.680e-07,2,0.76
-4.640e-07,2,0.68
-4.600e-07,2,0.76
-4.560e-07,2.2,0.84
-4.520e-07,2.2,0.76
-4.480e-07,2,0.84
-4.440e-07,2.4,0.76
-4.400e-07,2.2,0.76
-4.360e-07,2.2,0.76
-4.320e-07,2.2,0.76
-4.280e-07,2.6,0.84
-4.240e-07,2.2,0.76
-4.200e-07,2.2,0.76
-4.160e-07,2.2,0.84
-4.120e-07,2.4,0.76
-4.080e-07,2.2,0.68
-4.040e-07,2.4,0.76
-4.000e-07,2.2,0.92
-3.960e-07,2.2,0.76
-3.920e-07,2.2,0.84
-3.880e-07,2.4,0.84
-3.840e-07,2.4,0.76
-3.800e-07,2.4,0.84
-3.760e-07,2.2,0.76
-3.720e-07,2.4,0.84
-3.680e-07,2.6,0.84
-3.640e-07,2.2,0.76
-3.600e-07,2.4,0.76
-3.560e-07,2.4,0.84
-3.520e-07,2.6,0.76
-3.480e-07,2.6,0.92
-3.440e-07,2.4,0.84
-3.400e-07,2.4,0.76
-3.360e-07,2.4,1
-3.320e-07,2.6,0.84
-3.280e-07,2.6,0.84
-3.240e-07,2.4,0.92
-3.200e-07,2.6,0.92
-3.160e-07,2.4,0.92
-3.120e-07,2.6,0.92
-3.080e-07,2.2,0.84
-3.040e-07,2.4,0.92
-3.000e-07,2.6,0.92
-2.960e-07,2.6,0.84
-2.920e-07,2.4,0.92
-2.880e-07,2.6,1
-2.840e-07,2.4,1.08
-2.800e-07,2.4,0.92
-2.760e-07,2.6,0.84
-2.720e-07,2.8,0.92
-2.680e-07,2.6,0.84
-2.640e-07,2.4,0.84
-2.600e-07,2.4,0.92
-2.560e-07,3,0.84
-2.520e-07,2.4,0.92
-2.480e-07,2.6,0.84
-2.440e-07,2.8,1
-2.400e-07,2.6,0.84
-2.360e-07,2.4,0.92
-2.320e-07,2.2,0.84
-2.280e-07,2.8,0.92
-2.240e-07,2.6,0.84
-2.200e-07,2.4,0.92
-2.160e-07,2.8,0.92
-2.120e-07,2.6,0.76
-2.080e-07,2.8,0.84
-2.040e-07,2.6,0.84
-2.000e-07,2.4,0.92
-1.960e-07,2.6,0.84
-1.920e-07,2.4,1
-1.880e-07,2.6,0.84
-1.840e-07,2.8,0.92
-1.800e-07,2.6,0.84
-1.760e-07,2.6,0.84
-1.720e-07,2.6,0.84
-1.680e-07,2.6,0.92
-1.640e-07,2.8,1.08
-1.600e-07,3,1
-1.560e-07,3,1
-1.520e-07,3,1
-1.480e-07,3,1
-1.440e-07,2.8,1
-1.400e-07,3.2,1.08
-1.360e-07,3.4,1.08
-1.320e-07,3.2,1.16
-1.280e-07,3.6,1.24
-1.240e-07,3.2,1.08
-1.200e-07,3.6,1.24
-1.160e-07,3.8,1.24
-1.120e-07,4,1.24
-1.080e-07,3.8,1.32
-1.040e-07,4.2,1.48
-1.000e-07,4,1.4
-9.600e-08,4.4,1.56
-9.200e-08,4.6,1.48
-8.800e-08,5,1.72
-8.400e-08,4.8,1.64
-8.000e-08,5.2,1.72
-7.600e-08,5.2,1.72
-7.200e-08,5.2,1.8
-6.800e-08,5.4,1.8
-6.400e-08,5.8,1.88
-6.000e-08,5.8,1.96
-5.600e-08,6,2.04
-5.200e-08,6.2,2.12
-4.800e-08,6.4,2.2
-4.400e-08,6,2.44
-4.000e-08,6.4,2.44
-3.600e-08,7,2.52
-3.200e-08,7,2.52
-2.800e-08,7.4,2.6
-2.400e-08,7.4,2.6
-2.000e-08,7.4,2.6
-1.600e-08,7.8,2.68
-1.200e-08,8,2.84
-8.000e-09,8.2,2.84
-4.000e-09,8.4,2.84
6.406e-21,8.4,3
4.000e-09,9,3.08
8.000e-09,8.6,3.16
1.200e-08,8.8,3.24
1.600e-08,9.6,3.32
2.000e-08,9.6,3.4
2.400e-08,10,3.32
2.800e-08,10,3.56
3.200e-08,10,3.56
3.600e-08,10.4,3.56
4.000e-08,10.4,3.72
4.400e-08,10.6,3.8
4.800e-08,11,3.72
5.200e-08,11.2,3.88
5.600e-08,11,3.96
6.000e-08,11.2,4.12
6.400e-08,11.8,4.2
6.800e-08,11.6,4.2
7.200e-08,11.8,4.2
7.600e-08,11.8,4.44
8.000e-08,12.4,4.52
8.400e-08,12.8,4.44
8.800e-08,12.8,4.68
9.200e-08,13,4.6
9.600e-08,13.2,4.68
1.000e-07,13.4,4.76
1.040e-07,13.4,4.84
1.080e-07,13.8,5
1.120e-07,14.2,5
1.160e-07,14,5.16
1.200e-07,14.4,5.24
1.240e-07,14.6,5.32
1.280e-07,14.8,5.4
1.320e-07,14.6,5.4
1.360e-07,15,5.56
1.400e-07,15,5.64
1.440e-07,15.4,5.72
1.480e-07,15.8,5.72
1.520e-07,15.8,5.72
1.560e-07,16,5.96
1.600e-07,16,5.96
1.640e-07,16.2,6.04
1.680e-07,16.4,6.04
1.720e-07,16.8,6.2
1.760e-07,17,6.36
1.800e-07,17.2,6.12
1.840e-07,17.2,6.36
1.880e-07,17.6,6.36
1.920e-07,17.4,6.52
1.960e-07,17.6,6.6
2.000e-07,17.6,6.52
2.040e-07,18.2,6.76
2.080e-07,18.2,6.68
2.120e-07,18.8,6.76
2.160e-07,19,6.92
2.200e-07,18.8,7
2.240e-07,19,7.16
2.280e-07,19.2,7.16
2.320e-07,19.6,7.24
2.360e-07,19.6,7.32
2.400e-07,20.2,7.4
2.440e-07,20.2,7.4
2.480e-07,20,7.48
2.520e-07,20.2,7.56
2.560e-07,20.8,7.8
2.600e-07,20.8,7.8
2.640e-07,21.2,7.88
2.680e-07,21.2,7.96
2.720e-07,21.2,8.2
2.760e-07,22,8.2
2.800e-07,21.8,8.2
2.840e-07,22.2,8.28
2.880e-07,22.2,8.2
2.920e-07,22.2,8.28
2.960e-07,22.2,8.28
3.000e-07,22.6,8.52
3.040e-07,22.8,8.52
3.080e-07,23,8.68
3.120e-07,22.8,8.6
3.160e-07,23,8.68
3.200e-07,23.2,8.76
3.240e-07,23.4,8.84
3.280e-07,23.4,8.84
3.320e-07,23,8.92
3.360e-07,23.4,8.92
3.400e-07,23.4,9
3.440e-07,23.8,9.08
3.480e-07,23.6,9
3.520e-07,24,9.08
3.560e-07,23.6,9.16
3.600e-07,24.2,9.16
3.640e-07,24,9.08
3.680e-07,24,9.32
3.720e-07,24.2,9.24
3.760e-07,24.4,9.32
3.800e-07,24,9.4
3.840e-07,24.2,9.4
3.880e-07,24.4,9.4
3.920e-07,24.4,9.56
3.960e-07,24.2,9.56
4.000e-07,24.6,9.56
4.040e-07,24.6,9.56
4.080e-07,24.8,9.64
4.120e-07,24.6,9.8
4.160e-07,24.6,9.8
4.200e-07,25,9.88
4.240e-07,25,9.88
4.280e-07,25,9.8
4.320e-07,25,9.8
4.360e-07,25,9.96
4.400e-07,24.8,9.96
4.440e-07,24.8,10.12
4.480e-07,25,9.96
4.520e-07,25,9.96
4.560e-07,25.2,9.96
4.600e-07,25,10.04
4.640e-07,25,10.12
4.680e-07,25.4,10.2
4.720e-07,25,10.2
4.760e-07,25,10.2
4.800e-07,24.8,9.96
4.840e-07,25.4,10.28
4.880e-07,25.4,10.12
4.920e-07,25.4,10.2
4.960e-07,25.2,10.2
5.000e-07,25,10.28
5.040e-07,25.2,10.28
5.080e-07,25.4,10.2
5.120e-07,25.4,10.28
5.160e-07,25.6,10.28
5.200e-07,25.4,10.2
5.240e-07,25.4,10.44
5.280e-07,25.4,10.12
5.320e-07,25.4,10.28
5.360e-07,25.6,10.28
5.400e-07,25.6,10.36
5.440e-07,25.4,10.36
5.480e-07,25.6,10.36
5.520e-07,25.4,10.44
5.560e-07,25.4,10.2
5.600e-07,25.6,10.52
5.640e-07,26,10.52
5.680e-07,25.6,10.52
5.720e-07,25.6,10.52
5.760e-07,25.6,10.6
5.800e-07,25.4,10.6
5.840e-07,25.6,10.52
5.880e-07,25.6,10.6
5.920e-07,25.8,10.6
5.960e-07,25.8,10.6
6.000e-07,25.8,10.76
6.040e-07,25.8,10.6
6.080e-07,25.8,10.68
6.120e-07,25.4,10.6
6.160e-07,25.6,10.76
6.200e-07,25.8,10.6
6.240e-07,25.6,10.68
6.280e-07,25.6,10.6
6.320e-07,26,10.68
6.360e-07,25.8,10.84
6.400e-07,26,10.68
6.440e-07,25.6,10.84
6.480e-07,25.8,10.84
6.520e-07,25.6,10.76
6.560e-07,25.6,10.92
6.600e-07,25.8,10.84
6.640e-07,25.6,10.84
6.680e-07,26,10.84
6.720e-07,25.8,10.84
6.760e-07,25.8,10.84
6.800e-07,25.6,10.84
6.840e-07,26,11
6.880e-07,25.6,11
6.920e-07,25.8,10.92
6.960e-07,25.6,10.84
7.000e-07,26,10.84
7.040e-07,25.6,10.92
7.080e-07,25.8,10.92
7.120e-07,25.8,11
7.160e-07,25.8,11
7.200e-07,25.6,10.92
7.240e-07,25.6,11
7.280e-07,25.6,10.92
7.320e-07,25.8,11.08
7.360e-07,26,10.92
7.400e-07,25.8,11.08
7.440e-07,25.8,11.08
7.480e-07,25.4,11.16
7.520e-07,26,11
7.560e-07,25.6,11.08
7.600e-07,25.8,11.08
7.640e-07,26,11.08
7.680e-07,25.8,11.08
7.720e-07,26,11.16
7.760e-07,25.8,11.08
7.800e-07,25.8,11.08
7.840e-07,25.6,11.08
7.880e-07,25.6,11.16
7.920e-07,26,11.08
7.960e-07,25.8,11.16
8.000e-07,25.6,11.24
8.040e-07,26,11.08
8.080e-07,25.8,11.16
8.120e-07,26,11.24
8.160e-07,25.8,11.16
8.200e-07,25.6,11.32
8.240e-07,25.8,11.24
8.280e-07,26,11.08
8.320e-07,25.8,11.24
8.360e-07,25.6,11.08
8.400e-07,25.6,11.32
8.440e-07,25.8,11.24
8.480e-07,25.8,11.32
8.520e-07,25.6,11.16
8.560e-07,25.4,11.24
8.600e-07,25.4,11.16
8.640e-07,25.6,11.16
8.680e-07,25,11.16
8.720e-07,25,11.08
8.760e-07,25,11.08
8.800e-07,25.2,11.08
8.840e-07,25.2,11.08
8.880e-07,24.6,11.08
8.920e-07,25,11.08
8.960e-07,24.8,11.16
9.000e-07,24.6,11.08
9.040e-07,24.6,11
9.080e-07,24.6,11
9.120e-07,24.2,10.92
9.160e-07,24.2,10.84
9.200e-07,24,10.84
9.240e-07,24.2,10.76
9.280e-07,24.2,10.84
9.320e-07,23.8,10.76
9.360e-07,23.6,10.6
9.400e-07,23.4,10.68
9.440e-07,23.4,10.6
9.480e-07,23,10.52
9.520e-07,23.2,10.52
9.560e-07,23,10.36
9.600e-07,23,10.36
9.640e-07,22.4,10.44
9.680e-07,22.4,10.28
9.720e-07,22.4,10.2
9.760e-07,22,10.2
9.800e-07,21.8,10.2
9.840e-07,22,10.04
9.880e-07,21.6,10.04
9.920e-07,21.4,9.96
9.960e-07,21.4,9.88
1.000e-06,21,9.8
1.004e-06,20.8,9.8
1.008e-06,21,9.72
1.012e-06,20.8,9.56
1.016e-06,20.2,9.64
1.020e-06,20,9.56
1.024e-06,20,9.4
1.028e-06,20,9.56
1.032e-06,19.8,9.16
1.036e-06,19.2,9.32
1.040e-06,19.4,9.16
1.044e-06,19.2,9.08
1.048e-06,18.8,9
1.052e-06,18.6,8.92
1.056e-06,18.4,8.92
1.060e-06,18.4,8.68
1.064e-06,18.2,8.6
1.068e-06,18,8.68
1.072e-06,17.6,8.52
1.076e-06,17.4,8.52
1.080e-06,17,8.36
1.084e-06,17.4,8.12
1.088e-06,17,8.2
1.092e-06,16.6,8.12
1.096e-06,16.6,7.96
1.100e-06,16.4,8.04
1.104e-06,16.4,8.04
1.108e-06,16,7.72
1.112e-06,15.8,7.72
1.116e-06,15.8,7.64
1.120e-06,15.6,7.64
1.124e-06,15,7.48
1.128e-06,15,7.48
1.132e-06,15,7.4
1.136e-06,14.6,7.32
1.140e-06,14.4,7.32
1.144e-06,14.4,7.16
1.148e-06,14,7.24
1.152e-06,14,7
1.156e-06,13.8,7.08
1.160e-06,13.2,6.84
1.164e-06,13.2,6.84
1.168e-06,13.4,6.68
1.172e-06,13,6.68
1.176e-06,12.8,6.6
1.180e-06,12.6,6.52
1.184e-06,12.4,6.28
1.188e-06,12.4,6.36
1.192e-06,12,6.12
1.196e-06,11.8,6.2
1.200e-06,11.4,6.12
1.204e-06,11.8,6.12
1.208e-06,11.4,5.96
1.212e-06,11,5.96
1.216e-06,10.6,5.96
1.220e-06,10.6,5.72
1.224e-06,10.4,5.64
1.228e-06,10.2,5.56
1.232e-06,10,5.4
1.236e-06,9.8,5.48
1.240e-06,9.8,5.32
1.244e-06,9.2,5.24
1.248e-06,9.4,5.08
1.252e-06,9.2,5.16
1.256e-06,9,5.08
1.260e-06,8.6,5
1.264e-06,8.6,5
1.268e-06,8.2,5
1.272e-06,8,4.76
1.276e-06,8,4.76
1.280e-06,7.8,4.6
1.284e-06,7.6,4.52
1.288e-06,7.4,4.52
1.292e-06,7.4,4.44
1.296e-06,7.2,4.44
1.300e-06,7.2,4.2
1.304e-06,6.8,4.28
1.308e-06,6.8,4.12
1.312e-06,6.8,4.12
1.316e-06,6.8,4.12
1.320e-06,6.4,4.12
1.324e-06,6,4.12
1.328e-06,5.8,3.88
1.332e-06,5.8,4.04
1.336e-06,6,3.96
1.340e-06,6,3.88
1.344e-06,5.6,3.8
1.348e-06,5.6,3.8
1.352e-06,5.4,3.88
1.356e-06,5.8,3.72
1.360e-06,5,3.72
1.364e-06,5,3.56
1.368e-06,5,3.64
1.372e-06,5.2,3.48
1.376e-06,5,3.48
1.380e-06,4.8,3.48
1.384e-06,4.8,3.48
1.388e-06,4.8,3.32
1.392e-06,4.8,3.24
1.396e-06,4.6,3.24
1.400e-06,4.2,3.16
1.404e-06,4.2,3.32
1.408e-06,4.2,3.16
1.412e-06,3.8,3.16
1.416e-06,4.4,3.08
1.420e-06,4,3.08
1.424e-06,3.8,3.08
1.428e-06,3.8,3
1.432e-06,3.8,2.92
1.436e-06,3.6,2.92
1.440e-06,3.6,2.76
1.444e-06,3.8,2.92
1.448e-06,3.6,2.84
1.452e-06,3.8,2.6
1.456e-06,3.6,2.92
1.460e-06,3.2,2.92
1.464e-06,3.6,2.76
1.468e-06,3.4,2.84
1.472e-06,3.4,2.6
1.476e-06,3.2,2.6
1.480e-06,3.2,2.76
1.484e-06,3,2.6
1.488e-06,3,2.6
1.492e-06,3,2.52
1.496e-06,3.2,2.52
1.500e-06,3.2,2.6
1.504e-06,3,2.52
1.508e-06,2.6,2.6
1.512e-06,2.8,2.6
1.516e-06,2.6,2.52
1.520e-06,2.6,2.52
1.524e-06,2.6,2.44
1.528e-06,2.8,2.44
1.532e-06,2.6,2.44
1.536e-06,2.6,2.36
1.540e-06,2.6,2.36
1.544e-06,2.4,2.44
1.548e-06,2.8,2.36
1.552e-06,2.6,2.28
1.556e-06,2.6,2.36
1.560e-06,2.6,2.36
1.564e-06,2.4,2.36
1.568e-06,2,2.2
1.572e-06,2.4,2.2
1.576e-06,2,2.28
1.580e-06,2.4,2.2
1.584e-06,2.4,2.28
1.588e-06,2.2,2.28
1.592e-06,2,2.2
1.596e-06,2.2,2.28
1.600e-06,2,2.28
1.604e-06,2.2,2.2
1.608e-06,2,2.12
1.612e-06,2.6,2.04
1.616e-06,1.8,2.2
1.620e-06,2.2,2.04
1.624e-06,2.2,2.2
1.628e-06,2,2.12
1.632e-06,2,2.04
1.636e-06,2,1.96
1.640e-06,2.2,1.96
1.644e-06,2,2.04
1.648e-06,1.8,2.04
1.652e-06,2,2.04
1.656e-06,1.6,2.12
1.660e-06,2,2.12
1.664e-06,2,1.96
1.668e-06,1.8,1.96
1.672e-06,2,1.96
1.676e-06,2,2.04
1.680e-06,2,1.96
1.684e-06,2,2.12
1.688e-06,1.6,1.88
1.692e-06,2,1.96
1.696e-06,2,2.04
1.700e-06,2,1.96
1.704e-06,1.8,1.88
1.708e-06,1.8,2.04
1.712e-06,2,2.04
1.716e-06,2,2.04
1.720e-06,1.8,2.04
1.724e-06,1.6,2.12
1.728e-06,1.8,1.88
1.732e-06,2,1.88
1.736e-06,1.8,1.8
1.740e-06,1.6,1.88
1.744e-06,1.6,1.88
1.748e-06,2,2.04
1.752e-06,1.8,1.96
1.756e-06,1.8,1.96
1.760e-06,2,1.88
1.764e-06,2,1.96
1.768e-06,1.8,1.88
1.772e-06,1.6,1.88
1.776e-06,2,1.88
1.780e-06,1.8,1.88
1.784e-06,2,1.96
1.788e-06,1.8,1.96
1.792e-06,1.8,1.96
1.796e-06,2,1.88
1.800e-06,1.8,2.04
1.804e-06,1.8,2.04
1.808e-06,1.8,1.8
1.812e-06,2,1.88
1.816e-06,2,1.88
1.820e-06,2,1.88
1.824e-06,2,2.04
1.828e-06,2,1.96
1.832e-06,1.8,1.88
1.836e-06,2,1.96
1.840e-06,2,2.04
1.844e-06,1.8,2.04
1.848e-06,1.8,1.96
1.852e-06,2,2.04
1.856e-06,2,1.96
1.860e-06,2,1.96
1.864e-06,2,2.04
1.868e-06,1.8,2.04
1.872e-06,1.8,2.04
1.876e-06,2.2,2.04
1.880e-06,2,1.88
1.884e-06,2,1.88
1.888e-06,2.2,2.04
1.892e-06,2.2,1.88
1.896e-06,2,1.88
1.900e-06,2.2,2.04
1.904e-06,2.2,2.04
1.908e-06,2.2,2.04
1.912e-06,2.2,2.04
1.916e-06,2.2,1.88
1.920e-06,2,1.96
1.924e-06,2.2,2.12
1.928e-06,2.4,2.12
1.932e-06,2.2,1.96
1.936e-06,1.8,1.88
1.940e-06,2.2,2.04
1.944e-06,2,1.8
1.948e-06,2.2,2.04
1.952e-06,2.4,2.12
1.956e-06,2.4,1.88
1.960e-06,2.4,1.96
1.964e-06,2.2,1.96
1.968e-06,2,2.04
1.972e-06,2.2,2.04
1.976e-06,2,2.12
1.980e-06,2.4,2.12
1.984e-06,2.2,1.96
1.988e-06,2,2.12
1.992e-06,2.4,2.04
1.996e-06,2.2,2.04
2.000e-06,2.4,2.04
2.004e-06,2.4,2.04
2.008e-06,2.4,2.04
2.012e-06,2.2,2.04
2.016e-06,2.2,1.96
2.020e-06,2.4,1.96
2.024e-06,2.2,2.04
2.028e-06,2.4,2.12
2.032e-06,2.2,1.96
2.036e-06,2.4,1.96
2.040e-06,2.6,2.04
2.044e-06,2.4,2.12
2.048e-06,2.4,2.04
2.052e-06,2.2,2.04
2.056e-06,2.4,2.04
2.060e-06,2.4,1.96
2.064e-06,2.4,1.96
2.068e-06,2.6,2.04
2.072e-06,2.2,1.96
2.076e-06,2.4,2.04
2.080e-06,2.6,2.04
2.084e-06,2.4,1.88
2.088e-06,2.6,2.04
2.092e-06,2.4,2.04
2.096e-06,2.4,2.04
2.100e-06,2.2,2.12
2.104e-06,2.6,2.04
2.108e-06,2.6,2.12
2.112e-06,2.4,1.88
2.116e-06,2.4,2.04
2.120e-06,2.4,2.12
2.124e-06,2.4,2.04
2.128e-06,2.6,2.04
2.132e-06,2.2,2.2
2.136e-06,2.6,2.12
2.140e-06,2.6,2.2
2.144e-06,2.6,2.04
2.148e-06,2.4,2.04
2.152e-06,2.6,2.04
2.156e-06,2.6,2.12
2.160e-06,2.2,2.12
2.164e-06,2.2,2.04
2.168e-06,2.6,2.12
2.172e-06,3,2.12
2.176e-06,2.6,2.04
2.180e-06,2.2,2.12
2.184e-06,2.2,2.2
2.188e-06,2.6,2.04
2.192e-06,2.4,2.12
2.196e-06,2.6,2.12
2.200e-06,2.8,1.96
2.204e-06,2.6,2.2
2.208e-06,2.6,2.04
2.212e-06,2.6,1.96
2.216e-06,2.6,2.12
2.220e-06,2.6,2.12
2.224e-06,2.6,2.04
2.228e-06,2.4,2.04
2.232e-06,2.4,2.04
2.236e-06,2.8,2.04
2.240e-06,2.2,2.12
2.244e-06,2.6,2.04
2.248e-06,2.4,2.04
2.252e-06,2.2,2.12
2.256e-06,2.6,2.04
2.260e-06,2.6,2.04
2.264e-06,2.8,2.04
2.268e-06,2.4,1.88
2.272e-06,2.4,2.12
2.276e-06,2.4,2.12
2.280e-06,2.2,2.12
2.284e-06,2.4,2.04
2.288e-06,2.4,2.04
2.292e-06,2.4,1.88
2.296e-06,2.4,2.12
2.300e-06,2.6,2.04
2.304e-06,2.6,1.96
2.308e-06,2.4,2.12
2.312e-06,2.4,1.96
2.316e-06,2.4,2.04
2.320e-06,2.6,2.12
2.324e-06,2.6,2.04
2.328e-06,2.6,2.04
2.332e-06,2.4,2.04
2.336e-06,2.4,2.2
2.340e-06,3,2.04
2.344e-06,2.8,1.96
2.348e-06,2.6,2.04
2.352e-06,2.6,2.12
2.356e-06,2.6,2.04
2.360e-06,2.6,2.12
2.364e-06,2.8,2.04
2.368e-06,2.8,2.04
2.372e-06,2.8,2.04
2.376e-06,2.6,1.88
2.380e-06,2.6,2.04
2.384e-06,2.4,1.96
2.388e-06,2.4,2.04
2.392e-06,2.6,2.04
2.396e-06,2.8,2.04
2.400e-06,2.6,1.88
2.404e-06,2.8,2.12
2.408e-06,2.8,1.96
2.412e-06,2.6,2.04
2.416e-06,3,2.12
2.420e-06,2.6,1.96
2.424e-06,2.8,1.88
2.428e-06,2.6,2.04
2.432e-06,2.4,1.96
2.436e-06,2.6,2.04
2.440e-06,2.6,2.04
2.444e-06,2.2,2.04
2.448e-06,2.4,2.04
2.452e-06,2.6,1.96
2.456e-06,3,2.04
2.460e-06,2.4,2.04
2.464e-06,2.6,1.88
2.468e-06,2.6,2.04
2.472e-06,2.6,1.88
2.476e-06,2.6,1.96
2.480e-06,2.6,2.04
2.484e-06,2.6,1.96
2.488e-06,2.8,1.88
2.492e-06,2.6,1.96
2.496e-06,2.4,2.12
2.500e-06,2.6,2.04
2.504e-06,2.4,2.04
2.508e-06,2.8,2.04
2.512e-06,3,2.04
2.516e-06,2.6,1.96
2.520e-06,2.8,1.96
2.524e-06,2.6,1.88
2.528e-06,2.6,1.96
2.532e-06,2.6,1.96
2.536e-06,2.8,2.04
2.540e-06,2.6,1.8
2.544e-06,2.8,1.96
2.548e-06,3.2,2.04
2.552e-06,2.6,1.8
2.556e-06,2.6,2.04
2.560e-06,2.4,2.04
2.564e-06,2.8,1.96
2.568e-06,3,1.96
2.572e-06,2.6,1.8
2.576e-06,2.2,1.88
2.580e-06,2.6,1.96
2.584e-06,2.6,1.96
2.588e-06,2.8,1.96
2.592e-06,2.6,1.96
2.596e-06,2.8,1.96
2.600e-06,2.6,2.04
2.604e-06,2.6,1.88
2.608e-06,2.6,2.04
2.612e-06,2.6,1.88
2.616e-06,2.8,1.88
2.620e-06,2.6,1.88
2.624e-06,2.8,1.88
2.628e-06,2.4,1.96

