Archivos Guadalupe/Data/1410-32-X4/24-10/D-24-10/tek0016ALL.csv

Model,DPO3034
Firmware Version,2.16

Point Format,Y,
Horizontal Units,S,
Horizontal Scale,2e-06,
Sample Interval,2e-08,
Record Length,1000,
Gating,0.0% to 100.0%,0.0% to 100.0%
Probe Attenuation,1,1
Vertical Units,V,V
Vertical Offset,0,0
Vertical Scale,5,2
Label,,
TIME,CH1,CH2
-2.620e-06,0,0.04
-2.600e-06,0.2,-0.12
-2.580e-06,0,0.04
-2.560e-06,0,0.04
-2.540e-06,0,-0.04
-2.520e-06,0,0.04
-2.500e-06,0,-0.12
-2.480e-06,0,-0.12
-2.460e-06,0.2,0.04
-2.440e-06,0,-0.12
-2.420e-06,0,0.04
-2.400e-06,0.2,-0.04
-2.380e-06,0.2,0.04
-2.360e-06,0.4,0.04
-2.340e-06,-0.2,-0.04
-2.320e-06,0,-0.12
-2.300e-06,0.6,-0.04
-2.280e-06,0,0.04
-2.260e-06,0.2,-0.04
-2.240e-06,0,-0.12
-2.220e-06,0.2,0.12
-2.200e-06,0,0.12
-2.180e-06,0,0.04
-2.160e-06,0,-0.04
-2.140e-06,0,0.04
-2.120e-06,0.6,0.04
-2.100e-06,0.6,0.04
-2.080e-06,0.4,0.04
-2.060e-06,0.4,0.04
-2.040e-06,-0.2,0.12
-2.020e-06,0.4,0.04
-2.000e-06,0.4,0.04
-1.980e-06,0.8,0.12
-1.960e-06,0.4,0.12
-1.940e-06,0.2,-0.12
-1.920e-06,0.4,0.12
-1.900e-06,0.4,0.12
-1.880e-06,0.4,0.2
-1.860e-06,0.4,0.12
-1.840e-06,0.6,0.12
-1.820e-06,0.4,0.12
-1.800e-06,0.6,0.28
-1.780e-06,0.6,0.2
-1.760e-06,0.8,0.12
-1.740e-06,0.8,0.2
-1.720e-06,0.6,0.28
-1.700e-06,0.8,0.12
-1.680e-06,0.8,0.28
-1.660e-06,1,0.36
-1.640e-06,1,0.2
-1.620e-06,1,0.36
-1.600e-06,1.2,0.28
-1.580e-06,1,0.36
-1.560e-06,1.2,0.36
-1.540e-06,1.4,0.36
-1.520e-06,1.2,0.44
-1.500e-06,1.4,0.6
-1.480e-06,1.2,0.44
-1.460e-06,1.6,0.52
-1.440e-06,1.2,0.44
-1.420e-06,1.8,0.44
-1.400e-06,1.6,0.52
-1.380e-06,1.8,0.6
-1.360e-06,1.8,0.52
-1.340e-06,1.6,0.6
-1.320e-06,2,0.6
-1.300e-06,1.8,0.6
-1.280e-06,1.6,0.68
-1.260e-06,2,0.68
-1.240e-06,2,0.68
-1.220e-06,1.8,0.6
-1.200e-06,2,0.76
-1.180e-06,2,0.6
-1.160e-06,1.8,0.68
-1.140e-06,2,0.52
-1.120e-06,1.6,0.76
-1.100e-06,2,0.76
-1.080e-06,2.2,0.76
-1.060e-06,2,0.76
-1.040e-06,2.2,0.68
-1.020e-06,2.2,0.6
-1.000e-06,2,0.76
-9.800e-07,2,0.52
-9.600e-07,2,0.68
-9.400e-07,2,0.76
-9.200e-07,2,0.68
-9.000e-07,2.2,0.6
-8.800e-07,2,0.76
-8.600e-07,2,0.76
-8.400e-07,2.2,0.6
-8.200e-07,2,0.68
-8.000e-07,2,0.68
-7.800e-07,1.8,0.68
-7.600e-07,2,0.52
-7.400e-07,2,0.6
-7.200e-07,2,0.52
-7.000e-07,1.4,0.6
-6.800e-07,1.6,0.68
-6.600e-07,2,0.6
-6.400e-07,2,0.68
-6.200e-07,1.8,0.6
-6.000e-07,1.8,0.68
-5.800e-07,1.8,0.6
-5.600e-07,1.6,0.6
-5.400e-07,2,0.6
-5.200e-07,2,0.6
-5.000e-07,1.8,0.6
-4.800e-07,2,0.6
-4.600e-07,1.8,0.68
-4.400e-07,1.8,0.6
-4.200e-07,2,0.76
-4.000e-07,2.6,0.6
-3.800e-07,2.4,1
-3.600e-07,2.8,0.84
-3.400e-07,2.6,0.92
-3.200e-07,3.2,0.92
-3.000e-07,3.6,1.24
-2.800e-07,3.8,1.4
-2.600e-07,4.4,1.48
-2.400e-07,4.8,1.64
-2.200e-07,5,1.88
-2.000e-07,5,1.88
-1.800e-07,5.8,2.04
-1.600e-07,5.8,2.04
-1.400e-07,6.2,2.28
-1.200e-07,6.6,2.44
-1.000e-07,6.6,2.52
-8.000e-08,7.2,2.76
-6.000e-08,7.4,2.52
-4.000e-08,8,2.68
-2.000e-08,8.2,2.92
-5.393e-21,8.6,3.08
2.000e-08,8.8,3.24
4.000e-08,9.4,3.32
6.000e-08,9.8,3.4
8.000e-08,10.6,3.4
1.000e-07,10.2,3.64
1.200e-07,11,3.88
1.400e-07,10.8,3.96
1.600e-07,11.6,4.12
1.800e-07,11.6,4.2
2.000e-07,11.8,4.36
2.200e-07,12.4,4.36
2.400e-07,12.8,4.68
2.600e-07,13,4.68
2.800e-07,13.6,4.92
3.000e-07,13.8,5
3.200e-07,14.2,5.32
3.400e-07,14.6,5.32
3.600e-07,14.8,5.4
3.800e-07,15.4,5.48
4.000e-07,15.2,5.72
4.200e-07,16,5.88
4.400e-07,16.4,5.88
4.600e-07,16.4,5.96
4.800e-07,16.6,6.28
5.000e-07,17.2,6.44
5.200e-07,17.6,6.44
5.400e-07,18,6.52
5.600e-07,17.6,6.68
5.800e-07,18.2,6.68
6.000e-07,18.2,6.76
6.200e-07,18.2,6.84
6.400e-07,18.4,6.84
6.600e-07,18.4,6.84
6.800e-07,18.2,6.84
7.000e-07,18.6,6.92
7.200e-07,18.2,6.92
7.400e-07,18.2,6.84
7.600e-07,18,7.08
7.800e-07,18.4,7.16
8.000e-07,18.6,7
8.200e-07,18.6,7
8.400e-07,18.4,7.08
8.600e-07,18.2,7.24
8.800e-07,18.2,7
9.000e-07,18.4,7.24
9.200e-07,18.2,7.08
9.400e-07,18.4,7.16
9.600e-07,18.2,7.16
9.800e-07,18.4,7.24
1.000e-06,18.6,7.24
1.020e-06,18.6,7.16
1.040e-06,18.6,7.16
1.060e-06,18.6,7.24
1.080e-06,18.8,7.24
1.100e-06,18.8,7.16
1.120e-06,18,7.24
1.140e-06,18.6,7.4
1.160e-06,18.6,7.24
1.180e-06,18.4,7.32
1.200e-06,19,7.48
1.220e-06,18.6,7.32
1.240e-06,18.8,7.32
1.260e-06,18.2,7.4
1.280e-06,18.6,7.4
1.300e-06,18.2,7.4
1.320e-06,18.4,7.4
1.340e-06,18.4,7.4
1.360e-06,18.4,7.24
1.380e-06,18.6,7.48
1.400e-06,18.6,7.4
1.420e-06,18.6,7.48
1.440e-06,18.2,7.4
1.460e-06,18.4,7.56
1.480e-06,18.6,7.4
1.500e-06,18.6,7.48
1.520e-06,18.6,7.64
1.540e-06,18.2,7.56
1.560e-06,18.6,7.64
1.580e-06,18,7.64
1.600e-06,18.4,7.56
1.620e-06,18.2,7.4
1.640e-06,17.6,7.24
1.660e-06,17.4,7.48
1.680e-06,17,7.4
1.700e-06,17.4,7.16
1.720e-06,16.6,7.08
1.740e-06,16.8,6.92
1.760e-06,16.2,6.76
1.780e-06,16,6.6
1.800e-06,15.6,6.52
1.820e-06,15.4,6.44
1.840e-06,15,6.36
1.860e-06,14.8,6.2
1.880e-06,14.4,6.04
1.900e-06,13.8,5.96
1.920e-06,14.2,5.8
1.940e-06,13.4,5.64
1.960e-06,13.2,5.56
1.980e-06,12.4,5.24
2.000e-06,11.8,5.16
2.020e-06,11.8,5.16
2.040e-06,11.2,4.92
2.060e-06,10.8,4.84
2.080e-06,10.6,4.6
2.100e-06,10.2,4.44
2.120e-06,9.8,4.2
2.140e-06,9.6,4.12
2.160e-06,9,3.96
2.180e-06,9,3.88
2.200e-06,8.4,3.64
2.220e-06,8,3.56
2.240e-06,7.6,3.56
2.260e-06,7.4,3.24
2.280e-06,7,3.16
2.300e-06,6.8,2.92
2.320e-06,7,2.92
2.340e-06,6.4,2.84
2.360e-06,5.8,2.6
2.380e-06,6,2.6
2.400e-06,5.4,2.44
2.420e-06,5.2,2.2
2.440e-06,4.6,2.12
2.460e-06,4.4,2.04
2.480e-06,4,1.88
2.500e-06,3.6,1.8
2.520e-06,3.2,1.8
2.540e-06,3,1.64
2.560e-06,3,1.4
2.580e-06,2.6,1.32
2.600e-06,2.6,1.24
2.620e-06,2.6,1.24
2.640e-06,2.4,1.08
2.660e-06,2.2,1.16
2.680e-06,2,0.92
2.700e-06,2.2,1
2.720e-06,2,1
2.740e-06,1.8,0.92
2.760e-06,1.8,1
2.780e-06,1.6,1
2.800e-06,1.6,0.84
2.820e-06,1.6,0.92
2.840e-06,1.6,0.84
2.860e-06,1.8,0.84
2.880e-06,1.2,0.76
2.900e-06,1.2,0.76
2.920e-06,1.4,0.76
2.940e-06,1.4,0.68
2.960e-06,1,0.84
2.980e-06,1.4,0.92
3.000e-06,1,0.76
3.020e-06,1.6,0.84
3.040e-06,1.6,0.84
3.060e-06,1.8,0.84
3.080e-06,1.4,0.76
3.100e-06,1.6,0.84
3.120e-06,1.8,0.92
3.140e-06,1.6,0.84
3.160e-06,1.8,1
3.180e-06,1.6,0.84
3.200e-06,1.8,0.84
3.220e-06,1.8,1
3.240e-06,2,0.92
3.260e-06,2,0.84
3.280e-06,1.6,0.92
3.300e-06,2.2,0.84
3.320e-06,1.8,0.84
3.340e-06,2,0.84
3.360e-06,2,0.84
3.380e-06,1.8,1
3.400e-06,1.6,0.76
3.420e-06,2,0.92
3.440e-06,1.8,0.84
3.460e-06,2,0.84
3.480e-06,2.2,0.76
3.500e-06,1.8,0.76
3.520e-06,2,0.84
3.540e-06,2,0.92
3.560e-06,2,1
3.580e-06,2,0.76
3.600e-06,2,0.92
3.620e-06,1.8,0.92
3.640e-06,1.8,0.84
3.660e-06,2,0.84
3.680e-06,2,0.84
3.700e-06,1.8,0.92
3.720e-06,2,0.76
3.740e-06,2,0.92
3.760e-06,1.8,0.84
3.780e-06,2,1
3.800e-06,2.2,0.92
3.820e-06,2.2,0.92
3.840e-06,2,0.92
3.860e-06,2,0.92
3.880e-06,2.2,0.84
3.900e-06,2.2,0.84
3.920e-06,2,0.84
3.940e-06,2.2,0.84
3.960e-06,2,0.92
3.980e-06,2,0.84
4.000e-06,2.4,0.76
4.020e-06,2,0.92
4.040e-06,1.6,0.84
4.060e-06,2,0.84
4.080e-06,1.8,0.84
4.100e-06,2,0.84
4.120e-06,2.4,0.92
4.140e-06,2,0.84
4.160e-06,2.2,0.84
4.180e-06,1.8,0.84
4.200e-06,2,0.92
4.220e-06,2,0.84
4.240e-06,2,0.84
4.260e-06,2,0.84
4.280e-06,2,1
4.300e-06,2,0.68
4.320e-06,1.8,0.68
4.340e-06,2,0.76
4.360e-06,2,0.84
4.380e-06,2,0.84
4.400e-06,2,0.84
4.420e-06,2,0.84
4.440e-06,2,0.84
4.460e-06,2,0.76
4.480e-06,2,0.76
4.500e-06,2,0.76
4.520e-06,1.8,0.92
4.540e-06,2,0.68
4.560e-06,2,0.84
4.580e-06,2,0.84
4.600e-06,2,0.76
4.620e-06,1.8,0.76
4.640e-06,2.2,0.68
4.660e-06,2,0.68
4.680e-06,2,0.76
4.700e-06,2.2,0.76
4.720e-06,2,0.76
4.740e-06,1.8,0.68
4.760e-06,2.2,0.76
4.780e-06,2,0.76
4.800e-06,2,0.76
4.820e-06,1.8,0.68
4.840e-06,1.8,0.76
4.860e-06,2,0.68
4.880e-06,1.8,0.76
4.900e-06,1.8,0.84
4.920e-06,2,0.76
4.940e-06,2.2,0.6
4.960e-06,2,0.76
4.980e-06,2,0.76
5.000e-06,2.2,0.76
5.020e-06,1.8,0.68
5.040e-06,2,0.68
5.060e-06,2,0.76
5.080e-06,1.8,0.6
5.100e-06,2.2,0.76
5.120e-06,2,0.6
5.140e-06,1.8,0.68
5.160e-06,2,0.68
5.180e-06,2,0.68
5.200e-06,2,0.68
5.220e-06,2,0.6
5.240e-06,2,0.76
5.260e-06,2,0.68
5.280e-06,1.8,0.68
5.300e-06,2,0.6
5.320e-06,1.8,0.68
5.340e-06,2,0.68
5.360e-06,2,0.6
5.380e-06,2.2,0.76
5.400e-06,1.8,0.6
5.420e-06,2,0.68
5.440e-06,2.2,0.6
5.460e-06,2,0.76
5.480e-06,2.2,0.76
5.500e-06,2,0.76
5.520e-06,1.8,0.68
5.540e-06,2,0.68
5.560e-06,1.8,0.76
5.580e-06,2,0.6
5.600e-06,1.8,0.6
5.620e-06,1.8,0.6
5.640e-06,2,0.6
5.660e-06,2,0.76
5.680e-06,1.8,0.6
5.700e-06,2,0.68
5.720e-06,1.8,0.6
5.740e-06,2,0.6
5.760e-06,2,0.76
5.780e-06,2,0.68
5.800e-06,2,0.6
5.820e-06,2,0.6
5.840e-06,2,0.68
5.860e-06,2,0.68
5.880e-06,2,0.6
5.900e-06,2.2,0.6
5.920e-06,2,0.68
5.940e-06,2,0.76
5.960e-06,1.8,0.6
5.980e-06,2,0.52
6.000e-06,2.2,0.68
6.020e-06,1.6,0.68
6.040e-06,2,0.6
6.060e-06,1.8,0.76
6.080e-06,1.8,0.6
6.100e-06,1.8,0.6
6.120e-06,2,0.68
6.140e-06,1.8,0.6
6.160e-06,1.8,0.6
6.180e-06,2,0.68
6.200e-06,1.8,0.6
6.220e-06,1.8,0.6
6.240e-06,2,0.6
6.260e-06,1.8,0.52
6.280e-06,2,0.52
6.300e-06,2,0.6
6.320e-06,2,0.6
6.340e-06,2.2,0.6
6.360e-06,1.8,0.76
6.380e-06,2,0.52
6.400e-06,2,0.52
6.420e-06,2,0.52
6.440e-06,1.6,0.6
6.460e-06,2,0.68
6.480e-06,2,0.6
6.500e-06,2,0.6
6.520e-06,2,0.52
6.540e-06,2,0.44
6.560e-06,2,0.6
6.580e-06,2,0.52
6.600e-06,2.2,0.6
6.620e-06,2,0.68
6.640e-06,2,0.52
6.660e-06,2,0.6
6.680e-06,2,0.6
6.700e-06,2,0.68
6.720e-06,2,0.6
6.740e-06,2,0.6
6.760e-06,1.8,0.6
6.780e-06,1.8,0.6
6.800e-06,2,0.6
6.820e-06,1.8,0.52
6.840e-06,1.8,0.52
6.860e-06,2,0.52
6.880e-06,2,0.52
6.900e-06,2,0.6
6.920e-06,2,0.6
6.940e-06,2.2,0.6
6.960e-06,2,0.44
6.980e-06,2,0.6
7.000e-06,2.4,0.6
7.020e-06,1.6,0.52
7.040e-06,2,0.6
7.060e-06,1.8,0.6
7.080e-06,2,0.52
7.100e-06,1.8,0.52
7.120e-06,2,0.6
7.140e-06,2,0.52
7.160e-06,1.6,0.6
7.180e-06,2,0.52
7.200e-06,1.8,0.6
7.220e-06,2,0.52
7.240e-06,1.8,0.52
7.260e-06,2,0.52
7.280e-06,2,0.68
7.300e-06,2,0.6
7.320e-06,1.4,0.68
7.340e-06,2,0.6
7.360e-06,1.6,0.52
7.380e-06,2.2,0.52
7.400e-06,2,0.44
7.420e-06,2,0.44
7.440e-06,1.8,0.6
7.460e-06,1.8,0.44
7.480e-06,1.6,0.6
7.500e-06,2,0.68
7.520e-06,2.2,0.6
7.540e-06,1.8,0.6
7.560e-06,1.8,0.6
7.580e-06,2,0.52
7.600e-06,1.8,0.52
7.620e-06,2,0.6
7.640e-06,2,0.44
7.660e-06,1.8,0.44
7.680e-06,2,0.6
7.700e-06,2,0.52
7.720e-06,2,0.44
7.740e-06,2,0.6
7.760e-06,1.8,0.52
7.780e-06,2,0.44
7.800e-06,2,0.6
7.820e-06,2,0.44
7.840e-06,2,0.52
7.860e-06,2.2,0.44
7.880e-06,1.8,0.52
7.900e-06,2,0.52
7.920e-06,1.8,0.68
7.940e-06,2,0.52
7.960e-06,1.8,0.52
7.980e-06,2,0.52
8.000e-06,1.8,0.52
8.020e-06,1.8,0.52
8.040e-06,1.8,0.6
8.060e-06,2,0.6
8.080e-06,1.8,0.52
8.100e-06,2,0.44
8.120e-06,2,0.44
8.140e-06,1.8,0.44
8.160e-06,2,0.44
8.180e-06,1.8,0.52
8.200e-06,2,0.44
8.220e-06,2,0.36
8.240e-06,2,0.52
8.260e-06,2,0.44
8.280e-06,2,0.44
8.300e-06,2,0.52
8.320e-06,2,0.44
8.340e-06,2.2,0.52
8.360e-06,2,0.52
8.380e-06,2,0.36
8.400e-06,2,0.44
8.420e-06,2,0.52
8.440e-06,2,0.36
8.460e-06,2.2,0.36
8.480e-06,2,0.52
8.500e-06,2,0.52
8.520e-06,2,0.6
8.540e-06,2,0.52
8.560e-06,2,0.44
8.580e-06,2,0.44
8.600e-06,2,0.36
8.620e-06,2,0.44
8.640e-06,2,0.52
8.660e-06,2,0.52
8.680e-06,2,0.52
8.700e-06,1.8,0.52
8.720e-06,1.8,0.44
8.740e-06,2,0.44
8.760e-06,2,0.44
8.780e-06,2,0.6
8.800e-06,2.2,0.52
8.820e-06,1.8,0.36
8.840e-06,2,0.6
8.860e-06,2,0.52
8.880e-06,2,0.44
8.900e-06,2,0.44
8.920e-06,1.8,0.44
8.940e-06,2,0.52
8.960e-06,2,0.52
8.980e-06,1.8,0.44
9.000e-06,2,0.44
9.020e-06,2,0.36
9.040e-06,2,0.6
9.060e-06,2,0.36
9.080e-06,2,0.52
9.100e-06,2,0.44
9.120e-06,2.2,0.36
9.140e-06,1.6,0.36
9.160e-06,2,0.52
9.180e-06,2,0.52
9.200e-06,2,0.44
9.220e-06,1.8,0.36
9.240e-06,2,0.52
9.260e-06,1.8,0.44
9.280e-06,2,0.44
9.300e-06,1.8,0.44
9.320e-06,2,0.44
9.340e-06,2,0.52
9.360e-06,2.2,0.6
9.380e-06,2,0.52
9.400e-06,2,0.36
9.420e-06,2,0.44
9.440e-06,1.8,0.44
9.460e-06,1.8,0.44
9.480e-06,1.8,0.44
9.500e-06,1.8,0.36
9.520e-06,2,0.44
9.540e-06,2,0.44
9.560e-06,1.4,0.52
9.580e-06,2.2,0.52
9.600e-06,2,0.6
9.620e-06,2,0.52
9.640e-06,2.2,0.44
9.660e-06,2,0.52
9.680e-06,1.8,0.36
9.700e-06,1.8,0.52
9.720e-06,2,0.44
9.740e-06,2,0.36
9.760e-06,1.6,0.52
9.780e-06,2,0.44
9.800e-06,2,0.44
9.820e-06,2,0.36
9.840e-06,2.2,0.44
9.860e-06,1.8,0.28
9.880e-06,2,0.44
9.900e-06,2,0.36
9.920e-06,2,0.44
9.940e-06,1.8,0.28
9.960e-06,2,0.52
9.980e-06,2,0.44
1.000e-05,2,0.36
1.002e-05,2,0.36
1.004e-05,1.8,0.44
1.006e-05,2,0.36
1.008e-05,2,0.44
1.010e-05,2,0.36
1.012e-05,2,0.28
1.014e-05,2.2,0.36
1.016e-05,2,0.44
1.018e-05,1.8,0.28
1.020e-05,2,0.28
1.022e-05,2.2,0.52
1.024e-05,2,0.36
1.026e-05,2.2,0.36
1.028e-05,2,0.44
1.030e-05,2,0.52
1.032e-05,2,0.36
1.034e-05,2,0.44
1.036e-05,2,0.52
1.038e-05,2,0.44
1.040e-05,2,0.52
1.042e-05,2,0.44
1.044e-05,2,0.44
1.046e-05,2,0.44
1.048e-05,2,0.44
1.050e-05,2,0.36
1.052e-05,1.8,0.44
1.054e-05,1.6,0.44
1.056e-05,2,0.36
1.058e-05,1.8,0.36
1.060e-05,2,0.36
1.062e-05,2,0.44
1.064e-05,2,0.2
1.066e-05,2,0.36
1.068e-05,2,0.28
1.070e-05,2,0.44
1.072e-05,1.8,0.36
1.074e-05,2,0.36
1.076e-05,2,0.44
1.078e-05,2,0.36
1.080e-05,1.8,0.6
1.082e-05,1.8,0.28
1.084e-05,1.8,0.44
1.086e-05,2,0.44
1.088e-05,1.6,0.2
1.090e-05,1.6,0.44
1.092e-05,2,0.2
1.094e-05,1.8,0.44
1.096e-05,2,0.2
1.098e-05,1.8,0.36
1.100e-05,1.8,0.36
1.102e-05,1.6,0.36
1.104e-05,2.2,0.2
1.106e-05,2,0.44
1.108e-05,2,0.28
1.110e-05,2,0.36
1.112e-05,1.6,0.2
1.114e-05,2,0.36
1.116e-05,2.2,0.44
1.118e-05,2,0.44
1.120e-05,2,0.36
1.122e-05,2,0.52
1.124e-05,2,0.36
1.126e-05,2,0.36
1.128e-05,1.8,0.6
1.130e-05,2,0.36
1.132e-05,1.6,0.36
1.134e-05,2,0.36
1.136e-05,2,0.44
1.138e-05,2,0.44
1.140e-05,2,0.36
1.142e-05,1.8,0.44
1.144e-05,2,0.36
1.146e-05,2,0.44
1.148e-05,2,0.36
1.150e-05,1.8,0.36
1.152e-05,1.8,0.44
1.154e-05,2,0.28
1.156e-05,1.8,0.44
1.158e-05,1.8,0.52
1.160e-05,1.8,0.28
1.162e-05,1.6,0.52
1.164e-05,1.8,0.2
1.166e-05,2,0.36
1.168e-05,1.6,0.36
1.170e-05,2,0.52
1.172e-05,2,0.28
1.174e-05,1.8,0.36
1.176e-05,2,0.2
1.178e-05,2,0.44
1.180e-05,1.8,0.2
1.182e-05,2,0.28
1.184e-05,2,0.44
1.186e-05,2,0.36
1.188e-05,2.2,0.36
1.190e-05,2.2,0.44
1.192e-05,2,0.36
1.194e-05,2,0.44
1.196e-05,1.6,0.44
1.198e-05,2,0.36
1.200e-05,2,0.44
1.202e-05,2,0.2
1.204e-05,2,0.36
1.206e-05,2,0.52
1.208e-05,2,0.36
1.210e-05,2,0.44
1.212e-05,2,0.36
1.214e-05,2,0.36
1.216e-05,1.8,0.28
1.218e-05,2,0.44
1.220e-05,1.8,0.36
1.222e-05,1.8,0.44
1.224e-05,2,0.28
1.226e-05,2,0.36
1.228e-05,1.8,0.44
1.230e-05,1.8,0.36
1.232e-05,2,0.36
1.234e-05,1.8,0.44
1.236e-05,1.8,0.2
1.238e-05,2,0.36
1.240e-05,2,0.2
1.242e-05,2,0.36
1.244e-05,1.8,0.36
1.246e-05,1.8,0.36
1.248e-05,1.8,0.28
1.250e-05,2,0.44
1.252e-05,1.8,0.44
1.254e-05,2,0.36
1.256e-05,1.8,0.44
1.258e-05,2,0.28
1.260e-05,2,0.36
1.262e-05,2,0.44
1.264e-05,2,0.44
1.266e-05,2,0.44
1.268e-05,1.8,0.28
1.270e-05,1.8,0.36
1.272e-05,2,0.44
1.274e-05,2,0.28
1.276e-05,2,0.36
1.278e-05,2,0.36
1.280e-05,2,0.36
1.282e-05,2,0.28
1.284e-05,1.8,0.36
1.286e-05,1.8,0.36
1.288e-05,1.8,0.36
1.290e-05,2,0.44
1.292e-05,1.6,0.44
1.294e-05,1.8,0.36
1.296e-05,2,0.36
1.298e-05,1.6,0.36
1.300e-05,2,0.44
1.302e-05,2,0.36
1.304e-05,2,0.36
1.306e-05,1.6,0.36
1.308e-05,2,0.36
1.310e-05,2,0.44
1.312e-05,1.6,0.44
1.314e-05,2,0.28
1.316e-05,2,0.36
1.318e-05,1.8,0.2
1.320e-05,1.6,0.36
1.322e-05,1.8,0.36
1.324e-05,1.8,0.36
1.326e-05,1.8,0.36
1.328e-05,2.2,0.52
1.330e-05,2,0.36
1.332e-05,1.8,0.36
1.334e-05,1.8,0.28
1.336e-05,1.6,0.36
1.338e-05,2,0.44
1.340e-05,2.2,0.36
1.342e-05,2,0.36
1.344e-05,2,0.36
1.346e-05,1.8,0.52
1.348e-05,1.6,0.52
1.350e-05,1.8,0.2
1.352e-05,2,0.28
1.354e-05,1.8,0.28
1.356e-05,2,0.28
1.358e-05,2.2,0.36
1.360e-05,2,0.36
1.362e-05,2,0.44
1.364e-05,1.6,0.36
1.366e-05,2,0.52
1.368e-05,2.2,0.36
1.370e-05,1.8,0.28
1.372e-05,1.6,0.28
1.374e-05,2,0.44
1.376e-05,2,0.36
1.378e-05,2,0.36
1.380e-05,2,0.28
1.382e-05,1.8,0.2
1.384e-05,2,0.36
1.386e-05,2,0.36
1.388e-05,2,0.36
1.390e-05,1.8,0.52
1.392e-05,1.8,0.36
1.394e-05,2,0.28
1.396e-05,2,0.44
1.398e-05,2,0.36
1.400e-05,2,0.36
1.402e-05,2,0.44
1.404e-05,2,0.28
1.406e-05,1.8,0.36
1.408e-05,2,0.36
1.410e-05,1.8,0.2
1.412e-05,2.2,0.2
1.414e-05,2,0.28
1.416e-05,2,0.28
1.418e-05,2.2,0.36
1.420e-05,2.2,0.36
1.422e-05,2,0.36
1.424e-05,2,0.44
1.426e-05,2.2,0.36
1.428e-05,2,0.36
1.430e-05,2.2,0.28
1.432e-05,1.8,0.2
1.434e-05,2,0.28
1.436e-05,2,0.44
1.438e-05,2.2,0.36
1.440e-05,2,0.44
1.442e-05,1.8,0.36
1.444e-05,2.2,0.44
1.446e-05,2,0.36
1.448e-05,2,0.36
1.450e-05,1.8,0.28
1.452e-05,2,0.28
1.454e-05,1.8,0.44
1.456e-05,1.8,0.36
1.458e-05,2,0.44
1.460e-05,1.8,0.36
1.462e-05,2,0.36
1.464e-05,2,0.52
1.466e-05,2,0.28
1.468e-05,2,0.28
1.470e-05,2,0.36
1.472e-05,2,0.28
1.474e-05,2,0.36
1.476e-05,2,0.28
1.478e-05,2,0.36
1.480e-05,2,0.44
1.482e-05,2,0.36
1.484e-05,2,0.44
1.486e-05,2,0.28
1.488e-05,2,0.28
1.490e-05,2,0.36
1.492e-05,2,0.44
1.494e-05,2.2,0.36
1.496e-05,2,0.2
1.498e-05,2,0.36
1.500e-05,2,0.36
1.502e-05,2.2,0.28
1.504e-05,1.8,0.2
1.506e-05,2,0.36
1.508e-05,2,0.36
1.510e-05,1.8,0.36
1.512e-05,2,0.36
1.514e-05,2,0.36
1.516e-05,1.6,0.36
1.518e-05,2.2,0.28
1.520e-05,1.8,0.28
1.522e-05,2,0.44
1.524e-05,2,0.36
1.526e-05,2.2,0.44
1.528e-05,2,0.36
1.530e-05,2,0.36
1.532e-05,1.8,0.36
1.534e-05,1.8,0.36
1.536e-05,2,0.36
1.538e-05,2,0.44
1.540e-05,1.8,0.36
1.542e-05,1.8,0.36
1.544e-05,2,0.28
1.546e-05,2,0.28
1.548e-05,1.6,0.36
1.550e-05,1.8,0.36
1.552e-05,2,0.44
1.554e-05,2,0.36
1.556e-05,1.8,0.28
1.558e-05,2,0.28
1.560e-05,2,0.36
1.562e-05,2,0.44
1.564e-05,2,0.2
1.566e-05,2,0.36
1.568e-05,2,0.52
1.570e-05,2,0.28
1.572e-05,2,0.44
1.574e-05,1.6,0.36
1.576e-05,2,0.36
1.578e-05,2,0.28
1.580e-05,1.6,0.28
1.582e-05,2,0.36
1.584e-05,2,0.28
1.586e-05,2.2,0.2
1.588e-05,1.6,0.2
1.590e-05,2.2,0.28
1.592e-05,2,0.28
1.594e-05,1.8,0.2
1.596e-05,1.8,0.36
1.598e-05,2.2,0.44
1.600e-05,2,0.36
1.602e-05,2,0.28
1.604e-05,2,0.44
1.606e-05,2,0.28
1.608e-05,2,0.36
1.610e-05,1.8,0.36
1.612e-05,2,0.36
1.614e-05,2.2,0.36
1.616e-05,2,0.36
1.618e-05,1.8,0.44
1.620e-05,1.8,0.28
1.622e-05,1.6,0.36
1.624e-05,1.6,0.28
1.626e-05,2,0.44
1.628e-05,2,0.44
1.630e-05,2,0.12
1.632e-05,2,0.36
1.634e-05,2,0.28
1.636e-05,2,0.28
1.638e-05,1.8,0.28
1.640e-05,2,0.2
1.642e-05,1.8,0.36
1.644e-05,2,0.44
1.646e-05,2,0.44
1.648e-05,2,0.28
1.650e-05,1.8,0.36
1.652e-05,1.6,0.36
1.654e-05,1.8,0.36
1.656e-05,1.6,0.36
1.658e-05,2,0.36
1.660e-05,2,0.28
1.662e-05,1.8,0.2
1.664e-05,2,0.2
1.666e-05,1.8,0.28
1.668e-05,1.6,0.52
1.670e-05,2,0.28
1.672e-05,1.8,0.2
1.674e-05,2,0.36
1.676e-05,2,0.36
1.678e-05,1.8,0.28
1.680e-05,1.8,0.28
1.682e-05,2,0.36
1.684e-05,2,0.28
1.686e-05,2,0.44
1.688e-05,2,0.28
1.690e-05,1.8,0.36
1.692e-05,1.8,0.44
1.694e-05,1.8,0.28
1.696e-05,1.8,0.28
1.698e-05,1.8,0.36
1.700e-05,2,0.28
1.702e-05,1.8,0.44
1.704e-05,2,0.2
1.706e-05,2,0.2
1.708e-05,2,0.36
1.710e-05,2,0.28
1.712e-05,2,0.36
1.714e-05,1.8,0.28
1.716e-05,2,0.12
1.718e-05,2,0.36
1.720e-05,1.8,0.2
1.722e-05,1.6,0.2
1.724e-05,2,0.36
1.726e-05,2,0.44
1.728e-05,2,0.28
1.730e-05,1.8,0.28
1.732e-05,2,0.36
1.734e-05,2,0.12
1.736e-05,1.8,0.28

