Archivos Guadalupe/Data/1410-32-X4/24-10/D-24-10/tek0033ALL.csv

Model,DPO3034
Firmware Version,2.16

Point Format,Y,
Horizontal Units,S,
Horizontal Scale,1e-06,
Sample Interval,1e-08,
Record Length,1000,
Gating,0.0% to 100.0%,0.0% to 100.0%
Probe Attenuation,1,1
Vertical Units,V,V
Vertical Offset,0,0
Vertical Scale,10,5
Label,,
TIME,CH1,CH2
-1.730e-06,0,0.1
-1.720e-06,-0.4,0.1
-1.710e-06,0.4,-0.1
-1.700e-06,-0.4,0.1
-1.690e-06,0.4,0.3
-1.680e-06,0,-0.1
-1.670e-06,0,-0.3
-1.660e-06,0.4,0.1
-1.650e-06,0.4,-0.1
-1.640e-06,-0.4,-0.1
-1.630e-06,0,0.3
-1.620e-06,0,0.1
-1.610e-06,-0.4,0.1
-1.600e-06,0,0.1
-1.590e-06,0,0.3
-1.580e-06,0,0.3
-1.570e-06,0.4,0.1
-1.560e-06,0,0.5
-1.550e-06,0,-0.3
-1.540e-06,0.4,0.1
-1.530e-06,-0.4,0.5
-1.520e-06,-0.4,0.1
-1.510e-06,0.4,0.1
-1.500e-06,0.4,0.1
-1.490e-06,0.4,-0.1
-1.480e-06,0,-0.1
-1.470e-06,-0.4,0.1
-1.460e-06,0.4,-0.1
-1.450e-06,-0.4,0.3
-1.440e-06,-0.4,-0.1
-1.430e-06,0.4,-0.3
-1.420e-06,0,0.1
-1.410e-06,0,0.5
-1.400e-06,0,0.1
-1.390e-06,0,0.1
-1.380e-06,0,0.1
-1.370e-06,-0.4,-0.1
-1.360e-06,0,0.1
-1.350e-06,0.4,0.3
-1.340e-06,0.4,0.1
-1.330e-06,0,0.3
-1.320e-06,0,-0.3
-1.310e-06,0.4,-0.1
-1.300e-06,-0.4,-0.1
-1.290e-06,0.4,0.3
-1.280e-06,-0.4,0.3
-1.270e-06,0,0.3
-1.260e-06,-0.8,-0.1
-1.250e-06,0,0.1
-1.240e-06,0,0.3
-1.230e-06,0,0.1
-1.220e-06,0,0.3
-1.210e-06,-0.4,0.3
-1.200e-06,0.4,-0.1
-1.190e-06,-0.4,0.3
-1.180e-06,0,0.3
-1.170e-06,0,0.1
-1.160e-06,0.4,0.1
-1.150e-06,-0.4,-0.1
-1.140e-06,0,0.3
-1.130e-06,-0.4,-0.1
-1.120e-06,0.4,0.3
-1.110e-06,0,0.3
-1.100e-06,0,-0.1
-1.090e-06,0.4,0.5
-1.080e-06,0.4,-0.1
-1.070e-06,-0.4,0.3
-1.060e-06,0.4,-0.1
-1.050e-06,0.4,0.3
-1.040e-06,0.4,-0.1
-1.030e-06,0.4,0.1
-1.020e-06,0,0.3
-1.010e-06,0.8,0.1
-1.000e-06,-0.4,0.5
-9.900e-07,0.8,0.1
-9.800e-07,0,0.1
-9.700e-07,0.4,0.1
-9.600e-07,0.4,0.1
-9.500e-07,0.4,0.3
-9.400e-07,0.4,-0.1
-9.300e-07,0,0.1
-9.200e-07,0.8,0.3
-9.100e-07,0,0.3
-9.000e-07,0.4,0.1
-8.900e-07,0,0.1
-8.800e-07,0.8,0.5
-8.700e-07,0.4,0.3
-8.600e-07,0,0.3
-8.500e-07,0.8,0.1
-8.400e-07,0.4,0.1
-8.300e-07,0.4,0.3
-8.200e-07,0.4,0.1
-8.100e-07,0.8,0.9
-8.000e-07,0.8,0.5
-7.900e-07,0.8,0.3
-7.800e-07,1.2,0.5
-7.700e-07,1.2,0.1
-7.600e-07,1.2,0.3
-7.500e-07,1.2,0.3
-7.400e-07,0.8,0.5
-7.300e-07,0.8,0.5
-7.200e-07,1.2,0.5
-7.100e-07,0.8,0.5
-7.000e-07,1.6,0.7
-6.900e-07,1.6,0.5
-6.800e-07,1.6,0.7
-6.700e-07,1.6,0.9
-6.600e-07,1.6,0.7
-6.500e-07,1.6,0.5
-6.400e-07,2.8,0.5
-6.300e-07,2.4,0.7
-6.200e-07,1.6,0.7
-6.100e-07,2,0.7
-6.000e-07,2,1.1
-5.900e-07,2.8,0.7
-5.800e-07,2.8,0.7
-5.700e-07,2,0.9
-5.600e-07,2.4,1.1
-5.500e-07,2.4,1.3
-5.400e-07,3.2,1.3
-5.300e-07,2.4,0.9
-5.200e-07,3.2,1.1
-5.100e-07,3.2,0.9
-5.000e-07,2.8,0.9
-4.900e-07,3.2,1.5
-4.800e-07,3.2,1.3
-4.700e-07,3.6,1.1
-4.600e-07,2.8,1.3
-4.500e-07,3.6,1.5
-4.400e-07,3.6,1.5
-4.300e-07,3.6,1.7
-4.200e-07,3.6,1.1
-4.100e-07,2.8,1.3
-4.000e-07,3.6,1.3
-3.900e-07,3.2,1.5
-3.800e-07,3.6,1.3
-3.700e-07,3.2,1.3
-3.600e-07,3.2,1.3
-3.500e-07,3.6,1.1
-3.400e-07,3.6,1.3
-3.300e-07,2.4,1.5
-3.200e-07,3.6,1.3
-3.100e-07,4,1.1
-3.000e-07,3.2,1.5
-2.900e-07,2.8,1.5
-2.800e-07,3.6,1.1
-2.700e-07,3.6,1.7
-2.600e-07,3.2,1.1
-2.500e-07,3.6,1.3
-2.400e-07,3.2,1.5
-2.300e-07,4,1.3
-2.200e-07,3.6,1.5
-2.100e-07,4,1.9
-2.000e-07,3.2,1.3
-1.900e-07,3.6,1.3
-1.800e-07,3.2,1.7
-1.700e-07,3.6,1.5
-1.600e-07,3.6,1.5
-1.500e-07,4,1.3
-1.400e-07,3.6,1.3
-1.300e-07,3.6,1.3
-1.200e-07,3.6,1.3
-1.100e-07,3.6,1.5
-1.000e-07,4,1.3
-9.000e-08,4.4,1.9
-8.000e-08,4,1.9
-7.000e-08,4.8,1.9
-6.000e-08,5.2,2.1
-5.000e-08,6,2.3
-4.000e-08,6.4,2.3
-3.000e-08,7.6,2.7
-2.000e-08,8,2.7
-1.000e-08,8.4,3.3
-6.508e-21,9.6,3.7
1.000e-08,9.2,3.7
2.000e-08,10,3.9
3.000e-08,11.2,4.1
4.000e-08,11.6,4.5
5.000e-08,12.4,4.7
6.000e-08,12.4,4.5
7.000e-08,13.6,4.7
8.000e-08,14,4.7
9.000e-08,14,5.3
1.000e-07,14.8,5.7
1.100e-07,15.6,5.5
1.200e-07,16.4,6.1
1.300e-07,17.2,6.5
1.400e-07,17.6,6.3
1.500e-07,18.8,6.7
1.600e-07,18.4,7.1
1.700e-07,20,7.5
1.800e-07,20,7.5
1.900e-07,20.8,7.9
2.000e-07,21.2,8.1
2.100e-07,21.6,8.5
2.200e-07,22.4,8.5
2.300e-07,22.8,8.7
2.400e-07,23.6,9.3
2.500e-07,24,9.5
2.600e-07,24.8,9.9
2.700e-07,25.6,10.3
2.800e-07,26,10.7
2.900e-07,27.2,10.7
3.000e-07,27.6,10.7
3.100e-07,28.4,11.5
3.200e-07,28.8,11.5
3.300e-07,29.2,11.5
3.400e-07,30,12.1
3.500e-07,30.8,11.9
3.600e-07,30.4,12.7
3.700e-07,30.8,12.5
3.800e-07,31.6,12.5
3.900e-07,30.8,12.9
4.000e-07,31.2,12.9
4.100e-07,31.2,12.7
4.200e-07,32,13.3
4.300e-07,32.4,13.3
4.400e-07,31.6,13.5
4.500e-07,32.8,13.5
4.600e-07,32,13.7
4.700e-07,32.8,13.9
4.800e-07,32.8,14.1
4.900e-07,32.8,14.3
5.000e-07,33.6,13.7
5.100e-07,33.6,14.3
5.200e-07,32.8,14.1
5.300e-07,33.6,14.3
5.400e-07,33.2,14.3
5.500e-07,34,14.5
5.600e-07,33.6,14.7
5.700e-07,34,14.7
5.800e-07,34,14.5
5.900e-07,34,14.7
6.000e-07,33.6,14.9
6.100e-07,34.4,14.7
6.200e-07,33.6,15.1
6.300e-07,34,14.7
6.400e-07,34.4,14.9
6.500e-07,34.4,14.7
6.600e-07,34.8,14.9
6.700e-07,34,14.9
6.800e-07,34,15.3
6.900e-07,34.4,15.3
7.000e-07,34.4,15.5
7.100e-07,34,15.3
7.200e-07,34,15.3
7.300e-07,34,15.5
7.400e-07,34.4,15.7
7.500e-07,34.8,15.5
7.600e-07,34.4,15.9
7.700e-07,34,15.9
7.800e-07,34.8,15.9
7.900e-07,34.8,15.9
8.000e-07,34,16.1
8.100e-07,34.4,15.9
8.200e-07,34,16.1
8.300e-07,34.4,15.9
8.400e-07,34.4,16.1
8.500e-07,34.8,16.1
8.600e-07,34.8,15.9
8.700e-07,34.8,16.3
8.800e-07,34,16.3
8.900e-07,34,16.3
9.000e-07,34.4,15.9
9.100e-07,34,15.9
9.200e-07,33.6,15.9
9.300e-07,33.6,15.7
9.400e-07,33.2,16.1
9.500e-07,33.2,15.9
9.600e-07,32.4,15.7
9.700e-07,32.4,15.3
9.800e-07,32,15.7
9.900e-07,31.2,15.3
1.000e-06,31.2,15.3
1.010e-06,30.4,14.9
1.020e-06,30,14.7
1.030e-06,28.8,14.3
1.040e-06,28.4,14.7
1.050e-06,28.4,14.1
1.060e-06,27.6,14.1
1.070e-06,26.8,13.7
1.080e-06,26.4,13.5
1.090e-06,25.2,13.3
1.100e-06,24.8,13.1
1.110e-06,24.8,12.5
1.120e-06,22.8,12.1
1.130e-06,22.8,12.1
1.140e-06,22,11.9
1.150e-06,21.6,11.5
1.160e-06,21.6,11.5
1.170e-06,19.6,11.3
1.180e-06,18.8,10.9
1.190e-06,18.4,10.5
1.200e-06,18,10.7
1.210e-06,17.6,10.1
1.220e-06,17.2,9.9
1.230e-06,16,9.7
1.240e-06,15.6,9.5
1.250e-06,15.2,9.3
1.260e-06,14.4,8.7
1.270e-06,13.2,8.5
1.280e-06,12.8,8.1
1.290e-06,12,7.9
1.300e-06,11.6,7.5
1.310e-06,11.2,7.7
1.320e-06,10.8,7.3
1.330e-06,9.6,7.1
1.340e-06,9.2,6.5
1.350e-06,8.8,6.7
1.360e-06,8.8,6.3
1.370e-06,8,6.3
1.380e-06,8.4,6.5
1.390e-06,7.2,6.1
1.400e-06,7.2,6.3
1.410e-06,6.4,6.1
1.420e-06,6.4,5.7
1.430e-06,6.4,5.7
1.440e-06,6,5.3
1.450e-06,5.6,5.1
1.460e-06,4.8,5.3
1.470e-06,5.6,4.9
1.480e-06,4.4,4.7
1.490e-06,5.2,4.5
1.500e-06,4.4,4.7
1.510e-06,4.4,4.7
1.520e-06,4,4.5
1.530e-06,4.4,4.9
1.540e-06,4,4.5
1.550e-06,4.4,4.3
1.560e-06,4,4.5
1.570e-06,4,4.5
1.580e-06,4,4.3
1.590e-06,3.6,4.5
1.600e-06,4,4.3
1.610e-06,3.6,4.3
1.620e-06,4,4.3
1.630e-06,3.2,4.3
1.640e-06,2.8,3.7
1.650e-06,3.2,4.1
1.660e-06,2.8,4.1
1.670e-06,2.8,3.9
1.680e-06,3.2,4.1
1.690e-06,3.2,3.5
1.700e-06,2.8,3.7
1.710e-06,2.8,3.5
1.720e-06,3.2,3.7
1.730e-06,3.2,3.5
1.740e-06,2.4,3.7
1.750e-06,2.8,3.9
1.760e-06,2.8,3.9
1.770e-06,2,3.7
1.780e-06,2.8,3.7
1.790e-06,2,3.7
1.800e-06,2.4,3.5
1.810e-06,2.4,3.7
1.820e-06,2.8,3.7
1.830e-06,2.4,3.5
1.840e-06,3.2,3.5
1.850e-06,2.8,3.7
1.860e-06,2.8,3.7
1.870e-06,2.8,3.5
1.880e-06,2.8,3.3
1.890e-06,2,3.7
1.900e-06,2.8,3.9
1.910e-06,3.2,3.5
1.920e-06,2.4,3.7
1.930e-06,2.8,3.7
1.940e-06,2.8,3.7
1.950e-06,3.2,3.9
1.960e-06,3.2,3.7
1.970e-06,3.6,3.9
1.980e-06,3.2,3.7
1.990e-06,3.6,3.5
2.000e-06,3.2,3.7
2.010e-06,3.6,3.7
2.020e-06,3.6,3.7
2.030e-06,3.2,3.9
2.040e-06,3.6,4.1
2.050e-06,3.2,3.7
2.060e-06,3.2,3.9
2.070e-06,3.6,3.9
2.080e-06,2.8,3.7
2.090e-06,3.2,3.5
2.100e-06,3.2,3.5
2.110e-06,3.2,3.9
2.120e-06,3.6,3.7
2.130e-06,4,3.9
2.140e-06,3.6,3.7
2.150e-06,3.2,3.7
2.160e-06,3.2,3.7
2.170e-06,3.6,3.7
2.180e-06,3.6,3.7
2.190e-06,2.8,4.1
2.200e-06,3.6,3.5
2.210e-06,3.6,3.5
2.220e-06,3.6,3.9
2.230e-06,3.6,3.7
2.240e-06,4,3.5
2.250e-06,3.6,3.7
2.260e-06,3.2,3.5
2.270e-06,3.2,3.9
2.280e-06,3.2,3.7
2.290e-06,3.6,3.9
2.300e-06,3.6,4.1
2.310e-06,3.6,3.5
2.320e-06,3.2,3.7
2.330e-06,3.6,3.5
2.340e-06,3.2,3.5
2.350e-06,3.6,3.3
2.360e-06,3.6,3.7
2.370e-06,4,3.5
2.380e-06,3.6,3.5
2.390e-06,3.6,3.5
2.400e-06,3.6,3.3
2.410e-06,3.2,3.5
2.420e-06,3.2,3.3
2.430e-06,3.6,3.5
2.440e-06,3.2,3.5
2.450e-06,3.6,3.5
2.460e-06,3.2,3.3
2.470e-06,3.2,3.3
2.480e-06,3.6,3.1
2.490e-06,4.4,3.7
2.500e-06,3.2,3.7
2.510e-06,4,3.5
2.520e-06,3.6,3.5
2.530e-06,3.6,3.5
2.540e-06,3.6,3.7
2.550e-06,3.2,3.7
2.560e-06,4,3.5
2.570e-06,3.2,3.7
2.580e-06,3.6,3.7
2.590e-06,4,3.3
2.600e-06,3.6,3.3
2.610e-06,4,3.5
2.620e-06,2.8,3.3
2.630e-06,4,3.3
2.640e-06,3.6,3.7
2.650e-06,3.6,3.5
2.660e-06,3.6,3.5
2.670e-06,2.8,3.5
2.680e-06,3.2,3.3
2.690e-06,4,3.3
2.700e-06,4,3.7
2.710e-06,2.8,3.5
2.720e-06,3.6,3.1
2.730e-06,3.6,3.3
2.740e-06,3.2,3.1
2.750e-06,3.6,3.3
2.760e-06,3.2,3.3
2.770e-06,3.6,3.5
2.780e-06,4,3.3
2.790e-06,4,3.1
2.800e-06,3.2,3.3
2.810e-06,3.6,3.3
2.820e-06,3.2,3.5
2.830e-06,4,3.5
2.840e-06,4,3.3
2.850e-06,3.6,3.3
2.860e-06,4,3.3
2.870e-06,3.2,3.1
2.880e-06,4,3.3
2.890e-06,4,3.1
2.900e-06,3.6,3.3
2.910e-06,4,3.3
2.920e-06,4,3.3
2.930e-06,3.2,3.3
2.940e-06,4,3.3
2.950e-06,4,3.1
2.960e-06,3.2,3.1
2.970e-06,3.6,3.1
2.980e-06,3.2,3.1
2.990e-06,4,3.1
3.000e-06,3.2,3.3
3.010e-06,3.6,3.3
3.020e-06,4,3.3
3.030e-06,3.6,3.3
3.040e-06,3.6,3.1
3.050e-06,3.2,3.1
3.060e-06,3.6,3.1
3.070e-06,4,3.1
3.080e-06,4.4,3.3
3.090e-06,3.6,3.7
3.100e-06,3.6,3.3
3.110e-06,4,3.1
3.120e-06,4.4,3.1
3.130e-06,3.6,3.3
3.140e-06,3.2,3.1
3.150e-06,3.6,3.5
3.160e-06,3.6,2.9
3.170e-06,4,3.1
3.180e-06,3.6,3.1
3.190e-06,3.2,2.7
3.200e-06,4,2.7
3.210e-06,4,3.1
3.220e-06,3.6,3.5
3.230e-06,3.6,2.9
3.240e-06,3.6,3.1
3.250e-06,3.6,3.1
3.260e-06,4,3.3
3.270e-06,4,3.3
3.280e-06,4,2.9
3.290e-06,3.2,2.9
3.300e-06,3.6,2.9
3.310e-06,3.6,2.7
3.320e-06,3.2,2.7
3.330e-06,3.6,2.9
3.340e-06,3.2,3.1
3.350e-06,3.2,2.9
3.360e-06,4,2.7
3.370e-06,3.6,3.1
3.380e-06,4,2.9
3.390e-06,3.2,2.9
3.400e-06,3.6,3.1
3.410e-06,4,3.3
3.420e-06,3.6,2.9
3.430e-06,3.6,2.9
3.440e-06,3.6,3.1
3.450e-06,4,3.3
3.460e-06,3.2,2.9
3.470e-06,3.6,2.7
3.480e-06,3.2,2.9
3.490e-06,3.2,3.1
3.500e-06,3.2,2.7
3.510e-06,4,2.9
3.520e-06,3.2,2.5
3.530e-06,3.6,3.1
3.540e-06,3.6,2.9
3.550e-06,3.6,2.9
3.560e-06,4,3.1
3.570e-06,3.6,2.9
3.580e-06,4,2.9
3.590e-06,4,2.7
3.600e-06,3.6,2.7
3.610e-06,3.6,2.7
3.620e-06,4,2.9
3.630e-06,3.2,2.9
3.640e-06,3.6,2.9
3.650e-06,3.6,2.7
3.660e-06,4,2.7
3.670e-06,3.2,2.7
3.680e-06,3.6,2.5
3.690e-06,3.2,2.5
3.700e-06,3.2,2.7
3.710e-06,3.6,3.1
3.720e-06,3.6,2.5
3.730e-06,3.2,2.7
3.740e-06,4,2.9
3.750e-06,3.2,2.9
3.760e-06,3.6,2.9
3.770e-06,4,2.9
3.780e-06,3.6,2.7
3.790e-06,3.6,2.5
3.800e-06,3.2,2.9
3.810e-06,3.2,2.5
3.820e-06,3.2,2.5
3.830e-06,4,2.7
3.840e-06,3.6,2.3
3.850e-06,3.6,2.7
3.860e-06,3.2,2.9
3.870e-06,4,2.7
3.880e-06,4,2.7
3.890e-06,3.2,2.5
3.900e-06,4,2.7
3.910e-06,3.2,2.9
3.920e-06,4,2.3
3.930e-06,4,2.5
3.940e-06,3.6,2.5
3.950e-06,3.6,2.5
3.960e-06,3.6,2.1
3.970e-06,3.2,2.9
3.980e-06,3.2,2.5
3.990e-06,3.2,2.9
4.000e-06,2.8,2.5
4.010e-06,3.2,2.9
4.020e-06,4,2.7
4.030e-06,3.6,2.9
4.040e-06,3.6,2.5
4.050e-06,3.2,2.7
4.060e-06,3.2,2.7
4.070e-06,3.6,2.5
4.080e-06,4,2.5
4.090e-06,4,2.3
4.100e-06,3.6,2.5
4.110e-06,3.6,2.3
4.120e-06,3.2,2.9
4.130e-06,3.6,2.5
4.140e-06,3.2,2.3
4.150e-06,3.6,2.9
4.160e-06,4,2.5
4.170e-06,3.6,2.5
4.180e-06,3.2,2.7
4.190e-06,3.6,2.7
4.200e-06,3.2,2.3
4.210e-06,4,2.5
4.220e-06,3.6,2.5
4.230e-06,3.6,2.5
4.240e-06,3.6,2.5
4.250e-06,3.6,2.1
4.260e-06,4,2.5
4.270e-06,3.2,2.5
4.280e-06,4,2.7
4.290e-06,3.2,2.7
4.300e-06,3.2,2.5
4.310e-06,3.2,2.1
4.320e-06,3.2,2.3
4.330e-06,4,2.5
4.340e-06,3.6,2.1
4.350e-06,4,1.9
4.360e-06,3.2,2.7
4.370e-06,4,2.7
4.380e-06,3.6,2.5
4.390e-06,3.6,2.7
4.400e-06,3.6,2.3
4.410e-06,3.6,2.3
4.420e-06,4,2.3
4.430e-06,3.2,2.3
4.440e-06,4,2.5
4.450e-06,3.6,2.5
4.460e-06,3.6,2.5
4.470e-06,3.2,2.1
4.480e-06,3.2,2.1
4.490e-06,4,2.5
4.500e-06,3.6,2.3
4.510e-06,3.6,2.3
4.520e-06,3.6,2.5
4.530e-06,3.6,2.1
4.540e-06,3.6,2.1
4.550e-06,3.6,1.9
4.560e-06,4,2.1
4.570e-06,3.2,2.9
4.580e-06,3.6,2.3
4.590e-06,3.2,2.3
4.600e-06,3.2,1.9
4.610e-06,3.2,2.3
4.620e-06,4,2.1
4.630e-06,3.2,2.3
4.640e-06,3.6,2.3
4.650e-06,3.2,2.5
4.660e-06,3.2,2.1
4.670e-06,3.2,2.3
4.680e-06,3.2,2.1
4.690e-06,4,2.1
4.700e-06,3.2,2.3
4.710e-06,3.2,2.3
4.720e-06,2.8,2.1
4.730e-06,4,2.3
4.740e-06,2.8,2.1
4.750e-06,2.8,2.3
4.760e-06,4,2.3
4.770e-06,3.6,1.9
4.780e-06,3.6,1.9
4.790e-06,3.2,2.3
4.800e-06,3.2,2.1
4.810e-06,3.6,2.1
4.820e-06,2.8,2.1
4.830e-06,4,2.3
4.840e-06,3.2,2.1
4.850e-06,3.2,2.1
4.860e-06,3.6,2.5
4.870e-06,3.2,2.3
4.880e-06,3.6,2.5
4.890e-06,4,2.1
4.900e-06,3.2,2.1
4.910e-06,3.6,2.1
4.920e-06,4,2.1
4.930e-06,4,2.1
4.940e-06,3.6,2.1
4.950e-06,3.6,2.1
4.960e-06,4,2.1
4.970e-06,3.6,2.5
4.980e-06,4,1.9
4.990e-06,3.6,2.3
5.000e-06,3.2,2.1
5.010e-06,3.6,2.1
5.020e-06,3.2,2.1
5.030e-06,4,2.3
5.040e-06,2.8,2.1
5.050e-06,3.2,1.7
5.060e-06,4,2.3
5.070e-06,3.6,2.3
5.080e-06,4,2.1
5.090e-06,4,2.1
5.100e-06,3.6,2.1
5.110e-06,3.6,2.1
5.120e-06,3.2,1.9
5.130e-06,3.6,2.3
5.140e-06,3.2,2.1
5.150e-06,3.6,1.9
5.160e-06,3.6,1.9
5.170e-06,3.6,2.1
5.180e-06,3.2,1.9
5.190e-06,4,2.1
5.200e-06,3.2,2.1
5.210e-06,3.6,2.1
5.220e-06,3.6,2.3
5.230e-06,3.6,2.3
5.240e-06,3.6,2.1
5.250e-06,4,2.1
5.260e-06,3.6,2.1
5.270e-06,4,1.9
5.280e-06,4,1.9
5.290e-06,3.2,2.1
5.300e-06,3.6,1.9
5.310e-06,3.2,2.1
5.320e-06,3.6,2.1
5.330e-06,4,1.9
5.340e-06,4,1.9
5.350e-06,3.6,2.1
5.360e-06,3.6,2.1
5.370e-06,4,2.1
5.380e-06,3.2,1.9
5.390e-06,3.6,2.3
5.400e-06,4,2.1
5.410e-06,3.6,1.9
5.420e-06,3.6,1.7
5.430e-06,4,1.9
5.440e-06,3.2,1.9
5.450e-06,3.6,2.1
5.460e-06,3.6,2.1
5.470e-06,2.8,2.1
5.480e-06,3.6,1.9
5.490e-06,3.6,2.1
5.500e-06,3.6,1.9
5.510e-06,3.2,2.3
5.520e-06,2.8,2.1
5.530e-06,2.8,1.9
5.540e-06,3.2,2.5
5.550e-06,4,1.9
5.560e-06,4,1.9
5.570e-06,4,2.1
5.580e-06,4,2.1
5.590e-06,3.2,2.1
5.600e-06,3.2,1.9
5.610e-06,4,2.1
5.620e-06,3.2,1.9
5.630e-06,4,1.9
5.640e-06,3.6,1.9
5.650e-06,3.6,1.9
5.660e-06,4,1.9
5.670e-06,3.6,1.9
5.680e-06,3.2,1.9
5.690e-06,3.6,1.9
5.700e-06,4,2.1
5.710e-06,4,2.1
5.720e-06,3.6,1.9
5.730e-06,4,1.9
5.740e-06,2.8,1.9
5.750e-06,4,1.9
5.760e-06,3.6,1.7
5.770e-06,3.6,1.7
5.780e-06,4,2.1
5.790e-06,3.6,1.7
5.800e-06,3.2,1.9
5.810e-06,4,1.9
5.820e-06,3.6,1.9
5.830e-06,3.6,1.9
5.840e-06,3.6,1.9
5.850e-06,3.2,2.1
5.860e-06,3.2,1.9
5.870e-06,3.6,1.7
5.880e-06,3.6,2.1
5.890e-06,3.6,1.9
5.900e-06,3.6,1.9
5.910e-06,3.6,2.3
5.920e-06,4,1.9
5.930e-06,3.6,1.9
5.940e-06,3.2,2.1
5.950e-06,4,1.9
5.960e-06,3.6,1.9
5.970e-06,4,1.7
5.980e-06,3.2,1.9
5.990e-06,3.6,1.9
6.000e-06,3.6,1.9
6.010e-06,3.2,1.9
6.020e-06,3.2,1.9
6.030e-06,4,1.9
6.040e-06,4,1.9
6.050e-06,3.6,1.9
6.060e-06,3.6,1.9
6.070e-06,4,2.1
6.080e-06,3.6,1.9
6.090e-06,4,1.9
6.100e-06,3.6,1.9
6.110e-06,4,1.9
6.120e-06,3.2,1.9
6.130e-06,3.6,1.9
6.140e-06,3.6,1.9
6.150e-06,3.6,1.9
6.160e-06,3.6,1.5
6.170e-06,3.6,1.7
6.180e-06,3.6,1.9
6.190e-06,3.6,1.9
6.200e-06,3.2,1.9
6.210e-06,3.6,2.1
6.220e-06,3.2,1.9
6.230e-06,4,1.7
6.240e-06,4,1.7
6.250e-06,3.2,1.9
6.260e-06,4,1.9
6.270e-06,3.2,1.9
6.280e-06,3.2,1.7
6.290e-06,4.4,2.1
6.300e-06,3.2,1.9
6.310e-06,3.2,1.9
6.320e-06,3.6,1.7
6.330e-06,4,1.9
6.340e-06,3.6,1.9
6.350e-06,4,1.9
6.360e-06,3.6,1.9
6.370e-06,3.6,1.7
6.380e-06,4,1.9
6.390e-06,3.2,1.9
6.400e-06,3.2,1.7
6.410e-06,4,1.9
6.420e-06,3.6,1.9
6.430e-06,3.2,1.7
6.440e-06,3.6,1.7
6.450e-06,4,1.7
6.460e-06,3.6,1.7
6.470e-06,3.6,1.7
6.480e-06,3.6,2.1
6.490e-06,3.6,1.5
6.500e-06,3.2,1.9
6.510e-06,4,1.7
6.520e-06,3.2,1.7
6.530e-06,3.6,1.9
6.540e-06,4,1.9
6.550e-06,3.6,1.9
6.560e-06,4,1.9
6.570e-06,4,1.9
6.580e-06,3.6,1.5
6.590e-06,3.2,1.9
6.600e-06,4,1.7
6.610e-06,3.6,1.9
6.620e-06,3.6,1.9
6.630e-06,3.6,1.9
6.640e-06,3.6,1.9
6.650e-06,4,1.9
6.660e-06,4,1.9
6.670e-06,3.6,1.7
6.680e-06,3.6,1.7
6.690e-06,3.2,1.5
6.700e-06,4,1.5
6.710e-06,3.2,1.5
6.720e-06,4,1.7
6.730e-06,4,1.5
6.740e-06,3.6,1.7
6.750e-06,3.6,1.7
6.760e-06,3.2,1.9
6.770e-06,3.2,1.9
6.780e-06,3.6,1.7
6.790e-06,3.6,1.7
6.800e-06,3.6,1.7
6.810e-06,3.2,1.5
6.820e-06,3.6,1.7
6.830e-06,3.2,1.5
6.840e-06,4,1.7
6.850e-06,3.6,1.5
6.860e-06,3.2,1.9
6.870e-06,4,1.7
6.880e-06,3.6,1.9
6.890e-06,3.6,1.7
6.900e-06,3.6,1.5
6.910e-06,3.6,1.5
6.920e-06,3.6,1.9
6.930e-06,3.6,1.5
6.940e-06,3.2,1.7
6.950e-06,3.6,1.7
6.960e-06,3.6,1.7
6.970e-06,3.6,1.7
6.980e-06,3.6,1.5
6.990e-06,3.2,1.9
7.000e-06,4,1.7
7.010e-06,3.6,1.9
7.020e-06,3.2,1.3
7.030e-06,3.6,1.7
7.040e-06,4,1.9
7.050e-06,4,1.5
7.060e-06,3.6,1.7
7.070e-06,3.6,1.5
7.080e-06,3.6,1.3
7.090e-06,3.6,1.7
7.100e-06,4,1.7
7.110e-06,4,1.7
7.120e-06,3.6,1.5
7.130e-06,3.6,1.7
7.140e-06,3.6,1.3
7.150e-06,4,1.5
7.160e-06,3.6,1.5
7.170e-06,3.6,1.5
7.180e-06,3.2,1.5
7.190e-06,4.4,1.9
7.200e-06,4,1.3
7.210e-06,3.2,1.5
7.220e-06,3.6,1.3
7.230e-06,4,1.5
7.240e-06,3.6,1.5
7.250e-06,4,1.5
7.260e-06,3.6,1.5
7.270e-06,3.6,1.9
7.280e-06,3.2,1.7
7.290e-06,3.6,1.5
7.300e-06,4,1.5
7.310e-06,3.6,1.7
7.320e-06,4,1.7
7.330e-06,3.2,1.5
7.340e-06,4,1.5
7.350e-06,4,1.3
7.360e-06,3.6,1.5
7.370e-06,3.6,1.5
7.380e-06,3.6,1.7
7.390e-06,4,1.5
7.400e-06,3.6,1.5
7.410e-06,2.8,1.5
7.420e-06,3.2,1.5
7.430e-06,3.6,1.7
7.440e-06,3.6,1.3
7.450e-06,2.8,1.5
7.460e-06,4,1.3
7.470e-06,3.6,1.5
7.480e-06,3.6,1.5
7.490e-06,3.6,1.5
7.500e-06,3.2,1.5
7.510e-06,3.2,1.5
7.520e-06,3.2,1.7
7.530e-06,3.2,1.5
7.540e-06,3.2,1.5
7.550e-06,3.6,1.5
7.560e-06,3.6,1.1
7.570e-06,3.6,1.7
7.580e-06,3.2,1.5
7.590e-06,4,1.7
7.600e-06,3.2,1.7
7.610e-06,3.6,1.5
7.620e-06,3.6,1.5
7.630e-06,3.6,1.7
7.640e-06,3.2,1.5
7.650e-06,3.6,1.5
7.660e-06,2.8,1.3
7.670e-06,4,1.3
7.680e-06,4.4,1.5
7.690e-06,3.6,1.9
7.700e-06,3.6,1.5
7.710e-06,3.6,1.3
7.720e-06,3.6,1.5
7.730e-06,3.6,1.5
7.740e-06,3.6,1.9
7.750e-06,4,1.5
7.760e-06,3.6,1.5
7.770e-06,4,1.7
7.780e-06,4,1.5
7.790e-06,3.6,1.5
7.800e-06,4,1.7
7.810e-06,4,1.3
7.820e-06,3.2,1.3
7.830e-06,3.6,1.3
7.840e-06,3.2,1.5
7.850e-06,4,1.5
7.860e-06,4,1.5
7.870e-06,3.2,1.7
7.880e-06,3.2,1.5
7.890e-06,4,1.5
7.900e-06,3.2,1.3
7.910e-06,3.2,1.7
7.920e-06,3.2,1.7
7.930e-06,4,1.3
7.940e-06,3.6,1.5
7.950e-06,3.6,1.5
7.960e-06,3.6,1.3
7.970e-06,3.6,1.5
7.980e-06,3.2,1.3
7.990e-06,3.6,1.7
8.000e-06,3.6,1.7
8.010e-06,3.6,1.5
8.020e-06,4,1.5
8.030e-06,3.6,1.5
8.040e-06,3.6,1.3
8.050e-06,3.6,1.3
8.060e-06,3.6,1.5
8.070e-06,4,1.5
8.080e-06,3.2,1.5
8.090e-06,3.2,1.3
8.100e-06,3.2,1.3
8.110e-06,3.6,1.5
8.120e-06,4,1.7
8.130e-06,4,1.5
8.140e-06,4,1.5
8.150e-06,3.6,1.3
8.160e-06,4,1.5
8.170e-06,2.8,1.5
8.180e-06,4,1.3
8.190e-06,4,1.3
8.200e-06,4,1.9
8.210e-06,3.6,1.5
8.220e-06,3.2,1.3
8.230e-06,3.6,1.3
8.240e-06,4,1.3
8.250e-06,3.6,1.5
8.260e-06,4,1.7

