Archivos Guadalupe/Data/1410-32-X4/24-10/D-24-10/tek0028ALL.csv

Model,DPO3034
Firmware Version,2.16

Point Format,Y,
Horizontal Units,S,
Horizontal Scale,4e-07,
Sample Interval,4e-09,
Record Length,1000,
Gating,0.0% to 100.0%,0.0% to 100.0%
Probe Attenuation,1,1
Vertical Units,V,V
Vertical Offset,0,0
Vertical Scale,5,2
Label,,
TIME,CH1,CH2
-1.368e-06,0.2,0.04
-1.364e-06,0.4,0.04
-1.360e-06,0,-0.12
-1.356e-06,0.2,-0.2
-1.352e-06,0.2,0.12
-1.348e-06,-0.2,-0.12
-1.344e-06,0.4,0.04
-1.340e-06,0,0.04
-1.336e-06,-0.2,0.2
-1.332e-06,0.2,0.04
-1.328e-06,0.4,0.04
-1.324e-06,0,0.04
-1.320e-06,0.2,-0.04
-1.316e-06,0.4,0.04
-1.312e-06,-0.2,0.04
-1.308e-06,0.4,0.12
-1.304e-06,0.4,0.12
-1.300e-06,0.2,-0.04
-1.296e-06,0.2,-0.12
-1.292e-06,0,-0.04
-1.288e-06,-0.2,0.04
-1.284e-06,0.4,0.04
-1.280e-06,0.2,0.04
-1.276e-06,0.4,-0.04
-1.272e-06,0.4,-0.04
-1.268e-06,0.4,-0.04
-1.264e-06,0,0.04
-1.260e-06,-0.2,0.04
-1.256e-06,-0.2,-0.04
-1.252e-06,0.4,0.04
-1.248e-06,0.2,-0.04
-1.244e-06,0.2,0.04
-1.240e-06,0,-0.04
-1.236e-06,0,0.04
-1.232e-06,0,0.2
-1.228e-06,-0.2,0.04
-1.224e-06,0,0.12
-1.220e-06,0.4,-0.04
-1.216e-06,0,0.04
-1.212e-06,0,0.2
-1.208e-06,0,0.04
-1.204e-06,0,0.04
-1.200e-06,0,0.04
-1.196e-06,0.2,-0.04
-1.192e-06,0,0.04
-1.188e-06,-0.4,0.12
-1.184e-06,0,-0.12
-1.180e-06,0,-0.04
-1.176e-06,0.2,-0.2
-1.172e-06,0,-0.04
-1.168e-06,0,-0.04
-1.164e-06,0.4,0.04
-1.160e-06,0,0.04
-1.156e-06,-0.2,0.04
-1.152e-06,0.2,0.12
-1.148e-06,0,0.04
-1.144e-06,0.2,0.04
-1.140e-06,0.2,0.04
-1.136e-06,0.4,-0.04
-1.132e-06,0,-0.04
-1.128e-06,0,-0.04
-1.124e-06,-0.2,-0.12
-1.120e-06,0.4,0.12
-1.116e-06,0.2,0.04
-1.112e-06,0.2,0.04
-1.108e-06,0.4,-0.04
-1.104e-06,0.2,-0.04
-1.100e-06,0.2,0.12
-1.096e-06,0.2,-0.04
-1.092e-06,0.6,0.04
-1.088e-06,0.4,0.12
-1.084e-06,0,0.04
-1.080e-06,0,0.04
-1.076e-06,0.4,0.04
-1.072e-06,0,-0.04
-1.068e-06,0.4,-0.04
-1.064e-06,0.2,0.12
-1.060e-06,0.2,0.12
-1.056e-06,0.6,0.04
-1.052e-06,0,0.04
-1.048e-06,0,0.12
-1.044e-06,0.2,0.04
-1.040e-06,0.4,-0.04
-1.036e-06,0.2,0.04
-1.032e-06,0.4,0.12
-1.028e-06,0.4,0.12
-1.024e-06,-0.2,0.2
-1.020e-06,-0.2,0.04
-1.016e-06,0.4,0.12
-1.012e-06,0,0.12
-1.008e-06,0.4,0.12
-1.004e-06,0.2,0.04
-1.000e-06,0,0.12
-9.960e-07,0.6,0.12
-9.920e-07,0.6,0.12
-9.880e-07,0,0.04
-9.840e-07,0.4,-0.04
-9.800e-07,0.2,0.12
-9.760e-07,0.4,0.04
-9.720e-07,0.2,0.12
-9.680e-07,0.6,0.04
-9.640e-07,0.2,0.04
-9.600e-07,0.4,0.04
-9.560e-07,0.4,0.04
-9.520e-07,0,0.12
-9.480e-07,0.4,0.12
-9.440e-07,0.6,0.2
-9.400e-07,0.6,0.04
-9.360e-07,0.6,0.12
-9.320e-07,0.6,0.2
-9.280e-07,0.4,0.2
-9.240e-07,0.4,0.04
-9.200e-07,0.4,0.12
-9.160e-07,0.2,0.12
-9.120e-07,0.6,0.2
-9.080e-07,0.4,0.12
-9.040e-07,0.2,0.28
-9.000e-07,0.6,0.04
-8.960e-07,0.4,0.12
-8.920e-07,0.6,0.12
-8.880e-07,0.6,0.12
-8.840e-07,0.6,0.28
-8.800e-07,0.4,0.12
-8.760e-07,0.6,0.12
-8.720e-07,0.2,0.2
-8.680e-07,0.4,0.12
-8.640e-07,0.8,0.28
-8.600e-07,0.4,0.28
-8.560e-07,0.4,0.2
-8.520e-07,0.6,0.28
-8.480e-07,0.4,0.2
-8.440e-07,0.4,0.2
-8.400e-07,0.4,0.2
-8.360e-07,0.4,0.28
-8.320e-07,0.2,0.12
-8.280e-07,0.6,0.2
-8.240e-07,0.4,0.2
-8.200e-07,0.2,0.2
-8.160e-07,0.6,0.2
-8.120e-07,0.4,0.28
-8.080e-07,0.4,0.28
-8.040e-07,0.8,0.2
-8.000e-07,0.4,0.12
-7.960e-07,0.8,0.12
-7.920e-07,1,0.28
-7.880e-07,0.6,0.2
-7.840e-07,0.6,0.28
-7.800e-07,1,0.28
-7.760e-07,1.2,0.28
-7.720e-07,0.6,0.12
-7.680e-07,0.8,0.2
-7.640e-07,1,0.12
-7.600e-07,0.6,0.28
-7.560e-07,1,0.2
-7.520e-07,0.6,0.36
-7.480e-07,0.4,0.2
-7.440e-07,0.8,0.36
-7.400e-07,0.8,0.28
-7.360e-07,0.8,0.28
-7.320e-07,0.8,0.36
-7.280e-07,0.6,0.36
-7.240e-07,0.8,0.28
-7.200e-07,1,0.2
-7.160e-07,1,0.44
-7.120e-07,0.8,0.28
-7.080e-07,1,0.44
-7.040e-07,1,0.52
-7.000e-07,1.2,0.36
-6.960e-07,0.8,0.36
-6.920e-07,1.2,0.44
-6.880e-07,1.2,0.44
-6.840e-07,1.4,0.36
-6.800e-07,1.2,0.44
-6.760e-07,1.2,0.44
-6.720e-07,1.4,0.44
-6.680e-07,1.2,0.52
-6.640e-07,1.4,0.36
-6.600e-07,1.2,0.44
-6.560e-07,1.6,0.52
-6.520e-07,1.2,0.52
-6.480e-07,1.2,0.44
-6.440e-07,1.2,0.6
-6.400e-07,1.2,0.6
-6.360e-07,1.6,0.6
-6.320e-07,1.4,0.6
-6.280e-07,1.6,0.6
-6.240e-07,1.4,0.52
-6.200e-07,1.2,0.6
-6.160e-07,1.8,0.68
-6.120e-07,1.8,0.52
-6.080e-07,2,0.76
-6.040e-07,2,0.6
-6.000e-07,1.8,0.68
-5.960e-07,2,0.6
-5.920e-07,1.6,0.68
-5.880e-07,2,0.68
-5.840e-07,1.8,0.52
-5.800e-07,1.8,0.68
-5.760e-07,1.8,0.76
-5.720e-07,1.8,0.68
-5.680e-07,2,0.68
-5.640e-07,2,0.76
-5.600e-07,2,0.76
-5.560e-07,1.8,0.76
-5.520e-07,2,0.6
-5.480e-07,1.8,0.76
-5.440e-07,2,0.76
-5.400e-07,2,0.76
-5.360e-07,2,0.76
-5.320e-07,2,0.6
-5.280e-07,2.4,0.84
-5.240e-07,2,0.76
-5.200e-07,2,0.76
-5.160e-07,2,0.84
-5.120e-07,2.2,0.76
-5.080e-07,2.2,0.84
-5.040e-07,2.4,1
-5.000e-07,2.2,0.76
-4.960e-07,2,0.92
-4.920e-07,2.2,0.84
-4.880e-07,2.2,0.76
-4.840e-07,2.2,0.76
-4.800e-07,2.2,0.76
-4.760e-07,2.6,0.92
-4.720e-07,2.2,0.92
-4.680e-07,2.4,0.76
-4.640e-07,2.6,0.68
-4.600e-07,2,0.92
-4.560e-07,2.2,0.92
-4.520e-07,2.4,0.92
-4.480e-07,2.4,0.84
-4.440e-07,2.2,0.92
-4.400e-07,2.4,0.92
-4.360e-07,2.4,0.92
-4.320e-07,2.2,0.92
-4.280e-07,2.4,0.84
-4.240e-07,2.4,0.92
-4.200e-07,2.8,0.84
-4.160e-07,2.8,0.84
-4.120e-07,2.2,0.92
-4.080e-07,2.6,0.84
-4.040e-07,2.8,0.92
-4.000e-07,2.2,0.92
-3.960e-07,2.6,1
-3.920e-07,2.4,0.92
-3.880e-07,2.4,1
-3.840e-07,2.8,1
-3.800e-07,2.8,0.92
-3.760e-07,2.6,1
-3.720e-07,2.6,1.08
-3.680e-07,2.8,0.92
-3.640e-07,2.8,0.84
-3.600e-07,2.2,0.92
-3.560e-07,2.8,0.84
-3.520e-07,2.8,1
-3.480e-07,2.8,0.84
-3.440e-07,2.6,1.08
-3.400e-07,2.4,0.92
-3.360e-07,2.6,0.92
-3.320e-07,2.6,1
-3.280e-07,2.8,1
-3.240e-07,2.6,0.92
-3.200e-07,3.2,0.92
-3.160e-07,2.4,1
-3.120e-07,2.8,1
-3.080e-07,2.8,1
-3.040e-07,2.4,1.08
-3.000e-07,2.6,1
-2.960e-07,2.6,0.92
-2.920e-07,2.6,1.08
-2.880e-07,2.8,1.08
-2.840e-07,3,0.92
-2.800e-07,2.6,1
-2.760e-07,3,1
-2.720e-07,2.8,1
-2.680e-07,2.4,0.84
-2.640e-07,3,1
-2.600e-07,2.6,1
-2.560e-07,2.6,1
-2.520e-07,2.6,1
-2.480e-07,2.8,1
-2.440e-07,2.6,1
-2.400e-07,2.6,0.92
-2.360e-07,2.8,1
-2.320e-07,2.6,0.92
-2.280e-07,2.8,0.92
-2.240e-07,3,0.84
-2.200e-07,2.6,1.08
-2.160e-07,3,1
-2.120e-07,2.6,1
-2.080e-07,2.6,1
-2.040e-07,3,1
-2.000e-07,2.8,1
-1.960e-07,2.4,1.08
-1.920e-07,3.2,1
-1.880e-07,2.8,0.92
-1.840e-07,3.2,1
-1.800e-07,2.6,0.92
-1.760e-07,2.8,1
-1.720e-07,2.8,0.92
-1.680e-07,3.2,1
-1.640e-07,3,1
-1.600e-07,2.8,0.92
-1.560e-07,3.2,1
-1.520e-07,3.2,0.92
-1.480e-07,2.8,1
-1.440e-07,3.2,1.08
-1.400e-07,3,1.16
-1.360e-07,3,1.08
-1.320e-07,3.2,1.08
-1.280e-07,3.4,1.08
-1.240e-07,3,1.16
-1.200e-07,3.6,1.08
-1.160e-07,3.6,1.16
-1.120e-07,3.8,1.32
-1.080e-07,3.2,1.32
-1.040e-07,4.2,1.24
-1.000e-07,3.8,1.16
-9.600e-08,3.8,1.4
-9.200e-08,4.2,1.4
-8.800e-08,4.4,1.56
-8.400e-08,4.2,1.56
-8.000e-08,4.8,1.56
-7.600e-08,4.8,1.64
-7.200e-08,5,1.64
-6.800e-08,5.2,1.8
-6.400e-08,5,1.88
-6.000e-08,5.4,1.88
-5.600e-08,5.4,2.04
-5.200e-08,5.6,2.28
-4.800e-08,5.6,2.2
-4.400e-08,6.4,2.12
-4.000e-08,6.4,2.36
-3.600e-08,6.6,2.12
-3.200e-08,7,2.52
-2.800e-08,7.2,2.68
-2.400e-08,7,2.68
-2.000e-08,7.4,2.84
-1.600e-08,7.4,2.76
-1.200e-08,7.6,2.92
-8.000e-09,8,3
-4.000e-09,7.8,2.84
6.406e-21,8.2,3.08
4.000e-09,8.6,3
8.000e-09,8.6,3.16
1.200e-08,8.8,3.24
1.600e-08,9,3.16
2.000e-08,9.2,3.32
2.400e-08,9.6,3.4
2.800e-08,9.6,3.4
3.200e-08,10,3.56
3.600e-08,10.6,3.64
4.000e-08,10.6,3.64
4.400e-08,10.4,3.56
4.800e-08,10.6,3.8
5.200e-08,11,3.88
5.600e-08,10.8,3.88
6.000e-08,11.2,4.04
6.400e-08,11.8,4.04
6.800e-08,11.6,4.12
7.200e-08,12,4.2
7.600e-08,12.2,4.28
8.000e-08,12.6,4.36
8.400e-08,12.8,4.6
8.800e-08,13.2,4.76
9.200e-08,12.8,4.68
9.600e-08,13.4,4.84
1.000e-07,13.4,4.92
1.040e-07,13.6,5.08
1.080e-07,13.6,5
1.120e-07,14,5.24
1.160e-07,14.4,5.24
1.200e-07,14.6,5.24
1.240e-07,14.6,5.4
1.280e-07,14.8,5.48
1.320e-07,15,5.48
1.360e-07,15.2,5.72
1.400e-07,15.4,5.64
1.440e-07,15.6,5.64
1.480e-07,15.8,5.96
1.520e-07,15.8,5.96
1.560e-07,15.8,6.04
1.600e-07,16.6,6.12
1.640e-07,16.6,6.12
1.680e-07,16.6,6.28
1.720e-07,17.2,6.44
1.760e-07,17.4,6.52
1.800e-07,17.4,6.52
1.840e-07,17.8,6.6
1.880e-07,17.8,6.6
1.920e-07,18,6.84
1.960e-07,18.2,6.84
2.000e-07,18.6,6.92
2.040e-07,18.8,7.16
2.080e-07,18.8,7
2.120e-07,19,7.16
2.160e-07,19.2,7.24
2.200e-07,19.2,7.4
2.240e-07,19.8,7.4
2.280e-07,19.6,7.4
2.320e-07,20.2,7.48
2.360e-07,20.4,7.64
2.400e-07,20.8,7.64
2.440e-07,21,7.64
2.480e-07,20.8,7.8
2.520e-07,21,7.88
2.560e-07,21.8,8.12
2.600e-07,21.4,8.2
2.640e-07,21.8,8.04
2.680e-07,22.4,8.36
2.720e-07,21.8,8.36
2.760e-07,22.8,8.44
2.800e-07,22.8,8.44
2.840e-07,22.8,8.52
2.880e-07,23,8.52
2.920e-07,23.4,8.68
2.960e-07,23.6,8.84
3.000e-07,23.8,9.08
3.040e-07,23.8,8.92
3.080e-07,23.6,9.16
3.120e-07,24.2,9.16
3.160e-07,24.6,9.08
3.200e-07,24.2,9.32
3.240e-07,24.6,9.32
3.280e-07,25,9.4
3.320e-07,24.6,9.48
3.360e-07,24.6,9.56
3.400e-07,24.8,9.48
3.440e-07,25,9.4
3.480e-07,25.2,9.64
3.520e-07,25.2,9.56
3.560e-07,25,9.64
3.600e-07,25.4,9.8
3.640e-07,25.8,9.8
3.680e-07,25.6,9.96
3.720e-07,26,9.72
3.760e-07,25.6,9.88
3.800e-07,26,10.04
3.840e-07,26,9.96
3.880e-07,26,9.88
3.920e-07,25.8,9.96
3.960e-07,26.2,10.2
4.000e-07,26,10.2
4.040e-07,26,10.2
4.080e-07,26.4,10.28
4.120e-07,26.2,10.28
4.160e-07,26.8,10.28
4.200e-07,26.6,10.36
4.240e-07,26.6,10.44
4.280e-07,26.8,10.52
4.320e-07,26.6,10.52
4.360e-07,27,10.52
4.400e-07,26.6,10.6
4.440e-07,26.8,10.6
4.480e-07,26.8,10.92
4.520e-07,26.8,10.76
4.560e-07,26.8,10.84
4.600e-07,27,10.92
4.640e-07,27.2,10.76
4.680e-07,27.2,10.76
4.720e-07,27,10.76
4.760e-07,27.2,11
4.800e-07,27,10.84
4.840e-07,27,11
4.880e-07,27.2,10.92
4.920e-07,27,10.84
4.960e-07,27.4,10.92
5.000e-07,27,10.92
5.040e-07,27.2,11
5.080e-07,27.2,11.08
5.120e-07,27.4,11
5.160e-07,27.2,10.92
5.200e-07,27.6,11.08
5.240e-07,27.2,10.92
5.280e-07,27.4,11.16
5.320e-07,27.2,11.08
5.360e-07,27.6,11.16
5.400e-07,27.4,11.16
5.440e-07,27.4,11.24
5.480e-07,27.6,11.24
5.520e-07,27.6,11.32
5.560e-07,27.6,11.24
5.600e-07,27.6,11.32
5.640e-07,27.8,11.32
5.680e-07,27.8,11.32
5.720e-07,27.2,11.32
5.760e-07,27.6,11.4
5.800e-07,27.6,11.24
5.840e-07,27.8,11.4
5.880e-07,28,11.48
5.920e-07,27.8,11.4
5.960e-07,27.2,11.56
6.000e-07,27.6,11.48
6.040e-07,28,11.48
6.080e-07,27.6,11.4
6.120e-07,28,11.56
6.160e-07,27.6,11.4
6.200e-07,27.6,11.56
6.240e-07,27.8,11.56
6.280e-07,27.8,11.56
6.320e-07,28.2,11.56
6.360e-07,27.6,11.64
6.400e-07,28,11.56
6.440e-07,27.8,11.64
6.480e-07,27.8,11.64
6.520e-07,27.8,11.72
6.560e-07,27.6,11.72
6.600e-07,27.8,11.8
6.640e-07,27.8,11.64
6.680e-07,27.8,11.72
6.720e-07,27.8,11.72
6.760e-07,27.8,11.72
6.800e-07,27.6,11.72
6.840e-07,28,11.72
6.880e-07,27.8,11.72
6.920e-07,27.8,11.8
6.960e-07,27.8,11.88
7.000e-07,28,11.88
7.040e-07,27.6,11.88
7.080e-07,27.8,11.88
7.120e-07,28,11.96
7.160e-07,27.6,11.88
7.200e-07,27.6,11.88
7.240e-07,27.8,11.88
7.280e-07,27.8,12.04
7.320e-07,27.6,12.04
7.360e-07,28,12.04
7.400e-07,27.6,11.96
7.440e-07,28.2,11.96
7.480e-07,27.8,12.04
7.520e-07,28,12.04
7.560e-07,28,12.04
7.600e-07,27.8,11.96
7.640e-07,27.8,12.12
7.680e-07,28,12.12
7.720e-07,27.8,11.96
7.760e-07,27.8,12.12
7.800e-07,28,12.12
7.840e-07,27.8,12.04
7.880e-07,27.8,12.12
7.920e-07,27.8,12.2
7.960e-07,28.2,12.28
8.000e-07,27.4,12.2
8.040e-07,27.8,12.2
8.080e-07,28,12.2
8.120e-07,28.2,12.12
8.160e-07,28,12.28
8.200e-07,28,12.28
8.240e-07,28,12.12
8.280e-07,28,12.2
8.320e-07,28,12.28
8.360e-07,27.6,12.12
8.400e-07,28,12.12
8.440e-07,28.2,12.2
8.480e-07,27.4,12.28
8.520e-07,28,12.12
8.560e-07,27.8,12.28
8.600e-07,27.8,12.2
8.640e-07,27.8,12.28
8.680e-07,27.8,12.28
8.720e-07,27.6,12.28
8.760e-07,27.6,12.2
8.800e-07,27.6,12.28
8.840e-07,27.4,12.2
8.880e-07,27.4,12.12
8.920e-07,27.4,12.12
8.960e-07,27.4,12.12
9.000e-07,27.4,12.2
9.040e-07,27.4,12.12
9.080e-07,26.8,11.96
9.120e-07,27,12.04
9.160e-07,27,12.12
9.200e-07,26.6,11.96
9.240e-07,26.8,12.12
9.280e-07,26.6,12.04
9.320e-07,26.6,11.96
9.360e-07,26.4,11.88
9.400e-07,26.2,11.88
9.440e-07,26.2,11.72
9.480e-07,25.8,11.64
9.520e-07,25.8,11.56
9.560e-07,25.6,11.64
9.600e-07,25.8,11.72
9.640e-07,25.4,11.4
9.680e-07,25.2,11.64
9.720e-07,24.6,11.4
9.760e-07,25,11.24
9.800e-07,24.8,11.4
9.840e-07,24.8,11.32
9.880e-07,24.6,11.08
9.920e-07,24.2,11.16
9.960e-07,24,11.08
1.000e-06,24,11.08
1.004e-06,24,11.08
1.008e-06,23.8,10.92
1.012e-06,23.6,10.76
1.016e-06,23,10.76
1.020e-06,22.6,10.68
1.024e-06,22.8,10.52
1.028e-06,22.2,10.68
1.032e-06,21.8,10.52
1.036e-06,22,10.44
1.040e-06,21.6,10.36
1.044e-06,21.2,10.12
1.048e-06,21.4,10.2
1.052e-06,21,10.04
1.056e-06,21.2,10.12
1.060e-06,21,9.8
1.064e-06,20.8,9.8
1.068e-06,20.6,9.72
1.072e-06,20.2,9.48
1.076e-06,19.8,9.64
1.080e-06,19.8,9.4
1.084e-06,19.6,9.4
1.088e-06,19.2,9.24
1.092e-06,19,9.16
1.096e-06,19,9.32
1.100e-06,18.8,9.08
1.104e-06,18.6,8.92
1.108e-06,18,9
1.112e-06,17.8,8.76
1.116e-06,17.8,8.76
1.120e-06,17.2,8.76
1.124e-06,17.2,8.68
1.128e-06,17,8.52
1.132e-06,17,8.52
1.136e-06,16.8,8.36
1.140e-06,16.6,8.2
1.144e-06,16.2,8.2
1.148e-06,16,8.2
1.152e-06,16,7.8
1.156e-06,16,8.04
1.160e-06,15.4,7.88
1.164e-06,15,7.96
1.168e-06,15.2,7.8
1.172e-06,14.6,7.72
1.176e-06,15,7.4
1.180e-06,14.4,7.56
1.184e-06,14.4,7.4
1.188e-06,14.2,7.32
1.192e-06,14.2,7.16
1.196e-06,13.6,7.16
1.200e-06,13.4,7
1.204e-06,13,6.92
1.208e-06,12.8,6.92
1.212e-06,12.8,6.68
1.216e-06,12.4,6.68
1.220e-06,12.6,6.52
1.224e-06,12.2,6.52
1.228e-06,12.2,6.36
1.232e-06,11.8,6.36
1.236e-06,11.4,6.28
1.240e-06,11.4,6.12
1.244e-06,11.4,6.2
1.248e-06,11.2,5.96
1.252e-06,10.6,5.96
1.256e-06,10.4,5.72
1.260e-06,10.4,5.88
1.264e-06,10.2,5.72
1.268e-06,9.6,5.56
1.272e-06,9.8,5.4
1.276e-06,9.8,5.4
1.280e-06,9,5.32
1.284e-06,9,5.24
1.288e-06,8.8,5.24
1.292e-06,8.8,5.24
1.296e-06,8.8,5.08
1.300e-06,8.4,5.08
1.304e-06,8,4.92
1.308e-06,8,4.76
1.312e-06,8,4.92
1.316e-06,7.4,4.84
1.320e-06,7.6,4.68
1.324e-06,7.6,4.6
1.328e-06,7.4,4.68
1.332e-06,7,4.44
1.336e-06,7,4.36
1.340e-06,6.8,4.44
1.344e-06,7,4.28
1.348e-06,6.8,4.28
1.352e-06,6.4,4.28
1.356e-06,6.4,4.36
1.360e-06,6.2,4.12
1.364e-06,5.8,4.2
1.368e-06,5.8,4.2
1.372e-06,6.2,4.04
1.376e-06,5.8,4.04
1.380e-06,5.4,4.12
1.384e-06,5.6,3.96
1.388e-06,5.2,3.96
1.392e-06,5.2,3.96
1.396e-06,5.2,3.8
1.400e-06,5.2,3.72
1.404e-06,5.2,3.64
1.408e-06,5,3.64
1.412e-06,4.6,3.64
1.416e-06,4.8,3.56
1.420e-06,5,3.56
1.424e-06,4.8,3.56
1.428e-06,4.6,3.4
1.432e-06,4.6,3.32
1.436e-06,4.2,3.4
1.440e-06,4.2,3.24
1.444e-06,4.2,3.24
1.448e-06,4.2,3.24
1.452e-06,4.2,3.24
1.456e-06,4.4,3.16
1.460e-06,4.2,3.24
1.464e-06,4,3.08
1.468e-06,4,3
1.472e-06,3.8,3
1.476e-06,4,2.92
1.480e-06,3.2,3.16
1.484e-06,3.6,3.08
1.488e-06,3.6,2.92
1.492e-06,3.6,2.92
1.496e-06,3.6,3.08
1.500e-06,3.2,2.92
1.504e-06,3.2,2.92
1.508e-06,3.4,2.84
1.512e-06,3.8,2.84
1.516e-06,3.2,2.76
1.520e-06,3,2.92
1.524e-06,3,2.84
1.528e-06,3.4,2.68
1.532e-06,2.6,2.84
1.536e-06,2.8,2.6
1.540e-06,2.8,2.76
1.544e-06,2.6,2.6
1.548e-06,2.8,2.68
1.552e-06,2.6,2.76
1.556e-06,2.8,2.6
1.560e-06,2.8,2.76
1.564e-06,2.8,2.6
1.568e-06,2.4,2.68
1.572e-06,2.6,2.68
1.576e-06,2.8,2.6
1.580e-06,2,2.6
1.584e-06,2.4,2.52
1.588e-06,2.8,2.6
1.592e-06,2.4,2.52
1.596e-06,2.4,2.52
1.600e-06,2.4,2.52
1.604e-06,2.4,2.36
1.608e-06,2.4,2.36
1.612e-06,2.2,2.44
1.616e-06,2,2.44
1.620e-06,2.6,2.52
1.624e-06,2.2,2.44
1.628e-06,2.2,2.28
1.632e-06,2.4,2.28
1.636e-06,2.6,2.44
1.640e-06,2,2.36
1.644e-06,2,2.28
1.648e-06,2,2.36
1.652e-06,1.8,2.44
1.656e-06,2.2,2.36
1.660e-06,2.2,2.28
1.664e-06,2.2,2.36
1.668e-06,2,2.28
1.672e-06,2.2,2.28
1.676e-06,2.2,2.44
1.680e-06,2,2.36
1.684e-06,2,2.28
1.688e-06,1.8,2.28
1.692e-06,2.2,2.28
1.696e-06,2.2,2.2
1.700e-06,2,2.2
1.704e-06,2.2,2.2
1.708e-06,2.4,2.28
1.712e-06,2.2,2.36
1.716e-06,1.8,2.28
1.720e-06,1.8,2.28
1.724e-06,1.6,2.12
1.728e-06,2,2.28
1.732e-06,2,2.12
1.736e-06,2.4,2.28
1.740e-06,2,2.12
1.744e-06,2.4,2.12
1.748e-06,2,2.44
1.752e-06,1.8,2.28
1.756e-06,2,2.2
1.760e-06,2,2.28
1.764e-06,2,2.12
1.768e-06,2,2.12
1.772e-06,1.8,2.28
1.776e-06,2,2.28
1.780e-06,1.8,2.04
1.784e-06,2,2.04
1.788e-06,2,2.2
1.792e-06,1.8,2.12
1.796e-06,2,2.28
1.800e-06,2.2,2.2
1.804e-06,1.8,2.2
1.808e-06,1.8,2.2
1.812e-06,2,2.28
1.816e-06,2.4,2.28
1.820e-06,2,2.2
1.824e-06,2.4,2.2
1.828e-06,2.4,2.2
1.832e-06,1.6,2.12
1.836e-06,2,2.28
1.840e-06,2.2,2.2
1.844e-06,2,2.28
1.848e-06,2.2,2.28
1.852e-06,2,2.12
1.856e-06,2,2.12
1.860e-06,2,2.12
1.864e-06,2,2.2
1.868e-06,2,2.12
1.872e-06,2,2.36
1.876e-06,2.2,2.04
1.880e-06,2.2,2.28
1.884e-06,2,2.2
1.888e-06,2.4,2.12
1.892e-06,2,2.28
1.896e-06,2.2,2.12
1.900e-06,2.2,2.2
1.904e-06,2.2,2.2
1.908e-06,2.4,2.28
1.912e-06,2.4,2.2
1.916e-06,2,2.12
1.920e-06,2.4,2.28
1.924e-06,2,2.28
1.928e-06,2.2,2.28
1.932e-06,2.2,2.28
1.936e-06,2.2,2.12
1.940e-06,2.4,2.2
1.944e-06,2,2.2
1.948e-06,2.6,2.12
1.952e-06,2,2.28
1.956e-06,2.2,2.28
1.960e-06,2.4,2.28
1.964e-06,2.6,2.2
1.968e-06,2.6,2.28
1.972e-06,2.4,2.2
1.976e-06,2.4,2.12
1.980e-06,2.4,2.28
1.984e-06,2.6,2.28
1.988e-06,2.4,2.2
1.992e-06,2.4,2.52
1.996e-06,2.4,2.2
2.000e-06,2.8,2.36
2.004e-06,2,2.28
2.008e-06,2.4,2.28
2.012e-06,2.4,2.28
2.016e-06,2.6,2.2
2.020e-06,2.4,2.28
2.024e-06,2.6,2.28
2.028e-06,2.4,2.28
2.032e-06,2.4,2.28
2.036e-06,2.2,2.28
2.040e-06,2.6,2.28
2.044e-06,2.4,2.36
2.048e-06,2.4,2.28
2.052e-06,2.4,2.44
2.056e-06,2.6,2.2
2.060e-06,2.2,2.28
2.064e-06,2.4,2.28
2.068e-06,2.8,2.2
2.072e-06,2.6,2.36
2.076e-06,2.8,2.36
2.080e-06,2.4,2.28
2.084e-06,2.4,2.28
2.088e-06,2.8,2.28
2.092e-06,2.6,2.28
2.096e-06,2.2,2.28
2.100e-06,2.4,2.28
2.104e-06,2.6,2.2
2.108e-06,2.6,2.28
2.112e-06,2.6,2.36
2.116e-06,2.6,2.36
2.120e-06,2.6,2.36
2.124e-06,2.6,2.28
2.128e-06,2.6,2.28
2.132e-06,2.4,2.2
2.136e-06,3,2.28
2.140e-06,2.8,2.2
2.144e-06,2.6,2.36
2.148e-06,2.6,2.2
2.152e-06,2.6,2.28
2.156e-06,2.6,2.28
2.160e-06,2.8,2.36
2.164e-06,2.6,2.2
2.168e-06,2.8,2.28
2.172e-06,2.6,2.36
2.176e-06,2.8,2.28
2.180e-06,2.8,2.44
2.184e-06,2.8,2.2
2.188e-06,3,2.28
2.192e-06,2.6,2.36
2.196e-06,2.8,2.2
2.200e-06,2.8,2.28
2.204e-06,2.6,2.28
2.208e-06,3,2.28
2.212e-06,2.6,2.28
2.216e-06,3,2.2
2.220e-06,2.6,2.2
2.224e-06,2.6,2.2
2.228e-06,2.6,2.28
2.232e-06,3,2.12
2.236e-06,2.8,2.28
2.240e-06,2.8,2.36
2.244e-06,2.6,2.28
2.248e-06,2.6,2.28
2.252e-06,3,2.2
2.256e-06,2.6,2.28
2.260e-06,2.8,2.28
2.264e-06,3,2.28
2.268e-06,2.8,2.28
2.272e-06,2.6,2.12
2.276e-06,2.4,2.28
2.280e-06,2.8,2.2
2.284e-06,3,2.2
2.288e-06,2.8,2.2
2.292e-06,2.6,2.36
2.296e-06,2.8,2.28
2.300e-06,2.6,2.36
2.304e-06,2.6,2.28
2.308e-06,2.6,2.28
2.312e-06,3,2.28
2.316e-06,2.6,2.2
2.320e-06,2.6,2.44
2.324e-06,3,2.28
2.328e-06,2.8,2.36
2.332e-06,2.8,2.04
2.336e-06,2.6,2.2
2.340e-06,3,2.2
2.344e-06,2.8,2.2
2.348e-06,2.8,2.36
2.352e-06,3.2,2.12
2.356e-06,2.8,2.28
2.360e-06,2.8,2.2
2.364e-06,2.8,2.2
2.368e-06,3,2.2
2.372e-06,2.6,2.2
2.376e-06,3,2.36
2.380e-06,2.8,2.2
2.384e-06,3,2.2
2.388e-06,3,2.2
2.392e-06,3,2.28
2.396e-06,3,2.04
2.400e-06,2.6,2.2
2.404e-06,2.8,2.12
2.408e-06,2.6,2.28
2.412e-06,2.8,2.2
2.416e-06,3.2,2.2
2.420e-06,2.6,2.12
2.424e-06,2.8,2.2
2.428e-06,3,2.12
2.432e-06,3,2.2
2.436e-06,3,2.2
2.440e-06,2.8,2.2
2.444e-06,2.6,2.2
2.448e-06,3,2.28
2.452e-06,2.8,2.2
2.456e-06,2.6,2.12
2.460e-06,2.6,2.28
2.464e-06,2.8,2.2
2.468e-06,2.6,2.12
2.472e-06,2.6,2.12
2.476e-06,3.2,2.12
2.480e-06,2.8,2.2
2.484e-06,2.6,2.12
2.488e-06,2.8,2.12
2.492e-06,2.8,2.2
2.496e-06,2.8,2.28
2.500e-06,2.4,2.12
2.504e-06,2.8,2.2
2.508e-06,2.8,2.12
2.512e-06,2.4,2.28
2.516e-06,2.6,2.12
2.520e-06,2.8,2.2
2.524e-06,2.8,2.28
2.528e-06,3,2.12
2.532e-06,2.6,2.12
2.536e-06,2.8,2.12
2.540e-06,2.8,2.2
2.544e-06,2.6,2.2
2.548e-06,3,2.2
2.552e-06,2.6,2.28
2.556e-06,2.8,2.2
2.560e-06,3,2.36
2.564e-06,2.8,2.12
2.568e-06,2.6,2.12
2.572e-06,3,2.2
2.576e-06,2.4,2.12
2.580e-06,2.6,2.12
2.584e-06,2.8,2.2
2.588e-06,3,2.12
2.592e-06,2.8,2.12
2.596e-06,2.8,2.2
2.600e-06,2.8,2.2
2.604e-06,2.6,2.28
2.608e-06,2.4,2.04
2.612e-06,2.6,2.2
2.616e-06,3,2.2
2.620e-06,2.6,2.12
2.624e-06,2.8,2.12
2.628e-06,2.6,2.12

