Archivos Guadalupe/Data/1410-32-X4/24-10/D-24-10/tek0013ALL.csv

Model,DPO3034
Firmware Version,2.16

Point Format,Y,
Horizontal Units,S,
Horizontal Scale,2e-06,
Sample Interval,2e-08,
Record Length,1000,
Gating,0.0% to 100.0%,0.0% to 100.0%
Probe Attenuation,1,1
Vertical Units,V,V
Vertical Offset,0,0
Vertical Scale,5,1
Label,,
TIME,CH1,CH2
-2.620e-06,-0.2,-0.02
-2.600e-06,0,-0.02
-2.580e-06,0,0.02
-2.560e-06,0.4,-0.06
-2.540e-06,0.2,-0.06
-2.520e-06,0.2,-0.02
-2.500e-06,0.2,-0.02
-2.480e-06,0,-0.02
-2.460e-06,0,0.02
-2.440e-06,0,0.02
-2.420e-06,0.2,0.1
-2.400e-06,0,0.02
-2.380e-06,0.2,-0.02
-2.360e-06,0.4,-0.06
-2.340e-06,-0.4,-0.02
-2.320e-06,0.2,0.02
-2.300e-06,0.2,-0.02
-2.280e-06,-0.2,-0.02
-2.260e-06,0.2,0.1
-2.240e-06,0.6,0.1
-2.220e-06,0,0.1
-2.200e-06,0.4,-0.02
-2.180e-06,0.2,0.06
-2.160e-06,-0.2,0.06
-2.140e-06,0.4,0.02
-2.120e-06,0.4,0.06
-2.100e-06,0,0.06
-2.080e-06,0.6,0.1
-2.060e-06,0.4,-0.02
-2.040e-06,0.4,0.06
-2.020e-06,0.4,0.1
-2.000e-06,0.4,0.06
-1.980e-06,0.2,0.18
-1.960e-06,0.4,0.1
-1.940e-06,0.2,0.06
-1.920e-06,0,0.22
-1.900e-06,0.6,0.06
-1.880e-06,0.4,0.1
-1.860e-06,0.4,0.18
-1.840e-06,0.8,0.18
-1.820e-06,0.6,0.14
-1.800e-06,0.4,0.14
-1.780e-06,0.6,0.1
-1.760e-06,0.6,0.18
-1.740e-06,0.6,0.18
-1.720e-06,0.8,0.22
-1.700e-06,0.6,0.22
-1.680e-06,0.6,0.26
-1.660e-06,0.8,0.3
-1.640e-06,0.8,0.26
-1.620e-06,1,0.38
-1.600e-06,1.2,0.38
-1.580e-06,1,0.38
-1.560e-06,1,0.38
-1.540e-06,1.2,0.38
-1.520e-06,1.4,0.38
-1.500e-06,1.6,0.42
-1.480e-06,1.4,0.46
-1.460e-06,1.4,0.42
-1.440e-06,1.4,0.5
-1.420e-06,1.6,0.5
-1.400e-06,1.4,0.54
-1.380e-06,1,0.5
-1.360e-06,1.8,0.54
-1.340e-06,1.6,0.54
-1.320e-06,1.4,0.54
-1.300e-06,1.4,0.5
-1.280e-06,1.6,0.5
-1.260e-06,1.6,0.54
-1.240e-06,1.8,0.62
-1.220e-06,1.4,0.54
-1.200e-06,1.4,0.58
-1.180e-06,2,0.5
-1.160e-06,1.8,0.54
-1.140e-06,1.8,0.58
-1.120e-06,1.6,0.62
-1.100e-06,2,0.54
-1.080e-06,1.8,0.54
-1.060e-06,1.8,0.54
-1.040e-06,1.6,0.62
-1.020e-06,2,0.62
-1.000e-06,1.6,0.62
-9.800e-07,1.8,0.5
-9.600e-07,1.6,0.54
-9.400e-07,1.6,0.54
-9.200e-07,2,0.5
-9.000e-07,1.6,0.5
-8.800e-07,2,0.54
-8.600e-07,1.6,0.54
-8.400e-07,2,0.62
-8.200e-07,2,0.54
-8.000e-07,1.6,0.62
-7.800e-07,1.8,0.54
-7.600e-07,1.8,0.54
-7.400e-07,2,0.5
-7.200e-07,1.8,0.5
-7.000e-07,1.8,0.54
-6.800e-07,1.6,0.58
-6.600e-07,1.6,0.46
-6.400e-07,1.8,0.46
-6.200e-07,1.8,0.58
-6.000e-07,1.6,0.58
-5.800e-07,1.8,0.5
-5.600e-07,1.6,0.5
-5.400e-07,1.8,0.5
-5.200e-07,1.6,0.54
-5.000e-07,2,0.54
-4.800e-07,2.2,0.62
-4.600e-07,2,0.62
-4.400e-07,2.2,0.66
-4.200e-07,2.2,0.74
-4.000e-07,2.8,0.78
-3.800e-07,3,0.86
-3.600e-07,3.6,0.94
-3.400e-07,3.6,1.14
-3.200e-07,3.6,1.3
-3.000e-07,3.8,1.46
-2.800e-07,4.6,1.5
-2.600e-07,4.4,1.62
-2.400e-07,5,1.7
-2.200e-07,5.4,1.78
-2.000e-07,5.6,1.98
-1.800e-07,5.6,2.06
-1.600e-07,6.2,2.14
-1.400e-07,6.6,2.3
-1.200e-07,6.8,2.42
-1.000e-07,7.4,2.5
-8.000e-08,7.2,2.54
-6.000e-08,8,2.7
-4.000e-08,8,2.86
-2.000e-08,8.4,2.98
-5.393e-21,8.6,3.1
2.000e-08,9,3.18
4.000e-08,9.4,3.34
6.000e-08,9.6,3.42
8.000e-08,10.2,3.5
1.000e-07,10.2,3.66
1.200e-07,10.6,3.82
1.400e-07,11.2,3.9
1.600e-07,11.4,3.98
1.800e-07,11.4,4.1
2.000e-07,12,4.22
2.200e-07,12.2,4.38
2.400e-07,12.4,4.46
2.600e-07,13,4.58
2.800e-07,13.4,4.66
3.000e-07,13.4,4.9
3.200e-07,13.8,4.94
3.400e-07,14,5.06
3.600e-07,14.4,5.3
3.800e-07,14.8,5.42
4.000e-07,15.2,5.42
4.200e-07,15.4,5.58
4.400e-07,15.6,5.66
4.600e-07,16,5.7
4.800e-07,16,5.9
5.000e-07,16,5.94
5.200e-07,16.4,5.86
5.400e-07,16.6,6.06
5.600e-07,16.4,6.06
5.800e-07,16.4,6.14
6.000e-07,16,6.18
6.200e-07,16.6,6.18
6.400e-07,16.6,6.22
6.600e-07,16.8,6.18
6.800e-07,16.6,6.22
7.000e-07,17,6.3
7.200e-07,16.4,6.26
7.400e-07,16.6,6.26
7.600e-07,16.8,6.3
7.800e-07,16.8,6.3
8.000e-07,17,6.38
8.200e-07,17.2,6.38
8.400e-07,17,6.38
8.600e-07,16.8,6.42
8.800e-07,17,6.34
9.000e-07,17,6.42
9.200e-07,17,6.42
9.400e-07,17,6.38
9.600e-07,17,6.46
9.800e-07,17.4,6.46
1.000e-06,17,6.38
1.020e-06,16.8,6.42
1.040e-06,17,6.46
1.060e-06,17,6.5
1.080e-06,17,6.42
1.100e-06,17,6.54
1.120e-06,17,6.5
1.140e-06,16.6,6.5
1.160e-06,16.8,6.5
1.180e-06,17,6.58
1.200e-06,16.4,6.54
1.220e-06,17,6.5
1.240e-06,17.2,6.54
1.260e-06,16.6,6.58
1.280e-06,16.8,6.54
1.300e-06,16.4,6.5
1.320e-06,16.6,6.54
1.340e-06,17,6.62
1.360e-06,16.8,6.58
1.380e-06,16.6,6.62
1.400e-06,16.8,6.54
1.420e-06,17,6.54
1.440e-06,16.6,6.62
1.460e-06,16.8,6.54
1.480e-06,16.8,6.62
1.500e-06,16.6,6.54
1.520e-06,16.6,6.62
1.540e-06,16.4,6.58
1.560e-06,16.4,6.54
1.580e-06,16.2,6.42
1.600e-06,16.2,6.3
1.620e-06,15.8,6.38
1.640e-06,15.8,6.26
1.660e-06,15.4,6.26
1.680e-06,15.2,6.06
1.700e-06,15.4,5.94
1.720e-06,14.8,5.86
1.740e-06,14.4,5.7
1.760e-06,14.2,5.54
1.780e-06,14.2,5.5
1.800e-06,13.6,5.38
1.820e-06,13.2,5.26
1.840e-06,12.6,5.18
1.860e-06,12.6,4.98
1.880e-06,12.2,4.82
1.900e-06,12,4.78
1.920e-06,11.4,4.5
1.940e-06,11.2,4.38
1.960e-06,10.6,4.26
1.980e-06,10.4,4.14
2.000e-06,10.2,3.86
2.020e-06,10,3.78
2.040e-06,9.2,3.62
2.060e-06,9,3.54
2.080e-06,9,3.3
2.100e-06,8.2,3.26
2.120e-06,8,3.1
2.140e-06,7.8,3.02
2.160e-06,7.4,2.94
2.180e-06,7,2.7
2.200e-06,6.8,2.7
2.220e-06,6.4,2.46
2.240e-06,6.4,2.38
2.260e-06,5.6,2.34
2.280e-06,5.4,2.22
2.300e-06,5.2,2.06
2.320e-06,5.2,1.9
2.340e-06,5,1.74
2.360e-06,4.8,1.62
2.380e-06,4.2,1.54
2.400e-06,4.2,1.46
2.420e-06,3.6,1.3
2.440e-06,3.2,1.22
2.460e-06,2.8,1.18
2.480e-06,3,1.1
2.500e-06,2.8,1.06
2.520e-06,2.6,0.94
2.540e-06,2.6,0.82
2.560e-06,2.6,0.74
2.580e-06,2,0.74
2.600e-06,2.2,0.66
2.620e-06,1.8,0.62
2.640e-06,1.4,0.58
2.660e-06,1.6,0.5
2.680e-06,1.6,0.54
2.700e-06,1.6,0.46
2.720e-06,1.4,0.38
2.740e-06,1.6,0.38
2.760e-06,1.6,0.34
2.780e-06,1.4,0.46
2.800e-06,1.4,0.42
2.820e-06,1.4,0.34
2.840e-06,1.6,0.42
2.860e-06,1.2,0.42
2.880e-06,1,0.34
2.900e-06,1.4,0.34
2.920e-06,1.4,0.38
2.940e-06,1.4,0.38
2.960e-06,1.4,0.42
2.980e-06,1.6,0.38
3.000e-06,1.8,0.34
3.020e-06,1.6,0.42
3.040e-06,1.6,0.38
3.060e-06,1.2,0.38
3.080e-06,1.6,0.38
3.100e-06,1.4,0.46
3.120e-06,1.6,0.5
3.140e-06,1.6,0.38
3.160e-06,1.4,0.42
3.180e-06,1.6,0.46
3.200e-06,1.8,0.46
3.220e-06,1.4,0.5
3.240e-06,1.8,0.5
3.260e-06,1.6,0.42
3.280e-06,1.8,0.38
3.300e-06,1.6,0.54
3.320e-06,1.8,0.58
3.340e-06,1.8,0.46
3.360e-06,1.6,0.42
3.380e-06,1.8,0.5
3.400e-06,2,0.46
3.420e-06,1.6,0.5
3.440e-06,2,0.46
3.460e-06,1.6,0.5
3.480e-06,1.8,0.54
3.500e-06,1.8,0.5
3.520e-06,2,0.54
3.540e-06,1.6,0.58
3.560e-06,1.8,0.5
3.580e-06,1.8,0.54
3.600e-06,1.6,0.62
3.620e-06,1.6,0.58
3.640e-06,1.8,0.54
3.660e-06,1.8,0.54
3.680e-06,1.8,0.5
3.700e-06,1.8,0.5
3.720e-06,1.8,0.58
3.740e-06,2,0.5
3.760e-06,1.4,0.46
3.780e-06,1.4,0.46
3.800e-06,1.8,0.42
3.820e-06,1.6,0.54
3.840e-06,1.6,0.5
3.860e-06,1.8,0.46
3.880e-06,2,0.5
3.900e-06,1.6,0.5
3.920e-06,2,0.5
3.940e-06,1.8,0.5
3.960e-06,1.8,0.46
3.980e-06,2,0.46
4.000e-06,1.8,0.42
4.020e-06,1.8,0.42
4.040e-06,2,0.5
4.060e-06,2,0.5
4.080e-06,1.6,0.54
4.100e-06,2,0.46
4.120e-06,1.8,0.5
4.140e-06,1.6,0.46
4.160e-06,2,0.5
4.180e-06,2,0.5
4.200e-06,1.8,0.38
4.220e-06,2,0.5
4.240e-06,2,0.38
4.260e-06,1.6,0.46
4.280e-06,1.6,0.34
4.300e-06,2,0.46
4.320e-06,2,0.46
4.340e-06,2,0.5
4.360e-06,1.8,0.46
4.380e-06,1.6,0.54
4.400e-06,2,0.5
4.420e-06,2,0.46
4.440e-06,1.8,0.46
4.460e-06,1.8,0.46
4.480e-06,1.8,0.42
4.500e-06,1.6,0.42
4.520e-06,1.8,0.46
4.540e-06,1.8,0.38
4.560e-06,1.6,0.38
4.580e-06,2,0.42
4.600e-06,1.6,0.42
4.620e-06,1.6,0.42
4.640e-06,2,0.46
4.660e-06,1.6,0.46
4.680e-06,1.8,0.42
4.700e-06,1.8,0.42
4.720e-06,2,0.46
4.740e-06,2,0.38
4.760e-06,2,0.46
4.780e-06,1.8,0.42
4.800e-06,1.8,0.38
4.820e-06,1.8,0.38
4.840e-06,2,0.38
4.860e-06,1.6,0.38
4.880e-06,2,0.42
4.900e-06,1.6,0.38
4.920e-06,1.8,0.42
4.940e-06,1.8,0.42
4.960e-06,2,0.38
4.980e-06,1.6,0.46
5.000e-06,2,0.42
5.020e-06,2,0.42
5.040e-06,1.8,0.3
5.060e-06,1.6,0.38
5.080e-06,1.8,0.46
5.100e-06,1.6,0.42
5.120e-06,1.8,0.38
5.140e-06,2,0.46
5.160e-06,1.6,0.42
5.180e-06,1.8,0.46
5.200e-06,2,0.38
5.220e-06,1.6,0.38
5.240e-06,1.8,0.38
5.260e-06,1.8,0.46
5.280e-06,2,0.46
5.300e-06,1.6,0.38
5.320e-06,2,0.38
5.340e-06,1.8,0.42
5.360e-06,1.8,0.38
5.380e-06,2,0.38
5.400e-06,1.8,0.38
5.420e-06,2,0.38
5.440e-06,2,0.38
5.460e-06,1.8,0.42
5.480e-06,1.8,0.38
5.500e-06,1.6,0.38
5.520e-06,1.6,0.38
5.540e-06,1.8,0.34
5.560e-06,2,0.38
5.580e-06,1.8,0.3
5.600e-06,1.8,0.38
5.620e-06,1.8,0.38
5.640e-06,1.8,0.34
5.660e-06,1.8,0.38
5.680e-06,2,0.42
5.700e-06,1.8,0.38
5.720e-06,2,0.38
5.740e-06,2,0.38
5.760e-06,1.6,0.38
5.780e-06,1.8,0.3
5.800e-06,1.8,0.3
5.820e-06,1.8,0.46
5.840e-06,1.8,0.3
5.860e-06,1.8,0.34
5.880e-06,2,0.3
5.900e-06,2,0.38
5.920e-06,2,0.38
5.940e-06,1.8,0.26
5.960e-06,1.8,0.38
5.980e-06,1.8,0.38
6.000e-06,2,0.3
6.020e-06,2,0.3
6.040e-06,2,0.3
6.060e-06,2,0.3
6.080e-06,2,0.38
6.100e-06,1.6,0.34
6.120e-06,2,0.38
6.140e-06,1.8,0.3
6.160e-06,1.8,0.38
6.180e-06,1.6,0.38
6.200e-06,1.8,0.34
6.220e-06,1.8,0.26
6.240e-06,1.6,0.34
6.260e-06,1.8,0.38
6.280e-06,2,0.38
6.300e-06,1.6,0.38
6.320e-06,1.8,0.26
6.340e-06,2,0.38
6.360e-06,1.6,0.3
6.380e-06,2,0.34
6.400e-06,1.8,0.3
6.420e-06,1.8,0.3
6.440e-06,1.8,0.34
6.460e-06,1.8,0.26
6.480e-06,1.8,0.3
6.500e-06,1.6,0.26
6.520e-06,1.4,0.34
6.540e-06,1.6,0.3
6.560e-06,1.8,0.3
6.580e-06,1.8,0.3
6.600e-06,2,0.3
6.620e-06,2,0.26
6.640e-06,2,0.22
6.660e-06,1.6,0.34
6.680e-06,2,0.34
6.700e-06,1.8,0.26
6.720e-06,1.8,0.38
6.740e-06,1.6,0.26
6.760e-06,1.6,0.26
6.780e-06,1.4,0.3
6.800e-06,1.8,0.26
6.820e-06,1.4,0.3
6.840e-06,2.2,0.26
6.860e-06,2.2,0.26
6.880e-06,1.8,0.3
6.900e-06,1.8,0.26
6.920e-06,1.8,0.34
6.940e-06,2,0.3
6.960e-06,1.6,0.34
6.980e-06,1.8,0.3
7.000e-06,1.8,0.26
7.020e-06,1.6,0.38
7.040e-06,2,0.26
7.060e-06,1.8,0.3
7.080e-06,2,0.26
7.100e-06,1.8,0.34
7.120e-06,1.8,0.34
7.140e-06,1.8,0.22
7.160e-06,2,0.3
7.180e-06,1.8,0.3
7.200e-06,1.8,0.3
7.220e-06,1.8,0.3
7.240e-06,2,0.3
7.260e-06,1.6,0.34
7.280e-06,1.8,0.34
7.300e-06,1.6,0.34
7.320e-06,2,0.3
7.340e-06,2,0.3
7.360e-06,1.8,0.3
7.380e-06,1.8,0.26
7.400e-06,1.8,0.34
7.420e-06,2,0.3
7.440e-06,2,0.26
7.460e-06,1.6,0.3
7.480e-06,1.6,0.3
7.500e-06,1.8,0.3
7.520e-06,2,0.22
7.540e-06,1.6,0.34
7.560e-06,1.6,0.34
7.580e-06,1.8,0.26
7.600e-06,2,0.22
7.620e-06,1.8,0.22
7.640e-06,1.8,0.26
7.660e-06,2,0.3
7.680e-06,1.8,0.3
7.700e-06,2,0.26
7.720e-06,2,0.3
7.740e-06,1.6,0.3
7.760e-06,2,0.26
7.780e-06,1.8,0.3
7.800e-06,1.8,0.26
7.820e-06,1.8,0.3
7.840e-06,2,0.3
7.860e-06,2,0.3
7.880e-06,1.8,0.3
7.900e-06,1.4,0.3
7.920e-06,1.8,0.26
7.940e-06,1.8,0.34
7.960e-06,1.8,0.26
7.980e-06,1.6,0.26
8.000e-06,1.8,0.3
8.020e-06,1.8,0.26
8.040e-06,1.8,0.26
8.060e-06,1.8,0.22
8.080e-06,1.8,0.22
8.100e-06,2,0.26
8.120e-06,1.8,0.22
8.140e-06,2,0.22
8.160e-06,1.6,0.3
8.180e-06,1.8,0.3
8.200e-06,2,0.38
8.220e-06,2,0.26
8.240e-06,1.6,0.26
8.260e-06,1.8,0.26
8.280e-06,1.8,0.3
8.300e-06,2,0.18
8.320e-06,1.8,0.26
8.340e-06,1.6,0.3
8.360e-06,1.8,0.26
8.380e-06,2,0.34
8.400e-06,2,0.22
8.420e-06,2,0.26
8.440e-06,1.8,0.18
8.460e-06,1.6,0.26
8.480e-06,2,0.3
8.500e-06,1.6,0.34
8.520e-06,1.8,0.26
8.540e-06,1.6,0.26
8.560e-06,1.8,0.26
8.580e-06,2,0.3
8.600e-06,2,0.18
8.620e-06,2,0.18
8.640e-06,1.8,0.3
8.660e-06,2,0.18
8.680e-06,1.8,0.3
8.700e-06,1.8,0.26
8.720e-06,1.8,0.3
8.740e-06,1.8,0.18
8.760e-06,1.8,0.22
8.780e-06,1.6,0.3
8.800e-06,2,0.26
8.820e-06,1.6,0.22
8.840e-06,1.8,0.26
8.860e-06,2,0.26
8.880e-06,1.6,0.26
8.900e-06,2,0.18
8.920e-06,1.6,0.22
8.940e-06,1.8,0.3
8.960e-06,1.6,0.3
8.980e-06,1.8,0.3
9.000e-06,1.8,0.3
9.020e-06,2,0.26
9.040e-06,1.6,0.3
9.060e-06,2,0.26
9.080e-06,2,0.18
9.100e-06,1.4,0.26
9.120e-06,1.8,0.26
9.140e-06,1.8,0.22
9.160e-06,1.6,0.26
9.180e-06,2,0.22
9.200e-06,1.8,0.26
9.220e-06,1.8,0.22
9.240e-06,1.4,0.14
9.260e-06,1.8,0.14
9.280e-06,2,0.18
9.300e-06,1.6,0.22
9.320e-06,1.8,0.26
9.340e-06,1.6,0.22
9.360e-06,1.8,0.26
9.380e-06,1.8,0.34
9.400e-06,2,0.22
9.420e-06,1.8,0.14
9.440e-06,1.8,0.18
9.460e-06,1.6,0.26
9.480e-06,1.8,0.26
9.500e-06,1.8,0.22
9.520e-06,2,0.22
9.540e-06,1.6,0.22
9.560e-06,2,0.22
9.580e-06,1.8,0.22
9.600e-06,2,0.22
9.620e-06,1.8,0.26
9.640e-06,1.8,0.26
9.660e-06,1.8,0.22
9.680e-06,1.6,0.26
9.700e-06,1.8,0.3
9.720e-06,1.6,0.18
9.740e-06,2,0.18
9.760e-06,1.8,0.26
9.780e-06,1.6,0.18
9.800e-06,2,0.22
9.820e-06,1.8,0.3
9.840e-06,1.8,0.18
9.860e-06,1.6,0.18
9.880e-06,1.6,0.22
9.900e-06,1.8,0.18
9.920e-06,1.8,0.22
9.940e-06,2,0.26
9.960e-06,1.6,0.18
9.980e-06,1.8,0.22
1.000e-05,1.8,0.26
1.002e-05,1.8,0.26
1.004e-05,2,0.22
1.006e-05,2,0.14
1.008e-05,1.8,0.26
1.010e-05,2,0.26
1.012e-05,1.8,0.22
1.014e-05,1.6,0.22
1.016e-05,1.8,0.18
1.018e-05,1.6,0.18
1.020e-05,1.8,0.3
1.022e-05,1.8,0.26
1.024e-05,1.6,0.34
1.026e-05,2,0.22
1.028e-05,1.8,0.22
1.030e-05,2,0.22
1.032e-05,1.6,0.26
1.034e-05,2,0.26
1.036e-05,2,0.18
1.038e-05,1.6,0.26
1.040e-05,1.8,0.22
1.042e-05,1.8,0.26
1.044e-05,1.6,0.18
1.046e-05,1.6,0.22
1.048e-05,1.8,0.26
1.050e-05,1.6,0.22
1.052e-05,1.8,0.22
1.054e-05,2,0.22
1.056e-05,2,0.1
1.058e-05,1.8,0.26
1.060e-05,2,0.26
1.062e-05,1.6,0.22
1.064e-05,1.6,0.26
1.066e-05,1.6,0.18
1.068e-05,1.6,0.22
1.070e-05,1.8,0.14
1.072e-05,2,0.26
1.074e-05,1.8,0.22
1.076e-05,1.8,0.22
1.078e-05,2,0.26
1.080e-05,1.8,0.26
1.082e-05,1.8,0.22
1.084e-05,2,0.22
1.086e-05,1.8,0.22
1.088e-05,1.8,0.18
1.090e-05,1.8,0.18
1.092e-05,2,0.18
1.094e-05,1.8,0.26
1.096e-05,1.8,0.18
1.098e-05,1.8,0.22
1.100e-05,1.6,0.18
1.102e-05,1.6,0.22
1.104e-05,2,0.26
1.106e-05,1.6,0.26
1.108e-05,2,0.22
1.110e-05,1.6,0.22
1.112e-05,1.6,0.18
1.114e-05,2,0.22
1.116e-05,1.6,0.14
1.118e-05,1.8,0.18
1.120e-05,1.8,0.22
1.122e-05,2,0.18
1.124e-05,2,0.22
1.126e-05,1.6,0.22
1.128e-05,1.8,0.22
1.130e-05,1.8,0.22
1.132e-05,2,0.18
1.134e-05,1.6,0.22
1.136e-05,1.8,0.22
1.138e-05,2,0.14
1.140e-05,1.8,0.18
1.142e-05,2,0.26
1.144e-05,1.8,0.22
1.146e-05,1.8,0.22
1.148e-05,2,0.26
1.150e-05,1.4,0.18
1.152e-05,1.8,0.22
1.154e-05,2,0.14
1.156e-05,2,0.14
1.158e-05,1.6,0.22
1.160e-05,2,0.18
1.162e-05,2,0.18
1.164e-05,1.6,0.22
1.166e-05,1.8,0.26
1.168e-05,1.8,0.26
1.170e-05,2,0.22
1.172e-05,2,0.22
1.174e-05,1.6,0.18
1.176e-05,1.8,0.22
1.178e-05,1.8,0.22
1.180e-05,1.8,0.18
1.182e-05,2,0.26
1.184e-05,2,0.14
1.186e-05,1.8,0.22
1.188e-05,1.6,0.18
1.190e-05,1.8,0.18
1.192e-05,1.8,0.22
1.194e-05,1.6,0.14
1.196e-05,2,0.18
1.198e-05,1.6,0.26
1.200e-05,1.6,0.22
1.202e-05,1.8,0.22
1.204e-05,1.8,0.26
1.206e-05,2,0.26
1.208e-05,2,0.18
1.210e-05,2,0.18
1.212e-05,1.6,0.14
1.214e-05,2,0.26
1.216e-05,2,0.22
1.218e-05,1.8,0.18
1.220e-05,2,0.26
1.222e-05,1.8,0.22
1.224e-05,1.8,0.18
1.226e-05,2,0.18
1.228e-05,1.8,0.18
1.230e-05,1.8,0.22
1.232e-05,1.8,0.1
1.234e-05,1.8,0.18
1.236e-05,1.8,0.14
1.238e-05,2,0.18
1.240e-05,2,0.18
1.242e-05,1.6,0.18
1.244e-05,2,0.22
1.246e-05,1.8,0.18
1.248e-05,1.4,0.18
1.250e-05,1.8,0.22
1.252e-05,1.8,0.18
1.254e-05,1.4,0.22
1.256e-05,1.8,0.26
1.258e-05,1.8,0.26
1.260e-05,2,0.26
1.262e-05,2.2,0.14
1.264e-05,2,0.22
1.266e-05,2,0.34
1.268e-05,1.6,0.18
1.270e-05,2,0.18
1.272e-05,2,0.14
1.274e-05,1.6,0.14
1.276e-05,2,0.14
1.278e-05,2,0.18
1.280e-05,1.8,0.18
1.282e-05,2,0.26
1.284e-05,2,0.18
1.286e-05,1.8,0.14
1.288e-05,1.8,0.1
1.290e-05,1.8,0.22
1.292e-05,1.8,0.22
1.294e-05,2,0.18
1.296e-05,1.6,0.14
1.298e-05,2,0.18
1.300e-05,1.8,0.22
1.302e-05,1.6,0.14
1.304e-05,2,0.22
1.306e-05,1.6,0.18
1.308e-05,2,0.18
1.310e-05,1.8,0.18
1.312e-05,1.8,0.22
1.314e-05,1.8,0.26
1.316e-05,2,0.14
1.318e-05,1.8,0.26
1.320e-05,1.6,0.18
1.322e-05,1.8,0.22
1.324e-05,1.8,0.26
1.326e-05,1.6,0.14
1.328e-05,1.8,0.22
1.330e-05,2,0.14
1.332e-05,1.8,0.18
1.334e-05,1.8,0.14
1.336e-05,1.8,0.22
1.338e-05,1.6,0.14
1.340e-05,1.8,0.22
1.342e-05,2,0.22
1.344e-05,1.6,0.14
1.346e-05,1.6,0.18
1.348e-05,1.8,0.14
1.350e-05,1.8,0.18
1.352e-05,1.6,0.18
1.354e-05,1.6,0.14
1.356e-05,1.8,0.14
1.358e-05,1.8,0.18
1.360e-05,2,0.1
1.362e-05,2,0.18
1.364e-05,1.8,0.14
1.366e-05,2,0.14
1.368e-05,1.6,0.18
1.370e-05,1.8,0.1
1.372e-05,1.4,0.22
1.374e-05,1.6,0.18
1.376e-05,1.6,0.18
1.378e-05,2,0.18
1.380e-05,1.6,0.14
1.382e-05,2,0.18
1.384e-05,2,0.22
1.386e-05,1.8,0.18
1.388e-05,1.6,0.18
1.390e-05,1.8,0.18
1.392e-05,1.6,0.18
1.394e-05,1.8,0.14
1.396e-05,2,0.14
1.398e-05,1.8,0.14
1.400e-05,1.6,0.14
1.402e-05,1.8,0.22
1.404e-05,1.8,0.18
1.406e-05,1.8,0.14
1.408e-05,1.4,0.14
1.410e-05,1.6,0.18
1.412e-05,1.8,0.22
1.414e-05,1.6,0.1
1.416e-05,1.6,0.22
1.418e-05,2,0.14
1.420e-05,2,0.18
1.422e-05,1.8,0.22
1.424e-05,1.8,0.18
1.426e-05,1.8,0.26
1.428e-05,1.6,0.22
1.430e-05,1.6,0.14
1.432e-05,1.8,0.1
1.434e-05,1.6,0.22
1.436e-05,1.8,0.1
1.438e-05,1.8,0.18
1.440e-05,1.8,0.22
1.442e-05,1.6,0.14
1.444e-05,1.6,0.18
1.446e-05,1.6,0.14
1.448e-05,1.6,0.14
1.450e-05,1.8,0.18
1.452e-05,1.4,0.1
1.454e-05,1.8,0.26
1.456e-05,1.6,0.18
1.458e-05,2,0.14
1.460e-05,1.8,0.1
1.462e-05,1.8,0.26
1.464e-05,1.6,0.14
1.466e-05,1.8,0.1
1.468e-05,1.8,0.22
1.470e-05,1.6,0.18
1.472e-05,1.8,0.18
1.474e-05,1.8,0.14
1.476e-05,1.8,0.18
1.478e-05,1.8,0.14
1.480e-05,1.8,0.1
1.482e-05,1.4,0.14
1.484e-05,2,0.18
1.486e-05,1.8,0.22
1.488e-05,2,0.14
1.490e-05,2,0.1
1.492e-05,1.8,0.1
1.494e-05,1.8,0.18
1.496e-05,1.8,0.18
1.498e-05,2,0.1
1.500e-05,1.6,0.22
1.502e-05,1.8,0.22
1.504e-05,1.8,0.18
1.506e-05,1.8,0.14
1.508e-05,1.4,0.14
1.510e-05,1.8,0.18
1.512e-05,2,0.18
1.514e-05,1.8,0.22
1.516e-05,2,0.1
1.518e-05,1.8,0.18
1.520e-05,2,0.1
1.522e-05,2,0.14
1.524e-05,2,0.22
1.526e-05,1.6,0.14
1.528e-05,2,0.18
1.530e-05,1.6,0.14
1.532e-05,1.6,0.18
1.534e-05,1.6,0.18
1.536e-05,1.8,0.14
1.538e-05,1.8,0.14
1.540e-05,2,0.26
1.542e-05,2,0.18
1.544e-05,2,0.18
1.546e-05,1.8,0.14
1.548e-05,1.8,0.18
1.550e-05,1.8,0.14
1.552e-05,2,0.18
1.554e-05,1.8,0.14
1.556e-05,2.2,0.1
1.558e-05,1.6,0.18
1.560e-05,1.6,0.22
1.562e-05,2.2,0.14
1.564e-05,2,0.14
1.566e-05,1.8,0.18
1.568e-05,2,0.26
1.570e-05,1.6,0.18
1.572e-05,1.8,0.14
1.574e-05,1.8,0.18
1.576e-05,2,0.14
1.578e-05,1.6,0.18
1.580e-05,2,0.18
1.582e-05,1.8,0.1
1.584e-05,1.6,0.14
1.586e-05,1.6,0.1
1.588e-05,1.6,0.18
1.590e-05,1.4,0.18
1.592e-05,2,0.14
1.594e-05,1.8,0.18
1.596e-05,2,0.14
1.598e-05,2,0.14
1.600e-05,1.8,0.1
1.602e-05,1.8,0.14
1.604e-05,2,0.1
1.606e-05,1.8,0.18
1.608e-05,1.8,0.14
1.610e-05,1.8,0.18
1.612e-05,1.6,0.18
1.614e-05,1.6,0.06
1.616e-05,2,0.22
1.618e-05,1.6,0.06
1.620e-05,2,0.14
1.622e-05,1.6,0.1
1.624e-05,1.6,0.1
1.626e-05,1.4,0.14
1.628e-05,1.6,0.14
1.630e-05,1.8,0.14
1.632e-05,1.8,0.1
1.634e-05,1.8,0.18
1.636e-05,1.8,0.1
1.638e-05,2,0.14
1.640e-05,2,0.1
1.642e-05,1.8,0.18
1.644e-05,1.8,0.22
1.646e-05,1.8,0.14
1.648e-05,2,0.18
1.650e-05,2,0.1
1.652e-05,1.6,0.14
1.654e-05,2,0.1
1.656e-05,1.4,0.1
1.658e-05,1.8,0.1
1.660e-05,1.6,0.14
1.662e-05,2,0.14
1.664e-05,2,0.22
1.666e-05,2,0.14
1.668e-05,1.6,0.14
1.670e-05,1.8,0.14
1.672e-05,1.8,0.26
1.674e-05,1.8,0.1
1.676e-05,1.8,0.22
1.678e-05,2,0.18
1.680e-05,2,0.1
1.682e-05,2,0.1
1.684e-05,1.8,0.18
1.686e-05,1.6,0.14
1.688e-05,1.8,0.1
1.690e-05,2,0.18
1.692e-05,1.6,0.18
1.694e-05,2,0.18
1.696e-05,1.8,0.18
1.698e-05,2,0.1
1.700e-05,1.8,0.18
1.702e-05,1.6,0.22
1.704e-05,2,0.14
1.706e-05,2,0.18
1.708e-05,1.8,0.22
1.710e-05,1.8,0.22
1.712e-05,1.8,0.18
1.714e-05,2,0.22
1.716e-05,1.6,0.14
1.718e-05,1.8,0.22
1.720e-05,2,0.14
1.722e-05,2,0.18
1.724e-05,2,0.18
1.726e-05,1.6,0.18
1.728e-05,2,0.14
1.730e-05,1.8,0.3
1.732e-05,1.6,0.1
1.734e-05,1.8,0.26
1.736e-05,2,0.14

