Archivos Guadalupe/Data/1410-32-X4/24-10/D-24-10/tek0023ALL.csv

Model,DPO3034
Firmware Version,2.16

Point Format,Y,
Horizontal Units,S,
Horizontal Scale,1e-06,
Sample Interval,1e-08,
Record Length,1000,
Gating,0.0% to 100.0%,0.0% to 100.0%
Probe Attenuation,1,1
Vertical Units,V,V
Vertical Offset,0,0
Vertical Scale,5,2
Label,,
TIME,CH1,CH2
-2.750e-06,0.2,-0.04
-2.740e-06,0,-0.04
-2.730e-06,-0.2,0.12
-2.720e-06,0.2,0.12
-2.710e-06,0.2,-0.04
-2.700e-06,0,0.04
-2.690e-06,-0.2,0.04
-2.680e-06,-0.2,0.04
-2.670e-06,0,0.12
-2.660e-06,0.2,0.12
-2.650e-06,0.4,-0.12
-2.640e-06,0,0.04
-2.630e-06,0,-0.04
-2.620e-06,0.2,0.04
-2.610e-06,0,-0.04
-2.600e-06,0.2,-0.04
-2.590e-06,0.2,-0.04
-2.580e-06,0.2,0.04
-2.570e-06,0,-0.12
-2.560e-06,0,-0.04
-2.550e-06,0,-0.28
-2.540e-06,0.2,0.04
-2.530e-06,0,-0.04
-2.520e-06,0,-0.04
-2.510e-06,0.4,0.04
-2.500e-06,0.2,0.04
-2.490e-06,0,-0.04
-2.480e-06,0.4,-0.12
-2.470e-06,-0.2,0.04
-2.460e-06,0.2,0.04
-2.450e-06,0,-0.04
-2.440e-06,0,-0.12
-2.430e-06,0.2,-0.04
-2.420e-06,0.4,-0.04
-2.410e-06,0,-0.04
-2.400e-06,-0.2,0.04
-2.390e-06,0,0.04
-2.380e-06,0,-0.04
-2.370e-06,0.4,0.04
-2.360e-06,0.4,-0.04
-2.350e-06,-0.2,-0.04
-2.340e-06,0.6,0.04
-2.330e-06,0,-0.12
-2.320e-06,-0.2,0.12
-2.310e-06,0,0.04
-2.300e-06,0.4,0.04
-2.290e-06,-0.4,0.04
-2.280e-06,0,-0.04
-2.270e-06,-0.4,-0.12
-2.260e-06,0.2,-0.04
-2.250e-06,0,-0.12
-2.240e-06,0,-0.04
-2.230e-06,0,0.04
-2.220e-06,0,0.04
-2.210e-06,0.4,-0.04
-2.200e-06,-0.2,-0.04
-2.190e-06,0.4,-0.04
-2.180e-06,0.6,0.04
-2.170e-06,0,-0.04
-2.160e-06,0.2,-0.04
-2.150e-06,0,0.04
-2.140e-06,0,0.04
-2.130e-06,0.4,-0.04
-2.120e-06,0.4,0.04
-2.110e-06,0.4,0.12
-2.100e-06,0.2,-0.04
-2.090e-06,0.6,0.12
-2.080e-06,0.4,0.04
-2.070e-06,0.2,-0.04
-2.060e-06,0.4,-0.04
-2.050e-06,0.4,0.04
-2.040e-06,0.4,0.12
-2.030e-06,0.6,0.12
-2.020e-06,0.4,0.12
-2.010e-06,0.4,0.04
-2.000e-06,0.4,0.04
-1.990e-06,0.2,0.04
-1.980e-06,0.6,0.12
-1.970e-06,0.2,0.12
-1.960e-06,0.6,0.28
-1.950e-06,0.4,0.12
-1.940e-06,0.6,0.12
-1.930e-06,0,0.12
-1.920e-06,0.4,0.04
-1.910e-06,0.2,0.04
-1.900e-06,0.6,0.12
-1.890e-06,0.4,0.04
-1.880e-06,0.4,0.2
-1.870e-06,0.4,0.04
-1.860e-06,0.6,0.2
-1.850e-06,0.6,0.28
-1.840e-06,0.4,0.12
-1.830e-06,0.4,0.04
-1.820e-06,0.4,0.28
-1.810e-06,0.6,0.12
-1.800e-06,0.6,0.28
-1.790e-06,0.4,0.2
-1.780e-06,0.6,0.28
-1.770e-06,0.4,0.28
-1.760e-06,0.6,0.2
-1.750e-06,0.6,0.28
-1.740e-06,0.6,0.2
-1.730e-06,0.8,0.2
-1.720e-06,0.2,0.04
-1.710e-06,0.6,0.2
-1.700e-06,0.6,0.12
-1.690e-06,0.8,0.28
-1.680e-06,0.8,0.28
-1.670e-06,0.6,0.28
-1.660e-06,0.8,0.28
-1.650e-06,1,0.44
-1.640e-06,1.2,0.28
-1.630e-06,1,0.28
-1.620e-06,1,0.44
-1.610e-06,1.4,0.36
-1.600e-06,1,0.44
-1.590e-06,1.4,0.2
-1.580e-06,1.6,0.36
-1.570e-06,1,0.44
-1.560e-06,1.4,0.36
-1.550e-06,1.4,0.44
-1.540e-06,1,0.44
-1.530e-06,1.2,0.52
-1.520e-06,1.6,0.44
-1.510e-06,1,0.52
-1.500e-06,1.6,0.52
-1.490e-06,1.6,0.44
-1.480e-06,1.8,0.6
-1.470e-06,1.2,0.6
-1.460e-06,1.8,0.6
-1.450e-06,1.8,0.68
-1.440e-06,1.8,0.6
-1.430e-06,1.6,0.68
-1.420e-06,1.8,0.6
-1.410e-06,1.8,0.6
-1.400e-06,1.8,0.68
-1.390e-06,1.6,0.76
-1.380e-06,1.8,0.6
-1.370e-06,1.8,0.76
-1.360e-06,2.2,0.76
-1.350e-06,2,0.76
-1.340e-06,2,0.76
-1.330e-06,2.2,0.76
-1.320e-06,2,0.68
-1.310e-06,2,0.76
-1.300e-06,2.2,0.76
-1.290e-06,2.4,0.76
-1.280e-06,2.4,0.76
-1.270e-06,2.2,0.76
-1.260e-06,2,0.92
-1.250e-06,2.4,0.76
-1.240e-06,2.4,0.84
-1.230e-06,2,0.76
-1.220e-06,2.2,0.84
-1.210e-06,2.2,0.76
-1.200e-06,2.4,0.68
-1.190e-06,2.2,0.68
-1.180e-06,2.2,0.76
-1.170e-06,2.2,0.76
-1.160e-06,2.2,0.92
-1.150e-06,2.2,0.84
-1.140e-06,2.4,0.84
-1.130e-06,2.4,0.76
-1.120e-06,2.4,0.76
-1.110e-06,2.2,0.76
-1.100e-06,2.6,1
-1.090e-06,2.2,0.76
-1.080e-06,2.4,0.84
-1.070e-06,2.6,0.76
-1.060e-06,2.4,0.76
-1.050e-06,2.6,0.76
-1.040e-06,2.6,0.76
-1.030e-06,2.6,0.76
-1.020e-06,2.2,0.76
-1.010e-06,2.2,0.84
-1.000e-06,2.4,0.76
-9.900e-07,2.6,0.92
-9.800e-07,2.2,0.68
-9.700e-07,2.6,0.84
-9.600e-07,2.4,0.92
-9.500e-07,2.6,0.84
-9.400e-07,2.2,0.84
-9.300e-07,2.4,0.76
-9.200e-07,2.2,0.76
-9.100e-07,2.4,0.76
-9.000e-07,2.2,0.76
-8.900e-07,2.4,0.76
-8.800e-07,2,0.76
-8.700e-07,2.4,0.84
-8.600e-07,2.4,0.76
-8.500e-07,2.2,0.84
-8.400e-07,2.2,0.92
-8.300e-07,2.2,0.92
-8.200e-07,2.6,0.76
-8.100e-07,2.2,0.76
-8.000e-07,2.6,0.76
-7.900e-07,2.2,0.84
-7.800e-07,2.6,0.76
-7.700e-07,2.4,0.76
-7.600e-07,2.2,0.84
-7.500e-07,2.6,0.76
-7.400e-07,2.6,0.76
-7.300e-07,2.6,0.76
-7.200e-07,2.6,0.84
-7.100e-07,2.4,0.76
-7.000e-07,2.4,0.76
-6.900e-07,2.2,0.84
-6.800e-07,2.4,0.76
-6.700e-07,2.4,0.76
-6.600e-07,2.4,0.76
-6.500e-07,2.6,0.84
-6.400e-07,2.4,0.76
-6.300e-07,2.8,0.84
-6.200e-07,2.4,0.76
-6.100e-07,2.2,0.84
-6.000e-07,2.6,0.84
-5.900e-07,2.6,0.76
-5.800e-07,2,0.76
-5.700e-07,2.4,0.68
-5.600e-07,2.6,0.76
-5.500e-07,1.8,0.68
-5.400e-07,2.6,0.68
-5.300e-07,2.4,0.68
-5.200e-07,2.2,0.76
-5.100e-07,2.4,0.6
-5.000e-07,2.2,0.68
-4.900e-07,2,0.84
-4.800e-07,2.8,0.68
-4.700e-07,2.6,0.76
-4.600e-07,2.4,0.84
-4.500e-07,2.2,0.76
-4.400e-07,2.6,0.76
-4.300e-07,2.4,0.76
-4.200e-07,2.2,0.6
-4.100e-07,2.4,0.68
-4.000e-07,2.4,0.68
-3.900e-07,2.2,0.76
-3.800e-07,2.4,0.84
-3.700e-07,2,0.68
-3.600e-07,2.4,0.6
-3.500e-07,2.4,0.76
-3.400e-07,2.6,0.6
-3.300e-07,2.4,0.68
-3.200e-07,2.6,0.76
-3.100e-07,2.4,0.76
-3.000e-07,2.8,0.76
-2.900e-07,3,0.92
-2.800e-07,3,0.84
-2.700e-07,2.8,0.84
-2.600e-07,3,1
-2.500e-07,3.2,1
-2.400e-07,3.4,1.08
-2.300e-07,3.6,1.24
-2.200e-07,4.2,1.08
-2.100e-07,4,1.16
-2.000e-07,4.2,1.24
-1.900e-07,4.6,1.32
-1.800e-07,4.6,1.48
-1.700e-07,4.6,1.56
-1.600e-07,5,1.64
-1.500e-07,5.2,1.8
-1.400e-07,5.4,1.88
-1.300e-07,5.4,1.96
-1.200e-07,5.8,2.12
-1.100e-07,6,2.04
-1.000e-07,6.4,2.2
-9.000e-08,6.4,2.2
-8.000e-08,6.6,2.28
-7.000e-08,7,2.44
-6.000e-08,7,2.52
-5.000e-08,7.6,2.6
-4.000e-08,8,2.6
-3.000e-08,7.8,2.68
-2.000e-08,8.2,2.76
-1.000e-08,8,2.76
-1.625e-20,8.4,3
1.000e-08,8.6,3.08
2.000e-08,8.4,3.24
3.000e-08,9,3.32
4.000e-08,9.2,3.24
5.000e-08,9.4,3.4
6.000e-08,9.6,3.32
7.000e-08,9.8,3.4
8.000e-08,10.2,3.64
9.000e-08,10,3.64
1.000e-07,10.8,3.72
1.100e-07,10.8,3.72
1.200e-07,11.2,3.72
1.300e-07,11,3.88
1.400e-07,11.8,3.96
1.500e-07,11.6,4.04
1.600e-07,12,4.04
1.700e-07,12.2,4.2
1.800e-07,12.4,4.44
1.900e-07,12.4,4.44
2.000e-07,12.8,4.52
2.100e-07,13,4.52
2.200e-07,13.2,4.6
2.300e-07,13.4,4.84
2.400e-07,13.4,4.92
2.500e-07,13.8,4.84
2.600e-07,14.4,5.08
2.700e-07,14.2,5.08
2.800e-07,14.4,5.16
2.900e-07,14.6,5.32
3.000e-07,14.8,5.4
3.100e-07,15,5.48
3.200e-07,15.4,5.48
3.300e-07,15.2,5.72
3.400e-07,15.8,5.56
3.500e-07,15.6,5.72
3.600e-07,15.8,5.88
3.700e-07,16.2,5.96
3.800e-07,16.4,6.04
3.900e-07,17.2,6.12
4.000e-07,17,6.12
4.100e-07,17,6.28
4.200e-07,17.4,6.36
4.300e-07,17.8,6.44
4.400e-07,18.2,6.6
4.500e-07,18.4,6.68
4.600e-07,18.6,6.76
4.700e-07,18.4,7
4.800e-07,19,6.92
4.900e-07,19,7.24
5.000e-07,19.2,7.24
5.100e-07,19.8,7.4
5.200e-07,19.6,7.32
5.300e-07,19.8,7.48
5.400e-07,20.4,7.4
5.500e-07,20.4,7.64
5.600e-07,20.4,7.88
5.700e-07,20.8,7.88
5.800e-07,21.2,8.04
5.900e-07,21.2,7.96
6.000e-07,21.6,8.28
6.100e-07,21.8,8.28
6.200e-07,22,8.28
6.300e-07,22.2,8.36
6.400e-07,22.4,8.6
6.500e-07,22.2,8.52
6.600e-07,22.6,8.6
6.700e-07,22.4,8.68
6.800e-07,22.8,8.76
6.900e-07,23.2,8.76
7.000e-07,23,8.76
7.100e-07,22.8,8.84
7.200e-07,23.2,8.92
7.300e-07,23.4,8.92
7.400e-07,23.2,9
7.500e-07,23.2,9.08
7.600e-07,23.4,9.08
7.700e-07,23.2,9.16
7.800e-07,23.6,9.24
7.900e-07,23,9.08
8.000e-07,23.4,9.4
8.100e-07,23,9.32
8.200e-07,23.8,9.32
8.300e-07,23.4,9.32
8.400e-07,23.8,9.48
8.500e-07,23.6,9.32
8.600e-07,23.4,9.4
8.700e-07,23.2,9.4
8.800e-07,23.8,9.56
8.900e-07,23.8,9.48
9.000e-07,23.6,9.56
9.100e-07,23.6,9.56
9.200e-07,23.6,9.64
9.300e-07,23.4,9.64
9.400e-07,23.8,9.4
9.500e-07,23.6,9.56
9.600e-07,23.6,9.64
9.700e-07,23.8,9.72
9.800e-07,23.6,9.48
9.900e-07,23.6,9.64
1.000e-06,23.8,9.64
1.010e-06,23.4,9.64
1.020e-06,23.6,9.72
1.030e-06,23.6,9.72
1.040e-06,23.6,9.8
1.050e-06,23.6,9.8
1.060e-06,23.8,9.8
1.070e-06,23.6,9.88
1.080e-06,24,9.8
1.090e-06,24,9.88
1.100e-06,23.6,9.88
1.110e-06,23.6,9.96
1.120e-06,23.6,9.96
1.130e-06,23.8,9.96
1.140e-06,23.4,9.88
1.150e-06,23.8,9.96
1.160e-06,23.4,9.88
1.170e-06,23.8,9.96
1.180e-06,23.8,9.96
1.190e-06,23.6,10.04
1.200e-06,23.8,9.96
1.210e-06,23.8,10.04
1.220e-06,23.8,9.96
1.230e-06,23.8,10.12
1.240e-06,24,10.2
1.250e-06,23.4,10.12
1.260e-06,23.8,10.04
1.270e-06,23.8,10.2
1.280e-06,23.8,10.12
1.290e-06,23.6,10.12
1.300e-06,24,10.2
1.310e-06,23.8,10.2
1.320e-06,23.8,10.12
1.330e-06,23.6,10.04
1.340e-06,24,10.12
1.350e-06,24,10.28
1.360e-06,23.8,10.2
1.370e-06,23.4,10.2
1.380e-06,23.6,10.2
1.390e-06,23.6,10.04
1.400e-06,24,10.44
1.410e-06,23.8,10.28
1.420e-06,24,10.36
1.430e-06,23.6,10.36
1.440e-06,23.6,10.36
1.450e-06,24,10.28
1.460e-06,23.6,10.28
1.470e-06,23.6,10.36
1.480e-06,23.8,10.36
1.490e-06,23.6,10.36
1.500e-06,24.2,10.44
1.510e-06,23.8,10.44
1.520e-06,23.8,10.36
1.530e-06,24,10.44
1.540e-06,23.6,10.44
1.550e-06,23.4,10.36
1.560e-06,24,10.44
1.570e-06,23.6,10.44
1.580e-06,23.4,10.44
1.590e-06,23.8,10.52
1.600e-06,23.8,10.52
1.610e-06,23.8,10.6
1.620e-06,23.8,10.52
1.630e-06,23.8,10.6
1.640e-06,23.8,10.6
1.650e-06,23.8,10.52
1.660e-06,24,10.52
1.670e-06,23.6,10.6
1.680e-06,23.4,10.6
1.690e-06,24,10.44
1.700e-06,23.6,10.6
1.710e-06,23.4,10.52
1.720e-06,23.4,10.36
1.730e-06,23.2,10.44
1.740e-06,23.4,10.44
1.750e-06,23.8,10.52
1.760e-06,23,10.36
1.770e-06,22.8,10.36
1.780e-06,23,10.28
1.790e-06,22.4,10.36
1.800e-06,22.8,10.2
1.810e-06,22,10.2
1.820e-06,22.4,10.28
1.830e-06,22.2,10.04
1.840e-06,21.8,10.04
1.850e-06,21.8,9.88
1.860e-06,21.6,9.96
1.870e-06,21.4,9.72
1.880e-06,21.4,9.8
1.890e-06,21.2,9.56
1.900e-06,21,9.48
1.910e-06,20.4,9.48
1.920e-06,20.4,9.48
1.930e-06,20.4,9.4
1.940e-06,20.2,9.16
1.950e-06,19.8,9.08
1.960e-06,19.8,9.08
1.970e-06,19.2,9
1.980e-06,19.2,8.76
1.990e-06,18.6,8.76
2.000e-06,18.4,8.76
2.010e-06,18.2,8.52
2.020e-06,18,8.44
2.030e-06,17.8,8.44
2.040e-06,17.8,8.2
2.050e-06,17.2,8.28
2.060e-06,16.8,8.04
2.070e-06,17,7.96
2.080e-06,16.6,7.88
2.090e-06,16,7.72
2.100e-06,16.2,7.72
2.110e-06,16,7.64
2.120e-06,15.6,7.48
2.130e-06,15.2,7.16
2.140e-06,15.2,7.24
2.150e-06,14.6,7.16
2.160e-06,14.2,6.92
2.170e-06,14.4,7
2.180e-06,13.8,6.76
2.190e-06,14.2,6.84
2.200e-06,13.6,6.68
2.210e-06,13.4,6.44
2.220e-06,13.2,6.44
2.230e-06,13,6.44
2.240e-06,12.6,6.2
2.250e-06,12.4,6.12
2.260e-06,12,6.12
2.270e-06,12,5.96
2.280e-06,11.8,5.96
2.290e-06,11.6,5.8
2.300e-06,11.2,5.72
2.310e-06,11,5.64
2.320e-06,11.2,5.56
2.330e-06,10.6,5.4
2.340e-06,10.4,5.24
2.350e-06,10.6,5.4
2.360e-06,9.8,5.24
2.370e-06,10,5.16
2.380e-06,9.6,5.08
2.390e-06,9.2,5.08
2.400e-06,9.4,4.84
2.410e-06,9,4.84
2.420e-06,9,4.76
2.430e-06,8.8,4.52
2.440e-06,8.8,4.52
2.450e-06,8.2,4.44
2.460e-06,8,4.36
2.470e-06,7.6,4.2
2.480e-06,7.8,4.12
2.490e-06,7.6,4.12
2.500e-06,7.4,4.04
2.510e-06,7,3.88
2.520e-06,6.8,3.96
2.530e-06,7,3.72
2.540e-06,6.4,3.72
2.550e-06,6.2,3.64
2.560e-06,6.2,3.48
2.570e-06,6,3.48
2.580e-06,5.8,3.32
2.590e-06,5.6,3.32
2.600e-06,5.2,3.16
2.610e-06,5,3.16
2.620e-06,5,3.08
2.630e-06,4.6,3
2.640e-06,4.4,2.92
2.650e-06,4.4,2.76
2.660e-06,4.2,2.84
2.670e-06,4.2,2.68
2.680e-06,3.8,2.84
2.690e-06,3.8,2.6
2.700e-06,3.6,2.36
2.710e-06,3.6,2.36
2.720e-06,3.4,2.36
2.730e-06,3.4,2.44
2.740e-06,3.2,2.28
2.750e-06,3,2.12
2.760e-06,2.8,2.2
2.770e-06,2.8,1.96
2.780e-06,2.4,2.12
2.790e-06,2.6,1.96
2.800e-06,3,1.96
2.810e-06,2.2,1.88
2.820e-06,2.8,1.8
2.830e-06,2.2,1.88
2.840e-06,2.2,1.96
2.850e-06,2,1.88
2.860e-06,2.4,1.8
2.870e-06,2.2,1.88
2.880e-06,2,1.88
2.890e-06,2.2,1.8
2.900e-06,1.8,1.8
2.910e-06,2,1.8
2.920e-06,1.8,1.8
2.930e-06,1.8,1.8
2.940e-06,1.6,1.8
2.950e-06,1.8,1.64
2.960e-06,2,1.64
2.970e-06,1.6,1.56
2.980e-06,1.6,1.64
2.990e-06,1.6,1.64
3.000e-06,2,1.72
3.010e-06,2,1.64
3.020e-06,1.8,1.8
3.030e-06,1.8,1.56
3.040e-06,2,1.56
3.050e-06,1.8,1.64
3.060e-06,2.2,1.56
3.070e-06,1.8,1.64
3.080e-06,1.6,1.72
3.090e-06,1.8,1.64
3.100e-06,2,1.56
3.110e-06,2,1.64
3.120e-06,2,1.8
3.130e-06,2,1.8
3.140e-06,2,1.72
3.150e-06,2.2,1.88
3.160e-06,2,1.64
3.170e-06,2,1.64
3.180e-06,2,1.72
3.190e-06,2,1.48
3.200e-06,2.2,1.64
3.210e-06,1.8,1.56
3.220e-06,2.4,1.64
3.230e-06,2,1.64
3.240e-06,2,1.64
3.250e-06,2,1.64
3.260e-06,1.8,1.64
3.270e-06,2,1.88
3.280e-06,2.4,1.8
3.290e-06,2,1.64
3.300e-06,2.2,1.72
3.310e-06,2,1.72
3.320e-06,2.2,1.64
3.330e-06,2.2,1.8
3.340e-06,2,1.64
3.350e-06,2.4,1.88
3.360e-06,2.4,1.64
3.370e-06,2.2,1.64
3.380e-06,2.2,1.64
3.390e-06,2,1.8
3.400e-06,2.2,1.8
3.410e-06,2.4,1.88
3.420e-06,2.6,1.72
3.430e-06,2.6,1.64
3.440e-06,2.2,1.72
3.450e-06,2.2,1.8
3.460e-06,2.6,1.64
3.470e-06,2.2,1.8
3.480e-06,2.2,1.56
3.490e-06,2.2,1.72
3.500e-06,2.4,1.64
3.510e-06,2.2,1.72
3.520e-06,2.2,1.8
3.530e-06,2.4,1.8
3.540e-06,2.4,1.72
3.550e-06,2.2,1.72
3.560e-06,2.4,1.64
3.570e-06,2.6,1.72
3.580e-06,2.6,1.64
3.590e-06,2.2,1.72
3.600e-06,2.4,1.64
3.610e-06,2.4,1.72
3.620e-06,2.2,1.72
3.630e-06,2.6,1.64
3.640e-06,2.6,1.72
3.650e-06,2.2,1.72
3.660e-06,2.4,1.72
3.670e-06,2.6,1.8
3.680e-06,2.4,1.72
3.690e-06,2.4,1.56
3.700e-06,2.6,1.72
3.710e-06,2.6,1.72
3.720e-06,2.6,1.72
3.730e-06,2.6,1.64
3.740e-06,2.2,1.72
3.750e-06,2.6,1.72
3.760e-06,2.6,1.64
3.770e-06,2.6,1.64
3.780e-06,2.6,1.64
3.790e-06,2.4,1.72
3.800e-06,2.8,1.72
3.810e-06,2.6,1.72
3.820e-06,2.6,1.8
3.830e-06,2.4,1.64
3.840e-06,2.4,1.56
3.850e-06,2.2,1.56
3.860e-06,2.4,1.56
3.870e-06,2.2,1.48
3.880e-06,2.6,1.64
3.890e-06,2.4,1.56
3.900e-06,2.6,1.64
3.910e-06,2.4,1.56
3.920e-06,3,1.56
3.930e-06,2.6,1.56
3.940e-06,2.8,1.64
3.950e-06,2.2,1.48
3.960e-06,2.4,1.64
3.970e-06,2.4,1.56
3.980e-06,2.6,1.72
3.990e-06,2.2,1.56
4.000e-06,2.6,1.64
4.010e-06,2.4,1.72
4.020e-06,2.6,1.56
4.030e-06,2.6,1.64
4.040e-06,2.6,1.64
4.050e-06,2.6,1.48
4.060e-06,2.6,1.64
4.070e-06,2.6,1.56
4.080e-06,2.6,1.64
4.090e-06,2.6,1.56
4.100e-06,2.4,1.64
4.110e-06,2.6,1.56
4.120e-06,2.4,1.72
4.130e-06,2.4,1.48
4.140e-06,2.4,1.64
4.150e-06,2.6,1.48
4.160e-06,2.4,1.48
4.170e-06,2.6,1.48
4.180e-06,2.6,1.48
4.190e-06,2.4,1.56
4.200e-06,2.4,1.48
4.210e-06,2.4,1.48
4.220e-06,2,1.48
4.230e-06,2.4,1.56
4.240e-06,2.6,1.4
4.250e-06,2.6,1.56
4.260e-06,2.4,1.48
4.270e-06,2.4,1.48
4.280e-06,2.2,1.4
4.290e-06,2.4,1.4
4.300e-06,2.6,1.48
4.310e-06,2.4,1.48
4.320e-06,2.4,1.48
4.330e-06,2.6,1.48
4.340e-06,2.6,1.56
4.350e-06,2.4,1.4
4.360e-06,2.2,1.56
4.370e-06,2.6,1.48
4.380e-06,2.8,1.4
4.390e-06,2.4,1.4
4.400e-06,2.4,1.56
4.410e-06,2.4,1.56
4.420e-06,2.6,1.4
4.430e-06,2.4,1.48
4.440e-06,2.6,1.4
4.450e-06,2.8,1.4
4.460e-06,2.6,1.64
4.470e-06,2.6,1.4
4.480e-06,2.6,1.48
4.490e-06,2.2,1.56
4.500e-06,2.6,1.56
4.510e-06,2.4,1.48
4.520e-06,2.2,1.56
4.530e-06,2.4,1.48
4.540e-06,2.6,1.4
4.550e-06,2,1.48
4.560e-06,2.4,1.48
4.570e-06,2.6,1.4
4.580e-06,2.2,1.4
4.590e-06,2.6,1.48
4.600e-06,2.2,1.4
4.610e-06,2.6,1.32
4.620e-06,2.4,1.4
4.630e-06,2.6,1.48
4.640e-06,2.4,1.48
4.650e-06,2.6,1.48
4.660e-06,2.6,1.4
4.670e-06,2.2,1.4
4.680e-06,2.6,1.32
4.690e-06,2.4,1.32
4.700e-06,2.4,1.4
4.710e-06,2.4,1.4
4.720e-06,2.4,1.48
4.730e-06,2,1.24
4.740e-06,2.8,1.4
4.750e-06,2.4,1.4
4.760e-06,2.4,1.16
4.770e-06,2.8,1.4
4.780e-06,2.4,1.4
4.790e-06,2.2,1.48
4.800e-06,2.4,1.32
4.810e-06,2.6,1.4
4.820e-06,2.2,1.24
4.830e-06,2.6,1.32
4.840e-06,2.6,1.4
4.850e-06,2.4,1.32
4.860e-06,2.6,1.4
4.870e-06,2.2,1.4
4.880e-06,2.2,1.32
4.890e-06,2.6,1.32
4.900e-06,2.4,1.32
4.910e-06,2.2,1.32
4.920e-06,2.4,1.4
4.930e-06,2.4,1.24
4.940e-06,2.4,1.32
4.950e-06,2.6,1.4
4.960e-06,2.4,1.24
4.970e-06,2,1.24
4.980e-06,2.4,1.32
4.990e-06,2.6,1.4
5.000e-06,2.4,1.32
5.010e-06,2.4,1.24
5.020e-06,2.4,1.4
5.030e-06,2.6,1.16
5.040e-06,2.4,1.4
5.050e-06,2.4,1.32
5.060e-06,2.6,1.32
5.070e-06,2.6,1.24
5.080e-06,2.6,1.32
5.090e-06,2.4,1.24
5.100e-06,2.6,1.32
5.110e-06,2.4,1.4
5.120e-06,2.4,1.24
5.130e-06,2.6,1.24
5.140e-06,2.8,1.24
5.150e-06,2.6,1.32
5.160e-06,2.6,1.16
5.170e-06,2.6,1.32
5.180e-06,2.2,1.4
5.190e-06,2.4,1.4
5.200e-06,2.8,1.16
5.210e-06,2.2,1.24
5.220e-06,2.6,1.24
5.230e-06,2.4,1.16
5.240e-06,2.4,1.32
5.250e-06,2.6,1.32
5.260e-06,2.6,1.32
5.270e-06,2.2,1.24
5.280e-06,2.8,1.24
5.290e-06,2.6,1.32
5.300e-06,2.2,1.24
5.310e-06,2.4,1.16
5.320e-06,2.4,1.16
5.330e-06,2,1.32
5.340e-06,2.2,1.32
5.350e-06,2.8,1.4
5.360e-06,2.6,1.32
5.370e-06,2.6,1.16
5.380e-06,2.6,1.24
5.390e-06,2.4,1.24
5.400e-06,2.6,1.08
5.410e-06,2.6,1.24
5.420e-06,2.8,1.16
5.430e-06,2.6,1.24
5.440e-06,2.6,1.16
5.450e-06,2.4,1.24
5.460e-06,2.6,1.24
5.470e-06,2.6,1.24
5.480e-06,2.2,1.16
5.490e-06,2.4,1.24
5.500e-06,2.4,1.24
5.510e-06,2.2,1.16
5.520e-06,2.6,1.08
5.530e-06,2.4,1.16
5.540e-06,2.4,1.24
5.550e-06,2.8,1.08
5.560e-06,2.6,1.08
5.570e-06,2.6,1.24
5.580e-06,2.6,1.24
5.590e-06,2.6,1.08
5.600e-06,2.2,1.24
5.610e-06,2.2,1.16
5.620e-06,2.4,1.16
5.630e-06,2.4,1.08
5.640e-06,2.6,1.24
5.650e-06,2.2,1.16
5.660e-06,2.4,1.24
5.670e-06,2.4,1.08
5.680e-06,2.6,1.08
5.690e-06,2.6,1.08
5.700e-06,2.6,1.24
5.710e-06,2.6,1.08
5.720e-06,2.2,1.08
5.730e-06,2.2,1.16
5.740e-06,2.6,1.08
5.750e-06,2.6,1.16
5.760e-06,2.4,1.16
5.770e-06,2.4,1.08
5.780e-06,2.6,1.08
5.790e-06,2.6,1.16
5.800e-06,2.6,1
5.810e-06,2.6,1.08
5.820e-06,2.4,1.16
5.830e-06,2.6,1.16
5.840e-06,2.4,1
5.850e-06,2.2,1.16
5.860e-06,2.4,1
5.870e-06,2.4,1.08
5.880e-06,2.6,1.16
5.890e-06,2.6,1.08
5.900e-06,2.4,1.08
5.910e-06,2.6,1.08
5.920e-06,2.6,1.24
5.930e-06,2.4,1.16
5.940e-06,2.6,1.16
5.950e-06,2.2,1.08
5.960e-06,2.4,1.08
5.970e-06,2.6,1.16
5.980e-06,2.4,1.08
5.990e-06,2.2,1.08
6.000e-06,2.2,1
6.010e-06,2.2,1.16
6.020e-06,2.4,1
6.030e-06,2.6,1
6.040e-06,2.4,1.08
6.050e-06,2.4,1.08
6.060e-06,2.4,1.08
6.070e-06,2.6,1.08
6.080e-06,2.4,1.08
6.090e-06,2.6,1
6.100e-06,2.4,1
6.110e-06,2.4,1
6.120e-06,2.4,1
6.130e-06,2.2,1
6.140e-06,2.2,1
6.150e-06,2.6,1.16
6.160e-06,2.2,1.08
6.170e-06,2.6,1
6.180e-06,2.6,1.08
6.190e-06,2.6,1.16
6.200e-06,2.4,1
6.210e-06,2.4,1
6.220e-06,2.6,1.16
6.230e-06,2.6,1
6.240e-06,2.4,1.08
6.250e-06,2.2,1.08
6.260e-06,2.2,1
6.270e-06,2.4,1
6.280e-06,2.4,1
6.290e-06,2.2,1
6.300e-06,2.4,1
6.310e-06,2.4,1
6.320e-06,2.2,1.08
6.330e-06,2.4,1.08
6.340e-06,2.6,1.08
6.350e-06,2.6,0.92
6.360e-06,2.6,1.08
6.370e-06,2.4,1
6.380e-06,2.2,1
6.390e-06,2.6,1
6.400e-06,2.6,1
6.410e-06,2.6,1.08
6.420e-06,2.6,0.92
6.430e-06,2.6,1
6.440e-06,2.4,1
6.450e-06,2.6,1.08
6.460e-06,2.6,1
6.470e-06,2.2,0.92
6.480e-06,3,1
6.490e-06,2.8,1
6.500e-06,2.6,0.92
6.510e-06,2.4,1
6.520e-06,2.2,1
6.530e-06,2.4,0.92
6.540e-06,2.6,0.84
6.550e-06,2.4,1
6.560e-06,2.4,1.08
6.570e-06,2.6,1
6.580e-06,2.4,0.92
6.590e-06,2.2,1
6.600e-06,2.6,1
6.610e-06,2.4,1
6.620e-06,2.4,0.92
6.630e-06,2.8,0.92
6.640e-06,2.6,0.92
6.650e-06,2.4,1
6.660e-06,2.6,0.92
6.670e-06,2.6,1
6.680e-06,2.2,1
6.690e-06,2.2,1
6.700e-06,2.4,1
6.710e-06,2.6,1
6.720e-06,2.6,1
6.730e-06,2.4,0.92
6.740e-06,2.6,0.84
6.750e-06,2.4,0.92
6.760e-06,2.2,0.84
6.770e-06,2.2,0.92
6.780e-06,2.2,1
6.790e-06,2.6,0.92
6.800e-06,2.6,1
6.810e-06,2.4,0.92
6.820e-06,2.6,0.92
6.830e-06,2.2,1
6.840e-06,2.4,0.84
6.850e-06,2.4,1
6.860e-06,2.4,1
6.870e-06,2.4,0.84
6.880e-06,2.4,0.84
6.890e-06,2.4,1
6.900e-06,2.6,1
6.910e-06,2.4,1
6.920e-06,2.4,0.92
6.930e-06,2.2,0.92
6.940e-06,2.4,0.84
6.950e-06,2.4,1
6.960e-06,2.6,0.92
6.970e-06,2.2,0.84
6.980e-06,2.4,0.84
6.990e-06,2.6,0.92
7.000e-06,2.4,0.92
7.010e-06,2.4,1
7.020e-06,2.6,0.92
7.030e-06,2.4,0.92
7.040e-06,2,1
7.050e-06,2.4,0.84
7.060e-06,2.6,1
7.070e-06,2.6,0.84
7.080e-06,2.2,0.92
7.090e-06,2.6,0.84
7.100e-06,2.4,1.08
7.110e-06,2.6,1
7.120e-06,2.6,0.92
7.130e-06,2.2,1
7.140e-06,2.8,1
7.150e-06,2.6,0.92
7.160e-06,2.4,0.76
7.170e-06,2.4,0.92
7.180e-06,2.6,0.84
7.190e-06,2.4,0.76
7.200e-06,2.4,0.92
7.210e-06,2.6,0.92
7.220e-06,2.4,0.76
7.230e-06,2.4,0.84
7.240e-06,2.4,1

