Archivos Guadalupe/Data/1410-32-X4/24-10/D-24-10/tek0025ALL.csv

Model,DPO3034
Firmware Version,2.16

Point Format,Y,
Horizontal Units,S,
Horizontal Scale,1e-06,
Sample Interval,1e-08,
Record Length,1000,
Gating,0.0% to 100.0%,0.0% to 100.0%
Probe Attenuation,1,1
Vertical Units,V,V
Vertical Offset,0,0
Vertical Scale,5,2
Label,,
TIME,CH1,CH2
-2.750e-06,0.4,-0.04
-2.740e-06,0,0.04
-2.730e-06,0,0.12
-2.720e-06,0,-0.04
-2.710e-06,0,0.12
-2.700e-06,-0.2,-0.04
-2.690e-06,0,0.04
-2.680e-06,0.2,0.04
-2.670e-06,0,0.04
-2.660e-06,0.4,-0.12
-2.650e-06,0,-0.12
-2.640e-06,0.2,-0.12
-2.630e-06,0,-0.04
-2.620e-06,0.2,-0.04
-2.610e-06,0.4,-0.04
-2.600e-06,0.2,-0.04
-2.590e-06,-0.2,0.12
-2.580e-06,0,0.04
-2.570e-06,0,-0.12
-2.560e-06,0,0.04
-2.550e-06,-0.2,-0.04
-2.540e-06,0.2,-0.04
-2.530e-06,0,0.04
-2.520e-06,0.2,0.04
-2.510e-06,0,-0.04
-2.500e-06,0,0.04
-2.490e-06,0,-0.04
-2.480e-06,0.4,-0.12
-2.470e-06,0,-0.12
-2.460e-06,0,0.04
-2.450e-06,0.2,0.04
-2.440e-06,0,-0.04
-2.430e-06,0.4,-0.04
-2.420e-06,0,0.12
-2.410e-06,0.2,0.04
-2.400e-06,0.2,-0.04
-2.390e-06,-0.2,0.04
-2.380e-06,0.2,0.04
-2.370e-06,0.4,0.04
-2.360e-06,0.2,0.04
-2.350e-06,0,-0.04
-2.340e-06,0,-0.04
-2.330e-06,-0.2,0.04
-2.320e-06,0.2,0.04
-2.310e-06,0.4,-0.04
-2.300e-06,0,0.04
-2.290e-06,0,0.12
-2.280e-06,0.6,-0.04
-2.270e-06,-0.2,-0.04
-2.260e-06,0,-0.04
-2.250e-06,0,0.04
-2.240e-06,0.4,-0.04
-2.230e-06,0,0.12
-2.220e-06,-0.2,0.04
-2.210e-06,0,-0.12
-2.200e-06,0.2,-0.04
-2.190e-06,0,0.04
-2.180e-06,0.4,-0.04
-2.170e-06,0.4,0.04
-2.160e-06,0.6,0.04
-2.150e-06,0,0.04
-2.140e-06,0.2,-0.04
-2.130e-06,0.2,-0.04
-2.120e-06,0.2,0.04
-2.110e-06,0.4,0.12
-2.100e-06,0.4,-0.12
-2.090e-06,0.2,0.12
-2.080e-06,0.2,0.04
-2.070e-06,0,0.12
-2.060e-06,0.2,0.04
-2.050e-06,0.2,0.12
-2.040e-06,0.4,0.04
-2.030e-06,0.6,0.04
-2.020e-06,0.4,-0.04
-2.010e-06,0.4,0.04
-2.000e-06,0.4,0.04
-1.990e-06,0.4,0.04
-1.980e-06,0.2,0.04
-1.970e-06,0.6,0.04
-1.960e-06,0.2,-0.04
-1.950e-06,1,0.12
-1.940e-06,0.4,0.12
-1.930e-06,0.4,0.12
-1.920e-06,0.4,-0.04
-1.910e-06,0.6,0.28
-1.900e-06,0.4,0.28
-1.890e-06,0.4,0.12
-1.880e-06,0.6,0.12
-1.870e-06,0.6,0.04
-1.860e-06,0.6,0.2
-1.850e-06,0.4,0.04
-1.840e-06,0.6,0.12
-1.830e-06,0.6,0.2
-1.820e-06,0.4,0.2
-1.810e-06,0.6,0.2
-1.800e-06,0.6,0.12
-1.790e-06,0.4,0.28
-1.780e-06,0.6,0.2
-1.770e-06,0.6,0.12
-1.760e-06,0.6,0.2
-1.750e-06,0.6,0.12
-1.740e-06,0.6,0.12
-1.730e-06,0.8,0.28
-1.720e-06,0.8,0.2
-1.710e-06,0.6,0.2
-1.700e-06,0.8,0.36
-1.690e-06,0.6,0.28
-1.680e-06,0.8,0.36
-1.670e-06,0.4,0.2
-1.660e-06,0.6,0.28
-1.650e-06,0.8,0.2
-1.640e-06,1.2,0.28
-1.630e-06,1,0.28
-1.620e-06,0.8,0.36
-1.610e-06,1,0.36
-1.600e-06,1.2,0.28
-1.590e-06,1.2,0.44
-1.580e-06,0.8,0.44
-1.570e-06,1.2,0.36
-1.560e-06,1.2,0.6
-1.550e-06,1.6,0.52
-1.540e-06,1.4,0.52
-1.530e-06,1.2,0.52
-1.520e-06,1.4,0.6
-1.510e-06,1.2,0.44
-1.500e-06,1.4,0.52
-1.490e-06,1.4,0.52
-1.480e-06,1.4,0.44
-1.470e-06,1.6,0.52
-1.460e-06,2,0.52
-1.450e-06,1.8,0.68
-1.440e-06,2,0.6
-1.430e-06,1.8,0.68
-1.420e-06,1.6,0.76
-1.410e-06,1.8,0.76
-1.400e-06,2,0.68
-1.390e-06,2,0.76
-1.380e-06,1.8,0.76
-1.370e-06,2.2,0.76
-1.360e-06,2.2,0.76
-1.350e-06,2.2,0.76
-1.340e-06,2.2,0.76
-1.330e-06,2,0.84
-1.320e-06,2.4,0.76
-1.310e-06,2,0.92
-1.300e-06,2.4,0.68
-1.290e-06,2.4,0.76
-1.280e-06,2.2,0.76
-1.270e-06,2,0.76
-1.260e-06,2.6,0.84
-1.250e-06,2.4,0.76
-1.240e-06,2.2,0.76
-1.230e-06,2.8,0.92
-1.220e-06,2.6,0.76
-1.210e-06,2.4,1
-1.200e-06,2.4,0.84
-1.190e-06,2.4,0.92
-1.180e-06,2.6,1
-1.170e-06,2.6,1
-1.160e-06,2.6,0.92
-1.150e-06,2.6,0.84
-1.140e-06,2.6,0.92
-1.130e-06,2.4,0.84
-1.120e-06,2.6,1
-1.110e-06,2.6,0.92
-1.100e-06,2.4,0.92
-1.090e-06,2.8,1
-1.080e-06,2.6,1
-1.070e-06,2.6,1.08
-1.060e-06,2.6,1
-1.050e-06,2.6,0.92
-1.040e-06,2.8,0.92
-1.030e-06,2.6,0.84
-1.020e-06,2.8,0.92
-1.010e-06,2.6,0.84
-1.000e-06,2.4,0.92
-9.900e-07,2.4,0.92
-9.800e-07,3,0.84
-9.700e-07,2.6,1
-9.600e-07,2.6,1
-9.500e-07,3,0.84
-9.400e-07,2.6,0.92
-9.300e-07,2.6,0.84
-9.200e-07,2.8,0.92
-9.100e-07,2.6,0.84
-9.000e-07,2.6,1
-8.900e-07,2.6,0.76
-8.800e-07,2.6,1
-8.700e-07,2.4,0.84
-8.600e-07,2.8,0.92
-8.500e-07,2.2,1
-8.400e-07,2.4,1
-8.300e-07,2.8,0.92
-8.200e-07,3.2,1
-8.100e-07,2.6,1
-8.000e-07,2.6,0.84
-7.900e-07,2.8,1
-7.800e-07,2.8,1
-7.700e-07,2.8,0.84
-7.600e-07,2.6,0.92
-7.500e-07,2.4,1
-7.400e-07,2.8,0.92
-7.300e-07,2.4,0.92
-7.200e-07,2.6,0.84
-7.100e-07,2.6,0.84
-7.000e-07,2.2,0.84
-6.900e-07,2.8,1
-6.800e-07,2.6,0.84
-6.700e-07,2.6,0.92
-6.600e-07,2.6,1
-6.500e-07,2.8,1
-6.400e-07,3,0.84
-6.300e-07,2.6,0.76
-6.200e-07,2.8,0.92
-6.100e-07,2.6,0.76
-6.000e-07,2.6,0.76
-5.900e-07,2.6,1
-5.800e-07,2.4,0.76
-5.700e-07,2.6,0.92
-5.600e-07,2.8,0.76
-5.500e-07,2.8,1
-5.400e-07,2.8,0.84
-5.300e-07,2.8,1
-5.200e-07,2.6,0.76
-5.100e-07,2.6,0.84
-5.000e-07,2.4,1
-4.900e-07,2.6,0.84
-4.800e-07,2.4,0.92
-4.700e-07,3,0.84
-4.600e-07,2.4,1
-4.500e-07,3,0.76
-4.400e-07,2.6,0.76
-4.300e-07,2.6,0.84
-4.200e-07,2.6,0.84
-4.100e-07,2.6,0.92
-4.000e-07,2.8,0.84
-3.900e-07,2.8,1
-3.800e-07,2.6,0.84
-3.700e-07,2.4,0.84
-3.600e-07,2.6,0.84
-3.500e-07,2.8,0.84
-3.400e-07,2.6,0.84
-3.300e-07,2.6,0.84
-3.200e-07,2.8,0.92
-3.100e-07,2.8,0.84
-3.000e-07,2.6,1
-2.900e-07,3,0.76
-2.800e-07,2.6,0.76
-2.700e-07,3.2,1
-2.600e-07,3,1
-2.500e-07,3,1
-2.400e-07,3.2,1
-2.300e-07,3.6,1.16
-2.200e-07,3.4,1.08
-2.100e-07,3.6,1.16
-2.000e-07,4,1.24
-1.900e-07,4,1.32
-1.800e-07,4.4,1.48
-1.700e-07,4.6,1.48
-1.600e-07,5,1.56
-1.500e-07,5,1.64
-1.400e-07,5.4,1.88
-1.300e-07,5.4,1.88
-1.200e-07,5.8,2.04
-1.100e-07,6.6,2.04
-1.000e-07,6.2,2.2
-9.000e-08,6.4,2.2
-8.000e-08,6.6,2.44
-7.000e-08,6.8,2.44
-6.000e-08,7,2.6
-5.000e-08,7.6,2.6
-4.000e-08,7.8,2.6
-3.000e-08,8,2.6
-2.000e-08,8.4,2.92
-1.000e-08,8.4,2.84
-1.625e-20,8.8,2.92
1.000e-08,8.6,3.08
2.000e-08,9.6,3.08
3.000e-08,9,3.16
4.000e-08,9.6,3.32
5.000e-08,9.4,3.48
6.000e-08,9.6,3.48
7.000e-08,10.2,3.72
8.000e-08,10.6,3.64
9.000e-08,10.6,3.8
1.000e-07,10.8,3.8
1.100e-07,10.8,3.88
1.200e-07,11.4,4.04
1.300e-07,11.6,4.2
1.400e-07,11.8,4.2
1.500e-07,12,4.36
1.600e-07,12.4,4.44
1.700e-07,12.4,4.44
1.800e-07,12.8,4.44
1.900e-07,13,4.6
2.000e-07,13.2,4.68
2.100e-07,13.6,4.84
2.200e-07,13.8,4.92
2.300e-07,14,5
2.400e-07,14.2,5.16
2.500e-07,14.4,5.24
2.600e-07,14.6,5.24
2.700e-07,14.6,5.48
2.800e-07,15,5.48
2.900e-07,15.4,5.72
3.000e-07,15.6,5.8
3.100e-07,15.6,5.8
3.200e-07,16.2,5.96
3.300e-07,16.2,5.96
3.400e-07,16.4,6.12
3.500e-07,16.6,6.12
3.600e-07,16.8,6.28
3.700e-07,17,6.36
3.800e-07,17.4,6.44
3.900e-07,17.6,6.68
4.000e-07,18,6.52
4.100e-07,18.2,6.68
4.200e-07,18.2,6.76
4.300e-07,18.8,7
4.400e-07,18.8,7
4.500e-07,19.2,7
4.600e-07,19.2,7.32
4.700e-07,19.6,7.32
4.800e-07,20,7.32
4.900e-07,20.2,7.56
5.000e-07,20.4,7.72
5.100e-07,20.6,7.72
5.200e-07,21,8.04
5.300e-07,20.8,8.04
5.400e-07,21.2,8.12
5.500e-07,21.6,8.2
5.600e-07,21.6,8.28
5.700e-07,22.2,8.36
5.800e-07,22.2,8.6
5.900e-07,22.4,8.6
6.000e-07,22.6,8.76
6.100e-07,23,8.84
6.200e-07,23,9.08
6.300e-07,23.6,9.08
6.400e-07,23.8,9.24
6.500e-07,23.8,9.32
6.600e-07,24,9.48
6.700e-07,24.2,9.64
6.800e-07,24.6,9.72
6.900e-07,24.6,9.88
7.000e-07,24.8,9.88
7.100e-07,25,9.72
7.200e-07,25.4,9.8
7.300e-07,25,9.96
7.400e-07,25,10.04
7.500e-07,25.2,9.88
7.600e-07,25.2,10.04
7.700e-07,25,10.04
7.800e-07,25.2,10.04
7.900e-07,25.6,10.2
8.000e-07,25.8,10.28
8.100e-07,25.6,10.52
8.200e-07,25.6,10.44
8.300e-07,25.4,10.44
8.400e-07,25.8,10.44
8.500e-07,25.8,10.44
8.600e-07,25.8,10.6
8.700e-07,25.6,10.6
8.800e-07,25.4,10.52
8.900e-07,25.6,10.68
9.000e-07,25.8,10.6
9.100e-07,25.6,10.68
9.200e-07,25.4,10.6
9.300e-07,26,10.68
9.400e-07,25.8,10.68
9.500e-07,25.6,10.68
9.600e-07,25.6,10.76
9.700e-07,25.8,10.76
9.800e-07,25.8,10.84
9.900e-07,25.8,10.84
1.000e-06,26,11
1.010e-06,25.8,11
1.020e-06,26.2,10.84
1.030e-06,25.8,11
1.040e-06,26,11.08
1.050e-06,25.8,11
1.060e-06,26.2,11.08
1.070e-06,26,11.08
1.080e-06,25.6,11
1.090e-06,25.8,11.16
1.100e-06,25.6,11.08
1.110e-06,25.8,11.08
1.120e-06,25.6,11
1.130e-06,26,11.24
1.140e-06,26.2,11.08
1.150e-06,26,11.16
1.160e-06,25.6,11.16
1.170e-06,26,11.24
1.180e-06,26,11.24
1.190e-06,25.6,11.4
1.200e-06,26,11.24
1.210e-06,26.2,11.32
1.220e-06,26.2,11.32
1.230e-06,26.2,11.24
1.240e-06,26,11.32
1.250e-06,26.2,11.4
1.260e-06,25.8,11.4
1.270e-06,26.2,11.24
1.280e-06,26,11.32
1.290e-06,25.8,11.48
1.300e-06,26,11.32
1.310e-06,26.2,11.4
1.320e-06,26.4,11.48
1.330e-06,26,11.64
1.340e-06,26,11.48
1.350e-06,26,11.64
1.360e-06,26,11.48
1.370e-06,26,11.64
1.380e-06,26.2,11.64
1.390e-06,26.2,11.56
1.400e-06,26.2,11.64
1.410e-06,26,11.56
1.420e-06,26,11.64
1.430e-06,25.6,11.64
1.440e-06,26,11.72
1.450e-06,26,11.64
1.460e-06,26.2,11.72
1.470e-06,26,11.72
1.480e-06,26.2,11.72
1.490e-06,26,11.64
1.500e-06,26,11.88
1.510e-06,25.4,11.8
1.520e-06,26,11.8
1.530e-06,25.8,11.8
1.540e-06,25.8,11.88
1.550e-06,25.8,11.96
1.560e-06,25.8,11.8
1.570e-06,26,11.88
1.580e-06,26.2,11.96
1.590e-06,26,11.88
1.600e-06,26,11.96
1.610e-06,26,12.12
1.620e-06,26.2,11.88
1.630e-06,26.2,11.88
1.640e-06,25.6,11.96
1.650e-06,25.8,11.96
1.660e-06,25.6,11.88
1.670e-06,26,12.04
1.680e-06,26.2,12.04
1.690e-06,26,12.04
1.700e-06,25.6,12.04
1.710e-06,25.8,12.2
1.720e-06,26,12.04
1.730e-06,25.8,12.04
1.740e-06,26,12.04
1.750e-06,25.8,12.04
1.760e-06,25.4,12.04
1.770e-06,25.4,11.88
1.780e-06,25.4,12.04
1.790e-06,25.2,11.8
1.800e-06,25,11.96
1.810e-06,25,11.96
1.820e-06,24.8,11.8
1.830e-06,25,11.64
1.840e-06,24.8,11.72
1.850e-06,24.4,11.64
1.860e-06,24.2,11.64
1.870e-06,24,11.4
1.880e-06,24,11.4
1.890e-06,24,11.32
1.900e-06,23.4,11.32
1.910e-06,23.2,11.24
1.920e-06,23,11.08
1.930e-06,22.6,11.08
1.940e-06,22.6,11
1.950e-06,22.2,10.92
1.960e-06,22,10.76
1.970e-06,21.8,10.76
1.980e-06,21.6,10.68
1.990e-06,20.8,10.52
2.000e-06,21,10.28
2.010e-06,20.8,10.36
2.020e-06,20.6,10.12
2.030e-06,20.2,10.04
2.040e-06,20,9.96
2.050e-06,19.6,9.88
2.060e-06,19.4,9.72
2.070e-06,19.2,9.8
2.080e-06,18.8,9.72
2.090e-06,18.4,9.48
2.100e-06,18.2,9.24
2.110e-06,18,9.08
2.120e-06,17.8,9.08
2.130e-06,17.6,9.08
2.140e-06,17.2,8.84
2.150e-06,16.8,8.84
2.160e-06,16.8,8.6
2.170e-06,16.4,8.44
2.180e-06,15.8,8.44
2.190e-06,16,8.28
2.200e-06,15.6,8.28
2.210e-06,15.2,8.04
2.220e-06,15.2,7.96
2.230e-06,15,7.96
2.240e-06,15,7.88
2.250e-06,14.2,7.72
2.260e-06,13.8,7.4
2.270e-06,13.4,7.48
2.280e-06,13.2,7.32
2.290e-06,13.4,7.16
2.300e-06,12.8,7.16
2.310e-06,12.8,7
2.320e-06,12.8,6.92
2.330e-06,12.2,6.76
2.340e-06,12.2,6.68
2.350e-06,12,6.68
2.360e-06,11.8,6.36
2.370e-06,11.4,6.36
2.380e-06,11.4,6.44
2.390e-06,10.8,6.2
2.400e-06,10.6,6.2
2.410e-06,10.6,6.12
2.420e-06,10.6,5.96
2.430e-06,10.2,5.8
2.440e-06,10,5.96
2.450e-06,9.4,5.8
2.460e-06,9.6,5.64
2.470e-06,9.4,5.56
2.480e-06,9.4,5.48
2.490e-06,9,5.4
2.500e-06,8.6,5.32
2.510e-06,8.4,5.16
2.520e-06,8.2,5.24
2.530e-06,7.6,5.16
2.540e-06,7.6,4.92
2.550e-06,7.8,4.92
2.560e-06,7.2,4.76
2.570e-06,7.4,4.68
2.580e-06,6.6,4.6
2.590e-06,7,4.52
2.600e-06,6.2,4.36
2.610e-06,6.4,4.36
2.620e-06,6.4,4.2
2.630e-06,5.8,3.96
2.640e-06,5.8,4.12
2.650e-06,5.2,3.88
2.660e-06,5.2,3.72
2.670e-06,5,3.72
2.680e-06,5,3.72
2.690e-06,4.8,3.64
2.700e-06,4.6,3.48
2.710e-06,4.4,3.4
2.720e-06,4.2,3.48
2.730e-06,3.6,3.32
2.740e-06,4,3.4
2.750e-06,3.6,3.24
2.760e-06,3.6,3.16
2.770e-06,3.6,3.08
2.780e-06,3,3.08
2.790e-06,3.6,2.92
2.800e-06,3.2,3
2.810e-06,3,2.92
2.820e-06,2.8,2.76
2.830e-06,2.6,2.92
2.840e-06,2.6,2.6
2.850e-06,2.6,2.68
2.860e-06,3,2.68
2.870e-06,2.8,2.6
2.880e-06,2.8,2.68
2.890e-06,2.4,2.44
2.900e-06,2.2,2.6
2.910e-06,2.2,2.52
2.920e-06,2.4,2.6
2.930e-06,2,2.52
2.940e-06,2.4,2.52
2.950e-06,2.4,2.52
2.960e-06,2.2,2.44
2.970e-06,2.4,2.52
2.980e-06,1.8,2.52
2.990e-06,1.8,2.36
3.000e-06,2.2,2.36
3.010e-06,2.2,2.36
3.020e-06,2,2.28
3.030e-06,1.8,2.44
3.040e-06,2,2.36
3.050e-06,2.2,2.28
3.060e-06,2,2.28
3.070e-06,2,2.28
3.080e-06,2,2.28
3.090e-06,2,2.36
3.100e-06,2.2,2.36
3.110e-06,2.2,2.36
3.120e-06,2.4,2.44
3.130e-06,2,2.36
3.140e-06,2.2,2.44
3.150e-06,2.2,2.28
3.160e-06,2.2,2.28
3.170e-06,2,2.36
3.180e-06,2,2.44
3.190e-06,2,2.36
3.200e-06,2.4,2.36
3.210e-06,2.2,2.36
3.220e-06,2.4,2.2
3.230e-06,2.4,2.28
3.240e-06,2.4,2.36
3.250e-06,2.4,2.44
3.260e-06,2.4,2.28
3.270e-06,2.4,2.28
3.280e-06,2.6,2.52
3.290e-06,2.2,2.44
3.300e-06,2.6,2.28
3.310e-06,2.6,2.36
3.320e-06,2.4,2.44
3.330e-06,2.6,2.44
3.340e-06,2.4,2.44
3.350e-06,2.6,2.36
3.360e-06,2.4,2.36
3.370e-06,2.6,2.36
3.380e-06,2.4,2.36
3.390e-06,2.6,2.36
3.400e-06,2.8,2.44
3.410e-06,2.6,2.28
3.420e-06,2.6,2.36
3.430e-06,2.8,2.44
3.440e-06,2.2,2.44
3.450e-06,2.4,2.44
3.460e-06,3,2.44
3.470e-06,2.6,2.28
3.480e-06,2.4,2.44
3.490e-06,2.6,2.52
3.500e-06,2.6,2.2
3.510e-06,2.8,2.36
3.520e-06,2.6,2.36
3.530e-06,2.6,2.28
3.540e-06,2.8,2.36
3.550e-06,2.6,2.44
3.560e-06,2.6,2.28
3.570e-06,2.6,2.36
3.580e-06,2.8,2.36
3.590e-06,2.8,2.36
3.600e-06,2.8,2.44
3.610e-06,2.6,2.28
3.620e-06,3,2.36
3.630e-06,2.6,2.28
3.640e-06,3.2,2.28
3.650e-06,2.8,2.44
3.660e-06,2.4,2.28
3.670e-06,2.4,2.36
3.680e-06,2.4,2.28
3.690e-06,2.6,2.28
3.700e-06,2.8,2.2
3.710e-06,2.6,2.28
3.720e-06,2.8,2.28
3.730e-06,2.6,2.36
3.740e-06,2.8,2.28
3.750e-06,2.6,2.2
3.760e-06,2.8,2.28
3.770e-06,2.6,2.36
3.780e-06,2.6,2.36
3.790e-06,2.6,2.28
3.800e-06,2.8,2.28
3.810e-06,2.8,2.36
3.820e-06,2.6,2.28
3.830e-06,2.6,2.28
3.840e-06,3,2.36
3.850e-06,2.6,2.28
3.860e-06,2.6,2.28
3.870e-06,3,2.36
3.880e-06,2.8,2.2
3.890e-06,2.8,2.12
3.900e-06,2.8,2.28
3.910e-06,3,2.2
3.920e-06,2.8,2.2
3.930e-06,2.8,2.28
3.940e-06,2.8,2.28
3.950e-06,2.8,2.2
3.960e-06,2.8,2.28
3.970e-06,2.8,2.2
3.980e-06,3,2.2
3.990e-06,2.8,2.28
4.000e-06,2.6,2.28
4.010e-06,2.6,2.28
4.020e-06,3.2,2.2
4.030e-06,2.8,2.28
4.040e-06,3,2.28
4.050e-06,2.6,2.2
4.060e-06,2.6,2.2
4.070e-06,3.2,2.04
4.080e-06,2.8,2.12
4.090e-06,2.6,2.04
4.100e-06,2.8,1.96
4.110e-06,2.8,2.12
4.120e-06,2.8,2.12
4.130e-06,2.6,2.12
4.140e-06,2.6,2.2
4.150e-06,2.6,2.12
4.160e-06,2.6,2.2
4.170e-06,2.6,2.12
4.180e-06,2.6,2.2
4.190e-06,2.6,2.12
4.200e-06,2.6,2.28
4.210e-06,2.6,2.12
4.220e-06,2.8,2.04
4.230e-06,2.8,2.12
4.240e-06,2.6,2.12
4.250e-06,2.4,2.04
4.260e-06,3,2.12
4.270e-06,2.8,2.04
4.280e-06,2.8,2.04
4.290e-06,3,2.12
4.300e-06,2.8,1.96
4.310e-06,2.6,1.96
4.320e-06,3,1.96
4.330e-06,2.8,2.2
4.340e-06,2.6,1.96
4.350e-06,2.6,2.12
4.360e-06,2.8,1.96
4.370e-06,2.6,2.04
4.380e-06,3,2.04
4.390e-06,2.8,2.04
4.400e-06,2.8,2.04
4.410e-06,2.8,1.96
4.420e-06,3.2,2.04
4.430e-06,2.6,1.96
4.440e-06,3,2.04
4.450e-06,3.2,2.04
4.460e-06,2.6,2.04
4.470e-06,2.6,2.12
4.480e-06,2.6,1.96
4.490e-06,2.6,2.04
4.500e-06,2.8,1.96
4.510e-06,2.8,2.04
4.520e-06,2.6,2.04
4.530e-06,2.6,1.88
4.540e-06,2.6,2.04
4.550e-06,2.6,1.88
4.560e-06,2.6,1.96
4.570e-06,3,2.04
4.580e-06,3.2,2.04
4.590e-06,2.4,2.04
4.600e-06,2.6,1.96
4.610e-06,2.6,1.88
4.620e-06,2.8,1.96
4.630e-06,2.6,1.96
4.640e-06,2.8,1.88
4.650e-06,2.8,1.88
4.660e-06,2.8,1.88
4.670e-06,2.6,1.88
4.680e-06,2.6,1.8
4.690e-06,2.8,1.88
4.700e-06,3,1.88
4.710e-06,2.8,1.88
4.720e-06,3,2.04
4.730e-06,2.6,1.88
4.740e-06,2.6,1.88
4.750e-06,2.8,2.04
4.760e-06,2.8,1.88
4.770e-06,2.8,1.96
4.780e-06,3,1.88
4.790e-06,2.8,1.88
4.800e-06,3,1.96
4.810e-06,2.6,1.96
4.820e-06,2.8,1.88
4.830e-06,2.6,1.88
4.840e-06,3,1.72
4.850e-06,2.8,1.8
4.860e-06,3,1.8
4.870e-06,2.8,1.88
4.880e-06,2.6,1.88
4.890e-06,2.6,1.8
4.900e-06,2.8,1.96
4.910e-06,2.6,1.88
4.920e-06,3,1.8
4.930e-06,2.6,1.8
4.940e-06,2.8,1.88
4.950e-06,2.6,1.88
4.960e-06,3,1.72
4.970e-06,2.6,1.88
4.980e-06,2.6,1.88
4.990e-06,2.6,1.8
5.000e-06,2.6,1.56
5.010e-06,2.8,1.88
5.020e-06,3.2,1.8
5.030e-06,2.6,1.8
5.040e-06,2.8,1.8
5.050e-06,3,1.88
5.060e-06,2.6,1.88
5.070e-06,3,1.8
5.080e-06,2.8,1.72
5.090e-06,2.6,1.72
5.100e-06,3,1.72
5.110e-06,2.8,1.88
5.120e-06,3,1.88
5.130e-06,2.6,1.8
5.140e-06,2.8,1.72
5.150e-06,2.8,1.64
5.160e-06,2.8,1.72
5.170e-06,2.8,1.72
5.180e-06,2.6,1.8
5.190e-06,2.8,1.56
5.200e-06,3,1.8
5.210e-06,2.6,1.72
5.220e-06,2.8,1.72
5.230e-06,2.6,1.8
5.240e-06,2.8,1.64
5.250e-06,2.8,1.64
5.260e-06,2.8,1.72
5.270e-06,2.6,1.72
5.280e-06,2.6,1.64
5.290e-06,2.8,1.72
5.300e-06,2.8,1.72
5.310e-06,2.6,1.56
5.320e-06,2.6,1.64
5.330e-06,2.8,1.56
5.340e-06,2.6,1.64
5.350e-06,2.6,1.64
5.360e-06,2.6,1.64
5.370e-06,2.6,1.56
5.380e-06,2.4,1.72
5.390e-06,2.6,1.56
5.400e-06,2.8,1.72
5.410e-06,3,1.72
5.420e-06,2.8,1.72
5.430e-06,2.6,1.64
5.440e-06,2.6,1.72
5.450e-06,2.6,1.72
5.460e-06,2.6,1.64
5.470e-06,2.8,1.56
5.480e-06,2.6,1.72
5.490e-06,2.6,1.64
5.500e-06,2.8,1.64
5.510e-06,2.4,1.48
5.520e-06,2.8,1.64
5.530e-06,2.8,1.64
5.540e-06,2.6,1.48
5.550e-06,2.8,1.64
5.560e-06,2.6,1.72
5.570e-06,2.4,1.56
5.580e-06,2.8,1.64
5.590e-06,2.6,1.72
5.600e-06,2.8,1.64
5.610e-06,3,1.8
5.620e-06,2.8,1.56
5.630e-06,2.6,1.56
5.640e-06,2.6,1.56
5.650e-06,3,1.56
5.660e-06,3,1.48
5.670e-06,2.6,1.56
5.680e-06,2.6,1.56
5.690e-06,2.6,1.64
5.700e-06,2.8,1.48
5.710e-06,3,1.56
5.720e-06,2.6,1.4
5.730e-06,2.4,1.56
5.740e-06,2.6,1.56
5.750e-06,2.6,1.56
5.760e-06,3,1.48
5.770e-06,2.6,1.56
5.780e-06,2.4,1.48
5.790e-06,2.6,1.72
5.800e-06,2.6,1.48
5.810e-06,2.8,1.48
5.820e-06,2.8,1.48
5.830e-06,2.6,1.56
5.840e-06,2.8,1.56
5.850e-06,2.6,1.48
5.860e-06,2.4,1.56
5.870e-06,2.6,1.56
5.880e-06,3,1.56
5.890e-06,3,1.48
5.900e-06,2.6,1.4
5.910e-06,2.6,1.64
5.920e-06,3,1.48
5.930e-06,2.8,1.4
5.940e-06,2.8,1.48
5.950e-06,2.8,1.4
5.960e-06,2.8,1.64
5.970e-06,2.6,1.48
5.980e-06,2.6,1.4
5.990e-06,2.6,1.4
6.000e-06,3,1.4
6.010e-06,2.6,1.56
6.020e-06,2.6,1.4
6.030e-06,3.2,1.48
6.040e-06,2.8,1.48
6.050e-06,2.6,1.4
6.060e-06,2.6,1.56
6.070e-06,2.6,1.32
6.080e-06,2.6,1.4
6.090e-06,2.8,1.48
6.100e-06,2.6,1.48
6.110e-06,2.8,1.48
6.120e-06,2.4,1.32
6.130e-06,2.6,1.56
6.140e-06,3,1.48
6.150e-06,2.8,1.48
6.160e-06,2.6,1.32
6.170e-06,2.4,1.48
6.180e-06,3,1.4
6.190e-06,2.8,1.4
6.200e-06,2.6,1.32
6.210e-06,2.6,1.32
6.220e-06,2.8,1.48
6.230e-06,2.6,1.4
6.240e-06,2.6,1.48
6.250e-06,2.6,1.4
6.260e-06,2.8,1.48
6.270e-06,2.6,1.4
6.280e-06,2.6,1.32
6.290e-06,3,1.32
6.300e-06,2.4,1.24
6.310e-06,3,1.4
6.320e-06,2.6,1.32
6.330e-06,2.6,1.32
6.340e-06,2.6,1.4
6.350e-06,2.6,1.4
6.360e-06,2.6,1.32
6.370e-06,2.6,1.4
6.380e-06,2.6,1.48
6.390e-06,2.8,1.32
6.400e-06,2.8,1.4
6.410e-06,2.6,1.4
6.420e-06,2.8,1.32
6.430e-06,3,1.48
6.440e-06,2.4,1.48
6.450e-06,3,1.4
6.460e-06,2.8,1.24
6.470e-06,2.8,1.32
6.480e-06,2.6,1.32
6.490e-06,2.6,1.4
6.500e-06,2.6,1.24
6.510e-06,3,1.4
6.520e-06,2.8,1.32
6.530e-06,2.8,1.24
6.540e-06,2.6,1.32
6.550e-06,2.6,1.24
6.560e-06,2.6,1.48
6.570e-06,2.8,1.4
6.580e-06,2.8,1.24
6.590e-06,2.4,1.32
6.600e-06,2.6,1.32
6.610e-06,2.6,1.4
6.620e-06,2.8,1.24
6.630e-06,3,1.48
6.640e-06,2.6,1.4
6.650e-06,2.4,1.24
6.660e-06,2.6,1.4
6.670e-06,2.6,1.4
6.680e-06,2.4,1.32
6.690e-06,2.6,1.24
6.700e-06,2.6,1.24
6.710e-06,3.2,1.24
6.720e-06,2.8,1.32
6.730e-06,2.6,1.4
6.740e-06,2.6,1.32
6.750e-06,2.8,1.32
6.760e-06,2.8,1.32
6.770e-06,2.2,1.4
6.780e-06,2.6,1.24
6.790e-06,3,1.32
6.800e-06,2.6,1.24
6.810e-06,3,1.24
6.820e-06,2.8,1.24
6.830e-06,2.2,1.32
6.840e-06,2.4,1.24
6.850e-06,2.4,1.4
6.860e-06,3,1.32
6.870e-06,2.6,1.32
6.880e-06,2.8,1.24
6.890e-06,3,1.16
6.900e-06,3,1.32
6.910e-06,2.6,1.24
6.920e-06,2.6,1.24
6.930e-06,2.6,1.32
6.940e-06,2.6,1.32
6.950e-06,2.8,1.08
6.960e-06,2.8,1.24
6.970e-06,2.6,1.4
6.980e-06,3.2,1.4
6.990e-06,2.6,1.24
7.000e-06,3,1.24
7.010e-06,2.6,1.16
7.020e-06,2.8,1.24
7.030e-06,2.6,1.24
7.040e-06,2.6,1.24
7.050e-06,2.6,1.16
7.060e-06,2.6,1.32
7.070e-06,2.8,1.32
7.080e-06,2.6,1.16
7.090e-06,2.6,1.16
7.100e-06,2.8,1.24
7.110e-06,2.8,1.24
7.120e-06,2.6,1.16
7.130e-06,2.6,1.16
7.140e-06,2.6,1.16
7.150e-06,2.8,1.24
7.160e-06,2.8,1.08
7.170e-06,2.6,1.24
7.180e-06,2.8,1.08
7.190e-06,2.4,1.4
7.200e-06,2.6,1.24
7.210e-06,2.6,1.32
7.220e-06,2.8,1.08
7.230e-06,3,1.16
7.240e-06,2.6,1.08

