Archivos Guadalupe/Data/Kaleid_IDL/IDL-labo/11-05/tek0015ALL.csv

Model,DPO3034
Firmware Version,2.16

Point Format,Y,
Horizontal Units,S,
Horizontal Scale,0.01,
Sample Interval,0.0001,
Record Length,1000,
Gating,0.0% to 100.0%,0.0% to 100.0%
Probe Attenuation,1,1
Vertical Units,V,V
Vertical Offset,0,0
Vertical Scale,2,0.05
Label,,
TIME,CH1,CH2
-2.200e-03,0,-0.036
-2.100e-03,0.08,-0.024
-2.000e-03,0,-0.012
-1.900e-03,-0.16,-0.052
-1.800e-03,0,0.028
-1.700e-03,0.08,0.076
-1.600e-03,0.08,-0.042
-1.500e-03,-0.08,-0.02
-1.400e-03,0,-0.02
-1.300e-03,0.08,-0.02
-1.200e-03,0.08,0.016
-1.100e-03,0.08,0.014
-1.000e-03,0,-0.022
-9.000e-04,-0.08,-0.026
-8.000e-04,0,0.002
-7.000e-04,0,0.002
-6.000e-04,-0.08,0.002
-5.000e-04,0,-0.01
-4.000e-04,0.16,0.04
-3.000e-04,1.28,0.168
-2.000e-04,3.36,0.454
-1.000e-04,5.44,0.454
-2.439e-19,7.44,0.454
1.000e-04,7.92,0.454
2.000e-04,8,0.454
3.000e-04,3.92,0.454
4.000e-04,2.08,0.29
5.000e-04,2.08,0.31
6.000e-04,2.08,0.312
7.000e-04,1.92,0.258
8.000e-04,1.92,0.262
9.000e-04,1.92,0.264
1.000e-03,2.08,0.262
1.100e-03,1.92,0.264
1.200e-03,2,0.278
1.300e-03,2.08,0.3
1.400e-03,2,0.312
1.500e-03,2,0.266
1.600e-03,2,0.28
1.700e-03,1.92,0.268
1.800e-03,1.92,0.286
1.900e-03,1.92,0.266
2.000e-03,2.08,0.278
2.100e-03,2.16,0.262
2.200e-03,2.08,0.284
2.300e-03,2.08,0.272
2.400e-03,2,0.284
2.500e-03,2.08,0.268
2.600e-03,2,0.296
2.700e-03,2.16,0.27
2.800e-03,2.16,0.28
2.900e-03,2.08,0.274
3.000e-03,2.08,0.258
3.100e-03,2.08,0.294
3.200e-03,2.08,0.272
3.300e-03,2.08,0.274
3.400e-03,1.92,0.286
3.500e-03,2.16,0.276
3.600e-03,2.16,0.258
3.700e-03,2.08,0.294
3.800e-03,2.08,0.298
3.900e-03,2.16,0.27
4.000e-03,2.08,0.288
4.100e-03,2.08,0.268
4.200e-03,2.08,0.26
4.300e-03,1.92,0.256
4.400e-03,1.92,0.29
4.500e-03,2.16,0.262
4.600e-03,1.84,0.256
4.700e-03,2.08,0.28
4.800e-03,1.92,0.258
4.900e-03,1.92,0.266
5.000e-03,2.08,0.286
5.100e-03,2.08,0.244
5.200e-03,2,0.244
5.300e-03,2.08,0.272
5.400e-03,2.08,0.278
5.500e-03,2,0.282
5.600e-03,2.08,0.286
5.700e-03,2,0.284
5.800e-03,1.92,0.272
5.900e-03,2.08,0.302
6.000e-03,2.08,0.272
6.100e-03,2.08,0.266
6.200e-03,2.08,0.274
6.300e-03,1.92,0.288
6.400e-03,2,0.29
6.500e-03,2,0.274
6.600e-03,2,0.272
6.700e-03,2.08,0.274
6.800e-03,1.92,0.264
6.900e-03,1.92,0.262
7.000e-03,2.08,0.29
7.100e-03,2.24,0.302
7.200e-03,1.92,0.28
7.300e-03,2.08,0.268
7.400e-03,1.92,0.264
7.500e-03,1.92,0.294
7.600e-03,2,0.278
7.700e-03,2,0.268
7.800e-03,2.08,0.258
7.900e-03,1.84,0.294
8.000e-03,2.08,0.292
8.100e-03,2.16,0.29
8.200e-03,1.92,0.25
8.300e-03,2,0.252
8.400e-03,2.08,0.324
8.500e-03,1.84,0.274
8.600e-03,2.08,0.264
8.700e-03,2.16,0.29
8.800e-03,2.16,0.24
8.900e-03,1.92,0.27
9.000e-03,1.92,0.306
9.100e-03,1.92,0.29
9.200e-03,2.08,0.294
9.300e-03,2,0.262
9.400e-03,2.08,0.27
9.500e-03,2.08,0.276
9.600e-03,1.92,0.264
9.700e-03,1.92,0.274
9.800e-03,2,0.294
9.900e-03,2.16,0.284
1.000e-02,2,0.292
1.010e-02,1.92,0.272
1.020e-02,2.08,0.302
1.030e-02,2,0.298
1.040e-02,2.08,0.272
1.050e-02,2,0.266
1.060e-02,2,0.288
1.070e-02,2,0.264
1.080e-02,2.08,0.29
1.090e-02,2,0.328
1.100e-02,1.92,0.246
1.110e-02,2.08,0.268
1.120e-02,2.08,0.318
1.130e-02,2.24,0.292
1.140e-02,2,0.282
1.150e-02,2.08,0.3
1.160e-02,2.08,0.252
1.170e-02,2.08,0.286
1.180e-02,2.08,0.28
1.190e-02,2.08,0.264
1.200e-02,2.08,0.29
1.210e-02,2.08,0.27
1.220e-02,2.08,0.276
1.230e-02,2.08,0.27
1.240e-02,2,0.274
1.250e-02,2,0.26
1.260e-02,2.08,0.306
1.270e-02,2.08,0.28
1.280e-02,1.92,0.304
1.290e-02,2.08,0.294
1.300e-02,1.92,0.264
1.310e-02,2,0.298
1.320e-02,2,0.282
1.330e-02,2.16,0.29
1.340e-02,2,0.268
1.350e-02,2,0.28
1.360e-02,2,0.268
1.370e-02,1.92,0.266
1.380e-02,2,0.258
1.390e-02,2,0.272
1.400e-02,2.08,0.274
1.410e-02,2.08,0.332
1.420e-02,2,0.288
1.430e-02,2.08,0.27
1.440e-02,1.92,0.264
1.450e-02,2,0.272
1.460e-02,2,0.264
1.470e-02,2,0.31
1.480e-02,2,0.262
1.490e-02,2.08,0.268
1.500e-02,2,0.282
1.510e-02,2.08,0.262
1.520e-02,1.92,0.26
1.530e-02,1.92,0.29
1.540e-02,2.08,0.284
1.550e-02,1.92,0.238
1.560e-02,2,0.282
1.570e-02,2,0.282
1.580e-02,1.92,0.252
1.590e-02,2.08,0.294
1.600e-02,2,0.254
1.610e-02,2,0.288
1.620e-02,2,0.254
1.630e-02,2,0.28
1.640e-02,1.92,0.282
1.650e-02,1.92,0.27
1.660e-02,1.92,0.272
1.670e-02,2.08,0.272
1.680e-02,2.08,0.262
1.690e-02,2.08,0.238
1.700e-02,2,0.262
1.710e-02,2,0.25
1.720e-02,2.08,0.28
1.730e-02,2.16,0.28
1.740e-02,2.08,0.288
1.750e-02,2.08,0.294
1.760e-02,2,0.286
1.770e-02,1.92,0.266
1.780e-02,2,0.268
1.790e-02,1.92,0.248
1.800e-02,1.84,0.282
1.810e-02,2.08,0.25
1.820e-02,1.92,0.282
1.830e-02,2,0.27
1.840e-02,2.16,0.268
1.850e-02,2,0.248
1.860e-02,2.08,0.288
1.870e-02,2.08,0.258
1.880e-02,2,0.258
1.890e-02,2,0.274
1.900e-02,1.92,0.262
1.910e-02,2.08,0.314
1.920e-02,2.08,0.284
1.930e-02,2.08,0.272
1.940e-02,2.08,0.282
1.950e-02,2.08,0.288
1.960e-02,2.08,0.316
1.970e-02,2.08,0.256
1.980e-02,2,0.246
1.990e-02,1.92,0.268
2.000e-02,2.16,0.288
2.010e-02,2,0.292
2.020e-02,2.08,0.252
2.030e-02,2.08,0.25
2.040e-02,1.92,0.278
2.050e-02,2.08,0.282
2.060e-02,1.92,0.298
2.070e-02,1.92,0.312
2.080e-02,2.08,0.26
2.090e-02,2.08,0.264
2.100e-02,2,0.298
2.110e-02,2,0.258
2.120e-02,2.08,0.268
2.130e-02,1.92,0.296
2.140e-02,2,0.244
2.150e-02,2.08,0.296
2.160e-02,2.08,0.298
2.170e-02,2.08,0.29
2.180e-02,2.16,0.294
2.190e-02,2,0.296
2.200e-02,2,0.278
2.210e-02,2,0.246
2.220e-02,2.08,0.264
2.230e-02,2,0.25
2.240e-02,2.08,0.278
2.250e-02,1.92,0.26
2.260e-02,2,0.286
2.270e-02,1.92,0.242
2.280e-02,2.08,0.27
2.290e-02,2.08,0.284
2.300e-02,2.16,0.262
2.310e-02,2.16,0.256
2.320e-02,2,0.238
2.330e-02,2,0.302
2.340e-02,2,0.29
2.350e-02,2.08,0.266
2.360e-02,2.08,0.272
2.370e-02,1.92,0.268
2.380e-02,2.08,0.256
2.390e-02,2.16,0.294
2.400e-02,2.08,0.272
2.410e-02,1.92,0.264
2.420e-02,2,0.278
2.430e-02,2.24,0.29
2.440e-02,2.08,0.256
2.450e-02,2.08,0.266
2.460e-02,2,0.296
2.470e-02,1.92,0.276
2.480e-02,2.08,0.276
2.490e-02,2.08,0.282
2.500e-02,2.08,0.3
2.510e-02,2.08,0.318
2.520e-02,2.16,0.268
2.530e-02,2,0.256
2.540e-02,2,0.266
2.550e-02,2,0.284
2.560e-02,2,0.314
2.570e-02,2.08,0.288
2.580e-02,1.92,0.252
2.590e-02,2.08,0.258
2.600e-02,2.08,0.28
2.610e-02,2,0.29
2.620e-02,2.16,0.29
2.630e-02,2,0.274
2.640e-02,1.92,0.262
2.650e-02,2,0.262
2.660e-02,2.08,0.282
2.670e-02,2.08,0.26
2.680e-02,1.92,0.292
2.690e-02,2,0.258
2.700e-02,1.92,0.278
2.710e-02,2.08,0.276
2.720e-02,1.92,0.28
2.730e-02,2.08,0.284
2.740e-02,1.92,0.282
2.750e-02,2.08,0.28
2.760e-02,2,0.29
2.770e-02,1.84,0.25
2.780e-02,1.92,0.276
2.790e-02,2,0.26
2.800e-02,2.16,0.268
2.810e-02,1.92,0.254
2.820e-02,2,0.29
2.830e-02,1.92,0.272
2.840e-02,2.08,0.278
2.850e-02,2.08,0.302
2.860e-02,2,0.276
2.870e-02,2,0.274
2.880e-02,2,0.238
2.890e-02,2.08,0.29
2.900e-02,2,0.28
2.910e-02,2.16,0.258
2.920e-02,2.08,0.264
2.930e-02,2.08,0.306
2.940e-02,2.08,0.27
2.950e-02,2,0.258
2.960e-02,2.08,0.28
2.970e-02,2,0.29
2.980e-02,1.92,0.252
2.990e-02,2.08,0.29
3.000e-02,2,0.272
3.010e-02,1.92,0.276
3.020e-02,1.92,0.244
3.030e-02,1.92,0.296
3.040e-02,2.08,0.272
3.050e-02,1.92,0.274
3.060e-02,2,0.258
3.070e-02,1.84,0.278
3.080e-02,2.08,0.312
3.090e-02,2.16,0.262
3.100e-02,1.92,0.274
3.110e-02,2,0.316
3.120e-02,2,0.252
3.130e-02,2.08,0.3
3.140e-02,1.92,0.28
3.150e-02,2,0.258
3.160e-02,2,0.27
3.170e-02,1.92,0.268
3.180e-02,1.92,0.268
3.190e-02,2,0.258
3.200e-02,2.08,0.286
3.210e-02,2,0.278
3.220e-02,1.92,0.262
3.230e-02,1.92,0.286
3.240e-02,2.08,0.3
3.250e-02,2.08,0.25
3.260e-02,2,0.286
3.270e-02,2,0.262
3.280e-02,2,0.29
3.290e-02,2.08,0.27
3.300e-02,1.92,0.238
3.310e-02,2,0.262
3.320e-02,2.08,0.262
3.330e-02,1.92,0.276
3.340e-02,2.08,0.27
3.350e-02,2,0.28
3.360e-02,2,0.284
3.370e-02,1.92,0.25
3.380e-02,2,0.24
3.390e-02,2.16,0.28
3.400e-02,1.92,0.276
3.410e-02,1.92,0.294
3.420e-02,2,0.268
3.430e-02,2,0.268
3.440e-02,2,0.256
3.450e-02,2,0.204
3.460e-02,2.08,0.264
3.470e-02,1.92,0.264
3.480e-02,2,0.25
3.490e-02,2,0.262
3.500e-02,1.92,0.276
3.510e-02,2.08,0.242
3.520e-02,2,0.28
3.530e-02,1.84,0.29
3.540e-02,1.92,0.28
3.550e-02,2.08,0.282
3.560e-02,1.92,0.288
3.570e-02,2.08,0.268
3.580e-02,2.08,0.286
3.590e-02,2.08,0.256
3.600e-02,1.92,0.27
3.610e-02,2.08,0.254
3.620e-02,2,0.254
3.630e-02,2,0.274
3.640e-02,2.08,0.278
3.650e-02,2,0.272
3.660e-02,2.08,0.3
3.670e-02,2,0.31
3.680e-02,2,0.258
3.690e-02,1.92,0.272
3.700e-02,2.08,0.256
3.710e-02,1.84,0.276
3.720e-02,1.92,0.3
3.730e-02,2,0.248
3.740e-02,1.92,0.286
3.750e-02,1.84,0.242
3.760e-02,2,0.264
3.770e-02,2,0.246
3.780e-02,2.08,0.278
3.790e-02,2.16,0.286
3.800e-02,2.08,0.284
3.810e-02,2,0.308
3.820e-02,1.92,0.266
3.830e-02,2.08,0.26
3.840e-02,2.08,0.3
3.850e-02,2,0.268
3.860e-02,1.92,0.292
3.870e-02,2.08,0.268
3.880e-02,2.08,0.216
3.890e-02,1.92,0.314
3.900e-02,2.16,0.268
3.910e-02,2.08,0.284
3.920e-02,2.08,0.242
3.930e-02,2.08,0.262
3.940e-02,2.08,0.258
3.950e-02,1.92,0.268
3.960e-02,2,0.284
3.970e-02,2.08,0.236
3.980e-02,2,0.264
3.990e-02,2,0.28
4.000e-02,2,0.28
4.010e-02,2.16,0.282
4.020e-02,2,0.304
4.030e-02,2,0.23
4.040e-02,2.08,0.256
4.050e-02,1.92,0.286
4.060e-02,2.08,0.258
4.070e-02,1.92,0.264
4.080e-02,2.08,0.272
4.090e-02,2,0.252
4.100e-02,2.08,0.27
4.110e-02,2.08,0.264
4.120e-02,2.08,0.258
4.130e-02,2,0.236
4.140e-02,2,0.292
4.150e-02,2.08,0.272
4.160e-02,2,0.278
4.170e-02,2.08,0.258
4.180e-02,2,0.294
4.190e-02,1.92,0.266
4.200e-02,2.08,0.246
4.210e-02,1.92,0.308
4.220e-02,2.08,0.294
4.230e-02,2,0.264
4.240e-02,1.92,0.314
4.250e-02,2.08,0.256
4.260e-02,2.08,0.262
4.270e-02,2,0.264
4.280e-02,2,0.288
4.290e-02,1.84,0.258
4.300e-02,1.92,0.282
4.310e-02,2,0.322
4.320e-02,2.08,0.268
4.330e-02,2.08,0.268
4.340e-02,2,0.282
4.350e-02,1.92,0.278
4.360e-02,2.16,0.248
4.370e-02,1.92,0.286
4.380e-02,2.08,0.268
4.390e-02,2.08,0.262
4.400e-02,2,0.274
4.410e-02,2,0.272
4.420e-02,1.92,0.258
4.430e-02,2,0.288
4.440e-02,2.08,0.294
4.450e-02,2,0.282
4.460e-02,2,0.268
4.470e-02,2,0.28
4.480e-02,2.08,0.284
4.490e-02,1.92,0.266
4.500e-02,2.16,0.268
4.510e-02,2,0.246
4.520e-02,2.16,0.252
4.530e-02,2,0.254
4.540e-02,1.92,0.254
4.550e-02,2,0.288
4.560e-02,2.08,0.284
4.570e-02,2,0.26
4.580e-02,2,0.276
4.590e-02,2,0.266
4.600e-02,2,0.28
4.610e-02,2,0.288
4.620e-02,2,0.248
4.630e-02,2,0.276
4.640e-02,1.92,0.3
4.650e-02,2,0.276
4.660e-02,2,0.292
4.670e-02,2.16,0.304
4.680e-02,2,0.26
4.690e-02,2.08,0.262
4.700e-02,1.92,0.286
4.710e-02,2.08,0.248
4.720e-02,2.08,0.27
4.730e-02,2.08,0.268
4.740e-02,2,0.27
4.750e-02,1.92,0.274
4.760e-02,2.08,0.298
4.770e-02,2,0.264
4.780e-02,2.08,0.306
4.790e-02,2,0.276
4.800e-02,1.92,0.28
4.810e-02,1.92,0.294
4.820e-02,2.08,0.286
4.830e-02,1.92,0.268
4.840e-02,2.08,0.248
4.850e-02,2.16,0.282
4.860e-02,2.08,0.29
4.870e-02,2,0.296
4.880e-02,2.08,0.252
4.890e-02,2.16,0.302
4.900e-02,2,0.27
4.910e-02,2,0.24
4.920e-02,2.08,0.296
4.930e-02,2,0.264
4.940e-02,2,0.29
4.950e-02,1.92,0.278
4.960e-02,2.08,0.242
4.970e-02,2,0.31
4.980e-02,2.08,0.286
4.990e-02,2,0.256
5.000e-02,1.92,0.264
5.010e-02,2.16,0.328
5.020e-02,1.92,0.286
5.030e-02,1.92,0.242
5.040e-02,2,0.286
5.050e-02,2.08,0.266
5.060e-02,2,0.268
5.070e-02,1.92,0.288
5.080e-02,2,0.27
5.090e-02,1.92,0.27
5.100e-02,2.08,0.28
5.110e-02,2,0.288
5.120e-02,1.92,0.246
5.130e-02,1.92,0.28
5.140e-02,2.08,0.27
5.150e-02,1.92,0.272
5.160e-02,2,0.27
5.170e-02,2,0.284
5.180e-02,2,0.29
5.190e-02,2,0.274
5.200e-02,2.08,0.284
5.210e-02,2.08,0.27
5.220e-02,1.92,0.292
5.230e-02,2.16,0.268
5.240e-02,2.08,0.3
5.250e-02,2,0.248
5.260e-02,2.08,0.28
5.270e-02,2,0.288
5.280e-02,2,0.238
5.290e-02,2,0.284
5.300e-02,2,0.26
5.310e-02,1.92,0.244
5.320e-02,2.08,0.282
5.330e-02,2.08,0.294
5.340e-02,2.08,0.272
5.350e-02,2,0.262
5.360e-02,2.08,0.27
5.370e-02,2.08,0.298
5.380e-02,2.08,0.258
5.390e-02,2.08,0.284
5.400e-02,2,0.286
5.410e-02,1.92,0.302
5.420e-02,2,0.26
5.430e-02,2,0.256
5.440e-02,2.08,0.286
5.450e-02,1.92,0.264
5.460e-02,2,0.278
5.470e-02,2,0.26
5.480e-02,2.08,0.268
5.490e-02,2.08,0.272
5.500e-02,1.92,0.288
5.510e-02,1.92,0.308
5.520e-02,2.08,0.262
5.530e-02,2.16,0.258
5.540e-02,2.08,0.288
5.550e-02,2,0.262
5.560e-02,1.92,0.298
5.570e-02,2,0.256
5.580e-02,2.08,0.302
5.590e-02,2,0.26
5.600e-02,2,0.276
5.610e-02,2.16,0.274
5.620e-02,2,0.308
5.630e-02,2,0.274
5.640e-02,2.16,0.252
5.650e-02,2,0.284
5.660e-02,2.08,0.296
5.670e-02,2,0.3
5.680e-02,2.08,0.28
5.690e-02,2,0.26
5.700e-02,2,0.278
5.710e-02,1.92,0.284
5.720e-02,2,0.278
5.730e-02,1.92,0.264
5.740e-02,2,0.276
5.750e-02,2,0.276
5.760e-02,2,0.296
5.770e-02,2.08,0.298
5.780e-02,2,0.254
5.790e-02,1.92,0.23
5.800e-02,2,0.286
5.810e-02,1.84,0.288
5.820e-02,2,0.286
5.830e-02,2,0.242
5.840e-02,2.08,0.304
5.850e-02,2.08,0.304
5.860e-02,2.16,0.238
5.870e-02,2,0.268
5.880e-02,2.16,0.256
5.890e-02,2,0.314
5.900e-02,1.92,0.29
5.910e-02,1.92,0.246
5.920e-02,2.08,0.256
5.930e-02,2,0.298
5.940e-02,2.08,0.3
5.950e-02,2,0.262
5.960e-02,2.08,0.276
5.970e-02,1.92,0.26
5.980e-02,2,0.276
5.990e-02,2,0.29
6.000e-02,2.08,0.268
6.010e-02,2.08,0.27
6.020e-02,1.84,0.248
6.030e-02,1.84,0.298
6.040e-02,2,0.248
6.050e-02,1.92,0.258
6.060e-02,1.84,0.284
6.070e-02,2,0.28
6.080e-02,2.08,0.282
6.090e-02,2.08,0.248
6.100e-02,2.08,0.278
6.110e-02,2,0.268
6.120e-02,2,0.242
6.130e-02,2.08,0.248
6.140e-02,1.92,0.274
6.150e-02,2.16,0.274
6.160e-02,2.08,0.296
6.170e-02,2.08,0.252
6.180e-02,2,0.278
6.190e-02,2.08,0.284
6.200e-02,2.24,0.258
6.210e-02,1.92,0.258
6.220e-02,2,0.298
6.230e-02,1.92,0.266
6.240e-02,1.84,0.284
6.250e-02,2.08,0.29
6.260e-02,2,0.28
6.270e-02,2.08,0.294
6.280e-02,1.92,0.256
6.290e-02,2.08,0.294
6.300e-02,2,0.304
6.310e-02,1.92,0.24
6.320e-02,1.92,0.284
6.330e-02,1.92,0.256
6.340e-02,2.08,0.27
6.350e-02,2.24,0.296
6.360e-02,2,0.256
6.370e-02,2,0.28
6.380e-02,2,0.276
6.390e-02,2,0.292
6.400e-02,1.92,0.252
6.410e-02,1.92,0.292
6.420e-02,1.92,0.294
6.430e-02,2,0.272
6.440e-02,2,0.262
6.450e-02,2.08,0.26
6.460e-02,2.08,0.296
6.470e-02,2,0.272
6.480e-02,1.84,0.29
6.490e-02,2.08,0.282
6.500e-02,1.92,0.298
6.510e-02,2.08,0.268
6.520e-02,1.92,0.28
6.530e-02,2,0.264
6.540e-02,2,0.25
6.550e-02,2.08,0.25
6.560e-02,2,0.254
6.570e-02,2.16,0.292
6.580e-02,2.08,0.282
6.590e-02,2,0.27
6.600e-02,2,0.264
6.610e-02,2,0.262
6.620e-02,2,0.27
6.630e-02,2.08,0.284
6.640e-02,1.92,0.288
6.650e-02,2.08,0.272
6.660e-02,2.08,0.264
6.670e-02,2.08,0.276
6.680e-02,2.08,0.278
6.690e-02,2.08,0.266
6.700e-02,1.92,0.294
6.710e-02,2,0.278
6.720e-02,1.92,0.26
6.730e-02,2,0.288
6.740e-02,2.08,0.274
6.750e-02,1.84,0.294
6.760e-02,2.08,0.294
6.770e-02,2,0.276
6.780e-02,1.92,0.28
6.790e-02,1.92,0.256
6.800e-02,2.16,0.294
6.810e-02,2,0.274
6.820e-02,2.08,0.3
6.830e-02,2,0.272
6.840e-02,2.16,0.31
6.850e-02,1.92,0.294
6.860e-02,2.08,0.312
6.870e-02,2.08,0.282
6.880e-02,1.92,0.27
6.890e-02,2,0.334
6.900e-02,2.08,0.29
6.910e-02,1.92,0.282
6.920e-02,2,0.274
6.930e-02,2.08,0.27
6.940e-02,2,0.304
6.950e-02,2.08,0.262
6.960e-02,1.92,0.262
6.970e-02,1.92,0.27
6.980e-02,2.16,0.256
6.990e-02,1.92,0.268
7.000e-02,1.92,0.272
7.010e-02,2,0.31
7.020e-02,2,0.252
7.030e-02,2,0.254
7.040e-02,2.08,0.254
7.050e-02,1.92,0.262
7.060e-02,2.08,0.272
7.070e-02,2.08,0.308
7.080e-02,2.16,0.278
7.090e-02,2.08,0.258
7.100e-02,2.16,0.254
7.110e-02,1.92,0.268
7.120e-02,2.16,0.282
7.130e-02,2.08,0.296
7.140e-02,2,0.288
7.150e-02,2,0.294
7.160e-02,1.84,0.3
7.170e-02,2,0.244
7.180e-02,2,0.278
7.190e-02,1.92,0.278
7.200e-02,1.92,0.276
7.210e-02,2.08,0.26
7.220e-02,2.08,0.272
7.230e-02,2,0.304
7.240e-02,1.92,0.28
7.250e-02,2,0.29
7.260e-02,2,0.274
7.270e-02,1.92,0.24
7.280e-02,2,0.244
7.290e-02,2,0.268
7.300e-02,2.08,0.29
7.310e-02,2,0.258
7.320e-02,1.92,0.246
7.330e-02,1.92,0.278
7.340e-02,2.08,0.286
7.350e-02,2,0.26
7.360e-02,1.92,0.272
7.370e-02,2.16,0.292
7.380e-02,2,0.256
7.390e-02,2.08,0.284
7.400e-02,2.16,0.266
7.410e-02,2.08,0.278
7.420e-02,2.16,0.25
7.430e-02,1.92,0.28
7.440e-02,2.08,0.32
7.450e-02,2.08,0.25
7.460e-02,2.08,0.292
7.470e-02,2.08,0.278
7.480e-02,1.92,0.262
7.490e-02,1.84,0.282
7.500e-02,2,0.254
7.510e-02,2.16,0.266
7.520e-02,1.92,0.264
7.530e-02,2.08,0.264
7.540e-02,2,0.286
7.550e-02,2.08,0.282
7.560e-02,2.08,0.272
7.570e-02,2,0.278
7.580e-02,2.08,0.256
7.590e-02,2.08,0.254
7.600e-02,2,0.314
7.610e-02,2,0.294
7.620e-02,1.92,0.26
7.630e-02,2,0.298
7.640e-02,1.92,0.288
7.650e-02,2,0.264
7.660e-02,2,0.304
7.670e-02,2,0.274
7.680e-02,2,0.306
7.690e-02,2.08,0.262
7.700e-02,2,0.284
7.710e-02,2,0.292
7.720e-02,2.08,0.262
7.730e-02,2,0.27
7.740e-02,2.24,0.28
7.750e-02,1.84,0.272
7.760e-02,2.08,0.268
7.770e-02,2.08,0.286
7.780e-02,2,0.294
7.790e-02,2.08,0.298
7.800e-02,2,0.24
7.810e-02,2.08,0.266
7.820e-02,2,0.284
7.830e-02,1.92,0.262
7.840e-02,1.92,0.3
7.850e-02,1.92,0.304
7.860e-02,2.16,0.238
7.870e-02,1.92,0.256
7.880e-02,2,0.268
7.890e-02,2.08,0.26
7.900e-02,1.92,0.274
7.910e-02,1.92,0.288
7.920e-02,2.08,0.272
7.930e-02,1.92,0.276
7.940e-02,1.84,0.29
7.950e-02,2,0.254
7.960e-02,1.92,0.272
7.970e-02,2.08,0.292
7.980e-02,1.92,0.288
7.990e-02,2.08,0.27
8.000e-02,2,0.242
8.010e-02,2,0.258
8.020e-02,2.08,0.278
8.030e-02,2.08,0.274
8.040e-02,2,0.294
8.050e-02,2,0.286
8.060e-02,2,0.292
8.070e-02,2.08,0.264
8.080e-02,2.08,0.29
8.090e-02,2.16,0.272
8.100e-02,2,0.288
8.110e-02,2,0.296
8.120e-02,1.92,0.282
8.130e-02,2,0.27
8.140e-02,2.08,0.262
8.150e-02,1.92,0.252
8.160e-02,2,0.262
8.170e-02,2.16,0.282
8.180e-02,2,0.284
8.190e-02,2,0.274
8.200e-02,2,0.278
8.210e-02,2.08,0.282
8.220e-02,2,0.288
8.230e-02,2.08,0.298
8.240e-02,1.84,0.286
8.250e-02,2.16,0.282
8.260e-02,2,0.294
8.270e-02,2.08,0.262
8.280e-02,1.92,0.256
8.290e-02,2.08,0.274
8.300e-02,2,0.304
8.310e-02,2,0.302
8.320e-02,2,0.3
8.330e-02,2.08,0.278
8.340e-02,1.84,0.292
8.350e-02,2.16,0.266
8.360e-02,1.84,0.274
8.370e-02,2,0.258
8.380e-02,2.24,0.27
8.390e-02,2.16,0.27
8.400e-02,2.08,0.268
8.410e-02,2.08,0.294
8.420e-02,2,0.278
8.430e-02,2.08,0.266
8.440e-02,2.08,0.3
8.450e-02,2.08,0.258
8.460e-02,2.08,0.268
8.470e-02,2,0.274
8.480e-02,2.08,0.322
8.490e-02,2.08,0.26
8.500e-02,1.92,0.28
8.510e-02,2.08,0.29
8.520e-02,2,0.278
8.530e-02,2,0.258
8.540e-02,2,0.3
8.550e-02,1.92,0.28
8.560e-02,2.08,0.256
8.570e-02,1.92,0.296
8.580e-02,2,0.286
8.590e-02,2,0.27
8.600e-02,1.92,0.242
8.610e-02,2,0.29
8.620e-02,2,0.296
8.630e-02,1.92,0.276
8.640e-02,1.92,0.278
8.650e-02,2,0.29
8.660e-02,2.24,0.256
8.670e-02,2.08,0.262
8.680e-02,2,0.288
8.690e-02,1.92,0.272
8.700e-02,2,0.27
8.710e-02,2,0.302
8.720e-02,2,0.292
8.730e-02,2,0.27
8.740e-02,2.08,0.268
8.750e-02,2,0.3
8.760e-02,2,0.284
8.770e-02,2.08,0.296
8.780e-02,1.92,0.256
8.790e-02,2.16,0.27
8.800e-02,2.08,0.282
8.810e-02,2,0.262
8.820e-02,2,0.254
8.830e-02,2.08,0.284
8.840e-02,1.92,0.3
8.850e-02,2,0.28
8.860e-02,1.84,0.264
8.870e-02,2.08,0.324
8.880e-02,2,0.294
8.890e-02,2.16,0.262
8.900e-02,1.92,0.268
8.910e-02,2.08,0.288
8.920e-02,2.08,0.284
8.930e-02,2.08,0.274
8.940e-02,2.08,0.294
8.950e-02,2.08,0.266
8.960e-02,0.64,0.04
8.970e-02,0.08,0.006
8.980e-02,0.08,-0.004
8.990e-02,-0.08,0.006
9.000e-02,-0.08,0
9.010e-02,0,-0.002
9.020e-02,0,-0.002
9.030e-02,0.08,-0.012
9.040e-02,-0.08,-0.006
9.050e-02,0,-0.018
9.060e-02,0,-0.018
9.070e-02,-0.08,0.028
9.080e-02,0,-0.026
9.090e-02,-0.16,0.006
9.100e-02,0,0.054
9.110e-02,0,0.008
9.120e-02,0,-0.014
9.130e-02,0,-0.01
9.140e-02,0,-0.016
9.150e-02,0.08,-0.02
9.160e-02,0,-0.024
9.170e-02,0.08,-0.024
9.180e-02,0.08,-0.016
9.190e-02,0,0.006
9.200e-02,0.08,0
9.210e-02,0.08,-0.04
9.220e-02,0,0.006
9.230e-02,0.08,-0.004
9.240e-02,0,0.004
9.250e-02,0,-0.016
9.260e-02,-0.08,0.014
9.270e-02,-0.08,-0.01
9.280e-02,0,0.012
9.290e-02,0.16,-0.006
9.300e-02,0,0.024
9.310e-02,0,-0.008
9.320e-02,0,0.01
9.330e-02,0,0
9.340e-02,0,-0.014
9.350e-02,0.08,0.016
9.360e-02,-0.08,-0.002
9.370e-02,0,0.008
9.380e-02,0,-0.014
9.390e-02,0,-0.018
9.400e-02,0.08,0.002
9.410e-02,0,-0.006
9.420e-02,-0.16,-0.006
9.430e-02,0,-0.006
9.440e-02,0,0.02
9.450e-02,0,0.012
9.460e-02,0.08,0.016
9.470e-02,0,-0.006
9.480e-02,0,0.022
9.490e-02,0.16,0.024
9.500e-02,0,0.002
9.510e-02,0.08,-0.002
9.520e-02,0.08,-0.02
9.530e-02,0,-0.03
9.540e-02,-0.08,-0.01
9.550e-02,0.16,0.018
9.560e-02,0,-0.044
9.570e-02,0.08,-0.038
9.580e-02,0,0.024
9.590e-02,-0.08,0.012
9.600e-02,0.08,-0.008
9.610e-02,0.08,-0.024
9.620e-02,0,0.01
9.630e-02,0,0.022
9.640e-02,0,-0.018
9.650e-02,-0.08,-0.016
9.660e-02,0.08,0.036
9.670e-02,0,-0.006
9.680e-02,-0.08,-0.02
9.690e-02,0.08,0.008
9.700e-02,0,0.002
9.710e-02,0,-0.016
9.720e-02,-0.16,-0.004
9.730e-02,-0.08,0.014
