IVs/2611/B/tek0034ALL.csv

Model,DPO3034
Firmware Version,2.16

Point Format,Y,,,
Horizontal Units,S,,,
Horizontal Scale,4e-05,,,
Sample Interval,4e-10,,,
Record Length,1e+06,,,
Gating,47.499900% to 52.500%,47.499900% to 52.500%,47.499900% to 52.500%,47.499900% to 52.500%
Probe Attenuation,1,1,1,1
Vertical Units,V,V,V,V
Vertical Offset,0,0,0,0
Vertical Scale,0.05,0.05,0.02,0.02
Label,,,,
TIME,CH1,CH2,CH3,CH4
-4.804000e-07,0.07,0.036,-0.0008,-0.0024
-4.800000e-07,0.066,0.032,-0.0024,-0.0016
-4.796000e-07,0.068,0.03,-0.0032,-0.0024
-4.792000e-07,0.068,0.03,-0.0024,-0.0016
-4.788000e-07,0.07,0.028,-0.0024,-0.0016
-4.784000e-07,0.07,0.032,-0.0016,-0.0024
-4.780000e-07,0.066,0.032,-0.0016,-0.0024
-4.776000e-07,0.066,0.032,0,-0.0008
-4.772000e-07,0.066,0.038,-0.0008,-0.0008
-4.768000e-07,0.068,0.04,-0.0016,-0.0008
-4.764000e-07,0.066,0.042,-0.0008,-0.0008
-4.760000e-07,0.066,0.044,0,0.0016
-4.756000e-07,0.062,0.05,0,0.0016
-4.752000e-07,0.066,0.054,0,0.0016
-4.748000e-07,0.066,0.056,0.0016,0.0016
-4.744000e-07,0.064,0.056,0.0016,0.0016
-4.740000e-07,0.06,0.06,0.0016,0.0024
-4.736000e-07,0.068,0.062,0.0016,0.0024
-4.732000e-07,0.064,0.064,0.0008,0.0024
-4.728000e-07,0.062,0.062,0.0016,0.0016
-4.724000e-07,0.066,0.06,0.0008,0.0008
-4.720000e-07,0.062,0.052,0.0008,0.0008
-4.716000e-07,0.066,0.05,0,0.0016
-4.712000e-07,0.062,0.044,0,0.0008
-4.708000e-07,0.064,0.04,0,0
-4.704000e-07,0.066,0.038,0,-0.0008
-4.700000e-07,0.062,0.032,0,-0.0008
-4.696000e-07,0.064,0.03,0,0
-4.692000e-07,0.064,0.03,0,-0.0008
-4.688000e-07,0.064,0.028,0,-0.0024
-4.684000e-07,0.066,0.028,-0.0016,-0.0016
-4.680000e-07,0.064,0.03,0.0008,-0.0008
-4.676000e-07,0.066,0.03,0.0008,0
-4.672000e-07,0.068,0.036,0,0.0008
-4.668000e-07,0.068,0.04,-0.0016,-0.0008
-4.664000e-07,0.07,0.042,0,0
-4.660000e-07,0.066,0.046,0.0008,0.0008
-4.656000e-07,0.066,0.05,0,0.0008
-4.652000e-07,0.064,0.052,0.0008,0.0008
-4.648000e-07,0.068,0.06,0.0008,0.0008
-4.644000e-07,0.066,0.06,0.0016,0.0016
-4.640000e-07,0.062,0.06,0.0016,0.0024
-4.636000e-07,0.064,0.066,0.0008,0.0016
-4.632000e-07,0.064,0.062,0.0008,0.0008
-4.628000e-07,0.062,0.062,0.0008,-0.0008
-4.624000e-07,0.062,0.06,0,0
-4.620000e-07,0.068,0.05,-0.0008,0.0008
-4.616000e-07,0.068,0.046,-0.0008,-0.0008
-4.612000e-07,0.066,0.04,-0.0016,-0.0008
-4.608000e-07,0.064,0.038,-0.0016,0
-4.604000e-07,0.066,0.034,-0.0016,0
-4.600000e-07,0.064,0.032,-0.0024,-0.0032
-4.596000e-07,0.068,0.03,-0.0016,-0.0016
-4.592000e-07,0.066,0.026,-0.0032,-0.0016
-4.588000e-07,0.066,0.026,-0.0032,-0.0024
-4.584000e-07,0.07,0.026,-0.0016,-0.0008
-4.580000e-07,0.072,0.03,-0.0016,-0.0008
-4.576000e-07,0.072,0.03,-0.0016,0
-4.572000e-07,0.068,0.034,-0.0008,0.0008
-4.568000e-07,0.07,0.04,0.0008,0.0016
-4.564000e-07,0.072,0.044,0.0008,0.0008
-4.560000e-07,0.07,0.048,0,0.0016
-4.556000e-07,0.068,0.052,0.0008,0.0008
-4.552000e-07,0.068,0.054,0.0024,0.0008
-4.548000e-07,0.064,0.06,0.0016,0
-4.544000e-07,0.066,0.062,0.0024,-0.0008
-4.540000e-07,0.064,0.062,0.0024,-0.0008
-4.536000e-07,0.064,0.056,0.0008,0
-4.532000e-07,0.068,0.062,0,0
-4.528000e-07,0.068,0.058,-0.0016,-0.0008
-4.524000e-07,0.066,0.054,-0.0008,-0.0016
-4.520000e-07,0.066,0.054,0,-0.0008
-4.516000e-07,0.068,0.046,-0.0016,-0.0008
-4.512000e-07,0.064,0.04,-0.0024,-0.0008
-4.508000e-07,0.066,0.034,-0.0024,-0.0008
-4.504000e-07,0.068,0.032,-0.0024,-0.0008
-4.500000e-07,0.068,0.032,-0.0016,-0.0008
-4.496000e-07,0.07,0.028,-0.0024,-0.0008
-4.492000e-07,0.07,0.03,-0.0016,-0.0016
-4.488000e-07,0.07,0.03,-0.0016,-0.0016
-4.484000e-07,0.07,0.03,-0.0016,0.0008
-4.480000e-07,0.074,0.03,-0.0016,0.0016
-4.476000e-07,0.074,0.034,-0.0016,0.0008
-4.472000e-07,0.074,0.038,0,0.0008
-4.468000e-07,0.07,0.042,0,0.0008
-4.464000e-07,0.068,0.046,0,0.0016
-4.460000e-07,0.068,0.052,0.0008,0.0016
-4.456000e-07,0.066,0.054,0.0016,0.0008
-4.452000e-07,0.066,0.06,0.0008,0.0008
-4.448000e-07,0.066,0.058,0.0008,0.0008
-4.444000e-07,0.064,0.06,0.0008,0.0008
-4.440000e-07,0.064,0.06,0,0.0008
-4.436000e-07,0.064,0.06,-0.0008,0
-4.432000e-07,0.064,0.058,-0.0008,-0.0016
-4.428000e-07,0.06,0.054,-0.0016,-0.0016
-4.424000e-07,0.062,0.05,-0.0024,-0.0008
-4.420000e-07,0.064,0.046,-0.0008,-0.0008
-4.416000e-07,0.064,0.04,-0.0016,-0.0024
-4.412000e-07,0.064,0.04,-0.0008,-0.0024
-4.408000e-07,0.064,0.038,-0.0008,-0.0024
-4.404000e-07,0.064,0.032,-0.0024,-0.0024
-4.400000e-07,0.066,0.03,-0.0032,-0.0016
-4.396000e-07,0.066,0.032,-0.0024,-0.0024
-4.392000e-07,0.066,0.032,-0.0024,0
-4.388000e-07,0.068,0.032,-0.0024,0
-4.384000e-07,0.07,0.034,-0.0008,0
-4.380000e-07,0.068,0.036,-0.0008,0.0016
-4.376000e-07,0.064,0.038,-0.0008,0.0024
-4.372000e-07,0.066,0.042,0,0.0032
-4.368000e-07,0.064,0.048,0.0008,0.0032
-4.364000e-07,0.068,0.048,0.0008,0.0016
-4.360000e-07,0.066,0.054,0.0016,0.0016
-4.356000e-07,0.066,0.06,0.0016,0.0016
-4.352000e-07,0.064,0.062,0.004,0.0024
-4.348000e-07,0.068,0.06,0.0016,0.0016
-4.344000e-07,0.064,0.06,0.0008,0.0016
-4.340000e-07,0.064,0.06,0.0016,0.0008
-4.336000e-07,0.06,0.058,0.0008,0
-4.332000e-07,0.062,0.058,0,0
-4.328000e-07,0.058,0.054,0,-0.0008
-4.324000e-07,0.06,0.048,-0.0016,-0.0008
-4.320000e-07,0.062,0.046,-0.0008,-0.0024
-4.316000e-07,0.064,0.042,-0.0016,-0.0016
-4.312000e-07,0.062,0.034,-0.0016,-0.0024
-4.308000e-07,0.064,0.032,-0.0024,-0.0024
-4.304000e-07,0.066,0.032,-0.0024,-0.0032
-4.300000e-07,0.066,0.03,-0.0032,-0.0024
-4.296000e-07,0.066,0.03,-0.0032,-0.0024
-4.292000e-07,0.07,0.032,-0.0024,-0.0032
-4.288000e-07,0.07,0.032,-0.0024,-0.0008
-4.284000e-07,0.072,0.036,-0.0016,0.0008
-4.280000e-07,0.072,0.038,-0.0016,0.0016
-4.276000e-07,0.07,0.04,-0.0008,0.0016
-4.272000e-07,0.068,0.044,0,0.0016
-4.268000e-07,0.07,0.052,0,0.0008
-4.264000e-07,0.068,0.056,0.0016,0.0016
-4.260000e-07,0.066,0.06,0.0008,0.0024
-4.256000e-07,0.066,0.06,0.0008,0.0016
-4.252000e-07,0.064,0.058,0.0008,0.0008
-4.248000e-07,0.062,0.058,0.0008,0.0008
-4.244000e-07,0.062,0.062,0,0
-4.240000e-07,0.06,0.06,0,0
-4.236000e-07,0.062,0.056,0.0008,0
-4.232000e-07,0.062,0.054,0.0008,0
-4.228000e-07,0.064,0.05,-0.0008,-0.0008
-4.224000e-07,0.062,0.048,-0.0016,-0.0016
-4.220000e-07,0.064,0.04,0,-0.0016
-4.216000e-07,0.064,0.038,-0.0008,-0.0008
-4.212000e-07,0.066,0.034,-0.0024,-0.0024
-4.208000e-07,0.068,0.032,-0.0024,-0.004
-4.204000e-07,0.068,0.032,-0.0032,-0.004
-4.200000e-07,0.068,0.03,-0.0024,-0.0032
-4.196000e-07,0.068,0.032,-0.0024,-0.0032
-4.192000e-07,0.068,0.034,-0.0024,-0.0016
-4.188000e-07,0.07,0.036,0,-0.0008
-4.184000e-07,0.072,0.038,0,0
-4.180000e-07,0.07,0.046,-0.0008,0
-4.176000e-07,0.07,0.046,0,0.0008
-4.172000e-07,0.068,0.05,0,0.0016
-4.168000e-07,0.07,0.052,0,0.0016
-4.164000e-07,0.072,0.052,0.0008,0.0016
-4.160000e-07,0.068,0.058,0.0016,0.0016
-4.156000e-07,0.068,0.064,0.0008,0.0024
-4.152000e-07,0.066,0.058,0.0008,0.0016
-4.148000e-07,0.062,0.058,0,0.0008
-4.144000e-07,0.062,0.056,-0.0016,0.0016
-4.140000e-07,0.064,0.058,-0.0008,0
-4.136000e-07,0.064,0.054,0,0
-4.132000e-07,0.062,0.052,0,0.0008
-4.128000e-07,0.064,0.048,0,0
-4.124000e-07,0.064,0.044,-0.0008,-0.0008
-4.120000e-07,0.064,0.04,0,-0.0008
-4.116000e-07,0.068,0.036,-0.0016,-0.0016
-4.112000e-07,0.066,0.034,-0.0016,-0.0024
-4.108000e-07,0.068,0.032,-0.0032,-0.0024
-4.104000e-07,0.068,0.034,-0.0024,-0.0024
-4.100000e-07,0.068,0.034,-0.0024,-0.0024
-4.096000e-07,0.068,0.034,-0.0024,-0.0008
-4.092000e-07,0.072,0.036,-0.0016,0
-4.088000e-07,0.068,0.038,0.0008,0.0008
-4.084000e-07,0.072,0.042,0.0008,0.0008
-4.080000e-07,0.072,0.042,0.0016,0.0016
-4.076000e-07,0.068,0.046,0.0016,0.0024
-4.072000e-07,0.068,0.05,0.0024,0.0016
-4.068000e-07,0.068,0.054,0.0016,0.0016
-4.064000e-07,0.064,0.056,0.0032,0.0024
-4.060000e-07,0.066,0.06,0.0024,0.0024
-4.056000e-07,0.066,0.056,0.0032,0.0032
-4.052000e-07,0.064,0.058,0.0016,0.0032
-4.048000e-07,0.06,0.052,0.0016,0.0016
-4.044000e-07,0.058,0.054,0.0008,0.0024
-4.040000e-07,0.058,0.05,0,0.0024
-4.036000e-07,0.06,0.048,-0.0008,0.0016
-4.032000e-07,0.058,0.046,0,0.0008
-4.028000e-07,0.06,0.042,0,-0.0008
-4.024000e-07,0.06,0.036,0,0.0008
-4.020000e-07,0.066,0.038,-0.0016,0.0008
-4.016000e-07,0.062,0.036,-0.0008,-0.0008
-4.012000e-07,0.066,0.032,-0.0016,-0.0024
-4.008000e-07,0.068,0.032,-0.0024,-0.0008
-4.004000e-07,0.068,0.03,-0.0016,0
-4.000000e-07,0.068,0.034,-0.0024,0.0008
-3.996000e-07,0.07,0.034,0,0
-3.992000e-07,0.072,0.036,0,0
-3.988000e-07,0.07,0.042,0,0
-3.984000e-07,0.072,0.04,0.0008,0.0016
-3.980000e-07,0.07,0.046,0.0016,0.0016
-3.976000e-07,0.068,0.05,0.0016,0.0008
-3.972000e-07,0.07,0.054,0.0016,0.0016
-3.968000e-07,0.07,0.054,0.0008,0.0016
-3.964000e-07,0.07,0.056,0.0008,0.0032
-3.960000e-07,0.068,0.056,0.0008,0.0016
-3.956000e-07,0.066,0.056,0.0016,0.0016
-3.952000e-07,0.062,0.054,0.0008,0.0024
-3.948000e-07,0.066,0.054,0.0008,0.0024
-3.944000e-07,0.062,0.052,0.0016,0.0016
-3.940000e-07,0.062,0.046,0.0008,0.0016
-3.936000e-07,0.064,0.042,0,0
-3.932000e-07,0.064,0.042,0,0
-3.928000e-07,0.062,0.036,0.0008,-0.0008
-3.924000e-07,0.064,0.038,-0.0008,0
-3.920000e-07,0.064,0.036,-0.0016,-0.0008
-3.916000e-07,0.066,0.036,-0.0024,-0.0008
-3.912000e-07,0.068,0.034,-0.0016,0.0008
-3.908000e-07,0.068,0.036,0,0.0008
-3.904000e-07,0.068,0.04,0,0.0016
-3.900000e-07,0.07,0.038,0,0.0008
-3.896000e-07,0.068,0.042,0,0.0008
-3.892000e-07,0.068,0.042,0,0.0016
-3.888000e-07,0.072,0.046,0.0024,0.0016
-3.884000e-07,0.072,0.044,0.0024,0.0032
-3.880000e-07,0.068,0.052,0.0024,0.0032
-3.876000e-07,0.07,0.056,0.0016,0.0024
-3.872000e-07,0.066,0.054,0.0016,0.0024
-3.868000e-07,0.068,0.054,0.0024,0.0016
-3.864000e-07,0.068,0.054,0.0024,0.0016
-3.860000e-07,0.066,0.054,0.0016,0.0024
-3.856000e-07,0.068,0.052,0.0008,0.0016
-3.852000e-07,0.066,0.048,0,0.0024
-3.848000e-07,0.062,0.048,0.0008,0.0016
-3.844000e-07,0.062,0.05,0.0016,0.0008
-3.840000e-07,0.064,0.046,0,0.0008
-3.836000e-07,0.064,0.044,-0.0008,0.0008
-3.832000e-07,0.066,0.04,-0.0008,0.0008
-3.828000e-07,0.064,0.04,0,0.0008
-3.824000e-07,0.064,0.036,-0.0008,0
-3.820000e-07,0.068,0.038,-0.0016,-0.0008
-3.816000e-07,0.064,0.034,-0.0024,0.0008
-3.812000e-07,0.068,0.036,0,0.0008
-3.808000e-07,0.07,0.04,0,0.0008
-3.804000e-07,0.068,0.042,0,0.0016
-3.800000e-07,0.066,0.04,0.0016,0.0032
-3.796000e-07,0.068,0.046,0,0.0024
-3.792000e-07,0.068,0.048,0.0008,0.0016
-3.788000e-07,0.07,0.054,0.0032,0.0032
-3.784000e-07,0.068,0.056,0.0032,0.0032
-3.780000e-07,0.072,0.054,0.0024,0.0032
-3.776000e-07,0.066,0.054,0.004,0.004
-3.772000e-07,0.066,0.058,0.0032,0.0032
-3.768000e-07,0.066,0.054,0.0032,0.0048
-3.764000e-07,0.06,0.054,0.0016,0.004
-3.760000e-07,0.058,0.05,0.0024,0.0048
-3.756000e-07,0.058,0.048,0.0024,0.0032
-3.752000e-07,0.062,0.046,0.0024,0.0024
-3.748000e-07,0.066,0.052,0.0024,0.0016
-3.744000e-07,0.062,0.042,0.0008,0.0016
-3.740000e-07,0.062,0.04,0.0016,0.0008
-3.736000e-07,0.066,0.04,0.0016,0.0016
-3.732000e-07,0.064,0.038,0,0.0008
-3.728000e-07,0.064,0.04,0.0008,0
-3.724000e-07,0.064,0.036,0.0008,0.0008
-3.720000e-07,0.068,0.04,0.0008,0.0016
-3.716000e-07,0.068,0.034,0.0008,0.0024
-3.712000e-07,0.068,0.04,0.0008,0.0016
-3.708000e-07,0.066,0.04,0.0016,0.0032
-3.704000e-07,0.07,0.04,0.0016,0.0032
-3.700000e-07,0.072,0.046,0.0024,0.0032
-3.696000e-07,0.068,0.048,0.0016,0.0032
-3.692000e-07,0.07,0.052,0.004,0.0032
-3.688000e-07,0.064,0.056,0.0024,0.0048
-3.684000e-07,0.068,0.058,0.0024,0.004
-3.680000e-07,0.066,0.058,0.0032,0.0048
-3.676000e-07,0.068,0.058,0.0024,0.004
-3.672000e-07,0.07,0.058,0.0032,0.0048
-3.668000e-07,0.066,0.056,0.0048,0.004
-3.664000e-07,0.064,0.054,0.0032,0.0032
-3.660000e-07,0.062,0.05,0.0032,0.0048
-3.656000e-07,0.058,0.05,0.0032,0.0048
-3.652000e-07,0.064,0.044,0.0024,0.004
-3.648000e-07,0.064,0.044,0.0032,0.004
-3.644000e-07,0.066,0.042,0.0008,0.0032
-3.640000e-07,0.062,0.036,0.0008,0.0016
-3.636000e-07,0.064,0.034,0.0008,0.0016
-3.632000e-07,0.068,0.034,0,0.0008
-3.628000e-07,0.07,0.036,0.0008,0.0008
-3.624000e-07,0.072,0.038,0,0.0016
-3.620000e-07,0.07,0.036,0.0008,0.0016
-3.616000e-07,0.07,0.036,0.0016,0.0024
-3.612000e-07,0.068,0.038,0.0024,0.0024
-3.608000e-07,0.068,0.042,0.0032,0.0024
-3.604000e-07,0.072,0.044,0.0024,0.0032
-3.600000e-07,0.072,0.048,0.0024,0.0032
-3.596000e-07,0.072,0.05,0.0024,0.0024
-3.592000e-07,0.07,0.054,0.0032,0.0032
-3.588000e-07,0.07,0.06,0.0024,0.0032
-3.584000e-07,0.068,0.058,0.0024,0.004
-3.580000e-07,0.068,0.06,0.0032,0.004
-3.576000e-07,0.068,0.058,0.0024,0.0048
-3.572000e-07,0.064,0.058,0.0032,0.0048
-3.568000e-07,0.062,0.052,0.0048,0.0048
-3.564000e-07,0.064,0.052,0.004,0.0048
-3.560000e-07,0.064,0.046,0.0032,0.004
-3.556000e-07,0.066,0.044,0.0024,0.0048
-3.552000e-07,0.064,0.044,0.0032,0.004
-3.548000e-07,0.066,0.044,0.0016,0.0032
-3.544000e-07,0.066,0.038,0.0024,0.004
-3.540000e-07,0.07,0.038,0.0016,0.0016
-3.536000e-07,0.072,0.036,0.0016,0.0016
-3.532000e-07,0.07,0.036,0.0024,0.0024
-3.528000e-07,0.066,0.034,0.0016,0.0032
-3.524000e-07,0.068,0.04,0.0024,0.0032
-3.520000e-07,0.068,0.04,0.004,0.0024
-3.516000e-07,0.072,0.042,0.004,0.0056
-3.512000e-07,0.074,0.046,0.004,0.0032
-3.508000e-07,0.074,0.048,0.0048,0.0032
-3.504000e-07,0.072,0.05,0.004,0.004
-3.500000e-07,0.07,0.054,0.0032,0.004
-3.496000e-07,0.066,0.054,0.0032,0.0032
-3.492000e-07,0.068,0.058,0.004,0.0048
-3.488000e-07,0.066,0.058,0.0048,0.0056
-3.484000e-07,0.064,0.058,0.0032,0.0048
-3.480000e-07,0.064,0.058,0.0048,0.0048
-3.476000e-07,0.064,0.058,0.0048,0.0048
-3.472000e-07,0.062,0.056,0.0032,0.0048
-3.468000e-07,0.058,0.056,0.0032,0.0048
-3.464000e-07,0.06,0.052,0.0032,0.0056
-3.460000e-07,0.058,0.046,0.0032,0.0056
-3.456000e-07,0.058,0.044,0.004,0.004
-3.452000e-07,0.062,0.044,0.004,0.0032
-3.448000e-07,0.062,0.04,0.0032,0.004
-3.444000e-07,0.06,0.042,0.0032,0.0048
-3.440000e-07,0.064,0.038,0.0032,0.0056
-3.436000e-07,0.068,0.038,0.0032,0.0048
-3.432000e-07,0.068,0.036,0.0032,0.0048
-3.428000e-07,0.066,0.038,0.004,0.0048
-3.424000e-07,0.066,0.038,0.0056,0.0056
-3.420000e-07,0.068,0.042,0.0048,0.0064
-3.416000e-07,0.07,0.044,0.0064,0.0064
-3.412000e-07,0.07,0.048,0.0064,0.0072
-3.408000e-07,0.07,0.05,0.0064,0.0064
-3.404000e-07,0.074,0.056,0.0064,0.0056
-3.400000e-07,0.068,0.056,0.0064,0.0056
-3.396000e-07,0.068,0.06,0.0048,0.0056
-3.392000e-07,0.066,0.06,0.004,0.0048
-3.388000e-07,0.062,0.058,0.004,0.0056
-3.384000e-07,0.062,0.058,0.004,0.0048
-3.380000e-07,0.066,0.056,0.0024,0.0032
-3.376000e-07,0.064,0.052,0.0024,0.004
-3.372000e-07,0.066,0.052,0.0032,0.004
-3.368000e-07,0.062,0.05,0.004,0.004
-3.364000e-07,0.064,0.046,0.0032,0.0032
-3.360000e-07,0.064,0.044,0.0032,0.0032
-3.356000e-07,0.064,0.044,0.0016,0.0032
-3.352000e-07,0.06,0.04,0.0016,0.0048
-3.348000e-07,0.064,0.038,0.0024,0.0048
-3.344000e-07,0.064,0.04,0.0024,0.0032
-3.340000e-07,0.066,0.042,0.0032,0.0032
-3.336000e-07,0.07,0.038,0.0032,0.004
-3.332000e-07,0.072,0.04,0.0032,0.004
-3.328000e-07,0.074,0.04,0.0048,0.0056
-3.324000e-07,0.076,0.04,0.0048,0.0064
-3.320000e-07,0.074,0.046,0.0048,0.0056
-3.316000e-07,0.072,0.05,0.0056,0.0064
-3.312000e-07,0.074,0.05,0.0064,0.0056
-3.308000e-07,0.074,0.054,0.0056,0.0064
-3.304000e-07,0.074,0.056,0.0064,0.0056
-3.300000e-07,0.072,0.052,0.0056,0.0056
-3.296000e-07,0.07,0.056,0.0048,0.0056
-3.292000e-07,0.068,0.054,0.0056,0.0064
-3.288000e-07,0.066,0.05,0.0048,0.0064
-3.284000e-07,0.066,0.056,0.0048,0.0056
-3.280000e-07,0.068,0.056,0.0048,0.0048
-3.276000e-07,0.068,0.05,0.0048,0.0048
-3.272000e-07,0.066,0.048,0.004,0.004
-3.268000e-07,0.066,0.046,0.004,0.0032
-3.264000e-07,0.066,0.044,0.0024,0.0024
-3.260000e-07,0.064,0.04,0.0032,0.0032
-3.256000e-07,0.068,0.04,0.0008,0.0032
-3.252000e-07,0.068,0.04,0.0008,0.0032
-3.248000e-07,0.068,0.04,0.0024,0.0032
-3.244000e-07,0.066,0.038,0.0024,0.0032
-3.240000e-07,0.07,0.038,0.0016,0.0048
-3.236000e-07,0.068,0.042,0.0024,0.0048
-3.232000e-07,0.072,0.044,0.004,0.0064
-3.228000e-07,0.074,0.046,0.0032,0.0064
-3.224000e-07,0.074,0.05,0.004,0.0072
-3.220000e-07,0.076,0.052,0.0048,0.0072
-3.216000e-07,0.076,0.056,0.0064,0.0072
-3.212000e-07,0.074,0.06,0.0072,0.0056
-3.208000e-07,0.072,0.056,0.0072,0.0088
-3.204000e-07,0.072,0.058,0.0064,0.0072
-3.200000e-07,0.07,0.058,0.0064,0.0064
-3.196000e-07,0.072,0.058,0.0072,0.0072
-3.192000e-07,0.068,0.058,0.0064,0.0072
-3.188000e-07,0.062,0.056,0.0064,0.0064
-3.184000e-07,0.064,0.054,0.0056,0.0064
-3.180000e-07,0.062,0.05,0.0056,0.0056
-3.176000e-07,0.06,0.048,0.0064,0.0048
-3.172000e-07,0.058,0.048,0.004,0.0048
-3.168000e-07,0.06,0.044,0.004,0.0048
-3.164000e-07,0.064,0.04,0.004,0.0024
-3.160000e-07,0.058,0.038,0.0032,0.0016
-3.156000e-07,0.064,0.04,0.0024,0.0032
-3.152000e-07,0.066,0.04,0.0008,0.0032
-3.148000e-07,0.066,0.038,0.0024,0.0048
-3.144000e-07,0.066,0.038,0.0032,0.0048
-3.140000e-07,0.068,0.04,0.0032,0.0032
-3.136000e-07,0.068,0.042,0.0048,0.004
-3.132000e-07,0.07,0.046,0.0048,0.0048
-3.128000e-07,0.068,0.05,0.0056,0.0056
-3.124000e-07,0.072,0.052,0.0056,0.0064
-3.120000e-07,0.072,0.054,0.0056,0.0064
-3.116000e-07,0.072,0.054,0.0064,0.008
-3.112000e-07,0.068,0.058,0.0072,0.0096
-3.108000e-07,0.072,0.06,0.0072,0.0112
-3.104000e-07,0.07,0.06,0.0072,0.0104
-3.100000e-07,0.068,0.058,0.0056,0.0096
-3.096000e-07,0.066,0.06,0.0072,0.008
-3.092000e-07,0.062,0.056,0.008,0.008
-3.088000e-07,0.062,0.052,0.0088,0.008
-3.084000e-07,0.06,0.048,0.008,0.0088
-3.080000e-07,0.062,0.044,0.0072,0.0072
-3.076000e-07,0.06,0.044,0.0064,0.0056
-3.072000e-07,0.058,0.046,0.0056,0.0048
-3.068000e-07,0.06,0.044,0.0056,0.004
-3.064000e-07,0.062,0.04,0.0048,0.0048
-3.060000e-07,0.064,0.036,0.004,0.0048
-3.056000e-07,0.062,0.032,0.0032,0.004
-3.052000e-07,0.062,0.036,0.0024,0.004
-3.048000e-07,0.062,0.038,0.0032,0.0032
-3.044000e-07,0.068,0.04,0.004,0.0048
-3.040000e-07,0.068,0.044,0.0032,0.004
-3.036000e-07,0.07,0.044,0.0032,0.0032
-3.032000e-07,0.074,0.042,0.004,0.0032
-3.028000e-07,0.074,0.048,0.004,0.004
-3.024000e-07,0.074,0.054,0.004,0.0056
-3.020000e-07,0.072,0.058,0.0048,0.0064
-3.016000e-07,0.074,0.058,0.0064,0.008
-3.012000e-07,0.074,0.058,0.0048,0.0072
-3.008000e-07,0.072,0.058,0.0048,0.0056
-3.004000e-07,0.07,0.06,0.0056,0.0064
-3.000000e-07,0.07,0.056,0.0056,0.0072
-2.996000e-07,0.068,0.056,0.0072,0.0072
-2.992000e-07,0.07,0.052,0.0072,0.0056
-2.988000e-07,0.068,0.052,0.0064,0.0072
-2.984000e-07,0.066,0.044,0.0056,0.0072
-2.980000e-07,0.064,0.044,0.0064,0.0072
-2.976000e-07,0.066,0.042,0.0056,0.0064
-2.972000e-07,0.066,0.04,0.0056,0.0056
-2.968000e-07,0.064,0.038,0.0056,0.0064
-2.964000e-07,0.064,0.04,0.0056,0.0056
-2.960000e-07,0.064,0.034,0.0056,0.0048
-2.956000e-07,0.068,0.034,0.0064,0.0048
-2.952000e-07,0.07,0.036,0.0048,0.0048
-2.948000e-07,0.072,0.04,0.0048,0.0048
-2.944000e-07,0.07,0.046,0.0048,0.0056
-2.940000e-07,0.07,0.046,0.004,0.0056
-2.936000e-07,0.072,0.048,0.0048,0.004
-2.932000e-07,0.074,0.05,0.004,0.004
-2.928000e-07,0.074,0.052,0.004,0.004
-2.924000e-07,0.074,0.054,0.004,0.004
-2.920000e-07,0.072,0.06,0.004,0.004
-2.916000e-07,0.076,0.062,0.004,0.0032
-2.912000e-07,0.076,0.06,0.004,0.0048
-2.908000e-07,0.074,0.06,0.0032,0.0056
-2.904000e-07,0.072,0.056,0.0024,0.0056
-2.900000e-07,0.068,0.054,0.0032,0.0048
-2.896000e-07,0.068,0.056,0.004,0.0048
-2.892000e-07,0.066,0.048,0.004,0.004
-2.888000e-07,0.066,0.046,0.004,0.0048
-2.884000e-07,0.064,0.044,0.0032,0.0048
-2.880000e-07,0.064,0.042,0.004,0.0056
-2.876000e-07,0.062,0.04,0.004,0.008
-2.872000e-07,0.06,0.038,0.0048,0.008
-2.868000e-07,0.064,0.036,0.004,0.0072
-2.864000e-07,0.066,0.036,0.0056,0.008
-2.860000e-07,0.066,0.034,0.0056,0.0064
-2.856000e-07,0.062,0.034,0.0056,0.0056
-2.852000e-07,0.062,0.04,0.0064,0.0072
-2.848000e-07,0.066,0.04,0.0064,0.0064
-2.844000e-07,0.068,0.044,0.0064,0.0064
-2.840000e-07,0.07,0.046,0.0064,0.004
-2.836000e-07,0.07,0.05,0.0064,0.0032
-2.832000e-07,0.068,0.052,0.0056,0.0056
-2.828000e-07,0.07,0.056,0.0064,0.0048
-2.824000e-07,0.07,0.058,0.0064,0.0048
-2.820000e-07,0.068,0.054,0.0064,0.0032
-2.816000e-07,0.07,0.058,0.0048,0.0032
-2.812000e-07,0.068,0.06,0.0048,0.0032
-2.808000e-07,0.068,0.058,0.0048,0.004
-2.804000e-07,0.068,0.058,0.0032,0.0048
-2.800000e-07,0.07,0.054,0.0024,0.0032
-2.796000e-07,0.07,0.05,0.0032,0.0032
-2.792000e-07,0.07,0.05,0.0032,0.004
-2.788000e-07,0.068,0.046,0.0032,0.0048
