IVs/2611/B/tek0033ALL.csv

Model,DPO3034
Firmware Version,2.16

Point Format,Y,,,
Horizontal Units,S,,,
Horizontal Scale,4e-05,,,
Sample Interval,4e-10,,,
Record Length,1e+06,,,
Gating,47.499900% to 52.500%,47.499900% to 52.500%,47.499900% to 52.500%,47.499900% to 52.500%
Probe Attenuation,1,1,1,1
Vertical Units,V,V,V,V
Vertical Offset,0,0,0,0
Vertical Scale,0.05,0.05,0.02,0.02
Label,,,,
TIME,CH1,CH2,CH3,CH4
-4.804000e-07,0.058,0.046,0.0216,0.0216
-4.800000e-07,0.056,0.046,0.0216,0.0232
-4.796000e-07,0.054,0.044,0.0216,0.0224
-4.792000e-07,0.058,0.044,0.0216,0.0232
-4.788000e-07,0.058,0.046,0.0224,0.0248
-4.784000e-07,0.058,0.042,0.0224,0.0232
-4.780000e-07,0.056,0.042,0.0224,0.0224
-4.776000e-07,0.06,0.042,0.0232,0.0216
-4.772000e-07,0.06,0.042,0.024,0.0224
-4.768000e-07,0.058,0.042,0.0224,0.0216
-4.764000e-07,0.062,0.042,0.0232,0.0208
-4.760000e-07,0.062,0.04,0.0232,0.0208
-4.756000e-07,0.064,0.034,0.0232,0.02
-4.752000e-07,0.06,0.036,0.0216,0.0216
-4.748000e-07,0.064,0.036,0.0224,0.0208
-4.744000e-07,0.06,0.036,0.0216,0.0216
-4.740000e-07,0.064,0.036,0.0216,0.0216
-4.736000e-07,0.064,0.034,0.0216,0.0208
-4.732000e-07,0.068,0.036,0.0216,0.0208
-4.728000e-07,0.068,0.038,0.0216,0.0208
-4.724000e-07,0.07,0.038,0.0216,0.0216
-4.720000e-07,0.072,0.042,0.0216,0.0224
-4.716000e-07,0.068,0.042,0.0216,0.024
-4.712000e-07,0.068,0.042,0.0224,0.0224
-4.708000e-07,0.068,0.042,0.0232,0.0224
-4.704000e-07,0.07,0.042,0.0232,0.0248
-4.700000e-07,0.066,0.044,0.0224,0.0248
-4.696000e-07,0.066,0.046,0.0224,0.0256
-4.692000e-07,0.062,0.044,0.024,0.0248
-4.688000e-07,0.062,0.046,0.0248,0.0256
-4.684000e-07,0.064,0.044,0.0248,0.0272
-4.680000e-07,0.066,0.046,0.0248,0.0256
-4.676000e-07,0.062,0.046,0.0248,0.0248
-4.672000e-07,0.062,0.044,0.0256,0.0256
-4.668000e-07,0.064,0.042,0.0248,0.0256
-4.664000e-07,0.064,0.044,0.024,0.0248
-4.660000e-07,0.066,0.042,0.0248,0.0248
-4.656000e-07,0.064,0.042,0.0248,0.0232
-4.652000e-07,0.064,0.042,0.024,0.0232
-4.648000e-07,0.062,0.04,0.024,0.0248
-4.644000e-07,0.066,0.038,0.024,0.0248
-4.640000e-07,0.066,0.038,0.024,0.0224
-4.636000e-07,0.066,0.038,0.0248,0.024
-4.632000e-07,0.068,0.038,0.0248,0.0232
-4.628000e-07,0.068,0.038,0.024,0.0224
-4.624000e-07,0.068,0.038,0.024,0.0224
-4.620000e-07,0.064,0.04,0.0232,0.0232
-4.616000e-07,0.064,0.04,0.0232,0.0248
-4.612000e-07,0.066,0.04,0.024,0.024
-4.608000e-07,0.068,0.042,0.0232,0.0248
-4.604000e-07,0.066,0.044,0.024,0.0248
-4.600000e-07,0.066,0.044,0.0232,0.0264
-4.596000e-07,0.062,0.044,0.0248,0.0264
-4.592000e-07,0.062,0.046,0.0256,0.0264
-4.588000e-07,0.066,0.044,0.0256,0.0264
-4.584000e-07,0.064,0.048,0.0264,0.0264
-4.580000e-07,0.062,0.046,0.0264,0.0264
-4.576000e-07,0.062,0.046,0.0264,0.0272
-4.572000e-07,0.062,0.048,0.0264,0.0256
-4.568000e-07,0.06,0.044,0.0264,0.0272
-4.564000e-07,0.06,0.042,0.0256,0.0264
-4.560000e-07,0.06,0.044,0.0264,0.0264
-4.556000e-07,0.06,0.044,0.0264,0.0264
-4.552000e-07,0.06,0.04,0.0264,0.0264
-4.548000e-07,0.062,0.04,0.0264,0.0256
-4.544000e-07,0.064,0.04,0.0264,0.0256
-4.540000e-07,0.064,0.044,0.0256,0.0256
-4.536000e-07,0.066,0.04,0.0256,0.0248
-4.532000e-07,0.068,0.042,0.0248,0.0248
-4.528000e-07,0.066,0.04,0.0248,0.0248
-4.524000e-07,0.07,0.042,0.0256,0.0256
-4.520000e-07,0.066,0.04,0.0256,0.0248
-4.516000e-07,0.064,0.044,0.0256,0.0248
-4.512000e-07,0.068,0.042,0.0248,0.0248
-4.508000e-07,0.068,0.042,0.0256,0.0256
-4.504000e-07,0.068,0.044,0.0256,0.0264
-4.500000e-07,0.068,0.042,0.0256,0.0248
-4.496000e-07,0.066,0.042,0.0264,0.0272
-4.492000e-07,0.066,0.044,0.0264,0.0272
-4.488000e-07,0.062,0.046,0.0256,0.0272
-4.484000e-07,0.062,0.044,0.0264,0.0264
-4.480000e-07,0.06,0.046,0.0264,0.0256
-4.476000e-07,0.062,0.048,0.0264,0.0264
-4.472000e-07,0.062,0.048,0.0256,0.028
-4.468000e-07,0.064,0.048,0.0264,0.0264
-4.464000e-07,0.06,0.048,0.0264,0.028
-4.460000e-07,0.062,0.048,0.0272,0.028
-4.456000e-07,0.066,0.046,0.0264,0.0272
-4.452000e-07,0.066,0.042,0.0272,0.0264
-4.448000e-07,0.066,0.046,0.028,0.0264
-4.444000e-07,0.07,0.046,0.0256,0.0256
-4.440000e-07,0.068,0.046,0.0256,0.0272
-4.436000e-07,0.068,0.044,0.0256,0.0256
-4.432000e-07,0.068,0.042,0.0248,0.0256
-4.428000e-07,0.07,0.04,0.024,0.0248
-4.424000e-07,0.068,0.04,0.024,0.0248
-4.420000e-07,0.07,0.044,0.0248,0.0248
-4.416000e-07,0.07,0.038,0.0264,0.0248
-4.412000e-07,0.072,0.04,0.0256,0.024
-4.408000e-07,0.072,0.042,0.024,0.0256
-4.404000e-07,0.074,0.04,0.0256,0.0248
-4.400000e-07,0.072,0.04,0.0264,0.0248
-4.396000e-07,0.072,0.04,0.0272,0.0264
-4.392000e-07,0.072,0.046,0.0264,0.0256
-4.388000e-07,0.068,0.044,0.0264,0.0248
-4.384000e-07,0.068,0.046,0.0272,0.0256
-4.380000e-07,0.068,0.044,0.0264,0.0256
-4.376000e-07,0.064,0.046,0.0256,0.0256
-4.372000e-07,0.068,0.046,0.0256,0.0256
-4.368000e-07,0.066,0.048,0.0256,0.0256
-4.364000e-07,0.066,0.044,0.0256,0.0248
-4.360000e-07,0.068,0.042,0.0248,0.0256
-4.356000e-07,0.072,0.046,0.0256,0.0256
-4.352000e-07,0.068,0.046,0.0256,0.024
-4.348000e-07,0.07,0.046,0.0256,0.024
-4.344000e-07,0.07,0.046,0.0256,0.0232
-4.340000e-07,0.072,0.044,0.024,0.0232
-4.336000e-07,0.068,0.04,0.024,0.0256
-4.332000e-07,0.07,0.04,0.0224,0.0248
-4.328000e-07,0.068,0.046,0.024,0.0232
-4.324000e-07,0.07,0.044,0.0232,0.0256
-4.320000e-07,0.072,0.042,0.024,0.0248
-4.316000e-07,0.074,0.04,0.024,0.0248
-4.312000e-07,0.07,0.042,0.0248,0.0256
-4.308000e-07,0.07,0.044,0.0256,0.0256
-4.304000e-07,0.072,0.042,0.0248,0.0248
-4.300000e-07,0.072,0.042,0.0256,0.0248
-4.296000e-07,0.072,0.04,0.0256,0.0248
-4.292000e-07,0.068,0.042,0.0264,0.0256
-4.288000e-07,0.068,0.042,0.0264,0.0256
-4.284000e-07,0.068,0.04,0.0272,0.0256
-4.280000e-07,0.068,0.042,0.0264,0.0248
-4.276000e-07,0.064,0.04,0.0256,0.0256
-4.272000e-07,0.064,0.042,0.0264,0.0256
-4.268000e-07,0.064,0.044,0.0264,0.0248
-4.264000e-07,0.062,0.044,0.0256,0.0248
-4.260000e-07,0.062,0.046,0.024,0.024
-4.256000e-07,0.064,0.042,0.0248,0.0232
-4.252000e-07,0.068,0.042,0.0248,0.0232
-4.248000e-07,0.066,0.042,0.0248,0.024
-4.244000e-07,0.066,0.042,0.024,0.024
-4.240000e-07,0.066,0.042,0.0232,0.0232
-4.236000e-07,0.07,0.04,0.0224,0.0232
-4.232000e-07,0.068,0.04,0.0224,0.024
-4.228000e-07,0.072,0.042,0.0232,0.0248
-4.224000e-07,0.068,0.044,0.024,0.0248
-4.220000e-07,0.072,0.048,0.0248,0.024
-4.216000e-07,0.072,0.046,0.0248,0.0248
-4.212000e-07,0.068,0.046,0.0256,0.0248
-4.208000e-07,0.068,0.046,0.0256,0.0256
-4.204000e-07,0.072,0.046,0.0256,0.0256
-4.200000e-07,0.068,0.046,0.0256,0.0264
-4.196000e-07,0.068,0.046,0.0256,0.0248
-4.192000e-07,0.066,0.044,0.0256,0.0256
-4.188000e-07,0.068,0.046,0.0256,0.0256
-4.184000e-07,0.064,0.044,0.0256,0.0248
-4.180000e-07,0.068,0.046,0.0248,0.0248
-4.176000e-07,0.068,0.044,0.0264,0.0224
-4.172000e-07,0.066,0.046,0.0256,0.0224
-4.168000e-07,0.066,0.04,0.0248,0.0232
-4.164000e-07,0.066,0.04,0.0256,0.0232
-4.160000e-07,0.064,0.04,0.0248,0.0232
-4.156000e-07,0.062,0.04,0.0224,0.0216
-4.152000e-07,0.066,0.04,0.0224,0.0224
-4.148000e-07,0.068,0.044,0.0232,0.0224
-4.144000e-07,0.068,0.038,0.024,0.0224
-4.140000e-07,0.068,0.036,0.0208,0.0208
-4.136000e-07,0.068,0.04,0.0216,0.0216
-4.132000e-07,0.07,0.044,0.0232,0.0216
-4.128000e-07,0.07,0.044,0.0224,0.0232
-4.124000e-07,0.072,0.042,0.024,0.0232
-4.120000e-07,0.074,0.046,0.0232,0.0248
-4.116000e-07,0.074,0.05,0.024,0.0248
-4.112000e-07,0.076,0.048,0.0248,0.0256
-4.108000e-07,0.076,0.052,0.0248,0.0256
-4.104000e-07,0.074,0.05,0.0256,0.0248
-4.100000e-07,0.074,0.05,0.0256,0.0256
-4.096000e-07,0.074,0.05,0.0256,0.0256
-4.092000e-07,0.072,0.05,0.0264,0.0264
-4.088000e-07,0.074,0.05,0.0256,0.0264
-4.084000e-07,0.072,0.046,0.0272,0.0264
-4.080000e-07,0.068,0.046,0.0272,0.0264
-4.076000e-07,0.072,0.044,0.0264,0.0264
-4.072000e-07,0.07,0.042,0.0256,0.0248
-4.068000e-07,0.07,0.04,0.0256,0.024
-4.064000e-07,0.068,0.044,0.0264,0.0232
-4.060000e-07,0.068,0.04,0.024,0.0232
-4.056000e-07,0.07,0.036,0.024,0.0224
-4.052000e-07,0.068,0.038,0.0232,0.0216
-4.048000e-07,0.07,0.036,0.0248,0.0208
-4.044000e-07,0.07,0.038,0.024,0.0224
-4.040000e-07,0.07,0.04,0.024,0.0224
-4.036000e-07,0.074,0.038,0.0232,0.0208
-4.032000e-07,0.072,0.038,0.0232,0.0208
-4.028000e-07,0.074,0.044,0.0232,0.0208
-4.024000e-07,0.078,0.048,0.0232,0.0224
-4.020000e-07,0.074,0.052,0.024,0.0224
-4.016000e-07,0.076,0.052,0.024,0.024
-4.012000e-07,0.078,0.052,0.024,0.024
-4.008000e-07,0.076,0.052,0.024,0.0248
-4.004000e-07,0.074,0.052,0.024,0.0256
-4.000000e-07,0.074,0.052,0.0256,0.0264
-3.996000e-07,0.078,0.054,0.0272,0.028
-3.992000e-07,0.076,0.054,0.028,0.028
-3.988000e-07,0.074,0.05,0.028,0.028
-3.984000e-07,0.07,0.052,0.0264,0.028
-3.980000e-07,0.072,0.05,0.0264,0.028
-3.976000e-07,0.072,0.046,0.0264,0.0256
-3.972000e-07,0.072,0.04,0.0264,0.0256
-3.968000e-07,0.068,0.038,0.0264,0.0248
-3.964000e-07,0.068,0.038,0.0256,0.0248
-3.960000e-07,0.068,0.036,0.0256,0.024
-3.956000e-07,0.07,0.036,0.0248,0.0232
-3.952000e-07,0.07,0.034,0.0264,0.0248
-3.948000e-07,0.068,0.034,0.0264,0.0232
-3.944000e-07,0.072,0.034,0.0248,0.0232
-3.940000e-07,0.076,0.036,0.0248,0.0232
-3.936000e-07,0.076,0.04,0.0256,0.0232
-3.932000e-07,0.076,0.042,0.0264,0.0232
-3.928000e-07,0.074,0.048,0.0264,0.0232
-3.924000e-07,0.076,0.052,0.0264,0.0256
-3.920000e-07,0.072,0.05,0.0256,0.0248
-3.916000e-07,0.074,0.056,0.0256,0.0256
-3.912000e-07,0.074,0.058,0.0272,0.0256
-3.908000e-07,0.072,0.062,0.028,0.0256
-3.904000e-07,0.076,0.062,0.0288,0.0272
-3.900000e-07,0.074,0.062,0.028,0.0288
-3.896000e-07,0.074,0.056,0.028,0.0288
-3.892000e-07,0.076,0.058,0.028,0.028
-3.888000e-07,0.072,0.056,0.028,0.028
-3.884000e-07,0.07,0.054,0.0288,0.028
-3.880000e-07,0.072,0.05,0.028,0.028
-3.876000e-07,0.07,0.048,0.028,0.028
-3.872000e-07,0.072,0.042,0.0272,0.028
-3.868000e-07,0.076,0.038,0.028,0.0272
-3.864000e-07,0.072,0.038,0.0288,0.028
-3.860000e-07,0.074,0.034,0.0288,0.0264
-3.856000e-07,0.074,0.034,0.0264,0.0256
-3.852000e-07,0.074,0.034,0.0264,0.0264
-3.848000e-07,0.07,0.034,0.0272,0.0256
-3.844000e-07,0.07,0.032,0.028,0.0256
-3.840000e-07,0.074,0.04,0.028,0.0256
-3.836000e-07,0.074,0.044,0.0264,0.0256
-3.832000e-07,0.074,0.044,0.0272,0.0256
-3.828000e-07,0.074,0.044,0.0272,0.0248
-3.824000e-07,0.076,0.052,0.0288,0.0256
-3.820000e-07,0.074,0.058,0.028,0.028
-3.816000e-07,0.078,0.06,0.0288,0.0272
-3.812000e-07,0.076,0.064,0.028,0.0256
-3.808000e-07,0.078,0.066,0.0288,0.0264
-3.804000e-07,0.076,0.066,0.0288,0.0264
-3.800000e-07,0.074,0.066,0.0288,0.028
-3.796000e-07,0.074,0.062,0.0288,0.028
-3.792000e-07,0.074,0.062,0.028,0.028
-3.788000e-07,0.08,0.06,0.0288,0.0264
-3.784000e-07,0.076,0.056,0.0288,0.0272
-3.780000e-07,0.074,0.054,0.028,0.0272
-3.776000e-07,0.076,0.048,0.0288,0.0264
-3.772000e-07,0.074,0.042,0.0272,0.0264
-3.768000e-07,0.076,0.036,0.0272,0.0272
-3.764000e-07,0.076,0.034,0.0288,0.0264
-3.760000e-07,0.074,0.034,0.0272,0.0264
-3.756000e-07,0.074,0.034,0.028,0.0272
-3.752000e-07,0.072,0.032,0.028,0.0272
-3.748000e-07,0.074,0.034,0.0288,0.0272
-3.744000e-07,0.078,0.036,0.028,0.0264
-3.740000e-07,0.076,0.04,0.028,0.0264
-3.736000e-07,0.076,0.044,0.0288,0.0264
-3.732000e-07,0.078,0.05,0.0288,0.0264
-3.728000e-07,0.08,0.056,0.0288,0.028
-3.724000e-07,0.08,0.062,0.028,0.0288
-3.720000e-07,0.078,0.064,0.0288,0.028
-3.716000e-07,0.078,0.064,0.0288,0.0272
-3.712000e-07,0.08,0.066,0.0296,0.0272
-3.708000e-07,0.078,0.068,0.0288,0.0288
-3.704000e-07,0.078,0.068,0.0288,0.0288
-3.700000e-07,0.08,0.066,0.0288,0.0288
-3.696000e-07,0.08,0.064,0.0296,0.0288
-3.692000e-07,0.076,0.062,0.0288,0.0288
-3.688000e-07,0.076,0.06,0.0288,0.0272
-3.684000e-07,0.076,0.054,0.028,0.028
-3.680000e-07,0.076,0.046,0.0272,0.0264
-3.676000e-07,0.076,0.044,0.0272,0.0272
-3.672000e-07,0.076,0.042,0.0288,0.0288
-3.668000e-07,0.076,0.038,0.0272,0.0264
-3.664000e-07,0.072,0.034,0.028,0.0264
-3.660000e-07,0.078,0.034,0.0288,0.0272
-3.656000e-07,0.078,0.03,0.0288,0.0296
-3.652000e-07,0.076,0.032,0.028,0.028
-3.648000e-07,0.076,0.036,0.028,0.028
-3.644000e-07,0.076,0.04,0.0288,0.0288
-3.640000e-07,0.076,0.046,0.0288,0.0288
-3.636000e-07,0.078,0.05,0.0296,0.0288
-3.632000e-07,0.078,0.052,0.0296,0.0296
-3.628000e-07,0.08,0.058,0.0304,0.0288
-3.624000e-07,0.078,0.062,0.0304,0.0288
-3.620000e-07,0.08,0.07,0.0304,0.0296
-3.616000e-07,0.076,0.068,0.0312,0.0288
-3.612000e-07,0.076,0.07,0.0304,0.0288
-3.608000e-07,0.076,0.072,0.0304,0.028
-3.604000e-07,0.078,0.07,0.0304,0.0272
-3.600000e-07,0.074,0.07,0.0304,0.0272
-3.596000e-07,0.074,0.066,0.0304,0.028
-3.592000e-07,0.076,0.06,0.0296,0.0264
-3.588000e-07,0.074,0.058,0.0296,0.0256
-3.584000e-07,0.072,0.054,0.0296,0.0256
-3.580000e-07,0.076,0.046,0.028,0.0264
-3.576000e-07,0.078,0.042,0.0264,0.0256
-3.572000e-07,0.076,0.04,0.0256,0.0264
-3.568000e-07,0.074,0.034,0.0272,0.0248
-3.564000e-07,0.08,0.036,0.028,0.024
-3.560000e-07,0.078,0.032,0.0272,0.0272
-3.556000e-07,0.078,0.034,0.0272,0.0264
-3.552000e-07,0.08,0.034,0.0288,0.0272
-3.548000e-07,0.078,0.036,0.0272,0.0272
-3.544000e-07,0.08,0.046,0.0264,0.0264
-3.540000e-07,0.082,0.044,0.0256,0.028
-3.536000e-07,0.082,0.05,0.0264,0.028
-3.532000e-07,0.082,0.052,0.0288,0.0272
-3.528000e-07,0.082,0.06,0.0288,0.0272
-3.524000e-07,0.08,0.068,0.0312,0.0288
-3.520000e-07,0.08,0.068,0.0288,0.0272
-3.516000e-07,0.082,0.07,0.0288,0.0272
-3.512000e-07,0.078,0.072,0.0288,0.0272
-3.508000e-07,0.076,0.072,0.0288,0.028
-3.504000e-07,0.074,0.072,0.0296,0.0264
-3.500000e-07,0.076,0.066,0.0296,0.0264
-3.496000e-07,0.076,0.062,0.0288,0.0256
-3.492000e-07,0.078,0.058,0.028,0.0248
-3.488000e-07,0.08,0.054,0.028,0.0248
-3.484000e-07,0.076,0.052,0.0264,0.0248
-3.480000e-07,0.08,0.046,0.024,0.0232
-3.476000e-07,0.078,0.04,0.024,0.0232
-3.472000e-07,0.074,0.034,0.024,0.0232
-3.468000e-07,0.078,0.034,0.024,0.0224
-3.464000e-07,0.08,0.034,0.024,0.0232
-3.460000e-07,0.082,0.034,0.0256,0.024
-3.456000e-07,0.084,0.036,0.0264,0.024
-3.452000e-07,0.084,0.038,0.0256,0.024
-3.448000e-07,0.084,0.036,0.0256,0.0248
-3.444000e-07,0.082,0.038,0.0256,0.0256
-3.440000e-07,0.086,0.046,0.0264,0.0256
-3.436000e-07,0.084,0.056,0.0264,0.0248
-3.432000e-07,0.086,0.058,0.0256,0.0264
-3.428000e-07,0.088,0.06,0.0272,0.0264
-3.424000e-07,0.082,0.062,0.0272,0.0272
-3.420000e-07,0.082,0.068,0.028,0.0272
-3.416000e-07,0.078,0.068,0.0288,0.0264
-3.412000e-07,0.08,0.072,0.028,0.0264
-3.408000e-07,0.078,0.068,0.028,0.0264
-3.404000e-07,0.076,0.072,0.0288,0.0264
-3.400000e-07,0.076,0.066,0.028,0.0256
-3.396000e-07,0.076,0.064,0.0272,0.024
-3.392000e-07,0.076,0.056,0.028,0.0248
-3.388000e-07,0.076,0.048,0.0264,0.024
-3.384000e-07,0.074,0.048,0.0256,0.0232
-3.380000e-07,0.076,0.04,0.0248,0.0224
-3.376000e-07,0.078,0.038,0.0232,0.0224
-3.372000e-07,0.078,0.036,0.024,0.0216
-3.368000e-07,0.078,0.032,0.0224,0.0224
-3.364000e-07,0.084,0.03,0.0232,0.0224
-3.360000e-07,0.084,0.028,0.024,0.0216
-3.356000e-07,0.084,0.032,0.024,0.0216
-3.352000e-07,0.084,0.032,0.024,0.0216
-3.348000e-07,0.086,0.04,0.024,0.0224
-3.344000e-07,0.088,0.042,0.0256,0.0232
-3.340000e-07,0.088,0.046,0.0256,0.024
-3.336000e-07,0.088,0.05,0.0256,0.0248
-3.332000e-07,0.084,0.058,0.0248,0.0248
-3.328000e-07,0.082,0.062,0.0256,0.0248
-3.324000e-07,0.08,0.066,0.0264,0.0248
-3.320000e-07,0.078,0.068,0.0264,0.0248
-3.316000e-07,0.078,0.068,0.0256,0.0256
-3.312000e-07,0.078,0.066,0.0264,0.0256
-3.308000e-07,0.076,0.066,0.0256,0.0248
-3.304000e-07,0.074,0.064,0.0264,0.0248
-3.300000e-07,0.074,0.062,0.0264,0.0248
-3.296000e-07,0.074,0.06,0.0264,0.0224
-3.292000e-07,0.072,0.058,0.0256,0.0224
-3.288000e-07,0.07,0.048,0.024,0.0224
-3.284000e-07,0.078,0.044,0.0248,0.0224
-3.280000e-07,0.076,0.04,0.024,0.0224
-3.276000e-07,0.078,0.038,0.0232,0.0224
-3.272000e-07,0.076,0.036,0.0232,0.0224
-3.268000e-07,0.08,0.034,0.0248,0.0224
-3.264000e-07,0.08,0.034,0.0248,0.0232
-3.260000e-07,0.084,0.034,0.024,0.0232
-3.256000e-07,0.082,0.036,0.0256,0.0216
-3.252000e-07,0.082,0.04,0.0264,0.0224
-3.248000e-07,0.084,0.044,0.0256,0.0232
-3.244000e-07,0.084,0.048,0.0256,0.0224
-3.240000e-07,0.084,0.052,0.0256,0.0232
-3.236000e-07,0.084,0.056,0.0256,0.0224
-3.232000e-07,0.08,0.058,0.0256,0.024
-3.228000e-07,0.08,0.058,0.0264,0.0232
-3.224000e-07,0.082,0.062,0.0264,0.024
-3.220000e-07,0.082,0.062,0.0264,0.024
-3.216000e-07,0.078,0.064,0.0264,0.0232
-3.212000e-07,0.076,0.064,0.0264,0.024
-3.208000e-07,0.078,0.062,0.0256,0.024
-3.204000e-07,0.078,0.062,0.024,0.024
-3.200000e-07,0.078,0.056,0.024,0.0224
-3.196000e-07,0.076,0.056,0.0232,0.0224
-3.192000e-07,0.074,0.048,0.0224,0.0224
-3.188000e-07,0.074,0.046,0.0232,0.0224
-3.184000e-07,0.078,0.04,0.0224,0.0232
-3.180000e-07,0.08,0.038,0.0224,0.0224
-3.176000e-07,0.078,0.036,0.0232,0.0224
-3.172000e-07,0.08,0.036,0.0216,0.0216
-3.168000e-07,0.08,0.034,0.0232,0.0232
-3.164000e-07,0.084,0.04,0.0248,0.0232
-3.160000e-07,0.088,0.038,0.024,0.0232
-3.156000e-07,0.09,0.044,0.0248,0.024
-3.152000e-07,0.092,0.046,0.0256,0.024
-3.148000e-07,0.088,0.048,0.0256,0.0224
-3.144000e-07,0.092,0.052,0.024,0.0232
-3.140000e-07,0.09,0.054,0.024,0.0232
-3.136000e-07,0.088,0.056,0.0256,0.0248
-3.132000e-07,0.088,0.062,0.0264,0.0232
-3.128000e-07,0.086,0.064,0.0256,0.0232
-3.124000e-07,0.088,0.066,0.0248,0.0232
-3.120000e-07,0.086,0.064,0.0256,0.0224
-3.116000e-07,0.08,0.06,0.0256,0.0208
-3.112000e-07,0.08,0.06,0.024,0.0224
-3.108000e-07,0.08,0.058,0.024,0.0224
-3.104000e-07,0.076,0.054,0.0232,0.0208
-3.100000e-07,0.076,0.046,0.0224,0.0208
-3.096000e-07,0.078,0.046,0.0224,0.02
-3.092000e-07,0.074,0.046,0.0208,0.0208
-3.088000e-07,0.074,0.042,0.0216,0.0208
-3.084000e-07,0.078,0.042,0.0232,0.0208
-3.080000e-07,0.08,0.04,0.0224,0.0224
-3.076000e-07,0.08,0.04,0.0224,0.0232
-3.072000e-07,0.08,0.04,0.0232,0.0224
-3.068000e-07,0.084,0.042,0.0232,0.0232
-3.064000e-07,0.082,0.044,0.0248,0.024
-3.060000e-07,0.088,0.046,0.0232,0.0232
-3.056000e-07,0.088,0.048,0.0248,0.024
-3.052000e-07,0.09,0.05,0.0256,0.0256
-3.048000e-07,0.092,0.054,0.0264,0.0256
-3.044000e-07,0.092,0.058,0.028,0.0256
-3.040000e-07,0.094,0.06,0.0272,0.0264
-3.036000e-07,0.09,0.062,0.028,0.0256
-3.032000e-07,0.088,0.064,0.028,0.0256
-3.028000e-07,0.088,0.062,0.028,0.0256
-3.024000e-07,0.084,0.06,0.028,0.0264
-3.020000e-07,0.082,0.06,0.0264,0.0248
-3.016000e-07,0.08,0.056,0.0256,0.024
-3.012000e-07,0.08,0.056,0.0256,0.0216
-3.008000e-07,0.076,0.052,0.0256,0.0208
-3.004000e-07,0.076,0.05,0.024,0.0224
-3.000000e-07,0.074,0.048,0.0232,0.0208
-2.996000e-07,0.076,0.044,0.0224,0.0216
-2.992000e-07,0.076,0.04,0.0224,0.0224
-2.988000e-07,0.076,0.04,0.0232,0.0216
-2.984000e-07,0.078,0.042,0.0232,0.0224
-2.980000e-07,0.08,0.046,0.0224,0.0232
-2.976000e-07,0.082,0.044,0.0232,0.024
-2.972000e-07,0.08,0.048,0.024,0.0248
-2.968000e-07,0.084,0.05,0.0256,0.0256
-2.964000e-07,0.086,0.052,0.0264,0.0256
-2.960000e-07,0.09,0.056,0.028,0.0256
-2.956000e-07,0.09,0.06,0.0272,0.0264
-2.952000e-07,0.092,0.06,0.0296,0.0288
-2.948000e-07,0.092,0.066,0.0304,0.0296
-2.944000e-07,0.092,0.066,0.0296,0.0288
-2.940000e-07,0.094,0.068,0.0304,0.0296
-2.936000e-07,0.092,0.068,0.0312,0.0312
-2.932000e-07,0.086,0.068,0.0304,0.0288
-2.928000e-07,0.086,0.066,0.0304,0.0288
-2.924000e-07,0.084,0.066,0.0304,0.0264
-2.920000e-07,0.084,0.06,0.0304,0.0272
-2.916000e-07,0.082,0.054,0.0288,0.0264
-2.912000e-07,0.078,0.048,0.028,0.0256
-2.908000e-07,0.08,0.046,0.0264,0.0248
-2.904000e-07,0.074,0.046,0.0256,0.024
-2.900000e-07,0.076,0.044,0.0256,0.0224
-2.896000e-07,0.074,0.04,0.0256,0.0232
-2.892000e-07,0.076,0.038,0.0256,0.0232
-2.888000e-07,0.076,0.038,0.0256,0.0232
-2.884000e-07,0.08,0.04,0.0248,0.0224
-2.880000e-07,0.078,0.044,0.0256,0.0248
-2.876000e-07,0.08,0.046,0.0256,0.0248
-2.872000e-07,0.086,0.048,0.0256,0.0248
-2.868000e-07,0.084,0.054,0.0264,0.0264
-2.864000e-07,0.086,0.062,0.0288,0.0288
-2.860000e-07,0.09,0.068,0.028,0.0312
-2.856000e-07,0.092,0.072,0.0288,0.0312
-2.852000e-07,0.092,0.072,0.0304,0.0312
-2.848000e-07,0.096,0.076,0.0304,0.0312
-2.844000e-07,0.094,0.072,0.032,0.0328
-2.840000e-07,0.098,0.072,0.0328,0.0328
-2.836000e-07,0.094,0.074,0.0328,0.0328
-2.832000e-07,0.092,0.072,0.0328,0.0328
-2.828000e-07,0.092,0.072,0.0336,0.0304
-2.824000e-07,0.09,0.068,0.0328,0.0304
-2.820000e-07,0.09,0.06,0.0312,0.0304
-2.816000e-07,0.086,0.054,0.0312,0.0288
-2.812000e-07,0.082,0.05,0.0312,0.028
