IVs/2611/B/tek0008ALL.csv

Model,DPO3034
Firmware Version,2.16

Point Format,Y,,,
Horizontal Units,S,,,
Horizontal Scale,4e-05,,,
Sample Interval,4e-10,,,
Record Length,1e+06,,,
Gating,45.0% to 55.00%,45.0% to 55.00%,45.0% to 55.00%,45.0% to 55.00%
Probe Attenuation,1,1,1,1
Vertical Units,V,V,V,V
Vertical Offset,0,0,0,0
Vertical Scale,0.1,0.1,0.02,0.02
Label,,,,
TIME,CH1,CH2,CH3,CH4
-2.565200e-06,0.228,0.106,-0.0016,-0.0012
-2.564800e-06,0.24,0.11,-0.0016,-0.0012
-2.564400e-06,0.236,0.106,-0.0008,-0.0028
-2.564000e-06,0.228,0.106,-0.0008,-0.0036
-2.563600e-06,0.228,0.118,-0.0016,-0.002
-2.563200e-06,0.232,0.126,-0.0024,-0.0028
-2.562800e-06,0.224,0.13,-0.0032,-0.0028
-2.562400e-06,0.228,0.13,-0.0032,-0.0036
-2.562000e-06,0.228,0.13,-0.0032,-0.0036
-2.561600e-06,0.232,0.134,-0.0032,-0.0012
-2.561200e-06,0.224,0.134,-0.0024,-0.0036
-2.560800e-06,0.224,0.126,-0.0024,-0.0036
-2.560400e-06,0.22,0.134,-0.0032,-0.002
-2.560000e-06,0.232,0.13,-0.0024,-0.0012
-2.559600e-06,0.232,0.13,-0.0032,-0.0004
-2.559200e-06,0.224,0.126,-0.004,0.0004
-2.558800e-06,0.224,0.13,-0.0024,-0.0012
-2.558400e-06,0.224,0.13,-0.0016,-0.0012
-2.558000e-06,0.22,0.126,-0.0016,0.0004
-2.557600e-06,0.224,0.122,-0.0008,0.0004
-2.557200e-06,0.224,0.114,-0.0008,0.002
-2.556800e-06,0.224,0.118,-0.0008,0.002
-2.556400e-06,0.22,0.11,-0.0008,0.0012
-2.556000e-06,0.224,0.11,0.0008,0.0036
-2.555600e-06,0.224,0.118,0,0.0028
-2.555200e-06,0.232,0.114,0.0008,0.0012
-2.554800e-06,0.228,0.118,-0.0008,0.0004
-2.554400e-06,0.236,0.118,0,0.0004
-2.554000e-06,0.232,0.122,0,-0.0012
-2.553600e-06,0.232,0.126,-0.0008,-0.0004
-2.553200e-06,0.236,0.122,-0.0008,0.0004
-2.552800e-06,0.232,0.126,0,-0.0012
-2.552400e-06,0.228,0.126,-0.0008,-0.0012
-2.552000e-06,0.232,0.13,-0.0008,-0.002
-2.551600e-06,0.228,0.13,-0.0008,-0.0012
-2.551200e-06,0.224,0.13,-0.0016,-0.0004
-2.550800e-06,0.228,0.126,-0.0016,-0.0012
-2.550400e-06,0.236,0.13,-0.0032,-0.002
-2.550000e-06,0.224,0.138,-0.0024,-0.0028
-2.549600e-06,0.224,0.13,-0.0032,-0.0036
-2.549200e-06,0.232,0.126,-0.0032,-0.0028
-2.548800e-06,0.228,0.126,-0.0024,-0.0028
-2.548400e-06,0.228,0.118,-0.0024,-0.002
-2.548000e-06,0.22,0.114,-0.0024,-0.0012
-2.547600e-06,0.22,0.118,-0.0024,-0.0004
-2.547200e-06,0.224,0.13,-0.0016,-0.0012
-2.546800e-06,0.224,0.122,-0.0016,-0.0012
-2.546400e-06,0.224,0.118,-0.0008,-0.0004
-2.546000e-06,0.232,0.114,-0.0008,0.0004
-2.545600e-06,0.228,0.114,0,-0.0004
-2.545200e-06,0.228,0.118,-0.0008,-0.0004
-2.544800e-06,0.236,0.118,-0.0008,0.0004
-2.544400e-06,0.232,0.114,-0.0016,0.0004
-2.544000e-06,0.236,0.118,-0.0008,-0.0004
-2.543600e-06,0.224,0.126,-0.0008,0.0004
-2.543200e-06,0.228,0.126,-0.0008,-0.0012
-2.542800e-06,0.24,0.126,-0.0008,-0.0004
-2.542400e-06,0.236,0.13,-0.0008,-0.0004
-2.542000e-06,0.232,0.13,-0.0016,-0.0028
-2.541600e-06,0.228,0.13,-0.0024,-0.0036
-2.541200e-06,0.228,0.122,-0.0024,-0.0028
-2.540800e-06,0.232,0.126,-0.0032,-0.002
-2.540400e-06,0.224,0.13,-0.004,-0.0036
-2.540000e-06,0.232,0.126,-0.004,-0.0036
-2.539600e-06,0.224,0.122,-0.004,-0.0036
-2.539200e-06,0.22,0.118,-0.004,-0.0036
-2.538800e-06,0.228,0.122,-0.0048,-0.0036
-2.538400e-06,0.228,0.118,-0.0048,-0.0036
-2.538000e-06,0.236,0.114,-0.0048,-0.0028
-2.537600e-06,0.236,0.114,-0.004,-0.0028
-2.537200e-06,0.236,0.114,-0.0024,-0.0012
-2.536800e-06,0.224,0.114,-0.0032,-0.0012
-2.536400e-06,0.228,0.118,-0.0032,-0.0012
-2.536000e-06,0.232,0.126,-0.0024,-0.0004
-2.535600e-06,0.236,0.118,-0.0016,-0.0012
-2.535200e-06,0.24,0.118,-0.0016,-0.0012
-2.534800e-06,0.232,0.118,-0.0008,-0.0012
-2.534400e-06,0.232,0.122,-0.0024,-0.0012
-2.534000e-06,0.236,0.126,-0.0016,0.0012
-2.533600e-06,0.236,0.13,-0.0016,0.0004
-2.533200e-06,0.232,0.13,-0.0008,-0.0012
-2.532800e-06,0.236,0.126,-0.0016,-0.0012
-2.532400e-06,0.236,0.126,-0.0008,-0.0012
-2.532000e-06,0.236,0.126,-0.0024,-0.0012
-2.531600e-06,0.232,0.126,-0.0016,-0.0012
-2.531200e-06,0.228,0.13,-0.0032,-0.002
-2.530800e-06,0.224,0.122,-0.0024,-0.0012
-2.530400e-06,0.224,0.126,-0.0032,-0.0036
-2.530000e-06,0.232,0.126,-0.0032,-0.0036
-2.529600e-06,0.224,0.118,-0.0032,-0.0036
-2.529200e-06,0.22,0.11,-0.004,-0.0044
-2.528800e-06,0.224,0.11,-0.004,-0.0036
-2.528400e-06,0.228,0.11,-0.0048,-0.0036
-2.528000e-06,0.22,0.11,-0.0032,-0.0036
-2.527600e-06,0.212,0.106,-0.0024,-0.0036
-2.527200e-06,0.22,0.114,-0.0024,-0.0028
-2.526800e-06,0.224,0.11,-0.0024,-0.0028
-2.526400e-06,0.232,0.114,-0.0032,-0.0036
-2.526000e-06,0.228,0.126,-0.0032,-0.0036
-2.525600e-06,0.236,0.122,-0.0032,-0.0028
-2.525200e-06,0.236,0.126,-0.0016,-0.0012
-2.524800e-06,0.224,0.126,-0.0024,-0.0012
-2.524400e-06,0.228,0.126,-0.0024,-0.0028
-2.524000e-06,0.232,0.138,-0.0032,-0.0012
-2.523600e-06,0.224,0.138,-0.0016,-0.0012
-2.523200e-06,0.232,0.138,-0.0008,0.0004
-2.522800e-06,0.232,0.138,-0.0016,-0.0012
-2.522400e-06,0.228,0.134,-0.0024,-0.0028
-2.522000e-06,0.228,0.134,-0.0016,-0.002
-2.521600e-06,0.232,0.134,-0.0024,-0.002
-2.521200e-06,0.232,0.13,-0.0032,-0.0012
-2.520800e-06,0.228,0.122,-0.004,-0.0012
-2.520400e-06,0.228,0.118,-0.0024,-0.0036
-2.520000e-06,0.228,0.114,-0.004,-0.0028
-2.519600e-06,0.228,0.11,-0.0032,-0.002
-2.519200e-06,0.224,0.106,-0.0024,-0.0044
-2.518800e-06,0.22,0.114,-0.0032,-0.0036
-2.518400e-06,0.224,0.11,-0.0024,-0.0028
-2.518000e-06,0.232,0.11,-0.0032,-0.0028
-2.517600e-06,0.228,0.11,-0.0024,-0.0036
-2.517200e-06,0.228,0.114,-0.0032,-0.0052
-2.516800e-06,0.232,0.118,-0.004,-0.006
-2.516400e-06,0.232,0.118,-0.0032,-0.0052
-2.516000e-06,0.228,0.118,-0.0032,-0.006
-2.515600e-06,0.232,0.118,-0.004,-0.0044
-2.515200e-06,0.232,0.134,-0.0032,-0.0028
-2.514800e-06,0.228,0.13,-0.004,-0.002
-2.514400e-06,0.236,0.13,-0.0024,-0.0012
-2.514000e-06,0.244,0.13,-0.0032,-0.0012
-2.513600e-06,0.232,0.134,-0.0024,-0.0004
-2.513200e-06,0.232,0.134,-0.0024,-0.0012
-2.512800e-06,0.236,0.138,-0.0016,-0.002
-2.512400e-06,0.232,0.134,-0.0016,-0.0012
-2.512000e-06,0.224,0.134,-0.0016,-0.0012
-2.511600e-06,0.228,0.134,-0.0008,-0.0004
-2.511200e-06,0.228,0.122,-0.0016,0.0012
-2.510800e-06,0.228,0.126,-0.0008,0.002
-2.510400e-06,0.228,0.13,-0.0024,0.0012
-2.510000e-06,0.232,0.118,-0.0024,0.0012
-2.509600e-06,0.228,0.114,-0.0008,0.0004
-2.509200e-06,0.228,0.114,-0.0008,0.0004
-2.508800e-06,0.236,0.118,0,0.0004
-2.508400e-06,0.232,0.114,-0.0008,-0.0004
-2.508000e-06,0.232,0.114,-0.0008,-0.0012
-2.507600e-06,0.224,0.114,-0.0008,-0.0012
-2.507200e-06,0.224,0.11,-0.0008,-0.0028
-2.506800e-06,0.236,0.114,-0.0016,-0.002
-2.506400e-06,0.236,0.126,-0.0024,-0.0012
-2.506000e-06,0.228,0.126,-0.004,-0.0036
-2.505600e-06,0.224,0.126,-0.0032,-0.0028
-2.505200e-06,0.236,0.13,-0.0024,-0.0044
-2.504800e-06,0.236,0.134,-0.0032,-0.0036
-2.504400e-06,0.228,0.138,-0.0032,-0.0036
-2.504000e-06,0.224,0.138,-0.0032,-0.0036
-2.503600e-06,0.232,0.126,-0.0032,-0.002
-2.503200e-06,0.232,0.134,-0.0032,-0.0036
-2.502800e-06,0.224,0.134,-0.0048,-0.0052
-2.502400e-06,0.232,0.134,-0.004,-0.0028
-2.502000e-06,0.232,0.126,-0.0056,-0.0028
-2.501600e-06,0.224,0.122,-0.004,-0.002
-2.501200e-06,0.224,0.122,-0.004,-0.0012
-2.500800e-06,0.22,0.118,-0.0032,-0.0012
-2.500400e-06,0.224,0.118,-0.0016,-0.0004
-2.500000e-06,0.232,0.114,-0.0016,0.0004
-2.499600e-06,0.232,0.114,-0.0016,0.0004
-2.499200e-06,0.228,0.114,-0.0008,0.0004
-2.498800e-06,0.224,0.114,-0.0008,-0.0012
-2.498400e-06,0.22,0.122,-0.0008,-0.0012
-2.498000e-06,0.22,0.118,-0.0008,0.0004
-2.497600e-06,0.228,0.114,-0.0008,-0.0004
-2.497200e-06,0.224,0.118,-0.0008,-0.0012
-2.496800e-06,0.232,0.122,-0.0024,-0.0004
-2.496400e-06,0.228,0.122,-0.0024,-0.0012
-2.496000e-06,0.224,0.122,-0.0008,-0.002
-2.495600e-06,0.224,0.126,-0.0008,-0.002
-2.495200e-06,0.232,0.126,-0.0008,-0.0036
-2.494800e-06,0.232,0.134,-0.0008,-0.0012
-2.494400e-06,0.232,0.134,-0.0024,-0.0028
-2.494000e-06,0.224,0.134,-0.0024,-0.0028
-2.493600e-06,0.228,0.126,-0.0024,-0.0036
-2.493200e-06,0.232,0.126,-0.0032,-0.0036
-2.492800e-06,0.236,0.126,-0.0032,-0.0036
-2.492400e-06,0.236,0.13,-0.0008,-0.0036
-2.492000e-06,0.236,0.13,-0.0024,-0.0036
-2.491600e-06,0.236,0.126,-0.0032,-0.002
-2.491200e-06,0.232,0.118,-0.0032,-0.0028
-2.490800e-06,0.232,0.118,-0.0024,-0.0004
-2.490400e-06,0.236,0.118,-0.0024,0.0004
-2.490000e-06,0.236,0.11,-0.0016,-0.0004
-2.489600e-06,0.232,0.106,-0.0016,-0.0004
-2.489200e-06,0.232,0.106,-0.0016,-0.0004
-2.488800e-06,0.224,0.102,-0.0008,0.0004
-2.488400e-06,0.232,0.106,0,-0.0004
-2.488000e-06,0.228,0.114,-0.0008,0.0004
-2.487600e-06,0.224,0.122,-0.0008,-0.0004
-2.487200e-06,0.224,0.122,-0.0008,-0.0012
-2.486800e-06,0.232,0.114,-0.0008,0.0004
-2.486400e-06,0.236,0.122,0,0.0004
-2.486000e-06,0.232,0.126,-0.0008,0.0012
-2.485600e-06,0.232,0.13,0,0.002
-2.485200e-06,0.232,0.134,-0.0008,0.0004
-2.484800e-06,0.228,0.134,-0.0008,-0.0012
-2.484400e-06,0.228,0.126,-0.0008,-0.0012
-2.484000e-06,0.232,0.13,-0.0008,-0.0012
-2.483600e-06,0.232,0.13,-0.0016,-0.002
-2.483200e-06,0.232,0.13,-0.0024,-0.002
-2.482800e-06,0.232,0.13,-0.0024,-0.0012
-2.482400e-06,0.236,0.13,-0.0024,-0.0012
-2.482000e-06,0.232,0.126,-0.0032,-0.0012
-2.481600e-06,0.232,0.126,-0.0024,-0.0004
-2.481200e-06,0.232,0.126,-0.0008,0.0004
-2.480800e-06,0.232,0.126,-0.0008,0.0004
-2.480400e-06,0.232,0.118,-0.0008,0.0012
-2.480000e-06,0.232,0.114,0,0.0012
-2.479600e-06,0.228,0.11,0,0.002
-2.479200e-06,0.228,0.122,0,0.0012
-2.478800e-06,0.232,0.11,0,0.0012
-2.478400e-06,0.228,0.11,0,0.0004
-2.478000e-06,0.224,0.118,0,0.0004
-2.477600e-06,0.224,0.118,-0.0008,0.0012
-2.477200e-06,0.228,0.126,0,0.0012
-2.476800e-06,0.232,0.126,0,0.0012
-2.476400e-06,0.228,0.126,-0.0008,0.002
-2.476000e-06,0.228,0.126,0.0016,0.002
-2.475600e-06,0.232,0.126,0.0008,0.0012
-2.475200e-06,0.232,0.126,0.0008,0.0004
-2.474800e-06,0.228,0.13,-0.0008,0.0004
-2.474400e-06,0.224,0.134,-0.0008,0.0004
-2.474000e-06,0.224,0.13,0,-0.0004
-2.473600e-06,0.224,0.13,-0.0008,-0.0004
-2.473200e-06,0.224,0.13,-0.0008,-0.002
-2.472800e-06,0.224,0.13,-0.0016,-0.0028
-2.472400e-06,0.224,0.122,-0.0016,-0.0028
-2.472000e-06,0.224,0.13,-0.0024,-0.0012
-2.471600e-06,0.232,0.126,-0.0016,-0.0012
-2.471200e-06,0.232,0.122,-0.0008,-0.002
-2.470800e-06,0.228,0.126,-0.0008,-0.0012
-2.470400e-06,0.228,0.122,-0.0008,-0.0028
-2.470000e-06,0.228,0.118,-0.0008,-0.002
-2.469600e-06,0.232,0.118,-0.0008,-0.0012
-2.469200e-06,0.228,0.11,-0.0008,-0.002
-2.468800e-06,0.22,0.114,-0.0008,-0.0004
-2.468400e-06,0.228,0.114,-0.0008,-0.0004
-2.468000e-06,0.232,0.118,-0.0032,-0.0004
-2.467600e-06,0.224,0.118,-0.0008,-0.0004
-2.467200e-06,0.228,0.126,-0.0008,0.0012
-2.466800e-06,0.224,0.126,-0.0008,0.0004
-2.466400e-06,0.224,0.126,-0.0008,0.0004
-2.466000e-06,0.228,0.13,-0.0008,-0.0004
-2.465600e-06,0.216,0.13,0,0.0004
-2.465200e-06,0.224,0.134,-0.0008,-0.0012
-2.464800e-06,0.228,0.13,-0.0008,-0.0004
-2.464400e-06,0.224,0.138,-0.0008,-0.0012
-2.464000e-06,0.228,0.134,-0.0024,-0.0012
-2.463600e-06,0.224,0.13,-0.0016,-0.0012
-2.463200e-06,0.228,0.13,-0.0016,-0.0028
-2.462800e-06,0.228,0.13,-0.0008,-0.0012
-2.462400e-06,0.236,0.126,-0.0008,-0.002
-2.462000e-06,0.232,0.118,-0.0024,-0.0028
-2.461600e-06,0.228,0.126,-0.0016,-0.0044
-2.461200e-06,0.232,0.118,-0.0008,-0.0036
-2.460800e-06,0.236,0.118,-0.0024,-0.0036
-2.460400e-06,0.236,0.126,-0.0032,-0.002
-2.460000e-06,0.24,0.118,-0.0024,-0.0028
-2.459600e-06,0.232,0.11,-0.0024,-0.0036
-2.459200e-06,0.232,0.114,-0.004,-0.0028
-2.458800e-06,0.232,0.11,-0.0032,-0.0028
-2.458400e-06,0.232,0.106,-0.004,-0.0028
-2.458000e-06,0.232,0.114,-0.004,-0.002
-2.457600e-06,0.232,0.126,-0.0032,-0.002
-2.457200e-06,0.228,0.126,-0.0024,-0.0036
-2.456800e-06,0.232,0.126,-0.0032,-0.0028
-2.456400e-06,0.236,0.122,-0.0032,-0.0004
-2.456000e-06,0.228,0.126,-0.0024,-0.0004
-2.455600e-06,0.232,0.126,-0.0024,-0.0004
-2.455200e-06,0.228,0.126,-0.0048,0.0004
-2.454800e-06,0.228,0.126,-0.0024,-0.0004
-2.454400e-06,0.228,0.126,-0.0032,-0.0012
-2.454000e-06,0.232,0.134,-0.0016,-0.0004
-2.453600e-06,0.232,0.134,-0.0024,-0.0004
-2.453200e-06,0.232,0.126,-0.0024,-0.0004
-2.452800e-06,0.228,0.126,-0.0008,-0.0004
-2.452400e-06,0.224,0.13,-0.0008,0.0004
-2.452000e-06,0.228,0.126,-0.0008,-0.0004
-2.451600e-06,0.236,0.122,-0.0008,-0.0012
-2.451200e-06,0.232,0.126,-0.0008,-0.0004
-2.450800e-06,0.232,0.122,0,0.0004
-2.450400e-06,0.232,0.122,-0.0008,-0.002
-2.450000e-06,0.232,0.122,-0.0008,-0.002
-2.449600e-06,0.232,0.118,-0.0008,-0.0012
-2.449200e-06,0.232,0.114,-0.0008,-0.0012
-2.448800e-06,0.232,0.118,-0.0016,0.0004
-2.448400e-06,0.228,0.122,-0.0008,-0.0004
-2.448000e-06,0.232,0.118,-0.0008,-0.0012
-2.447600e-06,0.228,0.114,-0.0008,-0.0004
-2.447200e-06,0.224,0.126,0,0.0004
-2.446800e-06,0.228,0.122,-0.0008,0.0004
-2.446400e-06,0.228,0.118,-0.0016,0.0004
-2.446000e-06,0.22,0.122,-0.0008,0.0004
-2.445600e-06,0.216,0.126,-0.0024,-0.0012
-2.445200e-06,0.22,0.13,-0.0016,-0.0004
-2.444800e-06,0.22,0.126,-0.0008,-0.0004
-2.444400e-06,0.216,0.126,-0.0008,-0.0004
-2.444000e-06,0.22,0.13,-0.0008,0.0004
-2.443600e-06,0.224,0.126,-0.0008,0.0004
-2.443200e-06,0.224,0.126,-0.0008,-0.0004
-2.442800e-06,0.224,0.126,-0.0008,-0.0012
-2.442400e-06,0.232,0.126,-0.0016,0.0004
-2.442000e-06,0.232,0.118,-0.0008,-0.0004
-2.441600e-06,0.228,0.13,-0.0008,-0.0004
-2.441200e-06,0.224,0.13,-0.0008,-0.002
-2.440800e-06,0.232,0.126,-0.0008,-0.0012
-2.440400e-06,0.236,0.126,-0.0008,-0.002
-2.440000e-06,0.232,0.126,-0.0016,-0.0036
-2.439600e-06,0.232,0.122,-0.0024,-0.0036
-2.439200e-06,0.232,0.126,-0.0032,-0.0028
-2.438800e-06,0.228,0.118,-0.0016,-0.0028
-2.438400e-06,0.228,0.11,-0.0032,-0.0028
-2.438000e-06,0.228,0.114,-0.0016,-0.0012
-2.437600e-06,0.232,0.114,-0.0008,-0.002
-2.437200e-06,0.228,0.114,-0.0016,-0.0028
-2.436800e-06,0.224,0.118,-0.0024,-0.002
-2.436400e-06,0.232,0.118,-0.004,-0.0004
-2.436000e-06,0.228,0.114,-0.0024,-0.0012
-2.435600e-06,0.224,0.118,-0.0024,-0.002
-2.435200e-06,0.236,0.122,-0.0024,-0.0012
-2.434800e-06,0.228,0.122,-0.0024,-0.0012
-2.434400e-06,0.228,0.118,-0.0024,-0.0012
-2.434000e-06,0.228,0.126,-0.0008,-0.0012
-2.433600e-06,0.228,0.126,-0.0016,-0.002
-2.433200e-06,0.224,0.118,-0.0008,-0.0012
-2.432800e-06,0.228,0.114,-0.0008,-0.0012
-2.432400e-06,0.232,0.122,-0.0016,-0.0012
-2.432000e-06,0.236,0.134,-0.0008,-0.0012
-2.431600e-06,0.232,0.13,-0.0008,-0.0012
-2.431200e-06,0.228,0.13,-0.0024,-0.0028
-2.430800e-06,0.228,0.134,-0.0032,-0.0028
-2.430400e-06,0.232,0.134,-0.0032,-0.0012
-2.430000e-06,0.236,0.126,-0.0032,-0.0012
-2.429600e-06,0.236,0.118,-0.0032,-0.0012
-2.429200e-06,0.232,0.126,-0.0024,-0.002
-2.428800e-06,0.232,0.126,-0.0024,0.0004
-2.428400e-06,0.236,0.122,-0.0024,-0.0012
-2.428000e-06,0.236,0.122,-0.0024,-0.0028
-2.427600e-06,0.224,0.118,-0.0032,-0.002
-2.427200e-06,0.232,0.118,-0.0032,-0.002
-2.426800e-06,0.232,0.126,-0.0024,-0.0012
-2.426400e-06,0.232,0.118,-0.0024,-0.002
-2.426000e-06,0.232,0.118,-0.0032,-0.0012
-2.425600e-06,0.232,0.114,-0.0024,-0.0012
-2.425200e-06,0.232,0.11,-0.0024,-0.0004
-2.424800e-06,0.232,0.118,-0.0024,-0.0004
-2.424400e-06,0.228,0.114,-0.0024,-0.0012
-2.424000e-06,0.232,0.118,-0.0008,-0.002
-2.423600e-06,0.236,0.118,-0.0024,-0.0012
-2.423200e-06,0.232,0.118,-0.0008,-0.002
-2.422800e-06,0.232,0.122,-0.0024,-0.0012
-2.422400e-06,0.224,0.118,-0.0024,-0.0012
-2.422000e-06,0.22,0.122,-0.0016,-0.0012
-2.421600e-06,0.228,0.122,-0.0016,-0.0028
-2.421200e-06,0.232,0.126,-0.0008,-0.002
-2.420800e-06,0.232,0.13,-0.0016,-0.002
-2.420400e-06,0.228,0.126,-0.0032,-0.0012
-2.420000e-06,0.224,0.134,-0.0032,-0.0012
-2.419600e-06,0.224,0.126,-0.0016,-0.0012
-2.419200e-06,0.228,0.126,-0.0024,-0.002
-2.418800e-06,0.228,0.13,-0.0024,-0.0012
-2.418400e-06,0.232,0.126,-0.0024,-0.0012
-2.418000e-06,0.228,0.126,-0.0008,-0.0012
-2.417600e-06,0.232,0.118,-0.0008,0.0004
-2.417200e-06,0.232,0.122,-0.0008,0.0004
-2.416800e-06,0.224,0.114,-0.0008,0.0004
-2.416400e-06,0.232,0.118,-0.0008,-0.0004
-2.416000e-06,0.224,0.122,-0.0008,0.0004
-2.415600e-06,0.22,0.118,-0.0008,0.0004
-2.415200e-06,0.224,0.114,0,0.0004
-2.414800e-06,0.224,0.114,0,-0.0012
-2.414400e-06,0.224,0.11,-0.0008,-0.0004
-2.414000e-06,0.228,0.114,0.0008,-0.0012
-2.413600e-06,0.232,0.118,0,0.0004
-2.413200e-06,0.228,0.122,-0.0008,0.0004
-2.412800e-06,0.236,0.118,-0.0008,-0.0004
-2.412400e-06,0.224,0.118,-0.0008,-0.0012
-2.412000e-06,0.228,0.122,-0.0024,-0.0012
-2.411600e-06,0.224,0.122,-0.0032,-0.0036
-2.411200e-06,0.224,0.122,-0.0024,-0.0036
-2.410800e-06,0.22,0.126,-0.0024,-0.0028
-2.410400e-06,0.224,0.126,-0.0024,-0.002
-2.410000e-06,0.22,0.122,-0.0032,-0.0028
-2.409600e-06,0.224,0.126,-0.0032,-0.0012
-2.409200e-06,0.224,0.126,-0.004,-0.0012
-2.408800e-06,0.224,0.126,-0.0024,-0.002
-2.408400e-06,0.228,0.13,-0.0032,-0.0004
-2.408000e-06,0.228,0.122,-0.004,-0.002
-2.407600e-06,0.224,0.118,-0.0032,-0.0028
-2.407200e-06,0.232,0.118,-0.0032,-0.0012
-2.406800e-06,0.232,0.122,-0.0008,-0.0004
-2.406400e-06,0.232,0.118,-0.0024,0.0004
-2.406000e-06,0.232,0.118,-0.0008,0.0004
-2.405600e-06,0.232,0.118,-0.0016,-0.0004
-2.405200e-06,0.24,0.118,0,-0.0012
-2.404800e-06,0.232,0.118,0,-0.0012
-2.404400e-06,0.224,0.122,0,-0.0012
-2.404000e-06,0.232,0.118,0,-0.0012
-2.403600e-06,0.232,0.126,-0.0008,-0.0004
-2.403200e-06,0.236,0.122,-0.0016,-0.0012
-2.402800e-06,0.232,0.118,-0.0024,-0.002
-2.402400e-06,0.228,0.126,-0.0024,-0.0012
-2.402000e-06,0.232,0.122,-0.0032,-0.0028
-2.401600e-06,0.236,0.13,-0.0024,-0.0036
-2.401200e-06,0.236,0.134,-0.0024,-0.0044
-2.400800e-06,0.232,0.134,-0.0032,-0.0036
-2.400400e-06,0.228,0.13,-0.004,-0.0036
-2.400000e-06,0.232,0.13,-0.0048,-0.0028
-2.399600e-06,0.232,0.138,-0.0024,-0.0028
-2.399200e-06,0.236,0.134,-0.0032,-0.0012
-2.398800e-06,0.232,0.126,-0.0048,-0.002
-2.398400e-06,0.232,0.126,-0.004,-0.0012
-2.398000e-06,0.236,0.126,-0.0048,-0.002
-2.397600e-06,0.232,0.114,-0.0032,-0.0012
-2.397200e-06,0.228,0.118,-0.0024,0.0004
-2.396800e-06,0.232,0.118,-0.0008,0.0004
-2.396400e-06,0.232,0.114,-0.0024,0.0004
-2.396000e-06,0.236,0.118,-0.0016,0.0004
-2.395600e-06,0.228,0.114,-0.0008,0.0012
-2.395200e-06,0.232,0.114,-0.0008,0.0012
-2.394800e-06,0.228,0.114,0,0.0004
-2.394400e-06,0.24,0.122,0,0.0012
-2.394000e-06,0.236,0.126,-0.0008,0.0004
-2.393600e-06,0.24,0.126,-0.0008,0.0004
-2.393200e-06,0.24,0.122,-0.0016,0.0004
-2.392800e-06,0.228,0.122,-0.0008,-0.0004
-2.392400e-06,0.232,0.126,-0.0008,-0.002
-2.392000e-06,0.236,0.122,-0.0008,-0.0028
-2.391600e-06,0.224,0.118,-0.0016,-0.002
-2.391200e-06,0.228,0.126,-0.0032,-0.002
-2.390800e-06,0.232,0.126,-0.0024,-0.0028
-2.390400e-06,0.228,0.13,-0.0024,-0.002
-2.390000e-06,0.228,0.13,-0.0032,-0.0028
-2.389600e-06,0.224,0.13,-0.0032,-0.0036
-2.389200e-06,0.228,0.122,-0.0024,-0.0012
-2.388800e-06,0.216,0.126,-0.0048,-0.0012
-2.388400e-06,0.228,0.126,-0.0048,-0.0028
-2.388000e-06,0.224,0.118,-0.0032,-0.002
-2.387600e-06,0.232,0.118,-0.0032,-0.0012
-2.387200e-06,0.232,0.118,-0.0032,-0.0004
-2.386800e-06,0.228,0.114,-0.0016,0.0004
-2.386400e-06,0.232,0.114,-0.0008,-0.0012
-2.386000e-06,0.232,0.118,-0.0008,-0.0004
-2.385600e-06,0.232,0.11,0,0.0004
-2.385200e-06,0.232,0.11,0,0.0004
-2.384800e-06,0.236,0.118,0.0008,0.0004
-2.384400e-06,0.232,0.114,0,0.0012
-2.384000e-06,0.232,0.122,-0.0008,-0.0004
-2.383600e-06,0.236,0.126,-0.0008,0.0004
-2.383200e-06,0.228,0.122,-0.0008,0.0004
-2.382800e-06,0.228,0.13,0.0008,-0.0004
-2.382400e-06,0.224,0.126,-0.0008,-0.002
-2.382000e-06,0.232,0.126,-0.0016,-0.0012
-2.381600e-06,0.228,0.13,-0.0016,-0.0012
-2.381200e-06,0.224,0.13,-0.0024,-0.002
-2.380800e-06,0.224,0.13,-0.0024,-0.0004
-2.380400e-06,0.22,0.13,-0.0024,-0.0012
-2.380000e-06,0.216,0.13,-0.0024,-0.0036
-2.379600e-06,0.22,0.126,-0.0032,-0.0044
-2.379200e-06,0.228,0.122,-0.0032,-0.0036
-2.378800e-06,0.22,0.118,-0.0032,-0.002
-2.378400e-06,0.224,0.122,-0.0032,-0.002
-2.378000e-06,0.224,0.118,-0.0024,-0.0004
-2.377600e-06,0.22,0.118,-0.0016,-0.0012
-2.377200e-06,0.228,0.114,-0.0016,-0.0012
-2.376800e-06,0.224,0.118,-0.0016,-0.0012
-2.376400e-06,0.232,0.118,-0.0008,0.0004
-2.376000e-06,0.232,0.122,0,0.0004
-2.375600e-06,0.232,0.118,-0.0008,0.0004
-2.375200e-06,0.232,0.118,0,-0.0012
-2.374800e-06,0.236,0.118,0,-0.0004
-2.374400e-06,0.232,0.118,-0.0008,-0.0004
-2.374000e-06,0.232,0.122,-0.0008,-0.0012
-2.373600e-06,0.24,0.122,-0.0016,-0.0004
