IVs/2611/B/tek0035ALL.csv

Model,DPO3034
Firmware Version,2.16

Point Format,Y,,,
Horizontal Units,S,,,
Horizontal Scale,4e-05,,,
Sample Interval,4e-10,,,
Record Length,1e+06,,,
Gating,47.499900% to 52.500%,47.499900% to 52.500%,47.499900% to 52.500%,47.499900% to 52.500%
Probe Attenuation,1,1,1,1
Vertical Units,V,V,V,V
Vertical Offset,0,0,0,0
Vertical Scale,0.1,0.1,0.02,0.02
Label,,,,
TIME,CH1,CH2,CH3,CH4
-4.804000e-07,0.136,0.092,0.0088,0.0072
-4.800000e-07,0.136,0.096,0.008,0.0064
-4.796000e-07,0.136,0.1,0.008,0.0072
-4.792000e-07,0.136,0.1,0.008,0.0072
-4.788000e-07,0.136,0.104,0.0064,0.0072
-4.784000e-07,0.14,0.1,0.0064,0.0072
-4.780000e-07,0.136,0.1,0.0056,0.008
-4.776000e-07,0.136,0.1,0.0056,0.0072
-4.772000e-07,0.136,0.096,0.0056,0.0048
-4.768000e-07,0.144,0.1,0.0064,0.004
-4.764000e-07,0.14,0.1,0.0048,0.004
-4.760000e-07,0.14,0.096,0.0048,0.0048
-4.756000e-07,0.14,0.096,0.004,0.0032
-4.752000e-07,0.136,0.092,0.004,0.0024
-4.748000e-07,0.136,0.092,0.0024,0.0024
-4.744000e-07,0.136,0.092,0.0008,0.004
-4.740000e-07,0.144,0.092,0.0024,0.0024
-4.736000e-07,0.14,0.096,0.0032,0.0024
-4.732000e-07,0.136,0.092,0.0032,0.0048
-4.728000e-07,0.132,0.088,0.004,0.0056
-4.724000e-07,0.136,0.092,0.004,0.0056
-4.720000e-07,0.14,0.092,0.0056,0.0064
-4.716000e-07,0.132,0.088,0.0056,0.0072
-4.712000e-07,0.132,0.096,0.0048,0.0072
-4.708000e-07,0.14,0.092,0.0072,0.0072
-4.704000e-07,0.136,0.1,0.0072,0.0072
-4.700000e-07,0.14,0.096,0.0064,0.0072
-4.696000e-07,0.136,0.096,0.0072,0.008
-4.692000e-07,0.144,0.1,0.0064,0.0096
-4.688000e-07,0.14,0.108,0.0056,0.0088
-4.684000e-07,0.136,0.108,0.0056,0.0064
-4.680000e-07,0.136,0.1,0.0064,0.0048
-4.676000e-07,0.132,0.092,0.0064,0.0056
-4.672000e-07,0.14,0.096,0.0064,0.0056
-4.668000e-07,0.136,0.096,0.004,0.004
-4.664000e-07,0.148,0.092,0.0048,0.0048
-4.660000e-07,0.136,0.092,0.0048,0.004
-4.656000e-07,0.136,0.088,0.004,0.0032
-4.652000e-07,0.136,0.092,0.0032,0.0032
-4.648000e-07,0.136,0.104,0.0024,0.0032
-4.644000e-07,0.132,0.092,0.0024,0.0024
-4.640000e-07,0.132,0.092,0.0032,0.0032
-4.636000e-07,0.132,0.092,0.0032,0.0032
-4.632000e-07,0.14,0.092,0.0032,0.004
-4.628000e-07,0.136,0.096,0.004,0.004
-4.624000e-07,0.14,0.096,0.004,0.0056
-4.620000e-07,0.148,0.096,0.0064,0.0048
-4.616000e-07,0.136,0.092,0.0064,0.0056
-4.612000e-07,0.14,0.092,0.0064,0.0072
-4.608000e-07,0.136,0.092,0.0056,0.0072
-4.604000e-07,0.136,0.092,0.0056,0.0056
-4.600000e-07,0.136,0.096,0.0072,0.0064
-4.596000e-07,0.14,0.096,0.0064,0.0072
-4.592000e-07,0.144,0.096,0.0064,0.0072
-4.588000e-07,0.144,0.092,0.0072,0.0064
-4.584000e-07,0.14,0.092,0.0072,0.0056
-4.580000e-07,0.136,0.092,0.0072,0.0072
-4.576000e-07,0.136,0.092,0.0064,0.0064
-4.572000e-07,0.136,0.092,0.0064,0.0048
-4.568000e-07,0.136,0.088,0.0056,0.004
-4.564000e-07,0.136,0.092,0.0048,0.0032
-4.560000e-07,0.14,0.1,0.0048,0.0024
-4.556000e-07,0.136,0.084,0.004,0.0032
-4.552000e-07,0.132,0.084,0.0016,0.0016
-4.548000e-07,0.128,0.088,0.0008,0.0016
-4.544000e-07,0.14,0.088,0.0008,0.0016
-4.540000e-07,0.144,0.088,0.0008,0.0016
-4.536000e-07,0.136,0.084,0.0008,0.0016
-4.532000e-07,0.136,0.088,0.0008,0.0016
-4.528000e-07,0.14,0.092,0.0024,0.0032
-4.524000e-07,0.144,0.084,0.0032,0.004
-4.520000e-07,0.14,0.092,0.0032,0.0048
-4.516000e-07,0.14,0.092,0.0032,0.004
-4.512000e-07,0.148,0.096,0.0032,0.0032
-4.508000e-07,0.152,0.096,0.0032,0.0032
-4.504000e-07,0.152,0.096,0.0032,0.0048
-4.500000e-07,0.152,0.092,0.0048,0.0056
-4.496000e-07,0.144,0.108,0.0048,0.0064
-4.492000e-07,0.144,0.1,0.0048,0.0064
-4.488000e-07,0.148,0.1,0.0056,0.0056
-4.484000e-07,0.14,0.1,0.0056,0.0056
-4.480000e-07,0.136,0.096,0.0064,0.0048
-4.476000e-07,0.144,0.092,0.0056,0.0032
-4.472000e-07,0.148,0.096,0.0048,0.0024
-4.468000e-07,0.148,0.096,0.004,0.0008
-4.464000e-07,0.136,0.096,0.0024,0.0016
-4.460000e-07,0.136,0.088,0.0024,0.0008
-4.456000e-07,0.136,0.092,0.0008,0.0008
-4.452000e-07,0.136,0.088,0.0008,0.0008
-4.448000e-07,0.136,0.088,0,0.0008
-4.444000e-07,0.132,0.084,0,0.0008
-4.440000e-07,0.14,0.092,0,-0.0008
-4.436000e-07,0.136,0.084,0.0008,0
-4.432000e-07,0.132,0.088,0,0.0008
-4.428000e-07,0.14,0.096,0.0008,0.0008
-4.424000e-07,0.14,0.1,0.0008,0.0008
-4.420000e-07,0.144,0.092,0.0008,0.0016
-4.416000e-07,0.14,0.096,0,0.0032
-4.412000e-07,0.148,0.096,0.0016,0.0024
-4.408000e-07,0.148,0.1,0.0016,0.0032
-4.404000e-07,0.144,0.096,0.0024,0.004
-4.400000e-07,0.148,0.104,0.0032,0.0056
-4.396000e-07,0.144,0.1,0.0032,0.0056
-4.392000e-07,0.148,0.096,0.004,0.0048
-4.388000e-07,0.148,0.096,0.0056,0.0048
-4.384000e-07,0.14,0.104,0.0048,0.0048
-4.380000e-07,0.14,0.096,0.0048,0.0048
-4.376000e-07,0.148,0.096,0.0048,0.004
-4.372000e-07,0.144,0.092,0.0048,0.004
-4.368000e-07,0.14,0.092,0.0024,0.0024
-4.364000e-07,0.14,0.084,0.0024,0.0016
-4.360000e-07,0.144,0.088,0.0016,-0.0008
-4.356000e-07,0.14,0.084,0.0008,-0.0008
-4.352000e-07,0.14,0.084,0.0008,-0.0008
-4.348000e-07,0.132,0.08,0,-0.0016
-4.344000e-07,0.132,0.08,0,-0.0032
-4.340000e-07,0.144,0.08,-0.0008,-0.0024
-4.336000e-07,0.14,0.08,-0.0016,-0.0016
-4.332000e-07,0.136,0.088,-0.0024,-0.0016
-4.328000e-07,0.14,0.088,-0.0016,-0.0032
-4.324000e-07,0.14,0.092,-0.0016,-0.0024
-4.320000e-07,0.148,0.104,-0.0024,-0.0016
-4.316000e-07,0.144,0.1,-0.0024,0.0008
-4.312000e-07,0.148,0.096,-0.0016,0.0008
-4.308000e-07,0.148,0.092,0,0.0016
-4.304000e-07,0.148,0.096,0.0008,0.0024
-4.300000e-07,0.148,0.1,0.0008,0.0024
-4.296000e-07,0.148,0.096,0.0024,0.0032
-4.292000e-07,0.148,0.096,0.0016,0.0032
-4.288000e-07,0.152,0.104,0.0032,0.0032
-4.284000e-07,0.148,0.1,0.0032,0.0024
-4.280000e-07,0.14,0.092,0.0024,0.0032
-4.276000e-07,0.148,0.092,0.0016,0.0024
-4.272000e-07,0.148,0.096,0.0024,0.0032
-4.268000e-07,0.14,0.096,0.0032,0.0024
-4.264000e-07,0.144,0.088,0.0024,0.0008
-4.260000e-07,0.14,0.084,0.0024,0
-4.256000e-07,0.14,0.084,0.0016,-0.0008
-4.252000e-07,0.148,0.088,0.0008,-0.0016
-4.248000e-07,0.14,0.076,0.0008,-0.0016
-4.244000e-07,0.132,0.08,-0.0016,-0.0024
-4.240000e-07,0.136,0.08,0,-0.0024
-4.236000e-07,0.136,0.08,-0.0024,-0.0032
-4.232000e-07,0.14,0.088,-0.0016,-0.0056
-4.228000e-07,0.148,0.084,-0.0024,-0.0048
-4.224000e-07,0.148,0.084,-0.0032,-0.0032
-4.220000e-07,0.148,0.092,-0.0024,-0.0032
-4.216000e-07,0.148,0.096,-0.004,-0.0024
-4.212000e-07,0.144,0.1,-0.004,-0.0008
-4.208000e-07,0.144,0.108,-0.0016,-0.0008
-4.204000e-07,0.148,0.108,-0.0016,0
-4.200000e-07,0.148,0.104,-0.0008,-0.0008
-4.196000e-07,0.148,0.104,0.0008,0.0016
-4.192000e-07,0.148,0.1,0,0.0016
-4.188000e-07,0.152,0.104,0.0008,0.0016
-4.184000e-07,0.152,0.108,0.0008,0.0016
-4.180000e-07,0.156,0.1,0.0008,0.0016
-4.176000e-07,0.156,0.1,0.0016,0.0016
-4.172000e-07,0.152,0.1,0.0008,0.0016
-4.168000e-07,0.152,0.1,0,0.0008
-4.164000e-07,0.148,0.096,0.0008,-0.0008
-4.160000e-07,0.148,0.08,0,0
-4.156000e-07,0.14,0.088,-0.0016,0
-4.152000e-07,0.14,0.084,-0.0008,-0.0008
-4.148000e-07,0.148,0.08,-0.0016,-0.0008
-4.144000e-07,0.14,0.072,0,-0.0024
-4.140000e-07,0.148,0.072,-0.0008,-0.0032
-4.136000e-07,0.14,0.08,-0.0016,-0.004
-4.132000e-07,0.152,0.088,-0.0016,-0.004
-4.128000e-07,0.152,0.084,-0.004,-0.0048
-4.124000e-07,0.152,0.092,-0.0048,-0.0048
-4.120000e-07,0.148,0.092,-0.0048,-0.004
-4.116000e-07,0.148,0.092,-0.004,-0.0056
-4.112000e-07,0.144,0.1,-0.0024,-0.0032
-4.108000e-07,0.148,0.1,-0.0032,-0.0016
-4.104000e-07,0.148,0.108,-0.0016,-0.0008
-4.100000e-07,0.152,0.104,0,0
-4.096000e-07,0.152,0.108,-0.0016,0
-4.092000e-07,0.152,0.112,0,0.0008
-4.088000e-07,0.152,0.112,0,0.0008
-4.084000e-07,0.152,0.108,0,0.0024
-4.080000e-07,0.148,0.104,0.0008,0.0016
-4.076000e-07,0.148,0.1,0.0008,0.0024
-4.072000e-07,0.148,0.1,0.0008,0.0016
-4.068000e-07,0.148,0.092,0.0016,0.0024
-4.064000e-07,0.148,0.088,0.0008,0.0016
-4.060000e-07,0.144,0.088,0.0008,0
-4.056000e-07,0.14,0.088,0.0008,0
-4.052000e-07,0.144,0.088,0,0
-4.048000e-07,0.136,0.084,-0.0016,0
-4.044000e-07,0.136,0.084,-0.0008,0
-4.040000e-07,0.148,0.084,-0.0016,0
-4.036000e-07,0.148,0.084,-0.0008,-0.0016
-4.032000e-07,0.14,0.084,-0.0016,-0.0024
-4.028000e-07,0.148,0.084,-0.0032,-0.0032
-4.024000e-07,0.148,0.084,-0.0024,-0.0032
-4.020000e-07,0.144,0.088,-0.0024,-0.0032
-4.016000e-07,0.144,0.088,-0.0024,-0.0016
-4.012000e-07,0.152,0.096,-0.0024,-0.0024
-4.008000e-07,0.152,0.108,-0.0024,-0.0024
-4.004000e-07,0.152,0.1,-0.0016,-0.0024
-4.000000e-07,0.152,0.104,-0.0016,-0.0008
-3.996000e-07,0.152,0.108,-0.0024,-0.0008
-3.992000e-07,0.152,0.112,-0.0016,-0.0008
-3.988000e-07,0.156,0.12,-0.0016,-0.0008
-3.984000e-07,0.144,0.116,-0.0016,0.0008
-3.980000e-07,0.152,0.108,-0.0008,0.0008
-3.976000e-07,0.156,0.108,-0.0008,0
-3.972000e-07,0.152,0.1,-0.0008,0.0016
-3.968000e-07,0.156,0.1,0,0.0008
-3.964000e-07,0.152,0.1,0,0.0016
-3.960000e-07,0.156,0.092,0.0008,0.0016
-3.956000e-07,0.148,0.088,0.0008,0.0016
-3.952000e-07,0.156,0.092,0.0008,0.0008
-3.948000e-07,0.148,0.088,0.0008,0.0008
-3.944000e-07,0.152,0.08,0,0.0008
-3.940000e-07,0.148,0.084,0.0008,0.0008
-3.936000e-07,0.148,0.084,0,-0.0008
-3.932000e-07,0.152,0.08,0,-0.0008
-3.928000e-07,0.156,0.088,-0.0016,-0.0008
-3.924000e-07,0.156,0.084,-0.0008,-0.0008
-3.920000e-07,0.148,0.092,0,0.0008
-3.916000e-07,0.148,0.092,0,-0.0008
-3.912000e-07,0.14,0.104,0,-0.0016
-3.908000e-07,0.144,0.104,-0.0008,-0.0016
-3.904000e-07,0.152,0.104,-0.0008,-0.0016
-3.900000e-07,0.156,0.116,-0.0024,-0.0024
-3.896000e-07,0.152,0.112,-0.0008,-0.0016
-3.892000e-07,0.152,0.112,-0.0008,-0.0024
-3.888000e-07,0.144,0.112,-0.0016,-0.0016
-3.884000e-07,0.152,0.108,-0.0016,-0.0008
-3.880000e-07,0.152,0.104,-0.0008,-0.0008
-3.876000e-07,0.152,0.108,-0.0008,-0.0008
-3.872000e-07,0.152,0.108,0.0016,-0.0008
-3.868000e-07,0.156,0.104,0.0008,0.0008
-3.864000e-07,0.156,0.1,0,0.0016
-3.860000e-07,0.148,0.092,0,0.0032
-3.856000e-07,0.152,0.092,0,0.0024
-3.852000e-07,0.152,0.092,0.0008,0.0008
-3.848000e-07,0.152,0.092,0.0016,0.0008
-3.844000e-07,0.144,0.088,0.0016,0.0008
-3.840000e-07,0.152,0.088,0.0008,0.0016
-3.836000e-07,0.152,0.088,0.0008,0.0016
-3.832000e-07,0.152,0.088,0.0008,0.0016
-3.828000e-07,0.152,0.088,0.0008,0.0024
-3.824000e-07,0.152,0.084,0.0008,0.0016
-3.820000e-07,0.156,0.092,0.0008,0.0016
-3.816000e-07,0.156,0.096,0.0016,0.0008
-3.812000e-07,0.156,0.1,0.0024,0.0016
-3.808000e-07,0.152,0.112,0.0024,0.0024
-3.804000e-07,0.152,0.112,0.0024,0.0016
-3.800000e-07,0.148,0.112,0.0008,0.0008
-3.796000e-07,0.148,0.112,0.0016,0.0008
-3.792000e-07,0.152,0.116,0.0008,0
-3.788000e-07,0.156,0.104,0,0.0008
-3.784000e-07,0.164,0.108,0.0008,0.0008
-3.780000e-07,0.16,0.108,0.0016,0.0016
-3.776000e-07,0.16,0.104,0.0008,0.0016
-3.772000e-07,0.156,0.108,0,0.0008
-3.768000e-07,0.156,0.104,0.0008,0.0016
-3.764000e-07,0.152,0.108,0.0008,0.0016
-3.760000e-07,0.156,0.104,0.0008,0.0016
-3.756000e-07,0.156,0.096,0.0008,0.0024
-3.752000e-07,0.152,0.104,0.0008,0.0024
-3.748000e-07,0.148,0.104,0.0008,0.0016
-3.744000e-07,0.148,0.104,0.0024,0.0024
-3.740000e-07,0.152,0.096,0.0024,0.0032
-3.736000e-07,0.152,0.088,0.0032,0.0048
-3.732000e-07,0.148,0.092,0.0032,0.0048
-3.728000e-07,0.144,0.092,0.0024,0.0056
-3.724000e-07,0.144,0.096,0.004,0.0048
-3.720000e-07,0.152,0.092,0.0048,0.0048
-3.716000e-07,0.156,0.096,0.004,0.0048
-3.712000e-07,0.148,0.096,0.0048,0.0048
-3.708000e-07,0.144,0.104,0.0056,0.0048
-3.704000e-07,0.152,0.104,0.0048,0.004
-3.700000e-07,0.156,0.104,0.004,0.0032
-3.696000e-07,0.152,0.108,0.004,0.004
-3.692000e-07,0.156,0.108,0.004,0.0032
-3.688000e-07,0.156,0.112,0.0032,0.0024
-3.684000e-07,0.152,0.108,0.0032,0.0016
-3.680000e-07,0.152,0.108,0.0032,0.0024
-3.676000e-07,0.156,0.112,0.0024,0.0024
-3.672000e-07,0.152,0.112,0.0024,0.0024
-3.668000e-07,0.156,0.112,0.0016,0.0016
-3.664000e-07,0.156,0.1,0.0032,0.0016
-3.660000e-07,0.156,0.104,0.0024,0.0024
-3.656000e-07,0.152,0.1,0.0032,0.0016
-3.652000e-07,0.156,0.096,0.004,0.0008
-3.648000e-07,0.156,0.096,0.0016,0.0024
-3.644000e-07,0.16,0.1,0.0024,0.0024
-3.640000e-07,0.156,0.104,0.0032,0.0048
-3.636000e-07,0.148,0.092,0.004,0.0048
-3.632000e-07,0.156,0.092,0.004,0.0064
-3.628000e-07,0.164,0.092,0.0064,0.0072
-3.624000e-07,0.152,0.092,0.0064,0.0088
-3.620000e-07,0.152,0.092,0.0064,0.0088
-3.616000e-07,0.152,0.096,0.0064,0.0072
-3.612000e-07,0.156,0.1,0.0072,0.0072
-3.608000e-07,0.156,0.104,0.0072,0.008
-3.604000e-07,0.156,0.108,0.0056,0.0064
-3.600000e-07,0.152,0.108,0.0064,0.0064
-3.596000e-07,0.148,0.112,0.0056,0.0064
-3.592000e-07,0.152,0.108,0.0056,0.0064
-3.588000e-07,0.152,0.108,0.0056,0.0048
-3.584000e-07,0.156,0.108,0.0048,0.0048
-3.580000e-07,0.156,0.116,0.0048,0.0048
-3.576000e-07,0.16,0.112,0.0056,0.0032
-3.572000e-07,0.156,0.112,0.0048,0.0032
-3.568000e-07,0.156,0.116,0.0048,0.0024
-3.564000e-07,0.156,0.116,0.0048,0.0016
-3.560000e-07,0.164,0.108,0.0048,0.0032
-3.556000e-07,0.164,0.104,0.0032,0.0032
-3.552000e-07,0.164,0.1,0.0024,0.004
-3.548000e-07,0.156,0.096,0.0032,0.0032
-3.544000e-07,0.152,0.096,0.0032,0.0048
-3.540000e-07,0.156,0.1,0.004,0.0056
-3.536000e-07,0.156,0.092,0.004,0.008
-3.532000e-07,0.156,0.096,0.0048,0.0072
-3.528000e-07,0.156,0.096,0.0056,0.0072
-3.524000e-07,0.16,0.092,0.0048,0.0072
-3.520000e-07,0.164,0.092,0.0064,0.008
-3.516000e-07,0.16,0.096,0.0064,0.0096
-3.512000e-07,0.152,0.096,0.0072,0.0088
-3.508000e-07,0.152,0.1,0.0088,0.0096
-3.504000e-07,0.152,0.096,0.0072,0.008
-3.500000e-07,0.152,0.1,0.0072,0.0096
-3.496000e-07,0.156,0.112,0.008,0.0096
-3.492000e-07,0.152,0.108,0.0072,0.008
-3.488000e-07,0.156,0.112,0.0072,0.0072
-3.484000e-07,0.16,0.1,0.008,0.008
-3.480000e-07,0.156,0.116,0.0064,0.0072
-3.476000e-07,0.156,0.108,0.008,0.008
-3.472000e-07,0.164,0.116,0.0064,0.0064
-3.468000e-07,0.164,0.116,0.0056,0.0064
-3.464000e-07,0.164,0.12,0.0056,0.0056
-3.460000e-07,0.16,0.116,0.0056,0.0048
-3.456000e-07,0.164,0.116,0.0048,0.0056
-3.452000e-07,0.164,0.108,0.0032,0.0048
-3.448000e-07,0.164,0.108,0.0048,0.0056
-3.444000e-07,0.164,0.108,0.0056,0.0056
-3.440000e-07,0.164,0.104,0.0064,0.0064
-3.436000e-07,0.16,0.104,0.0072,0.008
-3.432000e-07,0.16,0.1,0.0064,0.0064
-3.428000e-07,0.16,0.104,0.008,0.008
-3.424000e-07,0.16,0.096,0.008,0.0088
-3.420000e-07,0.156,0.092,0.0088,0.0096
-3.416000e-07,0.152,0.096,0.0096,0.0104
-3.412000e-07,0.16,0.096,0.0088,0.012
-3.408000e-07,0.16,0.104,0.0096,0.0112
-3.404000e-07,0.156,0.1,0.008,0.0112
-3.400000e-07,0.156,0.1,0.0088,0.0112
-3.396000e-07,0.16,0.096,0.0096,0.012
-3.392000e-07,0.156,0.104,0.0096,0.012
-3.388000e-07,0.152,0.108,0.0096,0.012
-3.384000e-07,0.156,0.116,0.0104,0.0104
-3.380000e-07,0.156,0.116,0.0096,0.0096
-3.376000e-07,0.164,0.112,0.0088,0.0096
-3.372000e-07,0.164,0.116,0.0088,0.0088
-3.368000e-07,0.164,0.12,0.0088,0.0088
-3.364000e-07,0.16,0.12,0.0088,0.0088
-3.360000e-07,0.168,0.116,0.008,0.008
-3.356000e-07,0.156,0.116,0.0088,0.008
-3.352000e-07,0.164,0.108,0.0096,0.008
-3.348000e-07,0.164,0.112,0.0072,0.0064
-3.344000e-07,0.164,0.112,0.0072,0.008
-3.340000e-07,0.16,0.104,0.0088,0.0088
-3.336000e-07,0.164,0.108,0.0096,0.0064
-3.332000e-07,0.164,0.1,0.0088,0.008
-3.328000e-07,0.168,0.104,0.0088,0.0088
-3.324000e-07,0.164,0.1,0.0088,0.0096
-3.320000e-07,0.156,0.1,0.0088,0.0104
-3.316000e-07,0.16,0.096,0.0104,0.0104
-3.312000e-07,0.156,0.096,0.0096,0.0112
-3.308000e-07,0.156,0.104,0.0088,0.012
-3.304000e-07,0.152,0.1,0.0096,0.012
-3.300000e-07,0.156,0.096,0.0112,0.012
-3.296000e-07,0.152,0.1,0.0104,0.0128
-3.292000e-07,0.148,0.112,0.0104,0.0112
-3.288000e-07,0.148,0.116,0.0104,0.0104
-3.284000e-07,0.156,0.112,0.0112,0.012
-3.280000e-07,0.16,0.12,0.0104,0.0112
-3.276000e-07,0.16,0.112,0.0088,0.0112
-3.272000e-07,0.16,0.12,0.0088,0.0112
-3.268000e-07,0.16,0.124,0.0096,0.0096
-3.264000e-07,0.168,0.116,0.0096,0.0104
-3.260000e-07,0.168,0.116,0.0088,0.0104
-3.256000e-07,0.172,0.124,0.0088,0.0104
-3.252000e-07,0.168,0.116,0.0096,0.0096
-3.248000e-07,0.172,0.112,0.0088,0.0096
-3.244000e-07,0.164,0.116,0.0088,0.0096
-3.240000e-07,0.168,0.112,0.0088,0.0096
-3.236000e-07,0.164,0.112,0.0096,0.008
-3.232000e-07,0.164,0.108,0.0096,0.008
-3.228000e-07,0.172,0.1,0.0104,0.0096
-3.224000e-07,0.176,0.096,0.0088,0.0088
-3.220000e-07,0.168,0.088,0.0088,0.0096
-3.216000e-07,0.168,0.088,0.0072,0.0104
-3.212000e-07,0.164,0.088,0.0072,0.0112
-3.208000e-07,0.156,0.092,0.008,0.0136
-3.204000e-07,0.152,0.096,0.0096,0.0136
-3.200000e-07,0.156,0.096,0.0104,0.0128
-3.196000e-07,0.156,0.104,0.0112,0.0128
-3.192000e-07,0.156,0.108,0.0112,0.012
-3.188000e-07,0.16,0.108,0.0112,0.012
-3.184000e-07,0.16,0.108,0.0112,0.012
-3.180000e-07,0.168,0.116,0.0112,0.0128
-3.176000e-07,0.164,0.12,0.0104,0.0128
-3.172000e-07,0.16,0.124,0.0096,0.012
-3.168000e-07,0.156,0.124,0.0088,0.0128
-3.164000e-07,0.164,0.124,0.0096,0.0128
-3.160000e-07,0.164,0.124,0.0104,0.012
-3.156000e-07,0.16,0.12,0.0112,0.012
-3.152000e-07,0.172,0.12,0.0128,0.012
-3.148000e-07,0.172,0.124,0.012,0.012
-3.144000e-07,0.168,0.124,0.0128,0.012
-3.140000e-07,0.164,0.116,0.012,0.012
-3.136000e-07,0.168,0.116,0.0104,0.0112
-3.132000e-07,0.16,0.108,0.0112,0.0112
-3.128000e-07,0.168,0.104,0.012,0.0112
-3.124000e-07,0.168,0.096,0.012,0.012
-3.120000e-07,0.164,0.092,0.0104,0.012
-3.116000e-07,0.156,0.092,0.0112,0.012
-3.112000e-07,0.156,0.092,0.0104,0.0136
-3.108000e-07,0.16,0.096,0.0112,0.0128
-3.104000e-07,0.16,0.092,0.0128,0.012
-3.100000e-07,0.156,0.092,0.0136,0.012
-3.096000e-07,0.16,0.092,0.012,0.0144
-3.092000e-07,0.156,0.096,0.012,0.012
-3.088000e-07,0.156,0.108,0.012,0.0112
-3.084000e-07,0.152,0.104,0.012,0.012
-3.080000e-07,0.16,0.112,0.012,0.0128
-3.076000e-07,0.168,0.12,0.0104,0.0128
-3.072000e-07,0.164,0.12,0.0104,0.0136
-3.068000e-07,0.168,0.128,0.0112,0.0136
-3.064000e-07,0.172,0.124,0.0112,0.0144
-3.060000e-07,0.164,0.124,0.0128,0.0136
-3.056000e-07,0.164,0.128,0.012,0.012
-3.052000e-07,0.16,0.132,0.0136,0.0128
-3.048000e-07,0.16,0.132,0.0136,0.0152
-3.044000e-07,0.16,0.132,0.0128,0.0144
-3.040000e-07,0.164,0.124,0.0128,0.0152
-3.036000e-07,0.164,0.12,0.0136,0.0152
-3.032000e-07,0.16,0.116,0.0144,0.0152
-3.028000e-07,0.168,0.108,0.0128,0.0136
-3.024000e-07,0.172,0.108,0.0136,0.0152
-3.020000e-07,0.164,0.1,0.0144,0.016
-3.016000e-07,0.164,0.096,0.0128,0.016
-3.012000e-07,0.168,0.092,0.0144,0.0152
-3.008000e-07,0.164,0.092,0.0152,0.0144
-3.004000e-07,0.164,0.092,0.016,0.0144
-3.000000e-07,0.164,0.104,0.016,0.0144
-2.996000e-07,0.156,0.096,0.0136,0.0128
-2.992000e-07,0.168,0.096,0.0128,0.012
-2.988000e-07,0.176,0.1,0.0136,0.012
-2.984000e-07,0.168,0.112,0.012,0.0128
-2.980000e-07,0.164,0.116,0.0112,0.012
-2.976000e-07,0.164,0.12,0.012,0.0128
-2.972000e-07,0.156,0.12,0.012,0.0128
-2.968000e-07,0.168,0.124,0.0128,0.0136
-2.964000e-07,0.168,0.124,0.0128,0.0136
-2.960000e-07,0.168,0.132,0.0128,0.0136
-2.956000e-07,0.168,0.132,0.0112,0.0136
-2.952000e-07,0.168,0.124,0.0128,0.0128
-2.948000e-07,0.168,0.128,0.0136,0.0128
-2.944000e-07,0.172,0.12,0.012,0.0136
-2.940000e-07,0.168,0.12,0.0112,0.0136
-2.936000e-07,0.168,0.124,0.0128,0.0144
-2.932000e-07,0.168,0.112,0.0128,0.0152
-2.928000e-07,0.168,0.108,0.0136,0.016
-2.924000e-07,0.172,0.104,0.0144,0.016
-2.920000e-07,0.172,0.1,0.0144,0.0168
-2.916000e-07,0.164,0.092,0.016,0.016
-2.912000e-07,0.164,0.1,0.016,0.016
-2.908000e-07,0.168,0.1,0.0168,0.016
-2.904000e-07,0.168,0.1,0.016,0.016
-2.900000e-07,0.164,0.1,0.0168,0.016
-2.896000e-07,0.172,0.096,0.0168,0.0152
-2.892000e-07,0.164,0.088,0.0168,0.0152
-2.888000e-07,0.164,0.1,0.0152,0.0136
-2.884000e-07,0.164,0.108,0.0128,0.0144
-2.880000e-07,0.168,0.116,0.0144,0.0152
-2.876000e-07,0.168,0.116,0.0144,0.0152
-2.872000e-07,0.176,0.124,0.0144,0.0152
-2.868000e-07,0.168,0.128,0.0144,0.0144
-2.864000e-07,0.172,0.132,0.012,0.012
-2.860000e-07,0.168,0.132,0.012,0.0112
-2.856000e-07,0.172,0.132,0.0128,0.012
-2.852000e-07,0.168,0.124,0.0112,0.0128
-2.848000e-07,0.168,0.128,0.0112,0.0128
-2.844000e-07,0.172,0.132,0.0104,0.0136
-2.840000e-07,0.168,0.124,0.0104,0.0128
-2.836000e-07,0.168,0.112,0.0112,0.0144
-2.832000e-07,0.168,0.112,0.0128,0.0152
-2.828000e-07,0.168,0.112,0.012,0.0176
-2.824000e-07,0.168,0.116,0.0136,0.0176
-2.820000e-07,0.168,0.112,0.016,0.0152
-2.816000e-07,0.168,0.096,0.0168,0.0176
-2.812000e-07,0.164,0.092,0.0168,0.0192
-2.808000e-07,0.168,0.096,0.016,0.0184
-2.804000e-07,0.164,0.096,0.0176,0.0176
-2.800000e-07,0.168,0.1,0.016,0.0184
