IVs/2611/B/tek0004ALL.csv

Model,DPO3034
Firmware Version,2.16

Point Format,Y,,,
Horizontal Units,S,,,
Horizontal Scale,4e-05,,,
Sample Interval,4e-10,,,
Record Length,1e+06,,,
Gating,45.0% to 55.00%,45.0% to 55.00%,45.0% to 55.00%,45.0% to 55.00%
Probe Attenuation,1,1,1,1
Vertical Units,V,V,V,V
Vertical Offset,0,0,0,0
Vertical Scale,0.05,0.05,0.02,0.02
Label,,,,
TIME,CH1,CH2,CH3,CH4
-4.374800e-06,-0.002,-0.001,0,0.0004
-4.374400e-06,0,0.001,-0.0008,0.0004
-4.374000e-06,0,-0.003,-0.0008,0.0004
-4.373600e-06,0,-0.005,-0.0016,-0.0004
-4.373200e-06,0,-0.007,-0.0016,-0.0004
-4.372800e-06,0,-0.007,-0.0016,-0.0012
-4.372400e-06,0,-0.007,-0.0008,-0.0004
-4.372000e-06,0,-0.009,-0.0008,-0.0012
-4.371600e-06,0.002,-0.011,-0.0008,-0.002
-4.371200e-06,-0.002,-0.009,-0.0016,-0.0012
-4.370800e-06,0,-0.009,-0.0016,-0.0012
-4.370400e-06,0.002,-0.005,-0.0024,-0.0028
-4.370000e-06,0.004,-0.001,-0.0024,-0.0012
-4.369600e-06,0.002,0.001,-0.0024,-0.0004
-4.369200e-06,0.002,0.001,-0.0032,-0.0012
-4.368800e-06,0,0.005,-0.0024,0.0004
-4.368400e-06,0,0.007,-0.0008,0.0012
-4.368000e-06,0.002,0.011,-0.0008,0.0012
-4.367600e-06,0.002,0.011,0.0008,0.0028
-4.367200e-06,0.002,0.011,0.0016,0.0012
-4.366800e-06,0,0.011,0,0.0004
-4.366400e-06,0,0.009,0.0008,0.0028
-4.366000e-06,0,0.007,0.0008,0.0028
-4.365600e-06,0,0.009,0.0008,0.0028
-4.365200e-06,-0.002,0.001,-0.0008,0.002
-4.364800e-06,-0.002,-0.001,0,0.002
-4.364400e-06,-0.002,-0.005,0,0.0004
-4.364000e-06,-0.002,-0.005,-0.0008,0.0004
-4.363600e-06,0,-0.007,-0.0008,0.0004
-4.363200e-06,-0.002,-0.011,-0.0008,0.0012
-4.362800e-06,-0.002,-0.011,0,0.0004
-4.362400e-06,-0.002,-0.011,0,-0.0012
-4.362000e-06,-0.002,-0.013,-0.0008,-0.0012
-4.361600e-06,-0.004,-0.011,-0.0008,-0.0012
-4.361200e-06,0,-0.011,-0.0008,-0.0012
-4.360800e-06,0.002,-0.007,-0.0008,-0.002
-4.360400e-06,0,-0.001,-0.0016,-0.002
-4.360000e-06,0,-0.001,-0.0016,-0.002
-4.359600e-06,0,0.001,-0.0032,-0.0012
-4.359200e-06,0,0.005,-0.0016,-0.0004
-4.358800e-06,0,0.007,-0.0016,-0.0004
-4.358400e-06,0,0.011,-0.0032,0.0004
-4.358000e-06,0,0.013,-0.0016,0.0004
-4.357600e-06,0.004,0.011,-0.0016,0.0012
-4.357200e-06,0,0.011,-0.0016,0.0004
-4.356800e-06,0,0.011,-0.0008,0.0012
-4.356400e-06,0.002,0.009,-0.0008,0.0012
-4.356000e-06,0.002,0.009,0,0.0012
-4.355600e-06,0,0.007,0,0.002
-4.355200e-06,0,0.003,0,0.002
-4.354800e-06,0,0.001,0,0.0012
-4.354400e-06,0,-0.005,0.0008,0.0028
-4.354000e-06,-0.002,-0.009,0.0008,0.0012
-4.353600e-06,-0.002,-0.011,0.0008,0.0012
-4.353200e-06,0,-0.013,0.0008,0.0012
-4.352800e-06,0,-0.013,-0.0008,0.0004
-4.352400e-06,0.002,-0.013,0,-0.0004
-4.352000e-06,0.002,-0.013,-0.0008,-0.0012
-4.351600e-06,0,-0.009,0.0008,-0.0028
-4.351200e-06,0.002,-0.009,-0.0008,-0.0036
-4.350800e-06,0.004,-0.005,-0.0016,-0.0028
-4.350400e-06,0.004,-0.003,-0.0016,-0.002
-4.350000e-06,0.002,0.001,-0.0032,-0.002
-4.349600e-06,0,0.007,-0.0024,-0.0028
-4.349200e-06,0.004,0.009,-0.0024,-0.0012
-4.348800e-06,0.004,0.011,-0.0032,-0.0012
-4.348400e-06,0.002,0.007,-0.0016,-0.0012
-4.348000e-06,0.002,0.009,-0.0024,-0.0012
-4.347600e-06,0,0.015,-0.0024,-0.0004
-4.347200e-06,0.006,0.015,-0.0024,-0.002
-4.346800e-06,0.002,0.011,-0.0016,-0.002
-4.346400e-06,0.006,0.009,-0.0016,-0.0004
-4.346000e-06,0.002,0.007,-0.0024,0.0012
-4.345600e-06,0.002,0.001,-0.0032,0.0012
-4.345200e-06,0,-0.001,-0.0016,0.0012
-4.344800e-06,0,-0.001,-0.0008,0.0028
-4.344400e-06,0.002,-0.005,-0.0008,0.0028
-4.344000e-06,0.002,-0.007,-0.0008,0.0028
-4.343600e-06,0,-0.011,0,0.0036
-4.343200e-06,0,-0.011,0,0.002
-4.342800e-06,0,-0.011,0,0.002
-4.342400e-06,0,-0.009,0.0016,0.0004
-4.342000e-06,0.002,-0.009,0.0016,0.0012
-4.341600e-06,0.002,-0.005,0.0008,0.0004
-4.341200e-06,0.002,-0.005,-0.0008,-0.0004
-4.340800e-06,0.002,-0.001,0,-0.0012
-4.340400e-06,0.002,0.001,0.0008,-0.0012
-4.340000e-06,0.004,0.003,-0.0008,-0.002
-4.339600e-06,0,0.001,-0.0016,-0.0012
-4.339200e-06,0,0.007,-0.0016,-0.0028
-4.338800e-06,0,0.009,-0.0024,-0.002
-4.338400e-06,0.002,0.013,-0.0016,-0.002
-4.338000e-06,-0.004,0.011,-0.004,-0.0028
-4.337600e-06,-0.002,0.013,-0.0032,-0.0028
-4.337200e-06,0,0.011,-0.0032,-0.0012
-4.336800e-06,-0.002,0.011,-0.0024,-0.002
-4.336400e-06,-0.004,0.009,-0.0032,-0.0004
-4.336000e-06,-0.002,0.005,-0.0032,0.0004
-4.335600e-06,-0.002,0.001,-0.0016,0.0012
-4.335200e-06,-0.002,-0.001,-0.0016,0.0012
-4.334800e-06,-0.002,-0.003,-0.0008,0.0012
-4.334400e-06,-0.004,-0.005,0,0.0028
-4.334000e-06,-0.004,-0.005,0.0016,0.0028
-4.333600e-06,0,-0.007,0.0016,0.0036
-4.333200e-06,0,-0.011,0.0016,0.0028
-4.332800e-06,0,-0.007,0.0024,0.0044
-4.332400e-06,0.002,-0.007,0.0024,0.0028
-4.332000e-06,0,-0.005,0.0024,0.002
-4.331600e-06,0,-0.001,0.0024,0.002
-4.331200e-06,0,-0.003,0.0024,0.0012
-4.330800e-06,0,0.001,0.0016,0.0012
-4.330400e-06,0,0.003,0.0008,-0.0004
-4.330000e-06,0,0.003,0.0008,-0.0004
-4.329600e-06,0,0.005,0.0008,0.0004
-4.329200e-06,-0.002,0.007,0,-0.0004
-4.328800e-06,0,0.011,-0.0016,-0.0004
-4.328400e-06,0,0.011,-0.0016,-0.0036
-4.328000e-06,0,0.011,-0.0016,-0.0028
-4.327600e-06,0,0.007,-0.0016,-0.0036
-4.327200e-06,0,0.007,-0.004,-0.0028
-4.326800e-06,-0.002,0.003,-0.0048,-0.002
-4.326400e-06,0,0.003,-0.0032,-0.0028
-4.326000e-06,0,0.001,-0.0032,-0.0036
-4.325600e-06,-0.002,-0.003,-0.0016,-0.0004
-4.325200e-06,-0.002,-0.005,-0.0016,0.0004
-4.324800e-06,-0.002,-0.005,-0.0008,0.0012
-4.324400e-06,-0.004,-0.007,0,0.002
-4.324000e-06,-0.004,-0.007,0,0.002
-4.323600e-06,-0.002,-0.007,0.0008,0.0028
-4.323200e-06,0,-0.005,0.0024,0.0028
-4.322800e-06,0.004,-0.005,0.0008,0.0028
-4.322400e-06,0.006,-0.005,0.0008,0.002
-4.322000e-06,0.004,-0.003,0.0016,0.0044
-4.321600e-06,0.004,0.001,0.0032,0.0028
-4.321200e-06,0.004,0.003,0.0024,0.0012
-4.320800e-06,0.004,0.005,0.0016,0.0012
-4.320400e-06,0.004,0.005,0.0016,0.0012
-4.320000e-06,0.004,0.005,0.0016,0.0012
-4.319600e-06,0,0.009,0.0008,0.0012
-4.319200e-06,0,0.009,0,0.0004
-4.318800e-06,0.004,0.007,-0.0008,-0.0012
-4.318400e-06,0.004,0.005,-0.0008,-0.0012
-4.318000e-06,0.002,0.007,-0.0016,-0.002
-4.317600e-06,0.002,0.005,-0.0024,-0.0028
-4.317200e-06,0,0.005,-0.0016,-0.0028
-4.316800e-06,0.004,0.005,-0.0032,-0.0028
-4.316400e-06,0.002,0.001,-0.0032,-0.0012
-4.316000e-06,0,-0.003,-0.004,-0.0012
-4.315600e-06,0,-0.009,-0.0032,-0.0012
-4.315200e-06,0,-0.009,-0.0016,-0.0012
-4.314800e-06,0.004,-0.007,-0.0016,-0.0012
-4.314400e-06,0.002,-0.007,-0.0016,0.0004
-4.314000e-06,0.004,-0.007,0,0.0004
-4.313600e-06,0.004,-0.007,-0.0008,0.0004
-4.313200e-06,0.004,-0.005,0.0008,0.0012
-4.312800e-06,0.004,-0.001,0.0016,0.0012
-4.312400e-06,0.004,-0.001,0,0.0028
-4.312000e-06,0.004,0.005,0,0.002
-4.311600e-06,0.006,0.007,0.0016,0.0028
-4.311200e-06,0.006,0.007,0.0016,0.0028
-4.310800e-06,0.006,0.009,0.0024,0.0028
-4.310400e-06,0.004,0.009,0.0032,0.0028
-4.310000e-06,0,0.007,0.0024,0.002
-4.309600e-06,0.002,0.009,0.0024,0.002
-4.309200e-06,0.002,0.011,0.0016,0.0012
-4.308800e-06,0.002,0.009,0.0016,0.0004
-4.308400e-06,0,0.007,0,-0.0012
-4.308000e-06,-0.002,0.005,0.0008,-0.0004
-4.307600e-06,-0.002,0.003,-0.0008,-0.0004
-4.307200e-06,0,0.001,-0.0008,-0.0012
-4.306800e-06,-0.002,-0.001,-0.0008,-0.0012
-4.306400e-06,-0.002,-0.005,-0.0016,-0.0012
-4.306000e-06,0,-0.007,-0.0016,-0.0004
-4.305600e-06,-0.004,-0.009,-0.0016,-0.0004
-4.305200e-06,0,-0.009,-0.0016,-0.0012
-4.304800e-06,-0.002,-0.005,-0.0008,0.0004
-4.304400e-06,-0.002,-0.005,-0.0008,0.0004
-4.304000e-06,-0.002,-0.005,-0.0016,0.0004
-4.303600e-06,0,-0.005,-0.0008,0.0004
-4.303200e-06,0,-0.001,0,-0.0004
-4.302800e-06,0,-0.001,0.0008,0.0012
-4.302400e-06,0.002,0.003,0,0.0028
-4.302000e-06,0,0.005,0.0008,0.0028
-4.301600e-06,0,0.011,0.0024,0.0028
-4.301200e-06,0,0.013,0.0032,0.0028
-4.300800e-06,0,0.011,0.0032,0.0028
-4.300400e-06,0,0.009,0.0024,0.0044
-4.300000e-06,0,0.011,0.0016,0.0036
-4.299600e-06,0,0.011,0.0016,0.0028
-4.299200e-06,-0.002,0.011,0.0024,0.0036
-4.298800e-06,-0.002,0.007,0.0024,0.002
-4.298400e-06,-0.002,0.003,0.0024,0.002
-4.298000e-06,0,0.001,0.0016,0.0028
-4.297600e-06,-0.002,0.001,0,0.0012
-4.297200e-06,-0.002,-0.005,0.0008,0.0012
-4.296800e-06,-0.002,-0.005,0.0016,0.0004
-4.296400e-06,-0.002,-0.005,0,0.0004
-4.296000e-06,0,-0.009,0,-0.0012
-4.295600e-06,-0.002,-0.007,0,-0.0012
-4.295200e-06,0,-0.005,0,-0.0004
-4.294800e-06,0,-0.005,-0.0008,0.0004
-4.294400e-06,0,-0.005,-0.0008,-0.0004
-4.294000e-06,-0.002,-0.001,-0.0008,0.0004
-4.293600e-06,0,-0.001,0.0008,0.0004
-4.293200e-06,0,0.001,0.0008,0.002
-4.292800e-06,0.002,0.005,0.0008,0.0012
-4.292400e-06,0.004,0.005,0,0.0004
-4.292000e-06,0.004,0.005,0.0008,0.0012
-4.291600e-06,0.002,0.013,0.0016,0.002
-4.291200e-06,0.004,0.011,0.0016,0.0012
-4.290800e-06,0.002,0.013,0.0008,0.0028
-4.290400e-06,0.002,0.011,0.0016,0.0012
-4.290000e-06,0.004,0.011,0.0024,0.002
-4.289600e-06,0.002,0.007,0.0016,0.0012
-4.289200e-06,0,0.005,0.0008,0.0028
-4.288800e-06,0,0.003,0.0008,0.002
-4.288400e-06,0,0.001,0.0008,0.0028
-4.288000e-06,0.002,0.001,0.0008,0.002
-4.287600e-06,0,-0.003,0.0016,0.0028
-4.287200e-06,0,-0.007,0.0016,0.0012
-4.286800e-06,0,-0.007,0.0008,0.0012
-4.286400e-06,0,-0.009,0.0016,0.0012
-4.286000e-06,0,-0.009,0.0008,0.0012
-4.285600e-06,0.002,-0.009,0,-0.0012
-4.285200e-06,0,-0.005,0,-0.0012
-4.284800e-06,0.002,-0.007,0,0.0004
-4.284400e-06,0.002,-0.005,0,-0.0004
-4.284000e-06,0.004,-0.003,-0.0008,0.0004
-4.283600e-06,0.002,0.001,0,-0.0004
-4.283200e-06,0.004,0.003,0,0.0004
-4.282800e-06,0.004,0.005,0,0.0004
-4.282400e-06,0.004,0.011,-0.0008,0.0004
-4.282000e-06,0.004,0.011,0.0008,0.0012
-4.281600e-06,0.006,0.015,-0.0008,0.0004
-4.281200e-06,0.004,0.015,-0.0008,0.0004
-4.280800e-06,0.004,0.011,0,0.0004
-4.280400e-06,0.004,0.011,-0.0008,0.0012
-4.280000e-06,0.004,0.009,-0.0024,0.0004
-4.279600e-06,0.004,0.003,-0.0008,0.0004
-4.279200e-06,0.004,0.003,-0.0008,0.0012
-4.278800e-06,0.004,0.003,-0.0008,0.002
-4.278400e-06,0.002,0.001,0,0.002
-4.278000e-06,0,-0.007,0.0008,0.002
-4.277600e-06,-0.002,-0.007,0,0.0044
-4.277200e-06,-0.002,-0.013,0,0.0028
-4.276800e-06,-0.002,-0.013,0.0008,0.002
-4.276400e-06,0,-0.009,0.0024,0.002
-4.276000e-06,-0.002,-0.009,0.0008,0.002
-4.275600e-06,0,-0.007,0.0008,0.0028
-4.275200e-06,-0.002,-0.005,0.0016,0.0028
-4.274800e-06,-0.002,-0.001,0.0016,0.002
-4.274400e-06,-0.002,-0.001,0.0008,0.002
-4.274000e-06,-0.004,0.001,0.0032,0.002
-4.273600e-06,0,0.003,0.0016,0.0012
-4.273200e-06,-0.002,0.005,0.0008,0.0012
-4.272800e-06,0,0.009,0.0008,0.0012
-4.272400e-06,0.002,0.011,0.0008,0.002
-4.272000e-06,0.006,0.013,0.0016,0.0012
-4.271600e-06,0.002,0.011,0.0008,0.0004
-4.271200e-06,0,0.015,0.0008,0.0012
-4.270800e-06,0,0.009,0,0.0004
-4.270400e-06,0,0.007,-0.0008,-0.0004
-4.270000e-06,0,0.005,0,-0.0004
-4.269600e-06,0,0.005,0,-0.0012
-4.269200e-06,0,0.001,0,0.0012
-4.268800e-06,0,-0.001,0,0.0004
-4.268400e-06,-0.002,-0.005,0,0.0028
-4.268000e-06,-0.002,-0.007,0.0008,0.0028
-4.267600e-06,0,-0.009,0.0008,0.0028
-4.267200e-06,0.002,-0.013,0.0016,0.002
-4.266800e-06,0,-0.011,0.0008,0.0012
-4.266400e-06,0,-0.013,0.0008,0.002
-4.266000e-06,0,-0.009,0.0008,0.002
-4.265600e-06,-0.002,-0.007,0.0008,0.0036
-4.265200e-06,-0.002,-0.005,0.0024,0.0028
-4.264800e-06,0,-0.003,0.0024,0.0028
-4.264400e-06,-0.002,0.005,0.0024,0.002
-4.264000e-06,0,0.003,0.0016,0.0028
-4.263600e-06,-0.002,0.003,0.0032,0.0028
-4.263200e-06,-0.004,0.005,0.0032,0.0012
-4.262800e-06,-0.002,0.011,0.0024,0.0012
-4.262400e-06,0.002,0.015,0.0032,0.0004
-4.262000e-06,0,0.013,0.0016,0.0004
-4.261600e-06,0.002,0.015,0.0008,0.0004
-4.261200e-06,0.002,0.015,-0.0008,0.0004
-4.260800e-06,0.004,0.013,-0.0008,-0.002
-4.260400e-06,0.004,0.009,-0.0008,-0.0012
-4.260000e-06,0.004,0.005,-0.0008,-0.0004
-4.259600e-06,0.002,0.001,-0.0008,-0.0012
-4.259200e-06,0.004,-0.001,-0.0008,-0.0012
-4.258800e-06,0.004,-0.005,-0.0016,-0.0004
-4.258400e-06,0.004,-0.005,-0.0016,-0.0004
-4.258000e-06,0.002,-0.007,-0.0016,-0.0012
-4.257600e-06,0.002,-0.013,-0.0016,-0.0004
-4.257200e-06,0.002,-0.011,-0.0016,-0.0004
-4.256800e-06,0,-0.013,-0.0008,0.0004
-4.256400e-06,0,-0.011,-0.0008,0.002
-4.256000e-06,0,-0.009,0.0008,0.0012
-4.255600e-06,0.002,-0.009,0.0016,0.0028
-4.255200e-06,0.002,-0.005,0.0016,0.0028
-4.254800e-06,-0.002,-0.001,0.0016,0.0028
-4.254400e-06,-0.002,0.001,0.0024,0.0036
-4.254000e-06,-0.002,0.005,0.0024,0.0036
-4.253600e-06,0,0.007,0.0024,0.0028
-4.253200e-06,0,0.011,0.0024,0.0036
-4.252800e-06,0,0.015,0.0008,0.0028
-4.252400e-06,0.002,0.017,0.0024,0.002
-4.252000e-06,0.002,0.017,0.0016,0.0012
-4.251600e-06,0.002,0.017,0.0024,0.0012
-4.251200e-06,0.004,0.015,0,0.0012
-4.250800e-06,0.002,0.013,-0.0008,0.0012
-4.250400e-06,0.004,0.011,-0.0008,0.0004
-4.250000e-06,0.002,0.003,0.0008,-0.0004
-4.249600e-06,0.004,0.001,0.0008,0.0004
-4.249200e-06,0.002,-0.003,-0.0008,-0.0012
-4.248800e-06,0.004,-0.005,0,-0.0012
-4.248400e-06,0.004,-0.011,-0.0008,-0.0004
-4.248000e-06,0.004,-0.013,-0.0016,-0.0004
-4.247600e-06,0.004,-0.013,-0.0016,-0.0012
-4.247200e-06,0.004,-0.015,-0.0016,-0.0012
-4.246800e-06,0.004,-0.013,-0.0016,-0.0004
-4.246400e-06,0.002,-0.011,-0.0016,-0.0004
-4.246000e-06,0,-0.011,-0.0024,0.0012
-4.245600e-06,-0.002,-0.005,-0.0024,0.0028
-4.245200e-06,0,-0.007,-0.0008,0.002
-4.244800e-06,0.002,-0.005,-0.0008,0.0012
-4.244400e-06,-0.004,-0.001,0.0008,0.002
-4.244000e-06,-0.002,0.003,0.0016,0.0028
-4.243600e-06,-0.004,0.007,0,0.0028
-4.243200e-06,-0.002,0.009,0.0016,0.0036
-4.242800e-06,-0.002,0.013,0.0016,0.0028
-4.242400e-06,-0.002,0.015,0.0032,0.0028
-4.242000e-06,-0.002,0.015,0.0032,0.002
-4.241600e-06,-0.004,0.015,0.0008,0.002
-4.241200e-06,0,0.015,0.0008,0.0028
-4.240800e-06,-0.002,0.013,0.0032,0.002
-4.240400e-06,-0.002,0.009,0.0024,0.0012
-4.240000e-06,0,0.005,0.0024,0.0012
-4.239600e-06,0,0.001,0.0024,-0.0004
-4.239200e-06,0,0.001,0.0016,-0.0004
-4.238800e-06,0,-0.003,0.0008,-0.0004
-4.238400e-06,0.004,-0.007,-0.0008,0.0004
-4.238000e-06,0.006,-0.011,-0.0008,-0.0004
-4.237600e-06,0.004,-0.011,-0.0008,-0.0004
-4.237200e-06,0.004,-0.013,-0.0008,-0.0004
-4.236800e-06,0.002,-0.009,-0.0016,-0.0004
-4.236400e-06,0,-0.009,-0.0016,-0.0012
-4.236000e-06,0,-0.009,-0.0008,-0.0004
-4.235600e-06,0,-0.007,-0.0008,0.0004
-4.235200e-06,-0.002,-0.005,-0.0008,0.0012
-4.234800e-06,0,-0.003,0.0008,0.0028
-4.234400e-06,-0.002,0.001,0.0008,0.0028
-4.234000e-06,-0.004,0.005,0.0016,0.002
-4.233600e-06,-0.002,0.005,0.0016,0.0012
-4.233200e-06,-0.002,0.009,0.0008,0.002
-4.232800e-06,0,0.007,0.0016,0.0028
-4.232400e-06,0,0.011,0.0008,0.0028
-4.232000e-06,0,0.011,0.0016,0.0028
-4.231600e-06,0,0.013,0.0016,0.002
-4.231200e-06,0,0.011,0.0016,0.0028
-4.230800e-06,-0.002,0.009,0.0008,0.002
-4.230400e-06,0,0.007,0.0016,0.0028
-4.230000e-06,0,0.003,0.0024,0.0004
-4.229600e-06,0.002,0.001,0.0016,0.0004
-4.229200e-06,0.002,-0.001,0.0016,-0.0004
-4.228800e-06,0.004,-0.003,0.0016,-0.002
-4.228400e-06,0.002,-0.007,-0.0008,-0.002
-4.228000e-06,0,-0.005,-0.0008,-0.002
-4.227600e-06,0.004,-0.007,-0.0016,-0.0012
-4.227200e-06,0.004,-0.007,-0.0008,-0.0012
-4.226800e-06,0.004,-0.011,-0.0016,-0.0028
-4.226400e-06,0.002,-0.007,-0.0024,-0.0036
-4.226000e-06,0.002,-0.009,-0.0024,-0.0012
-4.225600e-06,0,-0.007,-0.0016,-0.002
-4.225200e-06,0,-0.011,-0.0016,-0.0004
-4.224800e-06,0.002,-0.005,-0.0024,-0.0012
-4.224400e-06,0,-0.001,-0.0032,-0.0012
-4.224000e-06,0,-0.001,-0.0024,-0.0012
-4.223600e-06,-0.002,0.003,-0.0024,0.0004
-4.223200e-06,-0.002,0.007,-0.0024,0.0004
-4.222800e-06,-0.004,0.007,-0.0008,0.0004
-4.222400e-06,0,0.007,-0.0016,0.0004
-4.222000e-06,-0.002,0.005,-0.0008,0.0004
-4.221600e-06,0.002,0.007,-0.0008,0.0012
-4.221200e-06,-0.002,0.009,0,0.002
-4.220800e-06,-0.002,0.007,0.0008,0.002
-4.220400e-06,0,0.007,0.0008,0.0028
-4.220000e-06,0.004,0.005,0.0008,0.0012
-4.219600e-06,0.002,0.003,0.0008,0.0012
-4.219200e-06,0.004,0.001,0.0008,0.0012
-4.218800e-06,0.004,0.001,0.0016,0.0004
-4.218400e-06,0.006,0.001,0.0008,0.0012
-4.218000e-06,0.008,0.001,0.0008,0.0004
-4.217600e-06,0.006,0.001,-0.0008,-0.0004
-4.217200e-06,0.004,-0.001,-0.0008,-0.0004
-4.216800e-06,0.004,-0.001,0,-0.0012
-4.216400e-06,0.004,-0.005,-0.0008,-0.0028
-4.216000e-06,0.008,-0.005,-0.0024,-0.0012
-4.215600e-06,0.006,-0.005,-0.0016,-0.0028
-4.215200e-06,0.004,-0.005,-0.0032,-0.0012
-4.214800e-06,0.002,-0.003,-0.0024,-0.0012
-4.214400e-06,0,-0.005,-0.0024,-0.0004
-4.214000e-06,-0.002,-0.003,-0.0016,0.0004
-4.213600e-06,0,-0.003,-0.0032,0.0004
-4.213200e-06,-0.002,0.003,-0.0016,0.0004
-4.212800e-06,-0.004,0.001,-0.0008,0.0004
-4.212400e-06,0,0.003,-0.0008,0.0012
-4.212000e-06,-0.002,0.003,-0.0008,0.0012
-4.211600e-06,-0.004,0.003,0,0.0012
-4.211200e-06,-0.004,0.005,0.0016,0.0012
-4.210800e-06,-0.002,0.007,0.0008,0.0012
-4.210400e-06,-0.004,0.005,0.0008,0.0028
-4.210000e-06,-0.004,0.005,0,0.0028
-4.209600e-06,-0.002,0.005,0.0008,0.0028
-4.209200e-06,-0.002,0.005,0.0008,0.0028
-4.208800e-06,0,0.005,0.0008,0.002
-4.208400e-06,0.002,0.005,0.0016,0.002
-4.208000e-06,0,0.009,0.0008,0.002
-4.207600e-06,0,0.003,0.0016,0.002
-4.207200e-06,0,0.001,0.0016,0.0004
-4.206800e-06,0,0.001,0.0016,0.0012
-4.206400e-06,0.002,-0.001,0.0008,0.0012
-4.206000e-06,0.004,-0.003,0.0008,0.0004
-4.205600e-06,0.002,-0.001,0.0008,0.0004
-4.205200e-06,0,-0.001,-0.0008,-0.0004
-4.204800e-06,-0.002,-0.005,-0.0008,-0.0004
-4.204400e-06,-0.002,-0.007,-0.0008,-0.0012
-4.204000e-06,0,-0.005,-0.0008,-0.0012
-4.203600e-06,-0.006,-0.005,-0.0016,-0.002
-4.203200e-06,-0.002,-0.007,-0.0016,-0.0028
-4.202800e-06,-0.004,-0.005,-0.0024,-0.002
-4.202400e-06,-0.006,-0.005,-0.0016,-0.0012
-4.202000e-06,-0.006,-0.005,-0.0016,-0.0004
-4.201600e-06,-0.004,-0.001,-0.0008,0.0004
-4.201200e-06,-0.002,-0.001,0.0008,0.0004
-4.200800e-06,-0.002,0.001,0.0008,-0.0004
-4.200400e-06,-0.002,0.003,0,0.0004
-4.200000e-06,-0.002,0.005,0,0.0012
-4.199600e-06,0.002,0.007,-0.0008,0.0012
-4.199200e-06,0,0.009,-0.0008,0.0012
-4.198800e-06,-0.002,0.011,0.0008,0.002
-4.198400e-06,0.002,0.011,0.0008,0.0012
-4.198000e-06,0.004,0.011,0.0008,0.0012
-4.197600e-06,0.004,0.011,-0.0008,0.0004
-4.197200e-06,0.004,0.009,0,0.0012
-4.196800e-06,0.006,0.005,0,0.002
-4.196400e-06,0.006,0.003,0,0.0004
-4.196000e-06,0.006,0.003,0.0008,0.0012
-4.195600e-06,0.008,-0.001,0.0016,0.0004
-4.195200e-06,0.006,-0.005,0,0.0004
-4.194800e-06,0.004,-0.003,0,0.0004
-4.194400e-06,0.004,-0.003,-0.0008,-0.0004
-4.194000e-06,0.002,-0.007,-0.0008,-0.0012
-4.193600e-06,0,-0.011,-0.0008,-0.0012
-4.193200e-06,0,-0.009,-0.0008,-0.0012
-4.192800e-06,0,-0.009,-0.0016,-0.002
-4.192400e-06,-0.002,-0.009,-0.0016,-0.0028
-4.192000e-06,0.002,-0.011,-0.0024,-0.0028
-4.191600e-06,0,-0.005,-0.0016,-0.002
-4.191200e-06,-0.002,-0.003,-0.0024,-0.0012
-4.190800e-06,0,-0.001,-0.0008,0.0004
-4.190400e-06,0.002,0.003,-0.0016,-0.0012
-4.190000e-06,0.002,0.003,-0.0016,-0.0012
-4.189600e-06,0,0.007,-0.0008,-0.0012
-4.189200e-06,0.002,0.009,-0.0016,-0.0004
-4.188800e-06,0,0.011,-0.0008,0.0004
-4.188400e-06,0.006,0.009,-0.0016,0.0004
-4.188000e-06,0.006,0.013,-0.0016,0.0012
-4.187600e-06,0.004,0.015,-0.0008,0.0012
-4.187200e-06,0.008,0.013,-0.0008,0.0012
-4.186800e-06,0.008,0.015,-0.0008,0.0028
-4.186400e-06,0.006,0.011,0.0016,0.0012
-4.186000e-06,0.004,0.009,0.0008,0.0012
-4.185600e-06,0.004,0.005,0.0008,0.0012
-4.185200e-06,0.004,0.001,0.0016,0.0028
-4.184800e-06,0.002,-0.001,0.0016,0.0012
-4.184400e-06,0.002,-0.005,0.0008,0.0012
-4.184000e-06,0.002,-0.011,0,0.0004
-4.183600e-06,-0.002,-0.017,0,0.0012
-4.183200e-06,-0.002,-0.011,0.0008,-0.0004
-4.182800e-06,0,-0.011,0,-0.0012
-4.182400e-06,-0.002,-0.011,-0.0008,-0.0004
-4.182000e-06,-0.002,-0.011,0,-0.0012
-4.181600e-06,-0.002,-0.005,-0.0008,-0.0012
-4.181200e-06,-0.004,-0.005,-0.0024,-0.0028
-4.180800e-06,-0.004,-0.003,-0.0008,-0.0028
-4.180400e-06,-0.002,0.001,-0.0016,-0.0028
-4.180000e-06,0,0.001,-0.0016,-0.0036
-4.179600e-06,0,0.007,-0.0024,-0.0028
-4.179200e-06,-0.002,0.013,-0.0032,-0.0012
-4.178800e-06,0,0.011,-0.0016,-0.002
-4.178400e-06,0,0.013,-0.0008,-0.0012
-4.178000e-06,0,0.017,-0.0016,0.0004
-4.177600e-06,0.004,0.017,-0.0008,0.0012
-4.177200e-06,0.004,0.015,-0.0016,0.002
-4.176800e-06,0.002,0.011,-0.0016,0.002
-4.176400e-06,0.004,0.009,0,0.0028
-4.176000e-06,0.004,0.009,0,0.002
-4.175600e-06,0.002,0.005,0.0008,0.002
