IVs/0412/tek0004ALL.csv

Model,DPO3034
Firmware Version,2.16

Point Format,Y,,,
Horizontal Units,S,,,
Horizontal Scale,4e-05,,,
Sample Interval,4e-10,,,
Record Length,1e+06,,,
Gating,48.749900% to 51.249900%,48.749900% to 51.249900%,48.749900% to 51.249900%,48.749900% to 51.249900%
Probe Attenuation,1,1,1,1
Vertical Units,V,V,V,V
Vertical Offset,0,0,0,0
Vertical Scale,0.1,0.1,0.02,0.02
Label,,,,
TIME,CH1,CH2,CH3,CH4
4.60292924e-02,0.0119844,0.00932812,0.00589062,0.00640625
4.60292928e-02,0.0122188,0.00998437,0.005875,0.00652187
4.60292932e-02,0.0114531,0.0103281,0.0059125,0.0065125
4.60292936e-02,0.0124219,0.0104687,0.00578437,0.00641875
4.60292940e-02,0.0127969,0.0100312,0.00575312,0.00627187
4.60292944e-02,0.0135781,0.0105156,0.00572188,0.00604688
4.60292948e-02,0.0139844,0.010875,0.00554375,0.0057625
4.60292952e-02,0.0133281,0.0108125,0.00581875,0.00539062
4.60292956e-02,0.014125,0.0102344,0.00571875,0.00501875
4.60292960e-02,0.0147969,0.010375,0.0059,0.00477187
4.60292964e-02,0.0139375,0.0104219,0.00585625,0.00446875
4.60292968e-02,0.0148594,0.0111094,0.0060625,0.00439687
4.60292972e-02,0.0133906,0.0100938,0.0062375,0.00450625
4.60292976e-02,0.0136875,0.00970312,0.00630625,0.00415312
4.60292980e-02,0.0138906,0.00915625,0.00644688,0.00417813
4.60292984e-02,0.0136406,0.0102031,0.00679687,0.00427812
4.60292988e-02,0.0131094,0.0109531,0.00673438,0.0043
4.60292992e-02,0.013,0.00959375,0.00675,0.00463437
4.60292996e-02,0.0137344,0.0105625,0.00672813,0.00466563
4.60293000e-02,0.013625,0.0100625,0.00670313,0.00486562
4.60293004e-02,0.0130156,0.0095625,0.00652812,0.00559375
4.60293008e-02,0.01275,0.00928125,0.00660313,0.00581875
4.60293012e-02,0.0134844,0.0099375,0.006425,0.00614062
4.60293016e-02,0.0130469,0.00875,0.00632813,0.00634063
4.60293020e-02,0.0137969,0.009,0.006025,0.00649062
4.60293024e-02,0.0125781,0.00992187,0.00586875,0.006575
4.60293028e-02,0.012875,0.009375,0.00557813,0.00619688
4.60293032e-02,0.0148594,0.00948437,0.00563125,0.00613125
4.60293036e-02,0.0136719,0.0102031,0.00558125,0.00582188
4.60293040e-02,0.0123594,0.0105156,0.00539062,0.00555313
4.60293044e-02,0.0122344,0.00921875,0.0056625,0.00510625
4.60293048e-02,0.0127812,0.0095,0.00565312,0.00507813
4.60293052e-02,0.0119375,0.00957812,0.00589062,0.0048375
4.60293056e-02,0.0119687,0.00959375,0.00586562,0.00460625
4.60293060e-02,0.0132656,0.0108906,0.00590625,0.00435
4.60293064e-02,0.013125,0.0116094,0.00593125,0.0043125
4.60293068e-02,0.0132344,0.0101719,0.00620313,0.00409687
4.60293072e-02,0.0145469,0.00989062,0.00650625,0.0042375
4.60293076e-02,0.0135156,0.0098125,0.006225,0.00426562
4.60293080e-02,0.0142031,0.00953125,0.00654375,0.00410312
4.60293084e-02,0.0131719,0.00928125,0.0066125,0.0044375
4.60293088e-02,0.0149219,0.00990625,0.00669063,0.00439375
4.60293092e-02,0.0141719,0.0103437,0.00661562,0.0046375
4.60293096e-02,0.0139375,0.0095625,0.0065375,0.00502187
4.60293100e-02,0.0131406,0.00917187,0.00659063,0.00515937
4.60293104e-02,0.0136875,0.0104844,0.00650937,0.00553437
4.60293108e-02,0.0117188,0.0096875,0.00630938,0.00567813
4.60293112e-02,0.0130625,0.00907812,0.00617813,0.00595625
4.60293116e-02,0.0138281,0.0099375,0.0058125,0.0059
4.60293120e-02,0.0125781,0.00920312,0.0056,0.00607813
4.60293124e-02,0.0132656,0.00840625,0.00551562,0.00612187
4.60293128e-02,0.0135,0.00851562,0.00540312,0.00599687
4.60293132e-02,0.0129531,0.00989062,0.00539375,0.0057875
4.60293136e-02,0.01325,0.0105312,0.00529688,0.00537812
4.60293140e-02,0.0148906,0.0104531,0.00530625,0.00557188
4.60293144e-02,0.0139219,0.0104375,0.00534688,0.00526562
4.60293148e-02,0.0129687,0.0100625,0.0055375,0.00485312
4.60293152e-02,0.0128437,0.00946875,0.0055875,0.00433125
4.60293156e-02,0.0133281,0.00971875,0.00563437,0.004175
4.60293160e-02,0.0123125,0.0107969,0.00588437,0.00424062
4.60293164e-02,0.0130938,0.0111094,0.00587187,0.004225
4.60293168e-02,0.0130938,0.0111406,0.00590937,0.00390313
4.60293172e-02,0.011875,0.0104375,0.00625312,0.003875
4.60293176e-02,0.0112344,0.0095,0.00637187,0.00400312
4.60293180e-02,0.0118281,0.00890625,0.00652187,0.0039375
4.60293184e-02,0.0120625,0.00823437,0.00655313,0.00420625
4.60293188e-02,0.0142031,0.00879687,0.0066625,0.00477812
4.60293192e-02,0.014,0.00984375,0.00674063,0.00502812
4.60293196e-02,0.0132031,0.0100625,0.00635313,0.00532813
4.60293200e-02,0.0143125,0.00979687,0.00636875,0.00529375
4.60293204e-02,0.0133125,0.0102031,0.00621875,0.00555313
4.60293208e-02,0.0125,0.0094375,0.00615,0.00592188
4.60293212e-02,0.0124844,0.00946875,0.00565625,0.00599375
4.60293216e-02,0.0134844,0.00901562,0.00587812,0.00589062
4.60293220e-02,0.0134531,0.00951562,0.0060375,0.0060125
4.60293224e-02,0.0126875,0.00978125,0.0058125,0.00591562
4.60293228e-02,0.0134844,0.00957812,0.00559063,0.00584688
4.60293232e-02,0.0128281,0.00992187,0.00537812,0.0056375
4.60293236e-02,0.0126562,0.00940625,0.00533438,0.00545938
4.60293240e-02,0.0135781,0.0105312,0.00515312,0.00545625
4.60293244e-02,0.0128437,0.00992187,0.00530313,0.00490625
4.60293248e-02,0.0134687,0.0107187,0.00554063,0.00444688
4.60293252e-02,0.0125625,0.0102812,0.00573437,0.00460937
4.60293256e-02,0.0135469,0.0104531,0.00568125,0.00449687
4.60293260e-02,0.0152344,0.0113594,0.00583438,0.00403438
4.60293264e-02,0.0134531,0.009875,0.00584063,0.00384375
4.60293268e-02,0.0125156,0.0104687,0.00582188,0.00370938
4.60293272e-02,0.0134844,0.00917187,0.00616875,0.00372812
4.60293276e-02,0.0140312,0.00932812,0.006125,0.00393125
4.60293280e-02,0.0132188,0.009125,0.00637187,0.00404375
4.60293284e-02,0.0130312,0.00978125,0.0065875,0.00440625
4.60293288e-02,0.0136562,0.0100469,0.00658438,0.0047875
4.60293292e-02,0.0146719,0.00895313,0.00657813,0.00489062
4.60293296e-02,0.0136094,0.00832812,0.00655938,0.005225
4.60293300e-02,0.0137969,0.00878125,0.0063875,0.00570625
4.60293304e-02,0.0143594,0.00940625,0.00657813,0.00581875
4.60293308e-02,0.0132031,0.0113594,0.00618125,0.00618125
4.60293312e-02,0.0135781,0.00970312,0.00594063,0.00614687
4.60293316e-02,0.0123125,0.00975,0.00581875,0.0062125
4.60293320e-02,0.011125,0.0107812,0.00571563,0.00633125
4.60293324e-02,0.0112031,0.0096875,0.0058125,0.0063125
4.60293328e-02,0.0121406,0.0105312,0.00580313,0.00601875
4.60293332e-02,0.0134687,0.00917187,0.00573125,0.0057625
4.60293336e-02,0.0134219,0.00820312,0.00545,0.00552187
4.60293340e-02,0.0131719,0.0108906,0.005425,0.00520313
4.60293344e-02,0.0133594,0.0117812,0.00555313,0.005
4.60293348e-02,0.0133437,0.0118281,0.00555,0.00443125
4.60293352e-02,0.0139844,0.0102031,0.00566875,0.00412187
4.60293356e-02,0.0137188,0.00967187,0.005625,0.00412812
4.60293360e-02,0.0141719,0.00821875,0.00603437,0.00383438
4.60293364e-02,0.0133437,0.00915625,0.0059,0.00366563
4.60293368e-02,0.011625,0.00942187,0.0059,0.00372187
4.60293372e-02,0.011375,0.0095,0.00622188,0.003825
4.60293376e-02,0.0129219,0.0096875,0.00629062,0.00390313
4.60293380e-02,0.0126562,0.00921875,0.00636875,0.00422187
4.60293384e-02,0.0125312,0.00967187,0.00650312,0.0043125
4.60293388e-02,0.0119063,0.0090625,0.00655938,0.00461875
4.60293392e-02,0.0126875,0.00890625,0.00629375,0.00502187
4.60293396e-02,0.012,0.0101562,0.00633125,0.00512812
4.60293400e-02,0.01225,0.0104687,0.00632188,0.00517188
4.60293404e-02,0.0117969,0.00979687,0.0061875,0.00561875
4.60293408e-02,0.0124531,0.00942187,0.00624687,0.00576875
4.60293412e-02,0.0127031,0.0075625,0.00635,0.00598438
4.60293416e-02,0.01225,0.00864063,0.00639062,0.00615625
4.60293420e-02,0.012,0.00982812,0.0061125,0.00594375
4.60293424e-02,0.0124375,0.0105312,0.0057875,0.005775
4.60293428e-02,0.0128594,0.01025,0.00558125,0.00577187
4.60293432e-02,0.0121875,0.0107969,0.00562812,0.00574062
4.60293436e-02,0.0133437,0.00982812,0.00553125,0.0055125
4.60293440e-02,0.0146406,0.00945313,0.00575312,0.00518125
4.60293444e-02,0.0149063,0.0107969,0.00549375,0.00480313
4.60293448e-02,0.0143437,0.0103906,0.0057375,0.0046125
4.60293452e-02,0.0143594,0.00996875,0.00581563,0.00441563
4.60293456e-02,0.0142031,0.0115469,0.0058375,0.00376562
4.60293460e-02,0.0147656,0.0105,0.00582188,0.003625
4.60293464e-02,0.0133437,0.0110938,0.00575937,0.00372812
4.60293468e-02,0.0132656,0.0103125,0.00604375,0.0039625
4.60293472e-02,0.0130625,0.00928125,0.006075,0.00377187
4.60293476e-02,0.0136875,0.0109687,0.00612812,0.00379063
4.60293480e-02,0.0137656,0.0113906,0.00613125,0.00392813
4.60293484e-02,0.0130781,0.0115,0.00632188,0.00425312
4.60293488e-02,0.0128594,0.00984375,0.00634375,0.0046375
4.60293492e-02,0.0119844,0.0107344,0.00615,0.00474687
4.60293496e-02,0.0122344,0.00957812,0.00625625,0.005175
4.60293500e-02,0.014,0.0101094,0.00613125,0.0053375
4.60293504e-02,0.0144219,0.00964063,0.00608438,0.0054125
4.60293508e-02,0.0147031,0.00928125,0.00617813,0.0057
4.60293512e-02,0.0142188,0.0110625,0.00628437,0.0056375
4.60293516e-02,0.0142188,0.0105,0.00616875,0.0059875
4.60293520e-02,0.0139219,0.0104844,0.00605938,0.00590937
4.60293524e-02,0.0126406,0.0100938,0.00613437,0.00579062
4.60293528e-02,0.0125156,0.0102187,0.00611875,0.00601562
4.60293532e-02,0.0129687,0.00898437,0.00590625,0.00595625
4.60293536e-02,0.0143281,0.01,0.00598125,0.00564062
4.60293540e-02,0.013625,0.0102187,0.00578125,0.00553437
4.60293544e-02,0.0125938,0.0111719,0.00589375,0.00505938
4.60293548e-02,0.0116875,0.0117969,0.00574062,0.0051875
4.60293552e-02,0.0135312,0.0094375,0.005875,0.0046
4.60293556e-02,0.0147812,0.00789062,0.00603437,0.00426562
4.60293560e-02,0.0126562,0.00923437,0.00575937,0.00429063
4.60293564e-02,0.0117656,0.00953125,0.00593438,0.0042
4.60293568e-02,0.0129375,0.00976562,0.00599062,0.00396563
4.60293572e-02,0.0138281,0.00934375,0.00586562,0.00415
4.60293576e-02,0.0124531,0.00971875,0.00619375,0.00422812
4.60293580e-02,0.0131094,0.0108594,0.0060875,0.0044
4.60293584e-02,0.0139531,0.0104531,0.00602812,0.00450625
4.60293588e-02,0.0132031,0.00978125,0.006025,0.00483438
4.60293592e-02,0.0126875,0.009375,0.00589062,0.00483125
4.60293596e-02,0.0130781,0.0115,0.0058125,0.0049875
4.60293600e-02,0.0137812,0.0104687,0.00595313,0.00513125
4.60293604e-02,0.0128594,0.0095,0.00586875,0.00525937
4.60293608e-02,0.0130469,0.0085,0.00587187,0.00558125
4.60293612e-02,0.0143437,0.00979687,0.0060625,0.00546563
4.60293616e-02,0.0142656,0.00973437,0.0061,0.00560313
4.60293620e-02,0.0134219,0.00854688,0.00609375,0.00560313
4.60293624e-02,0.0131875,0.00921875,0.00590937,0.00555625
4.60293628e-02,0.0136094,0.01025,0.0058375,0.00535937
4.60293632e-02,0.0136875,0.0096875,0.00600312,0.00533438
4.60293636e-02,0.0140312,0.00978125,0.00576875,0.00541875
4.60293640e-02,0.0146094,0.0104844,0.00566563,0.00507813
4.60293644e-02,0.0135938,0.00971875,0.00575312,0.00475312
4.60293648e-02,0.0131719,0.0103437,0.00574375,0.0047875
4.60293652e-02,0.0124375,0.00998437,0.00597188,0.00465938
4.60293656e-02,0.0123594,0.00942187,0.00597188,0.00470625
4.60293660e-02,0.0134531,0.00923437,0.00590625,0.00464687
4.60293664e-02,0.0143125,0.0108437,0.00571563,0.0046125
4.60293668e-02,0.0135,0.0112031,0.00610625,0.00440938
4.60293672e-02,0.0146875,0.0100625,0.00620313,0.00455625
4.60293676e-02,0.0139844,0.0100938,0.00619688,0.00467188
4.60293680e-02,0.0136094,0.0103125,0.00621875,0.00447812
4.60293684e-02,0.0140156,0.01,0.00605,0.00461875
4.60293688e-02,0.0147969,0.0109844,0.00590937,0.00473125
4.60293692e-02,0.01375,0.0109375,0.00620313,0.00492813
4.60293696e-02,0.0135312,0.0110469,0.0061625,0.00504375
4.60293700e-02,0.0136875,0.0104687,0.00567188,0.00505625
4.60293704e-02,0.0140938,0.00967187,0.00605,0.0054
4.60293708e-02,0.0138125,0.00873437,0.00611562,0.0056375
4.60293712e-02,0.0135781,0.00870312,0.00574687,0.00577812
4.60293716e-02,0.0119687,0.0104375,0.00590625,0.00569063
4.60293720e-02,0.0145469,0.0102812,0.00595938,0.00538437
4.60293724e-02,0.0141719,0.00932812,0.00573437,0.00542813
4.60293728e-02,0.0130781,0.0104844,0.00594688,0.005725
4.60293732e-02,0.0130312,0.0105469,0.0059375,0.00549687
4.60293736e-02,0.0131875,0.00975,0.00592813,0.00551562
4.60293740e-02,0.0139844,0.009,0.00603125,0.00548125
4.60293744e-02,0.0145156,0.00879687,0.00609063,0.00495625
4.60293748e-02,0.0139219,0.00984375,0.00589062,0.0049
4.60293752e-02,0.0148594,0.00934375,0.0059625,0.00481875
4.60293756e-02,0.0139531,0.0113906,0.0060125,0.00480313
4.60293760e-02,0.0136719,0.0107812,0.00595625,0.00455938
4.60293764e-02,0.0136562,0.0107656,0.00607188,0.00449375
4.60293768e-02,0.0133281,0.0112969,0.00599062,0.004425
4.60293772e-02,0.0123125,0.0109687,0.00612187,0.004575
4.60293776e-02,0.0121562,0.0110781,0.00589062,0.004625
4.60293780e-02,0.0135312,0.0095,0.00586875,0.00464687
4.60293784e-02,0.0136875,0.00914063,0.00575,0.00479375
4.60293788e-02,0.0132031,0.010375,0.00595625,0.00514375
4.60293792e-02,0.0146719,0.01075,0.0063875,0.00503125
4.60293796e-02,0.0133125,0.009375,0.00649687,0.00500625
4.60293800e-02,0.0129219,0.0108125,0.0065125,0.0053125
4.60293804e-02,0.0129687,0.0093125,0.00612187,0.00518125
4.60293808e-02,0.0133281,0.0100625,0.00618125,0.00530938
4.60293812e-02,0.0137188,0.0105312,0.00618125,0.00536562
4.60293816e-02,0.013375,0.0112187,0.0059875,0.0055125
4.60293820e-02,0.0120156,0.0111094,0.00612812,0.00550625
4.60293824e-02,0.0128281,0.012125,0.00593438,0.00544688
4.60293828e-02,0.0134531,0.0104219,0.00602812,0.00551562
4.60293832e-02,0.0125156,0.0105938,0.00594688,0.0054
4.60293836e-02,0.0119219,0.00984375,0.0058875,0.00549687
4.60293840e-02,0.0115156,0.0104844,0.0059125,0.00513437
4.60293844e-02,0.012625,0.01025,0.0061,0.00531563
4.60293848e-02,0.0131406,0.00965625,0.00595625,0.00532813
4.60293852e-02,0.0139844,0.00998437,0.00616562,0.00521875
4.60293856e-02,0.0131406,0.0109063,0.00611562,0.0048875
4.60293860e-02,0.0130312,0.0126562,0.00615,0.0049625
4.60293864e-02,0.0132812,0.01075,0.00614687,0.00515625
4.60293868e-02,0.0132656,0.00864063,0.00614062,0.00526875
4.60293872e-02,0.01325,0.00907812,0.00615937,0.00483125
4.60293876e-02,0.012375,0.0106094,0.00578437,0.0051875
4.60293880e-02,0.0130312,0.0102969,0.00609688,0.00510313
4.60293884e-02,0.0125,0.0101719,0.00644063,0.00516875
4.60293888e-02,0.0122031,0.00982812,0.00634375,0.00519375
4.60293892e-02,0.0135625,0.0101719,0.00625625,0.00530938
4.60293896e-02,0.0138281,0.0110781,0.00630625,0.00532813
4.60293900e-02,0.0134063,0.0114531,0.00630938,0.00550625
4.60293904e-02,0.0130938,0.0107187,0.00636875,0.00555313
4.60293908e-02,0.01275,0.00854688,0.00624375,0.00570938
4.60293912e-02,0.0135625,0.00929687,0.00639687,0.00561875
4.60293916e-02,0.0134063,0.00979687,0.006375,0.0054625
4.60293920e-02,0.0136719,0.0104219,0.0060875,0.00550312
4.60293924e-02,0.0135625,0.0103125,0.00598125,0.00565
4.60293928e-02,0.0133125,0.0100625,0.00610313,0.0056
4.60293932e-02,0.0132969,0.0088125,0.00616562,0.00543438
4.60293936e-02,0.0130469,0.00890625,0.00597813,0.00519688
4.60293940e-02,0.012375,0.0105156,0.00612812,0.00531563
4.60293944e-02,0.0135312,0.0114375,0.00555313,0.00521563
4.60293948e-02,0.0130156,0.0101094,0.00556875,0.00508438
4.60293952e-02,0.01225,0.00971875,0.00565312,0.00505625
4.60293956e-02,0.0130156,0.00975,0.00554063,0.00485625
4.60293960e-02,0.0128281,0.00815625,0.00560625,0.00470625
4.60293964e-02,0.0124687,0.0103281,0.00579062,0.00464687
4.60293968e-02,0.0130156,0.0108281,0.005925,0.00439062
4.60293972e-02,0.0138906,0.0110469,0.00579688,0.00450625
4.60293976e-02,0.0132656,0.0100469,0.00572813,0.0044375
4.60293980e-02,0.0147031,0.0102187,0.00605313,0.00459688
4.60293984e-02,0.0145781,0.00982812,0.0060875,0.00458125
4.60293988e-02,0.0132656,0.00948437,0.00609688,0.0046625
4.60293992e-02,0.0132812,0.00914063,0.0062,0.00492813
4.60293996e-02,0.013,0.00853125,0.00623125,0.00494063
4.60294000e-02,0.0136875,0.0102344,0.00625625,0.0051
4.60294004e-02,0.0123594,0.00965625,0.00624062,0.00549375
4.60294008e-02,0.0123437,0.00859375,0.00638125,0.005475
4.60294012e-02,0.0135625,0.00823437,0.0062875,0.005925
4.60294016e-02,0.0136719,0.00915625,0.00618438,0.00588437
4.60294020e-02,0.0134219,0.0084375,0.00622813,0.00554375
4.60294024e-02,0.0142969,0.0096875,0.0061,0.00570313
4.60294028e-02,0.0124531,0.00959375,0.00615,0.00590937
4.60294032e-02,0.0126406,0.0118125,0.00573437,0.00577187
4.60294036e-02,0.0123281,0.0114844,0.00556875,0.00546563
4.60294040e-02,0.0129531,0.0104375,0.00555938,0.00520625
4.60294044e-02,0.0137812,0.00884375,0.00564062,0.005025
4.60294048e-02,0.0145312,0.0106562,0.00596875,0.0051625
4.60294052e-02,0.0126562,0.0121719,0.00544375,0.00500625
4.60294056e-02,0.0128125,0.0116406,0.0050875,0.00478125
4.60294060e-02,0.0133281,0.0112656,0.00532188,0.00491563
4.60294064e-02,0.0142969,0.0101875,0.00521875,0.00447812
4.60294068e-02,0.0128281,0.0102656,0.00534688,0.00404063
4.60294072e-02,0.0127344,0.0100625,0.00544375,0.00395313
4.60294076e-02,0.0139375,0.00876562,0.00571875,0.00421563
4.60294080e-02,0.0127812,0.00926562,0.00563125,0.00434688
4.60294084e-02,0.0125938,0.0103906,0.00630313,0.004425
4.60294088e-02,0.0130625,0.0108125,0.00622188,0.00454688
4.60294092e-02,0.0127656,0.00971875,0.0062125,0.00455625
4.60294096e-02,0.0126719,0.0099375,0.00645938,0.00469375
4.60294100e-02,0.0130781,0.00976562,0.00665625,0.00480625
4.60294104e-02,0.0129219,0.00895313,0.00690312,0.00517188
4.60294108e-02,0.0149219,0.0086875,0.006775,0.0056
4.60294112e-02,0.0137031,0.0102031,0.00669375,0.0055375
4.60294116e-02,0.0134219,0.0099375,0.00653437,0.00580313
4.60294120e-02,0.0142969,0.00917187,0.0065375,0.00611875
4.60294124e-02,0.0138906,0.00910937,0.0064625,0.006025
4.60294128e-02,0.0126094,0.0107344,0.00639062,0.00617188
4.60294132e-02,0.0121406,0.0110781,0.00601562,0.00590625
4.60294136e-02,0.0140781,0.00957812,0.00573437,0.00639062
4.60294140e-02,0.0125469,0.0102969,0.00516563,0.00594063
4.60294144e-02,0.0117656,0.00935938,0.00502187,0.00596875
4.60294148e-02,0.0124063,0.0102969,0.00494063,0.0053375
4.60294152e-02,0.0129375,0.0114063,0.00485,0.00524062
4.60294156e-02,0.012,0.0110781,0.00472812,0.00510625
4.60294160e-02,0.0135625,0.0103281,0.00501562,0.00450312
4.60294164e-02,0.0122812,0.0106094,0.00505625,0.0042875
4.60294168e-02,0.012875,0.012,0.00518125,0.00423437
4.60294172e-02,0.0139531,0.0102969,0.0051,0.0039625
4.60294176e-02,0.0138437,0.00954688,0.0055375,0.00393438
4.60294180e-02,0.0147812,0.00985938,0.00555938,0.00397812
4.60294184e-02,0.0143125,0.00996875,0.00595313,0.00366563
4.60294188e-02,0.0135312,0.0103594,0.00612187,0.00390625
4.60294192e-02,0.0132969,0.00953125,0.006325,0.00421563
4.60294196e-02,0.0132031,0.00945313,0.006375,0.00454375
4.60294200e-02,0.0129687,0.00928125,0.00656563,0.00500312
4.60294204e-02,0.0120469,0.0104687,0.0067625,0.00525312
4.60294208e-02,0.0135312,0.0100781,0.00667813,0.00553437
4.60294212e-02,0.0129844,0.0107969,0.00692813,0.00565937
4.60294216e-02,0.0137656,0.00864063,0.0064,0.0059875
4.60294220e-02,0.0134687,0.00901562,0.00629062,0.0061875
4.60294224e-02,0.0132344,0.0106094,0.00610313,0.00635
4.60294228e-02,0.0120312,0.0100781,0.00605,0.00656875
4.60294232e-02,0.0115,0.00951562,0.00578437,0.006625
4.60294236e-02,0.0120312,0.00996875,0.00577812,0.00651562
4.60294240e-02,0.0128281,0.0102969,0.00546875,0.0063375
4.60294244e-02,0.0131406,0.0101719,0.00504375,0.00593125
4.60294248e-02,0.0138281,0.0107344,0.00474375,0.00575
4.60294252e-02,0.0131094,0.011875,0.00482813,0.00524687
4.60294256e-02,0.0129844,0.0117969,0.00499062,0.0047875
4.60294260e-02,0.012875,0.0122188,0.0045625,0.00440312
4.60294264e-02,0.0122812,0.011375,0.00453125,0.00395625
4.60294268e-02,0.0120469,0.0103125,0.00475312,0.0036375
4.60294272e-02,0.0129844,0.00917187,0.00516875,0.00338437
4.60294276e-02,0.0133437,0.009625,0.00519063,0.0033625
4.60294280e-02,0.0136562,0.00896875,0.00535625,0.00304688
4.60294284e-02,0.013375,0.00873437,0.0054375,0.003175
4.60294288e-02,0.0144844,0.00990625,0.005825,0.00354375
4.60294292e-02,0.0140938,0.0103437,0.00602187,0.00368438
4.60294296e-02,0.014125,0.0100156,0.00628437,0.00409063
4.60294300e-02,0.0129219,0.00945313,0.00652812,0.0044625
4.60294304e-02,0.0130469,0.00854688,0.00688437,0.00479063
4.60294308e-02,0.0136562,0.00775,0.00658125,0.005225
4.60294312e-02,0.0138594,0.00765625,0.006625,0.00554688
4.60294316e-02,0.0135,0.00945313,0.00658125,0.00606563
