IVs/2211/A/2 terminales/tek0004ALL.csv

Model,DPO3034
Firmware Version,2.16

Point Format,Y,
Horizontal Units,S,
Horizontal Scale,0.0002,
Sample Interval,4e-10,
Record Length,5e+06,
Gating,49.4999800% to 50.500%,49.4999800% to 50.500%
Probe Attenuation,1,1
Vertical Units,V,V
Vertical Offset,0,0
Vertical Scale,0.1,0.1
Label,,
TIME,CH1,CH2
-2.1808000e-06,0.004,0.002
-2.1804000e-06,0.008,-0.01
-2.1800000e-06,0.008,-0.002
-2.1796000e-06,0.008,-0.006
-2.1792000e-06,0.008,-0.006
-2.1788000e-06,0.02,-0.002
-2.1784000e-06,0.016,0.01
-2.1780000e-06,0.02,0.002
-2.1776000e-06,0.016,0.006
-2.1772000e-06,0.02,0.006
-2.1768000e-06,0.02,0.014
-2.1764000e-06,0.012,0.014
-2.1760000e-06,0.008,0.014
-2.1756000e-06,0.012,0.006
-2.1752000e-06,0.008,0.006
-2.1748000e-06,0.004,0.01
-2.1744000e-06,0.004,0.002
-2.1740000e-06,0.004,-0.002
-2.1736000e-06,0.004,-0.002
-2.1732000e-06,-0.004,-0.002
-2.1728000e-06,-0.004,0.006
-2.1724000e-06,-0.008,0.002
-2.1720000e-06,-0.004,-0.002
-2.1716000e-06,-0.004,-0.01
-2.1712000e-06,-0.004,-0.006
-2.1708000e-06,0,-0.006
-2.1704000e-06,0.008,-0.006
-2.1700000e-06,0.004,-0.006
-2.1696000e-06,0.016,-0.002
-2.1692000e-06,0.012,0.002
-2.1688000e-06,0.02,-0.002
-2.1684000e-06,0.016,-0.002
-2.1680000e-06,0.02,0.002
-2.1676000e-06,0.016,0.006
-2.1672000e-06,0.02,0.006
-2.1668000e-06,0.02,0.006
-2.1664000e-06,0.012,0.006
-2.1660000e-06,0.008,0.01
-2.1656000e-06,0.004,0.006
-2.1652000e-06,0.008,0.002
-2.1648000e-06,0.004,0.002
-2.1644000e-06,0,-0.002
-2.1640000e-06,0,0.002
-2.1636000e-06,0,-0.01
-2.1632000e-06,-0.004,-0.002
-2.1628000e-06,-0.004,-0.006
-2.1624000e-06,-0.004,-0.01
-2.1620000e-06,-0.004,-0.014
-2.1616000e-06,0.004,-0.006
-2.1612000e-06,0,-0.006
-2.1608000e-06,0.004,-0.002
-2.1604000e-06,0.004,-0.006
-2.1600000e-06,0.004,-0.006
-2.1596000e-06,0.012,0.002
-2.1592000e-06,0.012,0.002
-2.1588000e-06,0.012,0.006
-2.1584000e-06,0.012,0.002
-2.1580000e-06,0.012,-0.002
-2.1576000e-06,0.02,0.006
-2.1572000e-06,0.02,0.01
-2.1568000e-06,0.024,0.006
-2.1564000e-06,0.016,0.006
-2.1560000e-06,0.016,0.002
-2.1556000e-06,0.008,0.002
-2.1552000e-06,0.008,0.002
-2.1548000e-06,0,0.006
-2.1544000e-06,0.004,0.006
-2.1540000e-06,-0.004,-0.002
-2.1536000e-06,-0.012,-0.006
-2.1532000e-06,-0.008,-0.006
-2.1528000e-06,-0.012,-0.006
-2.1524000e-06,-0.004,-0.006
-2.1520000e-06,-0.004,-0.006
-2.1516000e-06,-0.004,-0.006
-2.1512000e-06,0.004,-0.002
-2.1508000e-06,0.004,0.002
-2.1504000e-06,0.008,0.002
-2.1500000e-06,0.012,-0.002
-2.1496000e-06,0.016,-0.002
-2.1492000e-06,0.016,-0.002
-2.1488000e-06,0.016,0.006
-2.1484000e-06,0.016,0.01
-2.1480000e-06,0.012,0.01
-2.1476000e-06,0.012,0.01
-2.1472000e-06,0.02,0.01
-2.1468000e-06,0.016,0.006
-2.1464000e-06,0.016,0.01
-2.1460000e-06,0.016,0.006
-2.1456000e-06,0.008,0.006
-2.1452000e-06,0.008,0.002
-2.1448000e-06,0.008,0.002
-2.1444000e-06,0,0.006
-2.1440000e-06,-0.004,0.002
-2.1436000e-06,-0.004,0.002
-2.1432000e-06,-0.004,-0.002
-2.1428000e-06,-0.004,-0.006
-2.1424000e-06,-0.004,-0.006
-2.1420000e-06,-0.004,-0.006
-2.1416000e-06,-0.004,0.002
-2.1412000e-06,-0.008,0.002
-2.1408000e-06,-0.004,0.002
-2.1404000e-06,0.008,-0.002
-2.1400000e-06,0.012,0.01
-2.1396000e-06,0.012,0.006
-2.1392000e-06,0.016,0.014
-2.1388000e-06,0.016,0.014
-2.1384000e-06,0.016,0.018
-2.1380000e-06,0.02,0.01
-2.1376000e-06,0.024,0.014
-2.1372000e-06,0.02,0.018
-2.1368000e-06,0.02,0.022
-2.1364000e-06,0.012,0.018
-2.1360000e-06,0.012,0.006
-2.1356000e-06,0.008,0.006
-2.1352000e-06,0.008,0.006
-2.1348000e-06,0.004,0.006
-2.1344000e-06,0.004,0.002
-2.1340000e-06,-0.008,0.002
-2.1336000e-06,0.004,-0.006
-2.1332000e-06,0,-0.006
-2.1328000e-06,-0.004,-0.002
-2.1324000e-06,0,-0.006
-2.1320000e-06,0.008,-0.002
-2.1316000e-06,0.008,-0.006
-2.1312000e-06,0.008,0.002
-2.1308000e-06,0.008,-0.002
-2.1304000e-06,0.012,0.006
-2.1300000e-06,0.012,0.002
-2.1296000e-06,0.02,0.006
-2.1292000e-06,0.016,0.014
-2.1288000e-06,0.016,0.014
-2.1284000e-06,0.008,0.014
-2.1280000e-06,0.008,0.018
-2.1276000e-06,0.012,0.014
-2.1272000e-06,0.012,0.014
-2.1268000e-06,0.008,0.014
-2.1264000e-06,0.008,0.018
-2.1260000e-06,0.012,0.01
-2.1256000e-06,0.016,0.01
-2.1252000e-06,0.008,0.006
-2.1248000e-06,0.008,0.01
-2.1244000e-06,0.004,0.01
-2.1240000e-06,0.004,0.01
-2.1236000e-06,-0.004,0.002
-2.1232000e-06,-0.004,0.006
-2.1228000e-06,-0.004,-0.002
-2.1224000e-06,0.004,0.002
-2.1220000e-06,0.008,0.002
-2.1216000e-06,0.004,-0.006
-2.1212000e-06,0,-0.002
-2.1208000e-06,0,0.002
-2.1204000e-06,0.004,0.002
-2.1200000e-06,0.008,0.006
-2.1196000e-06,0.012,0.014
-2.1192000e-06,0.012,0.014
-2.1188000e-06,0.012,0.01
-2.1184000e-06,0.008,0.01
-2.1180000e-06,0.008,0.01
-2.1176000e-06,0.008,0.01
-2.1172000e-06,0.012,0.01
-2.1168000e-06,0.012,0.014
-2.1164000e-06,0.008,0.014
-2.1160000e-06,0.004,0.014
-2.1156000e-06,0,0.014
-2.1152000e-06,0.004,0.014
-2.1148000e-06,-0.004,0.01
-2.1144000e-06,-0.004,0.006
-2.1140000e-06,0.004,0.006
-2.1136000e-06,0.004,0.002
-2.1132000e-06,0.004,0.002
-2.1128000e-06,0.008,-0.002
-2.1124000e-06,0.004,0.01
-2.1120000e-06,0.004,0.002
-2.1116000e-06,0.004,-0.002
-2.1112000e-06,0.004,0.006
-2.1108000e-06,0.004,0.006
-2.1104000e-06,0.012,0.002
-2.1100000e-06,0.016,0.006
-2.1096000e-06,0.02,0.006
-2.1092000e-06,0.02,0.014
-2.1088000e-06,0.016,0.01
-2.1084000e-06,0.016,0.014
-2.1080000e-06,0.016,0.014
-2.1076000e-06,0.008,0.01
-2.1072000e-06,0.016,0.01
-2.1068000e-06,0.016,0.014
-2.1064000e-06,0.016,0.018
-2.1060000e-06,0.016,0.014
-2.1056000e-06,0.012,0.014
-2.1052000e-06,0.012,0.006
-2.1048000e-06,0.004,0.002
-2.1044000e-06,-0.004,0.014
-2.1040000e-06,0,0.006
-2.1036000e-06,0.012,0.006
-2.1032000e-06,0.016,0.006
-2.1028000e-06,0.004,0.002
-2.1024000e-06,0.008,-0.002
-2.1020000e-06,0.008,0.002
-2.1016000e-06,0.012,0.006
-2.1012000e-06,0.008,0.01
-2.1008000e-06,0.008,0.006
-2.1004000e-06,0.008,0.002
-2.1000000e-06,0.012,0.006
-2.0996000e-06,0.008,0.006
-2.0992000e-06,0.008,0.014
-2.0988000e-06,0.008,0.018
-2.0984000e-06,0.008,0.018
-2.0980000e-06,0.008,0.014
-2.0976000e-06,0.012,0.014
-2.0972000e-06,0.004,0.014
-2.0968000e-06,0.008,0.014
-2.0964000e-06,0.008,0.018
-2.0960000e-06,0.008,0.006
-2.0956000e-06,0.008,0.006
-2.0952000e-06,0.012,0.01
-2.0948000e-06,0.012,0.006
-2.0944000e-06,0.012,0.006
-2.0940000e-06,0.012,0.006
-2.0936000e-06,0.008,0.01
-2.0932000e-06,0,0.002
-2.0928000e-06,0,0.002
-2.0924000e-06,0,0.006
-2.0920000e-06,0.008,0.006
-2.0916000e-06,0.008,0.006
-2.0912000e-06,0.004,0.006
-2.0908000e-06,0,-0.002
-2.0904000e-06,0.008,0.002
-2.0900000e-06,0,0.01
-2.0896000e-06,0.008,0.018
-2.0892000e-06,0.016,0.01
-2.0888000e-06,0.012,0.01
-2.0884000e-06,0.004,0.006
-2.0880000e-06,-0.004,0.01
-2.0876000e-06,0,0.018
-2.0872000e-06,0.004,0.014
-2.0868000e-06,0.004,0.014
-2.0864000e-06,0.008,0.006
-2.0860000e-06,0.008,0.006
-2.0856000e-06,0.008,0.006
-2.0852000e-06,0.012,0.006
-2.0848000e-06,0.008,0.014
-2.0844000e-06,0.008,0.01
-2.0840000e-06,0.008,0.002
-2.0836000e-06,0.008,-0.002
-2.0832000e-06,0.016,-0.006
-2.0828000e-06,0.016,0.002
-2.0824000e-06,0.016,-0.002
-2.0820000e-06,0.004,0.002
-2.0816000e-06,0.004,0.002
-2.0812000e-06,0.016,-0.002
-2.0808000e-06,0.012,-0.002
-2.0804000e-06,0.008,0.006
-2.0800000e-06,0.012,0.01
-2.0796000e-06,0.008,0.01
-2.0792000e-06,0.004,0.018
-2.0788000e-06,0,0.014
-2.0784000e-06,0.004,0.01
-2.0780000e-06,0.004,0.01
-2.0776000e-06,0.008,0.01
-2.0772000e-06,0.008,0.006
-2.0768000e-06,0.008,0.01
-2.0764000e-06,0,0.01
-2.0760000e-06,0.004,0.01
-2.0756000e-06,0.008,0.006
-2.0752000e-06,0.016,0.01
-2.0748000e-06,0.012,0.006
-2.0744000e-06,0.008,0.002
-2.0740000e-06,0.008,-0.002
-2.0736000e-06,0.012,0.002
-2.0732000e-06,0.012,0.002
-2.0728000e-06,0.004,0.006
-2.0724000e-06,0,-0.002
-2.0720000e-06,0.012,-0.002
-2.0716000e-06,0.012,0.002
-2.0712000e-06,0.008,0.002
-2.0708000e-06,0.012,-0.002
-2.0704000e-06,0.008,-0.002
-2.0700000e-06,0,0.002
-2.0696000e-06,-0.004,0.002
-2.0692000e-06,0,0.002
-2.0688000e-06,-0.004,0.002
-2.0684000e-06,0,0.006
-2.0680000e-06,-0.004,0.014
-2.0676000e-06,0.004,0.018
-2.0672000e-06,0.004,0.014
-2.0668000e-06,-0.004,0.014
-2.0664000e-06,-0.004,0.01
-2.0660000e-06,-0.004,0.01
-2.0656000e-06,0.008,0.014
-2.0652000e-06,0.008,0.014
-2.0648000e-06,0.008,0.01
-2.0644000e-06,0.008,0.01
-2.0640000e-06,0.004,0.01
-2.0636000e-06,0.004,0.006
-2.0632000e-06,0.016,0.002
-2.0628000e-06,0.016,-0.002
-2.0624000e-06,0.008,-0.002
-2.0620000e-06,0.016,-0.006
-2.0616000e-06,0.008,-0.006
-2.0612000e-06,0.008,-0.002
-2.0608000e-06,0.016,-0.002
-2.0604000e-06,0.016,0.006
-2.0600000e-06,0.008,0.002
-2.0596000e-06,0.008,0.006
-2.0592000e-06,0,-0.002
-2.0588000e-06,0,0.002
-2.0584000e-06,-0.004,0.01
-2.0580000e-06,-0.008,0.01
-2.0576000e-06,-0.004,0.01
-2.0572000e-06,-0.004,0.014
-2.0568000e-06,-0.004,0.01
-2.0564000e-06,0.004,0.01
-2.0560000e-06,0.004,0.018
-2.0556000e-06,0.012,0.018
-2.0552000e-06,0.016,0.014
-2.0548000e-06,0.012,0.01
-2.0544000e-06,0.012,0.006
-2.0540000e-06,0.02,0.006
-2.0536000e-06,0.02,0.01
-2.0532000e-06,0.016,-0.002
-2.0528000e-06,0.02,-0.002
-2.0524000e-06,0.012,-0.01
-2.0520000e-06,0.012,-0.006
-2.0516000e-06,0.008,-0.01
-2.0512000e-06,0.004,-0.006
-2.0508000e-06,0.004,-0.01
-2.0504000e-06,0.004,-0.006
-2.0500000e-06,0.004,-0.002
-2.0496000e-06,0.008,-0.006
-2.0492000e-06,0.004,0.002
-2.0488000e-06,0.004,0.006
-2.0484000e-06,-0.004,0.014
-2.0480000e-06,0,0.01
-2.0476000e-06,0,0.01
-2.0472000e-06,0,0.01
-2.0468000e-06,0.004,0.01
-2.0464000e-06,0.008,0.01
-2.0460000e-06,0.004,0.014
-2.0456000e-06,0.016,0.022
-2.0452000e-06,0.016,0.022
-2.0448000e-06,0.016,0.018
-2.0444000e-06,0.008,0.014
-2.0440000e-06,0.012,0.01
-2.0436000e-06,0.008,0.006
-2.0432000e-06,0.016,-0.002
-2.0428000e-06,0.012,0.002
-2.0424000e-06,0.012,0.006
-2.0420000e-06,0.012,0.002
-2.0416000e-06,0.02,-0.002
-2.0412000e-06,0.008,-0.006
-2.0408000e-06,0.008,-0.006
-2.0404000e-06,0,-0.006
-2.0400000e-06,0.004,-0.01
-2.0396000e-06,0,-0.01
-2.0392000e-06,0,-0.01
-2.0388000e-06,0,-0.006
-2.0384000e-06,0,-0.006
-2.0380000e-06,0.004,-0.002
-2.0376000e-06,0.004,0.002
-2.0372000e-06,0,0.01
-2.0368000e-06,0,0.014
-2.0364000e-06,0.004,0.014
-2.0360000e-06,0.008,0.014
-2.0356000e-06,0.008,0.022
-2.0352000e-06,0.008,0.014
-2.0348000e-06,0.004,0.014
-2.0344000e-06,0.012,0.022
-2.0340000e-06,0.008,0.022
-2.0336000e-06,0.012,0.014
-2.0332000e-06,0.012,0.014
-2.0328000e-06,0.012,0.01
-2.0324000e-06,0.02,0.006
-2.0320000e-06,0.012,-0.002
-2.0316000e-06,0.008,-0.006
-2.0312000e-06,0.008,-0.01
-2.0308000e-06,0.012,-0.01
-2.0304000e-06,0.012,-0.014
-2.0300000e-06,0,-0.01
-2.0296000e-06,0.008,-0.01
-2.0292000e-06,0,-0.01
-2.0288000e-06,0.004,-0.006
-2.0284000e-06,0.004,0.002
-2.0280000e-06,0.008,-0.002
-2.0276000e-06,0.008,0.01
-2.0272000e-06,0,0.006
-2.0268000e-06,0.008,0.018
-2.0264000e-06,0.004,0.018
-2.0260000e-06,0,0.018
-2.0256000e-06,0.008,0.022
-2.0252000e-06,0.008,0.03
-2.0248000e-06,0.004,0.022
-2.0244000e-06,0.012,0.022
-2.0240000e-06,0.004,0.018
-2.0236000e-06,0.008,0.01
-2.0232000e-06,0.004,0.002
-2.0228000e-06,0.008,0.006
-2.0224000e-06,0.016,0.006
-2.0220000e-06,0.012,-0.002
-2.0216000e-06,0.008,-0.002
-2.0212000e-06,0,-0.01
-2.0208000e-06,0,-0.006
-2.0204000e-06,0.004,-0.006
-2.0200000e-06,0.008,-0.006
-2.0196000e-06,0.004,-0.01
-2.0192000e-06,0.008,-0.002
-2.0188000e-06,0.012,0.002
-2.0184000e-06,0,-0.002
-2.0180000e-06,0,-0.002
-2.0176000e-06,0.004,0.002
-2.0172000e-06,0.008,0.01
-2.0168000e-06,0.008,0.018
-2.0164000e-06,0.004,0.022
-2.0160000e-06,0.004,0.022
-2.0156000e-06,0.004,0.018
-2.0152000e-06,0.008,0.022
-2.0148000e-06,0.008,0.018
-2.0144000e-06,0.008,0.014
-2.0140000e-06,0,0.014
-2.0136000e-06,0.008,0.01
-2.0132000e-06,0.004,0.01
-2.0128000e-06,0.004,0.006
-2.0124000e-06,0.004,0.002
-2.0120000e-06,0.016,-0.002
-2.0116000e-06,0.008,0.002
-2.0112000e-06,0.008,-0.002
-2.0108000e-06,0.008,-0.01
-2.0104000e-06,0.008,-0.006
-2.0100000e-06,0,-0.006
-2.0096000e-06,0.008,-0.01
-2.0092000e-06,0.004,-0.006
-2.0088000e-06,-0.004,-0.006
-2.0084000e-06,0,-0.006
-2.0080000e-06,0.004,0.002
-2.0076000e-06,0.008,0.002
-2.0072000e-06,0.008,0.01
-2.0068000e-06,0.008,0.018
-2.0064000e-06,0.016,0.006
-2.0060000e-06,0.008,0.01
-2.0056000e-06,0.008,0.006
-2.0052000e-06,0.012,0.014
-2.0048000e-06,0.012,0.014
-2.0044000e-06,0.008,0.014
-2.0040000e-06,-0.004,0.01
-2.0036000e-06,-0.004,0.002
-2.0032000e-06,0.004,0.002
-2.0028000e-06,0.008,0.002
-2.0024000e-06,0.008,0.002
-2.0020000e-06,0.004,-0.006
-2.0016000e-06,0.008,-0.006
-2.0012000e-06,0.008,-0.002
-2.0008000e-06,0.008,-0.002
-2.0004000e-06,0,-0.002
-2.0000000e-06,0.008,-0.006
-1.9996000e-06,0.016,0.002
-1.9992000e-06,0.016,0.006
-1.9988000e-06,0.016,0.01
-1.9984000e-06,0.02,0.002
-1.9980000e-06,0.012,0.006
-1.9976000e-06,0.016,0.01
-1.9972000e-06,0.016,0.01
-1.9968000e-06,0.004,0.01
-1.9964000e-06,0.008,0.014
-1.9960000e-06,0.008,0.014
-1.9956000e-06,0.004,0.01
-1.9952000e-06,0,0.01
-1.9948000e-06,0.004,0.006
-1.9944000e-06,0.004,0.01
-1.9940000e-06,0.004,0.002
-1.9936000e-06,0,0.006
-1.9932000e-06,0,0.002
-1.9928000e-06,0,-0.006
-1.9924000e-06,0,-0.002
-1.9920000e-06,-0.004,-0.006
-1.9916000e-06,0.004,-0.014
-1.9912000e-06,0,-0.006
-1.9908000e-06,0.004,-0.006
-1.9904000e-06,0.008,-0.002
-1.9900000e-06,0.012,-0.002
-1.9896000e-06,0.012,-0.002
-1.9892000e-06,0.012,0.002
-1.9888000e-06,0.008,0.002
-1.9884000e-06,0.008,0.006
-1.9880000e-06,0.008,0.01
-1.9876000e-06,0.012,0.006
-1.9872000e-06,0.012,0.014
-1.9868000e-06,0.02,0.014
-1.9864000e-06,0,0.014
-1.9860000e-06,0,0.01
-1.9856000e-06,0.008,0.006
-1.9852000e-06,0.004,0.01
-1.9848000e-06,0,0.006
-1.9844000e-06,0,0.006
-1.9840000e-06,-0.004,-0.002
-1.9836000e-06,0,0.006
-1.9832000e-06,-0.004,-0.002
-1.9828000e-06,0,-0.006
-1.9824000e-06,0.008,0.002
-1.9820000e-06,0.008,-0.006
-1.9816000e-06,0.004,-0.006
-1.9812000e-06,0,-0.006
-1.9808000e-06,0.008,-0.01
-1.9804000e-06,0.012,-0.002
-1.9800000e-06,0.012,-0.002
-1.9796000e-06,0.016,-0.006
-1.9792000e-06,0.012,0.002
-1.9788000e-06,0.012,0.006
-1.9784000e-06,0.02,0.014
-1.9780000e-06,0.02,0.018
-1.9776000e-06,0.016,0.014
-1.9772000e-06,0.016,0.01
-1.9768000e-06,0.02,0.018
-1.9764000e-06,0.008,0.014
-1.9760000e-06,0.012,0.01
-1.9756000e-06,0.012,0.01
-1.9752000e-06,-0.004,0.006
-1.9748000e-06,0,-0.002
-1.9744000e-06,0.008,0.002
-1.9740000e-06,0.004,0.006
-1.9736000e-06,-0.004,-0.01
-1.9732000e-06,0,-0.01
-1.9728000e-06,-0.004,-0.01
-1.9724000e-06,0.004,-0.01
-1.9720000e-06,0.008,-0.01
-1.9716000e-06,0.008,-0.01
-1.9712000e-06,0.004,-0.01
-1.9708000e-06,0.008,-0.014
-1.9704000e-06,0.012,-0.006
-1.9700000e-06,0.012,-0.006
-1.9696000e-06,0.012,-0.006
-1.9692000e-06,0.016,0.002
-1.9688000e-06,0.012,0.01
-1.9684000e-06,0.012,0.002
-1.9680000e-06,0.016,0.006
-1.9676000e-06,0.016,0.006
-1.9672000e-06,0.016,0.006
-1.9668000e-06,0.008,0.006
-1.9664000e-06,0.008,0.006
-1.9660000e-06,0,0.014
-1.9656000e-06,0,0.01
-1.9652000e-06,0.004,0.01
-1.9648000e-06,0.004,0.006
-1.9644000e-06,-0.004,0.006
-1.9640000e-06,0,-0.002
-1.9636000e-06,-0.004,-0.006
-1.9632000e-06,0.004,-0.006
-1.9628000e-06,-0.012,-0.006
-1.9624000e-06,-0.004,-0.01
-1.9620000e-06,-0.004,-0.006
-1.9616000e-06,0,-0.006
-1.9612000e-06,0,-0.006
-1.9608000e-06,-0.004,-0.014
-1.9604000e-06,0.008,-0.018
-1.9600000e-06,0.008,-0.01
-1.9596000e-06,0.008,-0.002
-1.9592000e-06,0.016,0.002
-1.9588000e-06,0.012,0.006
-1.9584000e-06,0.012,0.002
-1.9580000e-06,0.008,0.01
-1.9576000e-06,0.008,0.01
-1.9572000e-06,0.012,0.014
-1.9568000e-06,0.004,0.01
-1.9564000e-06,-0.004,0.01
-1.9560000e-06,0,0.006
-1.9556000e-06,0,0.006
-1.9552000e-06,-0.004,0.006
-1.9548000e-06,-0.004,0.006
-1.9544000e-06,0,-0.002
-1.9540000e-06,0.004,0.002
-1.9536000e-06,0.004,-0.002
-1.9532000e-06,0,-0.006
-1.9528000e-06,-0.004,-0.006
-1.9524000e-06,0.004,-0.006
-1.9520000e-06,0.004,-0.014
-1.9516000e-06,0.004,-0.006
-1.9512000e-06,0,-0.006
-1.9508000e-06,0.004,-0.006
-1.9504000e-06,0.008,-0.01
-1.9500000e-06,0.008,-0.006
-1.9496000e-06,0.012,0.002
-1.9492000e-06,0.016,0.002
-1.9488000e-06,0.02,0.002
-1.9484000e-06,0.02,0.006
-1.9480000e-06,0.02,0.006
-1.9476000e-06,0.012,0.01
-1.9472000e-06,0.012,0.018
-1.9468000e-06,0.004,0.01
-1.9464000e-06,0,0.01
-1.9460000e-06,0.004,0.01
-1.9456000e-06,0.004,0.006
-1.9452000e-06,0,-0.002
-1.9448000e-06,0.004,0.002
-1.9444000e-06,0,0.006
-1.9440000e-06,-0.008,0.006
-1.9436000e-06,-0.004,0.002
-1.9432000e-06,-0.004,-0.006
-1.9428000e-06,-0.008,-0.002
-1.9424000e-06,0,-0.006
-1.9420000e-06,0,-0.006
-1.9416000e-06,0.004,-0.006
-1.9412000e-06,0.004,-0.002
-1.9408000e-06,0.004,-0.002
-1.9404000e-06,0.008,0.002
-1.9400000e-06,0.004,0.002
-1.9396000e-06,0.008,-0.002
-1.9392000e-06,0.02,0.006
-1.9388000e-06,0.016,0.006
-1.9384000e-06,0.016,0.006
-1.9380000e-06,0.016,0.006
-1.9376000e-06,0.016,0.006
-1.9372000e-06,0.012,0.014
-1.9368000e-06,0.012,0.014
-1.9364000e-06,0.016,0.014
-1.9360000e-06,0.012,0.006
-1.9356000e-06,0.004,0.006
-1.9352000e-06,0,0.002
-1.9348000e-06,-0.004,0.002
-1.9344000e-06,-0.008,-0.002
-1.9340000e-06,-0.004,0.006
-1.9336000e-06,0.004,0.002
-1.9332000e-06,0,0.002
-1.9328000e-06,-0.004,-0.002
-1.9324000e-06,-0.004,0.002
-1.9320000e-06,0.004,-0.002
-1.9316000e-06,-0.004,0.002
-1.9312000e-06,-0.004,0.002
-1.9308000e-06,0.004,0.006
-1.9304000e-06,0.008,0.01
-1.9300000e-06,0.012,0.002
-1.9296000e-06,0.012,0.006
-1.9292000e-06,0.016,0.006
-1.9288000e-06,0.008,0.01
-1.9284000e-06,0.008,0.01
-1.9280000e-06,0.012,0.01
-1.9276000e-06,0.008,0.002
-1.9272000e-06,0.008,0.01
-1.9268000e-06,0.008,0.006
-1.9264000e-06,0,0.006
-1.9260000e-06,0.004,0.006
-1.9256000e-06,0.008,0.006
-1.9252000e-06,0,0.006
-1.9248000e-06,-0.004,0.002
-1.9244000e-06,0,0.002
-1.9240000e-06,0.004,0.006
-1.9236000e-06,0.008,0.006
-1.9232000e-06,0,0.002
-1.9228000e-06,0,0.006
-1.9224000e-06,0.004,0.002
-1.9220000e-06,0.008,0.006
-1.9216000e-06,0.004,0.006
-1.9212000e-06,0.012,0.006
-1.9208000e-06,0.008,0.006
-1.9204000e-06,0.008,0.002
-1.9200000e-06,0.008,-0.002
-1.9196000e-06,0.008,0.01
-1.9192000e-06,0.008,0.014
-1.9188000e-06,0.008,0.01
-1.9184000e-06,0.012,0.01
-1.9180000e-06,0.004,0.01
-1.9176000e-06,0.004,0.006
-1.9172000e-06,0,0.006
-1.9168000e-06,0.004,0.002
-1.9164000e-06,0.008,-0.006
-1.9160000e-06,0,-0.002
-1.9156000e-06,0,0.002
-1.9152000e-06,0,-0.006
-1.9148000e-06,0,-0.006
-1.9144000e-06,0.008,-0.006
-1.9140000e-06,0.008,-0.002
-1.9136000e-06,0.004,0.006
-1.9132000e-06,0.004,0.002
-1.9128000e-06,0.008,0.002
-1.9124000e-06,0.016,0.002
-1.9120000e-06,0.008,0.002
-1.9116000e-06,0.008,0.002
-1.9112000e-06,0.008,0.006
-1.9108000e-06,0.004,0.01
-1.9104000e-06,0.008,0.014
-1.9100000e-06,0.012,0.01
-1.9096000e-06,0.012,0.01
-1.9092000e-06,0.012,0.014
-1.9088000e-06,0.008,0.01
-1.9084000e-06,0.008,0.006
-1.9080000e-06,0.012,0.01
-1.9076000e-06,0.016,0.014
-1.9072000e-06,0.008,0.006
-1.9068000e-06,0.008,0.002
-1.9064000e-06,0.008,0.006
-1.9060000e-06,0,0.01
-1.9056000e-06,0.008,0.006
-1.9052000e-06,0.004,0.002
-1.9048000e-06,0,0.002
-1.9044000e-06,-0.008,0.002
-1.9040000e-06,0,0.006
-1.9036000e-06,0.004,-0.002
-1.9032000e-06,0.016,-0.002
-1.9028000e-06,0.008,0.002
-1.9024000e-06,0.008,-0.006
-1.9020000e-06,0.016,-0.002
-1.9016000e-06,0.02,0.002
-1.9012000e-06,0.016,0.006
-1.9008000e-06,0.008,0.01
-1.9004000e-06,0.008,0.01
-1.9000000e-06,0.012,0.014
-1.8996000e-06,0.012,0.018
-1.8992000e-06,0.012,0.014
-1.8988000e-06,0.004,0.018
-1.8984000e-06,0.004,0.018
-1.8980000e-06,0.008,0.01
-1.8976000e-06,0.008,0.002
-1.8972000e-06,0.008,0.006
-1.8968000e-06,0,0.006
-1.8964000e-06,0.004,0.01
-1.8960000e-06,0.004,0.006
-1.8956000e-06,0.004,-0.006
-1.8952000e-06,0,0.002
-1.8948000e-06,0,-0.002
-1.8944000e-06,0.008,-0.006
-1.8940000e-06,0.004,-0.002
-1.8936000e-06,0.008,0.002
-1.8932000e-06,0.008,0.002
-1.8928000e-06,0.012,0.006
-1.8924000e-06,0.008,0.006
-1.8920000e-06,0.012,0.006
-1.8916000e-06,0.012,0.01
-1.8912000e-06,0.008,0.022
-1.8908000e-06,0.008,0.018
-1.8904000e-06,0.012,0.014
-1.8900000e-06,0.004,0.018
-1.8896000e-06,-0.004,0.018
-1.8892000e-06,0,0.006
-1.8888000e-06,0.004,0.014
-1.8884000e-06,0,0.022
-1.8880000e-06,-0.004,0.014
-1.8876000e-06,0,0.006
-1.8872000e-06,0.012,0.002
-1.8868000e-06,-0.004,-0.006
-1.8864000e-06,0.004,0.006
-1.8860000e-06,0,0.01
-1.8856000e-06,0.008,0.01
-1.8852000e-06,0.004,0.006
