IVs/2211/A/2 terminales/tek0002ALL.csv

Model,DPO3034
Firmware Version,2.16

Point Format,Y,
Horizontal Units,S,
Horizontal Scale,0.0002,
Sample Interval,4e-10,
Record Length,5e+06,
Gating,49.9499800% to 50.0499800%,49.9499800% to 50.0499800%
Probe Attenuation,1,1
Vertical Units,V,V
Vertical Offset,0,0
Vertical Scale,0.1,0.1
Label,,
TIME,CH1,CH2
-1.9320000e-07,-0.004,0.006
-1.9280000e-07,0.004,0.002
-1.9240000e-07,0.004,0.006
-1.9200000e-07,0,0.006
-1.9160000e-07,0,-0.002
-1.9120000e-07,-0.004,-0.002
-1.9080000e-07,-0.008,-0.006
-1.9040000e-07,-0.008,-0.01
-1.9000000e-07,0.008,-0.006
-1.8960000e-07,0.008,-0.014
-1.8920000e-07,0.008,-0.014
-1.8880000e-07,0,-0.01
-1.8840000e-07,0.012,-0.01
-1.8800000e-07,0.008,-0.01
-1.8760000e-07,0.004,-0.006
-1.8720000e-07,0.008,-0.014
-1.8680000e-07,0.008,-0.014
-1.8640000e-07,0.012,-0.002
-1.8600000e-07,0.004,-0.006
-1.8560000e-07,-0.004,-0.002
-1.8520000e-07,-0.004,0.006
-1.8480000e-07,0,0.006
-1.8440000e-07,0,0.014
-1.8400000e-07,-0.008,0.01
-1.8360000e-07,-0.004,0.002
-1.8320000e-07,0.004,0.014
-1.8280000e-07,0.004,0.01
-1.8240000e-07,0.008,0.01
-1.8200000e-07,0.008,0.01
-1.8160000e-07,0.004,0.006
-1.8120000e-07,0.004,-0.002
-1.8080000e-07,0.004,-0.01
-1.8040000e-07,0.008,-0.006
-1.8000000e-07,0.004,-0.006
-1.7960000e-07,0.008,-0.002
-1.7920000e-07,0.004,-0.006
-1.7880000e-07,0.004,-0.01
-1.7840000e-07,0.004,-0.014
-1.7800000e-07,0.008,-0.006
-1.7760000e-07,0.008,-0.014
-1.7720000e-07,0.004,-0.01
-1.7680000e-07,0.008,-0.006
-1.7640000e-07,0.012,-0.002
-1.7600000e-07,0.012,-0.006
-1.7560000e-07,0.004,-0.002
-1.7520000e-07,0.004,0.002
-1.7480000e-07,0.008,0.002
-1.7440000e-07,0.004,0.006
-1.7400000e-07,0.004,0.006
-1.7360000e-07,0.004,0.006
-1.7320000e-07,0.004,0.01
-1.7280000e-07,-0.004,0.006
-1.7240000e-07,0,0.006
-1.7200000e-07,-0.012,-0.002
-1.7160000e-07,-0.012,0.002
-1.7120000e-07,-0.004,-0.006
-1.7080000e-07,0,-0.006
-1.7040000e-07,0.004,-0.002
-1.7000000e-07,0.004,-0.006
-1.6960000e-07,0.004,-0.006
-1.6920000e-07,0.004,-0.01
-1.6880000e-07,0.004,-0.002
-1.6840000e-07,0.004,-0.006
-1.6800000e-07,0.004,-0.006
-1.6760000e-07,0.012,-0.006
-1.6720000e-07,0.008,-0.006
-1.6680000e-07,0.008,-0.002
-1.6640000e-07,0.008,-0.002
-1.6600000e-07,0.012,0.002
-1.6560000e-07,0.008,0.002
-1.6520000e-07,0.008,0.002
-1.6480000e-07,0.008,0.002
-1.6440000e-07,0.012,0.006
-1.6400000e-07,0.004,0.002
-1.6360000e-07,0,0.002
-1.6320000e-07,0.004,-0.002
-1.6280000e-07,0.004,-0.002
-1.6240000e-07,0.004,-0.002
-1.6200000e-07,0,-0.002
-1.6160000e-07,-0.004,-0.006
-1.6120000e-07,-0.004,-0.006
-1.6080000e-07,-0.008,-0.006
-1.6040000e-07,0,-0.006
-1.6000000e-07,0,-0.01
-1.5960000e-07,-0.004,-0.01
-1.5920000e-07,0.004,-0.006
-1.5880000e-07,-0.004,-0.002
-1.5840000e-07,-0.004,-0.002
-1.5800000e-07,0.008,-0.002
-1.5760000e-07,0.004,-0.002
-1.5720000e-07,0.008,0.006
-1.5680000e-07,0.008,0.002
-1.5640000e-07,0.008,0.01
-1.5600000e-07,0.004,0.006
-1.5560000e-07,0.008,-0.002
-1.5520000e-07,0.008,-0.01
-1.5480000e-07,0.004,-0.006
-1.5440000e-07,-0.004,0.002
-1.5400000e-07,0.004,0.002
-1.5360000e-07,0.004,0.006
-1.5320000e-07,0.004,0.01
-1.5280000e-07,0.004,0.002
-1.5240000e-07,-0.004,0.006
-1.5200000e-07,-0.004,-0.002
-1.5160000e-07,0.004,-0.006
-1.5120000e-07,-0.004,-0.006
-1.5080000e-07,-0.008,-0.01
-1.5040000e-07,-0.004,-0.002
-1.5000000e-07,-0.004,-0.006
-1.4960000e-07,0,-0.006
-1.4920000e-07,0.004,-0.014
-1.4880000e-07,0.004,-0.006
-1.4840000e-07,0.008,0.006
-1.4800000e-07,0,-0.002
-1.4760000e-07,0.008,-0.002
-1.4720000e-07,0.016,0.002
-1.4680000e-07,0.016,0.002
-1.4640000e-07,0.012,0.006
-1.4600000e-07,0.008,0.01
-1.4560000e-07,0,0.006
-1.4520000e-07,0.008,0.006
-1.4480000e-07,0.008,0.014
-1.4440000e-07,0,0.018
-1.4400000e-07,0.004,0.01
-1.4360000e-07,0,-0.002
-1.4320000e-07,-0.008,-0.006
-1.4280000e-07,0,-0.002
-1.4240000e-07,0.004,-0.01
-1.4200000e-07,0,-0.006
-1.4160000e-07,0,-0.006
-1.4120000e-07,0,-0.006
-1.4080000e-07,0,0.002
-1.4040000e-07,-0.004,-0.002
-1.4000000e-07,-0.004,-0.006
-1.3960000e-07,0.004,-0.002
-1.3920000e-07,0.004,-0.006
-1.3880000e-07,0,-0.002
-1.3840000e-07,0.004,0.002
-1.3800000e-07,0.008,0.002
-1.3760000e-07,0.012,0.002
-1.3720000e-07,0.008,0.006
-1.3680000e-07,0.012,0.006
-1.3640000e-07,0.02,-0.002
-1.3600000e-07,0.008,0.006
-1.3560000e-07,0.008,0.01
-1.3520000e-07,0.008,0.014
-1.3480000e-07,0.008,0.014
-1.3440000e-07,0.008,0.014
-1.3400000e-07,0.008,0.01
-1.3360000e-07,0.008,0.006
-1.3320000e-07,0.004,0.006
-1.3280000e-07,0.004,0.01
-1.3240000e-07,0.004,0.006
-1.3200000e-07,-0.004,0.002
-1.3160000e-07,-0.004,0.002
-1.3120000e-07,0.004,0.006
-1.3080000e-07,0,0.006
-1.3040000e-07,0.004,0.002
-1.3000000e-07,0.004,0.002
-1.2960000e-07,0,-0.002
-1.2920000e-07,0.004,0.006
-1.2880000e-07,0,0.002
-1.2840000e-07,0,0.002
-1.2800000e-07,0,0.006
-1.2760000e-07,0.004,0.002
-1.2720000e-07,0.004,0.006
-1.2680000e-07,0.008,0.01
-1.2640000e-07,0.004,0.014
-1.2600000e-07,0.008,0.014
-1.2560000e-07,0.004,0.01
-1.2520000e-07,0.008,0.01
-1.2480000e-07,0.004,0.01
-1.2440000e-07,0.008,0.01
-1.2400000e-07,0.004,0.006
-1.2360000e-07,0.004,0.002
-1.2320000e-07,0.008,0.002
-1.2280000e-07,-0.004,0.002
-1.2240000e-07,0.004,-0.002
-1.2200000e-07,0.004,0.002
-1.2160000e-07,-0.004,-0.006
-1.2120000e-07,-0.004,-0.002
-1.2080000e-07,-0.004,-0.002
-1.2040000e-07,0,0.002
-1.2000000e-07,0.008,-0.002
-1.1960000e-07,0.008,-0.006
-1.1920000e-07,0.008,0.002
-1.1880000e-07,0.008,-0.002
-1.1840000e-07,0.004,-0.002
-1.1800000e-07,0.008,0.014
-1.1760000e-07,0.008,0.01
-1.1720000e-07,0.012,0.006
-1.1680000e-07,0.012,0.014
-1.1640000e-07,0.012,0.006
-1.1600000e-07,0.008,0.014
-1.1560000e-07,0,0.01
-1.1520000e-07,-0.008,0.01
-1.1480000e-07,0.004,0.006
-1.1440000e-07,0.008,-0.002
-1.1400000e-07,-0.004,0.002
-1.1360000e-07,0,0.006
-1.1320000e-07,0.004,0.014
-1.1280000e-07,-0.004,0.01
-1.1240000e-07,0.004,0.006
-1.1200000e-07,0.004,-0.006
-1.1160000e-07,0.004,0.002
-1.1120000e-07,0.004,0.002
-1.1080000e-07,0.008,0.006
-1.1040000e-07,0.012,0.014
-1.1000000e-07,0.008,0.014
-1.0960000e-07,0.004,0.006
-1.0920000e-07,0.004,0.006
-1.0880000e-07,0.008,0.01
-1.0840000e-07,0.008,0.006
-1.0800000e-07,0.004,0.002
-1.0760000e-07,0.008,0.01
-1.0720000e-07,0.008,0.01
-1.0680000e-07,0.004,0.018
-1.0640000e-07,0.004,0.01
-1.0600000e-07,0,0.01
-1.0560000e-07,0,0.01
-1.0520000e-07,0.004,0.01
-1.0480000e-07,0.004,-0.002
-1.0440000e-07,0.008,0.006
-1.0400000e-07,0.004,0.01
-1.0360000e-07,0.004,0.006
-1.0320000e-07,0,0.002
-1.0280000e-07,0.004,0.006
-1.0240000e-07,0.008,0.006
-1.0200000e-07,-0.004,0.006
-1.0160000e-07,0,0.002
-1.0120000e-07,0.008,0.01
-1.0080000e-07,0.008,0.006
-1.0040000e-07,0.004,0.006
-1.0000000e-07,0.008,0.006
-9.9600000e-08,0.008,0.01
-9.9200000e-08,0.008,0.01
-9.8800000e-08,0.008,0.006
-9.8400000e-08,0.004,0.006
-9.8000000e-08,0.004,0.01
-9.7600000e-08,0.004,0.018
-9.7200000e-08,0.008,0.01
-9.6800000e-08,0.004,0.014
-9.6400000e-08,0.008,0.01
-9.6000000e-08,-0.004,0.01
-9.5600000e-08,0.004,0.01
-9.5200000e-08,0.004,0.006
-9.4800000e-08,0.008,0.01
-9.4400000e-08,0.004,0.002
-9.4000000e-08,0.008,0.006
-9.3600000e-08,0.008,0.01
-9.3200000e-08,0.008,0.01
-9.2800000e-08,0.008,0.002
-9.2400000e-08,0.008,0.006
-9.2000000e-08,0.004,0.006
-9.1600000e-08,0,0.006
-9.1200000e-08,0.004,0.006
-9.0800000e-08,0.008,0.006
-9.0400000e-08,0.012,0.014
-9.0000000e-08,0.008,0.006
-8.9600000e-08,0.008,0.002
-8.9200000e-08,0.008,-0.002
-8.8800000e-08,0.004,0.006
-8.8400000e-08,0.004,0.01
-8.8000000e-08,0,0.01
-8.7600000e-08,0,0.006
-8.7200000e-08,0,0.006
-8.6800000e-08,0.004,0.01
-8.6400000e-08,0.008,0.014
-8.6000000e-08,0.008,0.01
-8.5600000e-08,0.004,0.01
-8.5200000e-08,0.012,0.006
-8.4800000e-08,0.012,0.002
-8.4400000e-08,0.008,0.01
-8.4000000e-08,0,0.006
-8.3600000e-08,0.004,0.006
-8.3200000e-08,0.004,-0.006
-8.2800000e-08,0.012,0.006
-8.2400000e-08,0.004,0.014
-8.2000000e-08,0.004,0.006
-8.1600000e-08,0.004,0.002
-8.1200000e-08,0,0.006
-8.0800000e-08,0,0.006
-8.0400000e-08,0.004,0.006
-8.0000000e-08,0.004,0.006
-7.9600000e-08,0.008,0.01
-7.9200000e-08,0.008,0.01
-7.8800000e-08,0.004,0.01
-7.8400000e-08,0.004,0.01
-7.8000000e-08,0.004,0.014
-7.7600000e-08,0.008,0.014
-7.7200000e-08,0,0.006
-7.6800000e-08,0,0.006
-7.6400000e-08,0,0.018
-7.6000000e-08,-0.004,0.006
-7.5600000e-08,0,0.01
-7.5200000e-08,0,0.006
-7.4800000e-08,0,0.006
-7.4400000e-08,0.012,0.002
-7.4000000e-08,0.008,0.002
-7.3600000e-08,0.004,0.006
-7.3200000e-08,0.008,-0.002
-7.2800000e-08,0,0.002
-7.2400000e-08,0.008,0.002
-7.2000000e-08,0.004,-0.002
-7.1600000e-08,0.012,0.002
-7.1200000e-08,0.008,0.006
-7.0800000e-08,0.004,0.01
-7.0400000e-08,0.004,0.002
-7.0000000e-08,0.008,0.006
-6.9600000e-08,0,0.014
-6.9200000e-08,0.008,0.018
-6.8800000e-08,0,0.01
-6.8400000e-08,-0.008,0.002
-6.8000000e-08,-0.008,0.01
-6.7600000e-08,-0.008,0.01
-6.7200000e-08,-0.008,0.01
-6.6800000e-08,-0.008,0.006
-6.6400000e-08,0,0.01
-6.6000000e-08,0.004,0.01
-6.5600000e-08,0.004,0.01
-6.5200000e-08,0,0.006
-6.4800000e-08,0.004,0.002
-6.4400000e-08,0.004,0.002
-6.4000000e-08,0.008,-0.002
-6.3600000e-08,0.004,0.002
-6.3200000e-08,0.008,0.006
-6.2800000e-08,0.012,0.006
-6.2400000e-08,0.008,-0.002
-6.2000000e-08,0.012,-0.002
-6.1600000e-08,0.008,-0.006
-6.1200000e-08,0.012,-0.002
-6.0800000e-08,0.012,-0.006
-6.0400000e-08,0.02,-0.006
-6.0000000e-08,0.012,0.006
-5.9600000e-08,0.004,0.01
-5.9200000e-08,0,0.006
-5.8800000e-08,0.012,0.006
-5.8400000e-08,0.008,0.006
-5.8000000e-08,0,0.006
-5.7600000e-08,0.004,0.01
-5.7200000e-08,0.004,0.01
-5.6800000e-08,0,0.002
-5.6400000e-08,0,0.002
-5.6000000e-08,0.004,0.006
-5.5600000e-08,-0.004,0.006
-5.5200000e-08,0,0.01
-5.4800000e-08,0,0.006
-5.4400000e-08,0,0.006
-5.4000000e-08,0.008,-0.002
-5.3600000e-08,0.008,0.002
-5.3200000e-08,0.008,0.002
-5.2800000e-08,0.008,0.002
-5.2400000e-08,0.02,0.002
-5.2000000e-08,0.008,0.002
-5.1600000e-08,0.004,-0.006
-5.1200000e-08,0.012,-0.006
-5.0800000e-08,0.016,-0.006
-5.0400000e-08,0.016,-0.006
-5.0000000e-08,0.016,-0.002
-4.9600000e-08,0.008,-0.002
-4.9200000e-08,0.012,0.002
-4.8800000e-08,0.008,0.006
-4.8400000e-08,0.012,0.002
-4.8000000e-08,0.008,0.002
-4.7600000e-08,0.004,0.006
-4.7200000e-08,0.004,0.006
-4.6800000e-08,-0.004,0.01
-4.6400000e-08,0,0.018
-4.6000000e-08,-0.004,0.022
-4.5600000e-08,-0.004,0.014
-4.5200000e-08,0.008,0.006
-4.4800000e-08,0,0.002
-4.4400000e-08,0,0.014
-4.4000000e-08,0.008,0.002
-4.3600000e-08,0.008,0.006
-4.3200000e-08,0.008,0.006
-4.2800000e-08,0.012,0.002
-4.2400000e-08,0.012,-0.002
-4.2000000e-08,0.012,0.002
-4.1600000e-08,0.008,-0.006
-4.1200000e-08,0.008,-0.01
-4.0800000e-08,0.012,-0.018
-4.0400000e-08,0.016,-0.006
-4.0000000e-08,0.008,-0.006
-3.9600000e-08,0.008,-0.002
-3.9200000e-08,0.008,0.002
-3.8800000e-08,0.016,0.002
-3.8400000e-08,0.008,0.002
-3.8000000e-08,0.008,-0.002
-3.7600000e-08,0,-0.006
-3.7200000e-08,-0.004,0.002
-3.6800000e-08,-0.004,0.01
-3.6400000e-08,-0.004,0.006
-3.6000000e-08,-0.004,0.002
-3.5600000e-08,0,0.01
-3.5200000e-08,0,0.006
-3.4800000e-08,-0.004,0.006
-3.4400000e-08,-0.008,0.002
-3.4000000e-08,0.004,0.002
-3.3600000e-08,0,0.002
-3.3200000e-08,0.008,-0.002
-3.2800000e-08,0.008,0.006
-3.2400000e-08,0.008,-0.002
-3.2000000e-08,0.008,0.002
-3.1600000e-08,0.008,0.006
-3.1200000e-08,0.02,0.002
-3.0800000e-08,0.016,-0.01
-3.0400000e-08,0.016,-0.014
-3.0000000e-08,0.02,-0.006
-2.9600000e-08,0.012,-0.006
-2.9200000e-08,0.004,-0.006
-2.8800000e-08,0.008,-0.006
-2.8400000e-08,0.004,-0.002
-2.8000000e-08,0.004,-0.002
-2.7600000e-08,0,0.002
-2.7200000e-08,-0.004,0.002
-2.6800000e-08,0,0.006
-2.6400000e-08,0,0.006
-2.6000000e-08,0.004,0.01
-2.5600000e-08,-0.004,0.006
-2.5200000e-08,-0.008,0.006
-2.4800000e-08,-0.004,0.01
-2.4400000e-08,0.008,0.006
-2.4000000e-08,0,0.002
-2.3600000e-08,0,0.014
-2.3200000e-08,0.004,0.01
-2.2800000e-08,0.004,0.002
-2.2400000e-08,0.004,-0.002
-2.2000000e-08,0.008,0.002
-2.1600000e-08,0,-0.01
-2.1200000e-08,0.016,-0.006
-2.0800000e-08,0.008,-0.006
-2.0400000e-08,0.008,-0.002
-2.0000000e-08,0,-0.006
-1.9600000e-08,0.012,-0.01
-1.9200000e-08,0.008,-0.01
-1.8800000e-08,0.008,-0.002
-1.8400000e-08,0.008,0.002
-1.8000000e-08,0.008,0.006
-1.7600000e-08,0.004,0.002
-1.7200000e-08,0.004,0.01
-1.6800000e-08,0.004,0.006
-1.6400000e-08,0,0.006
-1.6000000e-08,0,0.01
-1.5600000e-08,-0.004,0.01
-1.5200000e-08,0.004,0.002
-1.4800000e-08,0,0.014
-1.4400000e-08,-0.004,0.014
-1.4000000e-08,-0.004,0.014
-1.3600000e-08,-0.004,0.006
-1.3200000e-08,-0.004,0.006
-1.2800000e-08,-0.004,-0.002
-1.2400000e-08,0,0.002
-1.2000000e-08,0,0.002
-1.1600000e-08,0.004,-0.002
-1.1200000e-08,0.008,-0.002
-1.0800000e-08,0.004,0.002
-1.0400000e-08,0.004,-0.006
-1.0000000e-08,0.004,-0.002
-9.6000000e-09,0.008,0.002
-9.2000000e-09,0.004,0.002
-8.8000000e-09,0.004,0.002
-8.4000000e-09,0.004,0.002
-8.0000000e-09,0.004,0.002
-7.6000000e-09,0.004,0.006
-7.2000000e-09,0.004,0.006
-6.8000000e-09,0.004,0.014
-6.4000000e-09,0.004,0.014
-6.0000000e-09,-0.004,0.022
-5.6000000e-09,-0.004,0.01
-5.2000000e-09,0.008,0.006
-4.8000000e-09,0.016,0.01
-4.4000000e-09,0.028,0.01
-4.0000000e-09,0.04,0.006
-3.6000000e-09,0.056,0.002
-3.2000000e-09,0.08,0.006
-2.8000000e-09,0.1,0.006
-2.4000000e-09,0.136,-0.006
-2.0000000e-09,0.176,-0.002
-1.6000000e-09,0.204,0.002
-1.2000000e-09,0.24,-0.002
-8.0000000e-10,0.272,0.002
-4.0000000e-10,0.308,-0.002
3.8136438e-20,0.332,-0.002
4.0000000e-10,0.368,0.002
8.0000000e-10,0.404,0.006
1.2000000e-09,0.432,0.006
1.6000000e-09,0.456,0.006
2.0000000e-09,0.476,0.006
2.4000000e-09,0.488,0.01
2.8000000e-09,0.5,0.01
3.2000000e-09,0.504,0.014
3.6000000e-09,0.516,0.01
4.0000000e-09,0.524,0.01
4.4000000e-09,0.528,0.01
4.8000000e-09,0.532,0.014
5.2000000e-09,0.532,0.018
5.6000000e-09,0.54,0.006
6.0000000e-09,0.536,0.01
6.4000000e-09,0.536,0.01
6.8000000e-09,0.532,0.006
7.2000000e-09,0.528,0.002
7.6000000e-09,0.536,0.002
8.0000000e-09,0.544,-0.002
8.4000000e-09,0.544,0.006
8.8000000e-09,0.548,0.006
9.2000000e-09,0.552,0.01
9.6000000e-09,0.544,0.01
1.0000000e-08,0.552,0.026
1.0400000e-08,0.552,0.022
1.0800000e-08,0.548,0.026
1.1200000e-08,0.552,0.034
1.1600000e-08,0.56,0.038
1.2000000e-08,0.552,0.042
1.2400000e-08,0.548,0.042
1.2800000e-08,0.532,0.054
1.3200000e-08,0.54,0.058
1.3600000e-08,0.532,0.058
1.4000000e-08,0.532,0.058
1.4400000e-08,0.52,0.062
1.4800000e-08,0.516,0.07
1.5200000e-08,0.5,0.074
1.5600000e-08,0.5,0.082
1.6000000e-08,0.496,0.09
1.6400000e-08,0.488,0.086
1.6800000e-08,0.48,0.09
1.7200000e-08,0.48,0.094
1.7600000e-08,0.476,0.102
1.8000000e-08,0.48,0.102
1.8400000e-08,0.472,0.102
1.8800000e-08,0.468,0.11
1.9200000e-08,0.468,0.122
1.9600000e-08,0.464,0.13
2.0000000e-08,0.456,0.138
2.0400000e-08,0.452,0.146
2.0800000e-08,0.452,0.154
2.1200000e-08,0.448,0.162
2.1600000e-08,0.456,0.162
2.2000000e-08,0.444,0.17
2.2400000e-08,0.444,0.17
2.2800000e-08,0.436,0.178
2.3200000e-08,0.428,0.182
2.3600000e-08,0.432,0.182
2.4000000e-08,0.432,0.19
2.4400000e-08,0.432,0.19
2.4800000e-08,0.42,0.194
2.5200000e-08,0.412,0.198
2.5600000e-08,0.412,0.198
2.6000000e-08,0.412,0.19
2.6400000e-08,0.412,0.19
2.6800000e-08,0.416,0.198
2.7200000e-08,0.424,0.202
2.7600000e-08,0.424,0.21
2.8000000e-08,0.424,0.21
2.8400000e-08,0.432,0.218
2.8800000e-08,0.432,0.226
2.9200000e-08,0.44,0.222
2.9600000e-08,0.444,0.23
3.0000000e-08,0.44,0.23
3.0400000e-08,0.448,0.234
3.0800000e-08,0.452,0.23
3.1200000e-08,0.46,0.238
3.1600000e-08,0.464,0.242
3.2000000e-08,0.468,0.242
3.2400000e-08,0.464,0.242
3.2800000e-08,0.468,0.254
3.3200000e-08,0.468,0.266
3.3600000e-08,0.468,0.266
3.4000000e-08,0.472,0.262
3.4400000e-08,0.488,0.262
3.4800000e-08,0.484,0.266
3.5200000e-08,0.476,0.266
3.5600000e-08,0.48,0.278
3.6000000e-08,0.472,0.266
3.6400000e-08,0.476,0.274
3.6800000e-08,0.484,0.278
3.7200000e-08,0.488,0.282
3.7600000e-08,0.492,0.278
3.8000000e-08,0.492,0.282
3.8400000e-08,0.496,0.282
3.8800000e-08,0.508,0.286
3.9200000e-08,0.508,0.294
3.9600000e-08,0.508,0.294
4.0000000e-08,0.508,0.298
4.0400000e-08,0.508,0.306
4.0800000e-08,0.516,0.306
4.1200000e-08,0.512,0.314
4.1600000e-08,0.512,0.318
4.2000000e-08,0.512,0.31
4.2400000e-08,0.524,0.314
4.2800000e-08,0.52,0.318
4.3200000e-08,0.508,0.322
4.3600000e-08,0.5,0.326
4.4000000e-08,0.5,0.326
4.4400000e-08,0.504,0.33
4.4800000e-08,0.496,0.326
4.5200000e-08,0.492,0.322
4.5600000e-08,0.496,0.322
4.6000000e-08,0.492,0.33
4.6400000e-08,0.492,0.334
4.6800000e-08,0.488,0.334
4.7200000e-08,0.492,0.342
4.7600000e-08,0.492,0.334
4.8000000e-08,0.488,0.338
4.8400000e-08,0.488,0.342
4.8800000e-08,0.484,0.338
4.9200000e-08,0.492,0.342
4.9600000e-08,0.488,0.346
5.0000000e-08,0.488,0.346
5.0400000e-08,0.492,0.346
5.0800000e-08,0.496,0.35
5.1200000e-08,0.488,0.354
5.1600000e-08,0.492,0.354
5.2000000e-08,0.5,0.346
5.2400000e-08,0.492,0.346
5.2800000e-08,0.492,0.346
5.3200000e-08,0.492,0.346
5.3600000e-08,0.492,0.35
5.4000000e-08,0.492,0.35
5.4400000e-08,0.488,0.346
5.4800000e-08,0.48,0.354
5.5200000e-08,0.476,0.35
5.5600000e-08,0.48,0.354
5.6000000e-08,0.48,0.35
5.6400000e-08,0.476,0.35
5.6800000e-08,0.48,0.346
5.7200000e-08,0.476,0.342
5.7600000e-08,0.484,0.346
5.8000000e-08,0.48,0.346
5.8400000e-08,0.484,0.35
5.8800000e-08,0.492,0.346
5.9200000e-08,0.5,0.35
5.9600000e-08,0.5,0.35
6.0000000e-08,0.5,0.35
6.0400000e-08,0.5,0.354
6.0800000e-08,0.504,0.346
6.1200000e-08,0.512,0.342
6.1600000e-08,0.508,0.342
6.2000000e-08,0.516,0.342
6.2400000e-08,0.508,0.33
6.2800000e-08,0.508,0.334
6.3200000e-08,0.508,0.334
6.3600000e-08,0.512,0.318
6.4000000e-08,0.512,0.318
6.4400000e-08,0.516,0.318
6.4800000e-08,0.512,0.322
6.5200000e-08,0.504,0.318
6.5600000e-08,0.504,0.31
6.6000000e-08,0.508,0.314
6.6400000e-08,0.512,0.314
6.6800000e-08,0.508,0.31
6.7200000e-08,0.504,0.314
6.7600000e-08,0.508,0.314
6.8000000e-08,0.512,0.306
6.8400000e-08,0.508,0.31
6.8800000e-08,0.508,0.314
6.9200000e-08,0.508,0.31
6.9600000e-08,0.508,0.31
7.0000000e-08,0.504,0.306
7.0400000e-08,0.508,0.302
7.0800000e-08,0.512,0.31
7.1200000e-08,0.512,0.306
7.1600000e-08,0.516,0.306
7.2000000e-08,0.516,0.302
7.2400000e-08,0.512,0.29
7.2800000e-08,0.508,0.286
7.3200000e-08,0.508,0.29
7.3600000e-08,0.5,0.29
7.4000000e-08,0.5,0.29
7.4400000e-08,0.496,0.278
7.4800000e-08,0.496,0.278
7.5200000e-08,0.492,0.27
7.5600000e-08,0.492,0.27
7.6000000e-08,0.488,0.274
7.6400000e-08,0.484,0.278
7.6800000e-08,0.488,0.278
7.7200000e-08,0.488,0.278
7.7600000e-08,0.496,0.27
7.8000000e-08,0.488,0.27
7.8400000e-08,0.488,0.266
7.8800000e-08,0.492,0.27
7.9200000e-08,0.492,0.27
7.9600000e-08,0.5,0.262
8.0000000e-08,0.496,0.262
8.0400000e-08,0.492,0.262
8.0800000e-08,0.492,0.258
8.1200000e-08,0.488,0.254
8.1600000e-08,0.488,0.254
8.2000000e-08,0.492,0.258
8.2400000e-08,0.496,0.25
8.2800000e-08,0.496,0.25
8.3200000e-08,0.496,0.242
8.3600000e-08,0.488,0.242
8.4000000e-08,0.492,0.246
8.4400000e-08,0.488,0.242
8.4800000e-08,0.488,0.234
8.5200000e-08,0.48,0.226
8.5600000e-08,0.484,0.222
8.6000000e-08,0.488,0.218
8.6400000e-08,0.484,0.218
8.6800000e-08,0.492,0.222
8.7200000e-08,0.492,0.222
8.7600000e-08,0.492,0.226
8.8000000e-08,0.488,0.222
8.8400000e-08,0.492,0.222
8.8800000e-08,0.492,0.222
8.9200000e-08,0.496,0.222
8.9600000e-08,0.496,0.218
9.0000000e-08,0.496,0.222
9.0400000e-08,0.5,0.222
9.0800000e-08,0.5,0.214
9.1200000e-08,0.508,0.214
9.1600000e-08,0.5,0.214
9.2000000e-08,0.496,0.214
9.2400000e-08,0.504,0.202
9.2800000e-08,0.5,0.206
9.3200000e-08,0.496,0.202
9.3600000e-08,0.496,0.198
9.4000000e-08,0.496,0.202
9.4400000e-08,0.492,0.198
9.4800000e-08,0.488,0.194
9.5200000e-08,0.488,0.198
9.5600000e-08,0.492,0.194
9.6000000e-08,0.488,0.19
9.6400000e-08,0.492,0.182
9.6800000e-08,0.492,0.182
9.7200000e-08,0.492,0.19
9.7600000e-08,0.492,0.194
9.8000000e-08,0.5,0.194
9.8400000e-08,0.488,0.19
9.8800000e-08,0.488,0.194
9.9200000e-08,0.496,0.194
9.9600000e-08,0.492,0.198
1.0000000e-07,0.496,0.198
1.0040000e-07,0.488,0.194
1.0080000e-07,0.496,0.19
1.0120000e-07,0.496,0.198
1.0160000e-07,0.5,0.194
1.0200000e-07,0.496,0.198
1.0240000e-07,0.492,0.19
1.0280000e-07,0.492,0.19
1.0320000e-07,0.488,0.182
1.0360000e-07,0.488,0.19
1.0400000e-07,0.488,0.186
1.0440000e-07,0.488,0.186
1.0480000e-07,0.484,0.182
1.0520000e-07,0.488,0.19
1.0560000e-07,0.492,0.182
1.0600000e-07,0.488,0.182
1.0640000e-07,0.484,0.178
