Archivos Guadalupe/Data/1410-32-X3/12-05/tek0011ALL.csv

Model,DPO3034
Firmware Version,2.16

Point Format,Y,
Horizontal Units,S,
Horizontal Scale,4e-07,
Sample Interval,4e-09,
Record Length,1000,
Gating,0.0% to 100.0%,0.0% to 100.0%
Probe Attenuation,1,1
Vertical Units,V,V
Vertical Offset,0,0
Vertical Scale,10,5
Label,,
TIME,CH1,CH2
-2.880e-07,-0.2,0.1
-2.840e-07,-0.2,0.3
-2.800e-07,-0.6,0.3
-2.760e-07,-0.2,0.1
-2.720e-07,0.2,-0.1
-2.680e-07,-0.2,-0.1
-2.640e-07,-0.6,0.1
-2.600e-07,0.2,-0.1
-2.560e-07,-0.6,0.1
-2.520e-07,-0.2,0.3
-2.480e-07,-0.2,-0.1
-2.440e-07,-0.2,-0.1
-2.400e-07,0.2,-0.3
-2.360e-07,0.2,-0.1
-2.320e-07,-0.2,0.1
-2.280e-07,-0.6,0.1
-2.240e-07,0.2,-0.1
-2.200e-07,-0.2,-0.1
-2.160e-07,-1,0.1
-2.120e-07,-0.2,-0.1
-2.080e-07,-0.2,0.3
-2.040e-07,-0.2,0.1
-2.000e-07,-0.2,-0.1
-1.960e-07,-0.2,0.1
-1.920e-07,-0.6,-0.1
-1.880e-07,0.2,-0.3
-1.840e-07,0.2,-0.1
-1.800e-07,-0.2,0.1
-1.760e-07,0.2,0.3
-1.720e-07,-0.6,0.1
-1.680e-07,-0.2,-0.3
-1.640e-07,-0.2,-0.3
-1.600e-07,-0.2,-0.3
-1.560e-07,-0.2,0.3
-1.520e-07,-0.6,0.1
-1.480e-07,-0.2,-0.3
-1.440e-07,-0.2,-0.3
-1.400e-07,0.2,-0.1
-1.360e-07,0.2,-0.1
-1.320e-07,-0.6,0.1
-1.280e-07,-0.2,-0.1
-1.240e-07,-0.2,-0.1
-1.200e-07,-0.2,0.3
-1.160e-07,-0.2,-0.3
-1.120e-07,-0.6,-0.1
-1.080e-07,0.2,-0.3
-1.040e-07,-0.2,-0.3
-1.000e-07,-0.2,0.1
-9.600e-08,0.2,0.1
-9.200e-08,-0.6,0.1
-8.800e-08,0.2,0.1
-8.400e-08,0.2,-0.3
-8.000e-08,-0.6,-0.1
-7.600e-08,-0.2,-0.3
-7.200e-08,-1,0.1
-6.800e-08,-0.6,-0.1
-6.400e-08,0.2,-0.1
-6.000e-08,0.2,-0.3
-5.600e-08,0.2,-0.1
-5.200e-08,0.2,-0.1
-4.800e-08,0.2,0.1
-4.400e-08,0.2,-0.1
-4.000e-08,1,-0.3
-3.600e-08,1,0.1
-3.200e-08,0.6,0.1
-2.800e-08,1.8,0.1
-2.400e-08,2.2,0.5
-2.000e-08,2.2,0.5
-1.600e-08,2.2,0.5
-1.200e-08,2.6,0.7
-8.000e-09,3,0.9
-4.000e-09,4.2,1.3
1.588e-22,3.8,1.7
4.000e-09,4.6,2.1
8.000e-09,5.4,2.1
1.200e-08,6.6,2.7
1.600e-08,6.2,3.1
2.000e-08,6.6,3.1
2.400e-08,7.8,3.3
2.800e-08,7.8,3.5
3.200e-08,9,3.9
3.600e-08,9,4.3
4.000e-08,10.2,4.3
4.400e-08,10.6,4.3
4.800e-08,10.6,4.7
5.200e-08,11.8,5.1
5.600e-08,12.6,5.1
6.000e-08,13,5.3
6.400e-08,13.8,5.5
6.800e-08,14.6,5.5
7.200e-08,15,6.1
7.600e-08,15.8,6.3
8.000e-08,16.6,5.9
8.400e-08,16.6,6.5
8.800e-08,17.8,6.9
9.200e-08,18.2,6.7
9.600e-08,18.2,7.1
1.000e-07,19,7.5
1.040e-07,19.4,7.9
1.080e-07,20.2,7.7
1.120e-07,20.6,8.3
1.160e-07,22.2,8.3
1.200e-07,21.8,8.7
1.240e-07,23,8.5
1.280e-07,23.4,8.9
1.320e-07,24.2,8.9
1.360e-07,25,9.3
1.400e-07,26.2,9.3
1.440e-07,25.4,9.9
1.480e-07,26.2,10.1
1.520e-07,27.4,10.7
1.560e-07,28.2,11.1
1.600e-07,28.6,11.3
1.640e-07,29.4,11.5
1.680e-07,29.8,11.9
1.720e-07,29.4,12.1
1.760e-07,30.6,12.9
1.800e-07,31,13.1
1.840e-07,32.2,13.1
1.880e-07,32.6,13.7
1.920e-07,32.6,13.9
1.960e-07,33.8,14.1
2.000e-07,34.6,14.1
2.040e-07,34.6,14.5
2.080e-07,35,14.7
2.120e-07,36.2,15.1
2.160e-07,36.2,15.3
2.200e-07,36.6,15.5
2.240e-07,36.6,15.7
2.280e-07,36.6,15.7
2.320e-07,37.4,16.1
2.360e-07,37.4,16.5
2.400e-07,37,16.3
2.440e-07,37,16.7
2.480e-07,37.4,16.7
2.520e-07,37.4,16.5
2.560e-07,37.8,16.7
2.600e-07,38.2,16.5
2.640e-07,37.4,16.3
2.680e-07,37.8,16.5
2.720e-07,38.6,16.3
2.760e-07,38.6,16.3
2.800e-07,39,16.3
2.840e-07,39,16.7
2.880e-07,39.8,16.5
2.920e-07,39,16.5
2.960e-07,39.8,17.1
3.000e-07,40.2,17.1
3.040e-07,40.6,17.5
3.080e-07,39.8,17.9
3.120e-07,40.2,18.3
3.160e-07,40.6,18.3
3.200e-07,40.2,19.1
3.240e-07,41,18.9
3.280e-07,41.4,19.7
3.320e-07,41.8,19.7
3.360e-07,41.4,19.7
3.400e-07,42.6,19.9
3.440e-07,42.6,19.9
3.480e-07,43,19.9
3.520e-07,42.6,20.3
3.560e-07,43,20.5
3.600e-07,43.4,20.5
3.640e-07,43,20.9
3.680e-07,43,20.9
3.720e-07,43,20.9
3.760e-07,43.4,20.9
3.800e-07,43.8,20.9
3.840e-07,43.4,21.1
3.880e-07,43.4,20.9
3.920e-07,43.4,21.3
3.960e-07,43.8,20.9
4.000e-07,43.4,20.9
4.040e-07,43.8,20.7
4.080e-07,43.8,21.1
4.120e-07,43.8,20.9
4.160e-07,43.8,20.7
4.200e-07,44.2,20.9
4.240e-07,44.2,21.1
4.280e-07,44.2,21.1
4.320e-07,44.6,21.5
4.360e-07,44.6,21.5
4.400e-07,45,21.7
4.440e-07,44.6,21.9
4.480e-07,43.8,22.1
4.520e-07,45,22.5
4.560e-07,45,22.5
4.600e-07,44.6,22.7
4.640e-07,45,22.9
4.680e-07,45.4,22.9
4.720e-07,45,23.1
4.760e-07,45,23.1
4.800e-07,45.4,23.3
4.840e-07,45.8,22.9
4.880e-07,45.8,23.5
4.920e-07,45.4,23.5
4.960e-07,45,23.3
5.000e-07,45.8,23.5
5.040e-07,45.8,23.7
5.080e-07,45.8,23.7
5.120e-07,45.4,23.9
5.160e-07,45,23.9
5.200e-07,45.4,24.3
5.240e-07,45.4,24.1
5.280e-07,45.8,24.3
5.320e-07,45.8,23.9
5.360e-07,45,24.1
5.400e-07,45.8,24.1
5.440e-07,45.8,24.3
5.480e-07,45.8,24.1
5.520e-07,45.8,24.1
5.560e-07,45.8,24.3
5.600e-07,45.4,24.5
5.640e-07,45,24.3
5.680e-07,45.8,24.5
5.720e-07,45.8,24.7
5.760e-07,45.4,24.7
5.800e-07,45.8,25.1
5.840e-07,45.8,25.3
5.880e-07,45.4,25.3
5.920e-07,45,24.9
5.960e-07,45.8,25.3
6.000e-07,46.2,25.7
6.040e-07,46.2,25.7
6.080e-07,45.8,25.9
6.120e-07,46.6,25.9
6.160e-07,45.8,25.9
6.200e-07,46.6,25.7
6.240e-07,46.2,25.7
6.280e-07,46.2,25.7
6.320e-07,45.8,25.9
6.360e-07,45.8,25.7
6.400e-07,45.8,25.9
6.440e-07,46.2,25.7
6.480e-07,45.4,25.9
6.520e-07,45.8,25.9
6.560e-07,46.2,25.7
6.600e-07,45.8,25.7
6.640e-07,46.2,25.9
6.680e-07,45.8,25.7
6.720e-07,45.8,26.1
6.760e-07,46.2,26.3
6.800e-07,46.2,26.3
6.840e-07,46.2,26.1
6.880e-07,46.6,26.1
6.920e-07,46.6,26.3
6.960e-07,46.2,26.1
7.000e-07,47,26.5
7.040e-07,46.2,26.9
7.080e-07,47,26.7
7.120e-07,47.4,26.9
7.160e-07,46.2,26.9
7.200e-07,47,27.3
7.240e-07,47,27.1
7.280e-07,47,26.9
7.320e-07,47,26.9
7.360e-07,46.6,27.1
7.400e-07,46.2,27.3
7.440e-07,46.6,27.5
7.480e-07,47,27.3
7.520e-07,47,27.5
7.560e-07,47.4,27.1
7.600e-07,47.4,27.5
7.640e-07,46.2,27.5
7.680e-07,46.6,27.5
7.720e-07,47.8,27.9
7.760e-07,47,27.3
7.800e-07,46.2,27.5
7.840e-07,47,27.7
7.880e-07,47,27.7
7.920e-07,47,27.9
7.960e-07,47.4,27.9
8.000e-07,47,27.7
8.040e-07,46.6,27.5
8.080e-07,47,27.9
8.120e-07,47,27.9
8.160e-07,47,28.1
8.200e-07,47,28.3
8.240e-07,47.4,27.9
8.280e-07,47.4,27.9
8.320e-07,47,27.9
8.360e-07,47.8,28.1
8.400e-07,47.8,28.1
8.440e-07,47,28.1
8.480e-07,47.4,28.1
8.520e-07,47,28.3
8.560e-07,47.4,28.5
8.600e-07,47.8,28.3
8.640e-07,48.2,28.7
8.680e-07,47.4,28.5
8.720e-07,48.2,28.7
8.760e-07,47.8,28.9
8.800e-07,47.4,28.7
8.840e-07,47,28.5
8.880e-07,47.4,28.5
8.920e-07,46.6,28.3
8.960e-07,47.8,28.3
9.000e-07,48.2,28.7
9.040e-07,48.2,28.7
9.080e-07,47.8,28.5
9.120e-07,47,28.7
9.160e-07,47.4,28.9
9.200e-07,47.4,28.5
9.240e-07,47.4,28.5
9.280e-07,47.8,28.7
9.320e-07,47.8,28.5
9.360e-07,47.4,28.9
9.400e-07,47.8,28.9
9.440e-07,48.2,28.7
9.480e-07,47.4,28.9
9.520e-07,47.4,29.1
9.560e-07,47.4,28.9
9.600e-07,47.8,28.9
9.640e-07,48.2,29.1
9.680e-07,47.8,29.1
9.720e-07,47.4,29.1
9.760e-07,48.2,29.1
9.800e-07,47.8,28.9
9.840e-07,47.8,29.1
9.880e-07,47.8,29.3
9.920e-07,48.2,29.3
9.960e-07,47.4,29.1
1.000e-06,47.8,29.3
1.004e-06,47,29.1
1.008e-06,47.8,29.3
1.012e-06,48.2,29.1
1.016e-06,46.6,29.3
1.020e-06,47,29.5
1.024e-06,47.4,29.3
1.028e-06,47.4,29.3
1.032e-06,47.8,29.5
1.036e-06,47.4,29.1
1.040e-06,48.2,29.5
1.044e-06,47.4,29.5
1.048e-06,47.8,29.3
1.052e-06,47.4,29.5
1.056e-06,47,29.1
1.060e-06,47,29.5
1.064e-06,46.6,29.5
1.068e-06,47,29.5
1.072e-06,47.4,29.3
1.076e-06,47.4,29.3
1.080e-06,47,29.7
1.084e-06,47,29.7
1.088e-06,47.4,29.3
1.092e-06,46.6,29.5
1.096e-06,47,29.3
1.100e-06,47.4,29.5
1.104e-06,47.4,29.9
1.108e-06,47,29.3
1.112e-06,47.4,29.9
1.116e-06,47,29.7
1.120e-06,47.4,29.7
1.124e-06,47.4,29.7
1.128e-06,47,29.3
1.132e-06,47.8,29.5
1.136e-06,47.4,29.9
1.140e-06,47,29.9
1.144e-06,47.4,29.9
1.148e-06,47.4,29.7
1.152e-06,47.4,29.9
1.156e-06,47.4,30.1
1.160e-06,48.2,29.9
1.164e-06,46.6,29.9
1.168e-06,47,29.3
1.172e-06,47,29.9
1.176e-06,47.4,30.1
1.180e-06,47.4,29.7
1.184e-06,47.4,29.9
1.188e-06,47,29.9
1.192e-06,47.4,30.1
1.196e-06,47,29.7
1.200e-06,46.6,29.9
1.204e-06,47.4,30.1
1.208e-06,47,29.7
1.212e-06,47.4,29.9
1.216e-06,47,30.1
1.220e-06,47.4,30.3
1.224e-06,47,30.1
1.228e-06,47.4,29.9
1.232e-06,47.4,30.3
1.236e-06,47,30.1
1.240e-06,47.4,30.1
1.244e-06,47.4,30.1
1.248e-06,47,30.1
1.252e-06,47.8,30.1
1.256e-06,47.8,29.9
1.260e-06,47,30.3
1.264e-06,47.8,29.9
1.268e-06,48.2,30.1
1.272e-06,47.4,30.3
1.276e-06,47,30.3
1.280e-06,47.4,30.3
1.284e-06,47,30.1
1.288e-06,47.8,30.5
1.292e-06,47,30.3
1.296e-06,46.6,30.5
1.300e-06,47.8,30.3
1.304e-06,47.4,30.1
1.308e-06,47.4,30.3
1.312e-06,47,30.7
1.316e-06,47.4,30.1
1.320e-06,47.4,30.5
1.324e-06,47.4,30.3
1.328e-06,47.4,30.5
1.332e-06,47.8,30.5
1.336e-06,47,30.5
1.340e-06,47.4,30.1
1.344e-06,48.2,30.7
1.348e-06,47,30.7
1.352e-06,48.6,30.5
1.356e-06,48.2,30.5
1.360e-06,48.2,30.5
1.364e-06,48.6,30.7
1.368e-06,48.2,30.7
1.372e-06,47,30.5
1.376e-06,48.2,30.7
1.380e-06,47.8,30.7
1.384e-06,47.8,30.7
1.388e-06,47.4,30.5
1.392e-06,47.4,30.7
1.396e-06,47.4,30.9
1.400e-06,47.8,30.3
1.404e-06,47.8,30.3
1.408e-06,47.4,30.7
1.412e-06,47.8,30.5
1.416e-06,48.6,30.7
1.420e-06,47.8,30.3
1.424e-06,47.4,30.7
1.428e-06,47.4,30.9
1.432e-06,47.8,30.7
1.436e-06,48.2,30.5
1.440e-06,47,30.7
1.444e-06,48.2,30.7
1.448e-06,47.8,30.9
1.452e-06,47.8,30.7
1.456e-06,47.8,30.9
1.460e-06,47.8,30.9
1.464e-06,47.8,30.7
1.468e-06,47.8,30.9
1.472e-06,48.2,30.5
1.476e-06,47.8,31.1
1.480e-06,47.8,30.9
1.484e-06,48.2,31.1
1.488e-06,47.8,30.9
1.492e-06,47.8,30.7
1.496e-06,48.2,31.1
1.500e-06,47.4,30.7
1.504e-06,48.2,30.7
1.508e-06,47,30.9
1.512e-06,48.2,30.7
1.516e-06,47.4,30.7
1.520e-06,47.8,30.9
1.524e-06,47.4,31.1
1.528e-06,47.4,30.9
1.532e-06,47.8,30.7
1.536e-06,47.8,30.9
1.540e-06,48.6,30.9
1.544e-06,47.8,31.1
1.548e-06,48.2,31.1
1.552e-06,48.6,30.7
1.556e-06,47.8,31.1
1.560e-06,47,30.7
1.564e-06,47.8,30.9
1.568e-06,47,31.1
1.572e-06,47.8,30.7
1.576e-06,47.4,31.1
1.580e-06,47.8,30.7
1.584e-06,48.2,30.7
1.588e-06,47.4,31.1
1.592e-06,47,30.7
1.596e-06,47,30.7
1.600e-06,47.4,30.9
1.604e-06,47.4,31.1
1.608e-06,47.4,31.1
1.612e-06,48.2,31.1
1.616e-06,47.4,30.7
1.620e-06,47.8,30.7
1.624e-06,47,30.9
1.628e-06,47.4,31.1
1.632e-06,48.2,31.1
1.636e-06,47.4,30.9
1.640e-06,47.4,30.9
1.644e-06,47.8,30.9
1.648e-06,47.4,30.7
1.652e-06,47.4,31.1
1.656e-06,47,30.9
1.660e-06,47.4,30.9
1.664e-06,48.2,30.9
1.668e-06,47.4,30.9
1.672e-06,47.8,31.1
1.676e-06,47.8,30.7
1.680e-06,47,30.7
1.684e-06,47.4,31.1
1.688e-06,47.4,31.1
1.692e-06,47.4,31.1
1.696e-06,47.8,30.7
1.700e-06,47.8,31.1
1.704e-06,47.8,31.3
1.708e-06,47.8,31.1
1.712e-06,47.4,31.1
1.716e-06,47,31.3
1.720e-06,47.4,31.1
1.724e-06,48.2,31.3
1.728e-06,47.4,31.3
1.732e-06,47.4,30.7
1.736e-06,48.2,30.5
1.740e-06,47,30.9
1.744e-06,47.8,30.9
1.748e-06,47.8,31.1
1.752e-06,47,31.1
1.756e-06,47.4,31.3
1.760e-06,47.8,30.9
1.764e-06,48.2,31.1
1.768e-06,47.8,31.3
1.772e-06,47.8,31.1
1.776e-06,47.4,31.3
1.780e-06,47.8,30.9
1.784e-06,47.8,30.9
1.788e-06,47.4,31.1
1.792e-06,47.4,31.1
1.796e-06,48.2,30.7
1.800e-06,47.4,31.1
1.804e-06,47,31.3
1.808e-06,47.4,31.3
1.812e-06,48.2,30.9
1.816e-06,47.4,31.1
1.820e-06,48.2,31.3
1.824e-06,47.4,31.3
1.828e-06,47.4,31.1
1.832e-06,47.4,31.5
1.836e-06,47.8,31.3
1.840e-06,47.8,31.3
1.844e-06,47.8,31.3
1.848e-06,47,31.3
1.852e-06,47.4,31.1
1.856e-06,47.4,30.9
1.860e-06,47.8,31.3
1.864e-06,47.4,31.1
1.868e-06,47.8,31.5
1.872e-06,47,31.3
1.876e-06,48.2,31.3
1.880e-06,47.4,31.1
1.884e-06,47.4,31.1
1.888e-06,47.4,30.9
1.892e-06,48.2,31.1
1.896e-06,47.8,30.9
1.900e-06,47.8,30.9
1.904e-06,47.8,31.3
1.908e-06,47.4,31.1
1.912e-06,47.4,31.5
1.916e-06,47.8,31.3
1.920e-06,48.2,31.1
1.924e-06,47.8,31.3
1.928e-06,48.2,31.5
1.932e-06,47,31.1
1.936e-06,48.2,31.3
1.940e-06,47.4,31.3
1.944e-06,47.8,31.5
1.948e-06,47.8,31.3
1.952e-06,48.2,31.1
1.956e-06,47.4,31.1
1.960e-06,47.4,31.3
1.964e-06,47.4,31.3
1.968e-06,47.8,31.3
1.972e-06,47.8,31.3
1.976e-06,48.2,31.3
1.980e-06,47.4,31.3
1.984e-06,47.4,31.5
1.988e-06,47.8,31.5
1.992e-06,48.6,31.3
1.996e-06,47.4,31.3
2.000e-06,47.4,31.5
2.004e-06,48.2,31.5
2.008e-06,47.8,31.1
2.012e-06,48.2,31.3
2.016e-06,47.4,31.7
2.020e-06,47.8,31.1
2.024e-06,48.2,31.3
2.028e-06,48.2,31.5
2.032e-06,47.4,31.3
2.036e-06,47.4,31.1
2.040e-06,47.4,31.3
2.044e-06,47.8,31.3
2.048e-06,47.8,31.3
2.052e-06,47.4,31.3
2.056e-06,47.8,31.3
2.060e-06,47.4,31.5
2.064e-06,47.8,31.9
2.068e-06,47.4,31.3
2.072e-06,48.2,31.5
2.076e-06,47.4,31.3
2.080e-06,47,31.3
2.084e-06,47.8,31.3
2.088e-06,47.8,31.5
2.092e-06,47.4,31.5
2.096e-06,47.8,31.3
2.100e-06,47.8,31.3
2.104e-06,47,31.3
2.108e-06,47.8,31.5
2.112e-06,47,31.3
2.116e-06,48.2,31.5
2.120e-06,47.8,31.3
2.124e-06,47.4,31.1
2.128e-06,47.8,31.3
2.132e-06,47.4,31.3
2.136e-06,47.4,31.3
2.140e-06,48.2,31.1
2.144e-06,48.2,31.5
2.148e-06,47.4,31.3
2.152e-06,47.4,31.5
2.156e-06,47.4,31.3
2.160e-06,46.6,31.5
2.164e-06,47.4,31.3
2.168e-06,47.4,31.3
2.172e-06,47.8,31.3
2.176e-06,47.4,31.5
2.180e-06,47.8,31.1
2.184e-06,47.4,31.1
2.188e-06,47.8,31.3
2.192e-06,47.4,31.7
2.196e-06,47.8,31.1
2.200e-06,47.8,31.3
2.204e-06,47,31.3
2.208e-06,47.4,31.3
2.212e-06,47.8,31.7
2.216e-06,47.8,31.3
2.220e-06,47.4,31.7
2.224e-06,47.4,31.3
2.228e-06,47.8,31.3
2.232e-06,47,31.3
2.236e-06,47.4,31.7
2.240e-06,47.8,31.3
2.244e-06,47.4,31.7
2.248e-06,47,31.7
2.252e-06,47.8,31.7
2.256e-06,47.4,31.5
2.260e-06,47.4,31.7
2.264e-06,47.4,31.5
2.268e-06,47.8,31.7
2.272e-06,48.2,31.7
2.276e-06,47.8,31.3
2.280e-06,47.8,31.5
2.284e-06,47.4,31.9
2.288e-06,47.8,31.5
2.292e-06,47.4,31.7
2.296e-06,47,31.5
2.300e-06,47.4,31.3
2.304e-06,47.4,31.5
2.308e-06,47.4,31.7
2.312e-06,47.4,31.3
2.316e-06,47.4,31.3
2.320e-06,47.4,31.5
2.324e-06,47.8,31.7
2.328e-06,47.8,31.7
2.332e-06,48.2,31.7
2.336e-06,47.8,31.5
2.340e-06,47.4,31.7
2.344e-06,47,31.5
2.348e-06,48.2,31.7
2.352e-06,47,31.5
2.356e-06,47.8,31.3
2.360e-06,47.8,31.3
2.364e-06,47.8,31.3
2.368e-06,47.4,31.5
2.372e-06,47.8,31.5
2.376e-06,47.8,31.9
2.380e-06,47.8,31.9
2.384e-06,47.8,31.3
2.388e-06,47.8,31.7
2.392e-06,47.8,31.7
2.396e-06,48.2,31.7
2.400e-06,47.4,31.5
2.404e-06,47.4,31.7
2.408e-06,47.8,31.3
2.412e-06,47.4,31.7
2.416e-06,47.4,31.5
2.420e-06,47.4,31.3
2.424e-06,47.4,31.5
2.428e-06,48.2,31.5
2.432e-06,48.2,31.9
2.436e-06,47,31.7
2.440e-06,48.2,31.5
2.444e-06,47.8,31.5
2.448e-06,47.8,31.5
2.452e-06,47.4,31.5
2.456e-06,48.2,31.7
2.460e-06,47.4,31.9
2.464e-06,47.8,31.7
2.468e-06,47.8,31.5
2.472e-06,47.4,31.7
2.476e-06,47.8,31.9
2.480e-06,47.4,31.3
2.484e-06,48.2,31.7
2.488e-06,47,31.7
2.492e-06,47.8,31.5
2.496e-06,47.8,31.7
2.500e-06,47.8,31.7
2.504e-06,47.4,31.7
2.508e-06,47.4,31.5
2.512e-06,47.8,31.7
2.516e-06,48.6,31.3
2.520e-06,48.2,31.1
2.524e-06,47.8,31.5
2.528e-06,47.4,31.3
2.532e-06,47.4,31.7
2.536e-06,47.8,31.3
2.540e-06,47.8,31.7
2.544e-06,47.4,31.3
2.548e-06,47.8,31.7
2.552e-06,47.4,31.7
2.556e-06,47.4,31.1
2.560e-06,47.8,31.3
2.564e-06,47.4,31.3
2.568e-06,47.4,31.3
2.572e-06,47.4,31.5
2.576e-06,47.8,31.7
2.580e-06,47.8,31.3
2.584e-06,47.4,31.5
2.588e-06,47.4,31.5
2.592e-06,47.4,31.7
2.596e-06,47,31.5
2.600e-06,47.4,31.3
2.604e-06,47.4,31.3
2.608e-06,47.4,31.5
2.612e-06,47.8,31.5
2.616e-06,47,31.1
2.620e-06,47.8,31.5
2.624e-06,47.4,31.5
2.628e-06,47.4,31.7
2.632e-06,47.4,31.1
2.636e-06,47.8,31.1
2.640e-06,47,31.3
2.644e-06,47.8,31.5
2.648e-06,47.4,31.3
2.652e-06,47.8,31.3
2.656e-06,47.4,31.5
2.660e-06,47.4,31.3
2.664e-06,47,31.7
2.668e-06,47.8,31.3
2.672e-06,47.8,31.3
2.676e-06,47,31.3
2.680e-06,47.4,31.5
2.684e-06,47,31.1
2.688e-06,47.4,31.3
2.692e-06,47.4,31.1
2.696e-06,47.8,31.1
2.700e-06,47.4,31.1
2.704e-06,47,31.3
2.708e-06,47.8,31.3
2.712e-06,47.8,31.3
2.716e-06,48.2,31.1
2.720e-06,47.8,30.9
2.724e-06,47.8,30.9
2.728e-06,47.4,31.1
2.732e-06,47.8,31.3
2.736e-06,47.4,31.3
2.740e-06,48.2,31.3
2.744e-06,47.4,31.1
2.748e-06,47.4,31.3
2.752e-06,47.8,31.3
2.756e-06,47.4,31.1
2.760e-06,47.8,31.1
2.764e-06,47.4,31.1
2.768e-06,47.4,31.1
2.772e-06,47.8,31.1
2.776e-06,47.4,31.1
2.780e-06,47.4,30.7
2.784e-06,47.4,30.9
2.788e-06,47.8,31.1
2.792e-06,47.8,31.1
2.796e-06,47,30.9
2.800e-06,47.4,30.9
2.804e-06,48.2,31.1
2.808e-06,47.8,31.1
2.812e-06,47.4,30.9
2.816e-06,47.4,30.7
2.820e-06,47.8,30.7
2.824e-06,47.4,30.7
2.828e-06,47.4,30.7
2.832e-06,47,31.1
2.836e-06,47.8,30.9
2.840e-06,47.8,30.7
2.844e-06,47.4,30.9
2.848e-06,47.8,30.5
2.852e-06,48.2,30.7
2.856e-06,47.8,30.7
2.860e-06,47.4,30.9
2.864e-06,47.8,30.7
2.868e-06,47.8,30.7
2.872e-06,47.8,30.7
2.876e-06,47.4,30.7
2.880e-06,47.4,30.3
2.884e-06,47.8,30.7
2.888e-06,47.8,30.3
2.892e-06,47.4,30.7
2.896e-06,47,30.5
2.900e-06,47.8,30.3
2.904e-06,47.8,30.7
2.908e-06,47.8,30.7
2.912e-06,48.2,30.7
2.916e-06,47.8,30.5
2.920e-06,48.2,30.7
2.924e-06,47.4,30.7
2.928e-06,47.8,30.5
2.932e-06,47.8,30.5
2.936e-06,47,30.5
2.940e-06,47.4,30.5
2.944e-06,46.6,30.3
2.948e-06,46.6,30.7
2.952e-06,47,30.3
2.956e-06,46.6,30.5
2.960e-06,46.2,30.5
2.964e-06,45,30.3
2.968e-06,45,30.5
2.972e-06,43,29.9
2.976e-06,42.2,29.9
2.980e-06,41.8,29.5
2.984e-06,40.6,29.1
2.988e-06,37.8,28.3
2.992e-06,36.2,27.7
2.996e-06,35,26.7
3.000e-06,33,25.5
3.004e-06,32.6,24.9
3.008e-06,31,23.1
3.012e-06,30.2,22.1
3.016e-06,30.2,20.9
3.020e-06,29.4,19.9
3.024e-06,29.4,18.5
3.028e-06,30.2,17.7
3.032e-06,29.8,17.3
3.036e-06,29.4,17.7
3.040e-06,29.4,17.9
3.044e-06,29.4,18.7
3.048e-06,30.2,19.7
3.052e-06,29.4,20.5
3.056e-06,30.2,21.9
3.060e-06,30.2,22.7
3.064e-06,31,24.7
3.068e-06,31,25.9
3.072e-06,31,26.7
3.076e-06,31.4,27.9
3.080e-06,32.2,28.5
3.084e-06,33,28.9
3.088e-06,33,28.7
3.092e-06,34.2,28.9
3.096e-06,33.4,28.1
3.100e-06,33.8,28.1
3.104e-06,33.8,27.5
3.108e-06,33,27.1
3.112e-06,32.2,26.5
3.116e-06,31,25.5
3.120e-06,29.4,24.5
3.124e-06,27.4,23.7
3.128e-06,26.2,22.5
3.132e-06,24.2,21.3
3.136e-06,22.2,20.1
3.140e-06,21,18.5
3.144e-06,19.4,17.5
3.148e-06,18.2,15.7
3.152e-06,17.8,14.7
3.156e-06,17,13.5
3.160e-06,16.2,12.3
3.164e-06,16.6,11.3
3.168e-06,15.8,10.3
3.172e-06,16.6,9.9
3.176e-06,16.2,9.9
3.180e-06,16.2,9.9
3.184e-06,17.4,10.7
3.188e-06,17.8,11.3
3.192e-06,17.8,12.9
3.196e-06,18.6,14.1
3.200e-06,18.2,15.1
3.204e-06,18.6,16.7
3.208e-06,19,18.1
3.212e-06,19.8,19.1
3.216e-06,20.2,20.3
3.220e-06,21,20.9
3.224e-06,20.6,21.5
3.228e-06,20.6,21.9
3.232e-06,21,21.9
3.236e-06,21.4,21.9
3.240e-06,21,20.3
3.244e-06,19.4,20.7
3.248e-06,19.4,19.5
3.252e-06,18.6,18.9
3.256e-06,16.6,17.5
3.260e-06,15.4,16.7
3.264e-06,13.4,15.7
3.268e-06,12.2,14.1
3.272e-06,10.6,13.3
3.276e-06,9,12.1
3.280e-06,8.2,10.9
3.284e-06,7,9.7
3.288e-06,5.8,8.3
3.292e-06,5,7.5
3.296e-06,5,6.9
3.300e-06,4.2,6.3
3.304e-06,4.6,5.7
3.308e-06,4.6,5.3
3.312e-06,4.6,5.5
3.316e-06,5.4,5.5
3.320e-06,5.8,6.1
3.324e-06,5.8,6.7
3.328e-06,6.6,8.1
3.332e-06,7.4,8.9
3.336e-06,6.6,9.7
3.340e-06,7.8,11.1
3.344e-06,8.2,11.7
3.348e-06,8.2,13.1
3.352e-06,9,13.7
3.356e-06,9,14.3
3.360e-06,9.4,14.7
3.364e-06,9.4,14.7
3.368e-06,9.4,14.9
3.372e-06,9.4,14.1
3.376e-06,10.2,13.7
3.380e-06,10.2,13.5
3.384e-06,9.8,12.3
3.388e-06,9,11.5
3.392e-06,8.6,10.7
3.396e-06,7.4,9.7
3.400e-06,6.6,8.9
3.404e-06,5.4,8.3
3.408e-06,5.4,7.1
3.412e-06,4.6,6.9
3.416e-06,3.4,6.1
3.420e-06,3.4,5.5
3.424e-06,2.6,5.3
3.428e-06,2.2,4.3
3.432e-06,1.4,4.5
3.436e-06,2.2,4.3
3.440e-06,1.4,4.1
3.444e-06,1.4,4.1
3.448e-06,1.8,3.9
3.452e-06,2.6,4.5
3.456e-06,2.2,4.5
3.460e-06,3.4,5.1
3.464e-06,3.8,5.5
3.468e-06,3,6.5
3.472e-06,4.2,6.5
3.476e-06,4.2,7.3
3.480e-06,4.2,7.9
3.484e-06,3.8,8.3
3.488e-06,4.2,8.5
3.492e-06,4.2,8.9
3.496e-06,5,8.9
3.500e-06,5,9.1
3.504e-06,4.6,8.7
3.508e-06,4.6,8.9
3.512e-06,4.6,8.3
3.516e-06,4.2,8.5
3.520e-06,4.6,7.7
3.524e-06,4.2,6.7
3.528e-06,3.8,6.5
3.532e-06,3.8,6.3
3.536e-06,3,5.7
3.540e-06,3.4,5.3
3.544e-06,2.2,5.1
3.548e-06,2.6,4.9
3.552e-06,2.2,4.7
3.556e-06,3,4.5
3.560e-06,1.4,4.3
3.564e-06,1,4.3
3.568e-06,1.4,4.1
3.572e-06,1.4,4.3
3.576e-06,0.6,4.3
3.580e-06,1,4.3
3.584e-06,1,4.1
3.588e-06,1.4,4.5
3.592e-06,1,4.5
3.596e-06,0.6,4.9
3.600e-06,1.4,4.5
3.604e-06,2.6,4.5
3.608e-06,1,4.9
3.612e-06,1.4,5.3
3.616e-06,0.6,4.9
3.620e-06,1.4,5.1
3.624e-06,1.8,4.9
3.628e-06,2.2,5.1
3.632e-06,1.4,4.3
3.636e-06,1.4,4.7
3.640e-06,1.4,4.5
3.644e-06,1.4,4.5
3.648e-06,1.8,4.5
3.652e-06,1,4.3
3.656e-06,2.2,3.9
3.660e-06,1.8,3.5
3.664e-06,1,3.9
3.668e-06,1.4,3.5
3.672e-06,1.4,3.5
3.676e-06,1.4,3.3
3.680e-06,1,3.3
3.684e-06,0.6,3.5
3.688e-06,1.4,3.5
3.692e-06,1.4,3.5
3.696e-06,1,3.9
3.700e-06,1,3.5
3.704e-06,1,3.3
3.708e-06,0.2,3.5

