Archivos Guadalupe/Data/1410-32-X3/18-08/tek0003ALL.csv

Model,DPO3034
Firmware Version,2.16

Point Format,Y,
Horizontal Units,S,
Horizontal Scale,2,
Sample Interval,0.02,
Record Length,1000,
Gating,0.0% to 100.0%,0.0% to 100.0%
Probe Attenuation,1,1
Vertical Units,V,V
Vertical Offset,0,0
Vertical Scale,1,0.2
Label,,
TIME,CH1,CH2
-1.480e+00,-0.02,-0.004
-1.460e+00,-0.02,-0.004
-1.440e+00,0.02,-0.004
-1.420e+00,-0.06,-0.028
-1.400e+00,0.02,0.004
-1.380e+00,0.02,0.012
-1.360e+00,-0.02,0.012
-1.340e+00,0.06,0.004
-1.320e+00,0.02,0.012
-1.300e+00,-0.06,0.004
-1.280e+00,-0.02,-0.02
-1.260e+00,-0.06,0.02
-1.240e+00,-0.02,0.004
-1.220e+00,-0.02,0.02
-1.200e+00,0.02,-0.004
-1.180e+00,0.02,0.012
-1.160e+00,-0.02,0.004
-1.140e+00,-0.02,-0.012
-1.120e+00,0.02,0.004
-1.100e+00,-0.02,-0.02
-1.080e+00,-0.02,-0.012
-1.060e+00,0.02,-0.004
-1.040e+00,-0.02,0.012
-1.020e+00,0.06,0.004
-1.000e+00,0.02,-0.004
-9.800e-01,-0.06,-0.012
-9.600e-01,-0.02,-0.012
-9.400e-01,-0.06,-0.012
-9.200e-01,0.06,0.012
-9.000e-01,0.02,-0.02
-8.800e-01,0.02,0.004
-8.600e-01,-0.02,0.012
-8.400e-01,0.02,0.004
-8.200e-01,0.06,0.028
-8.000e-01,0.02,0.004
-7.800e-01,0.02,-0.012
-7.600e-01,0.02,-0.004
-7.400e-01,0.02,-0.004
-7.200e-01,0.02,0.012
-7.000e-01,0.02,0.044
-6.800e-01,0.06,0.004
-6.600e-01,0.06,0.004
-6.400e-01,0.14,0.004
-6.200e-01,0.06,0.036
-6.000e-01,0.02,0.02
-5.800e-01,0.1,0.02
-5.600e-01,0.18,0.028
-5.400e-01,0.14,0.044
-5.200e-01,0.22,0.028
-5.000e-01,0.14,0.02
-4.800e-01,0.18,0.036
-4.600e-01,0.26,0.036
-4.400e-01,0.18,0.044
-4.200e-01,0.22,0.052
-4.000e-01,0.26,0.044
-3.800e-01,0.26,0.028
-3.600e-01,0.3,0.06
-3.400e-01,0.26,0.06
-3.200e-01,0.22,0.036
-3.000e-01,0.3,0.044
-2.800e-01,0.42,0.052
-2.600e-01,0.34,0.092
-2.400e-01,0.38,0.084
-2.200e-01,0.42,0.06
-2.000e-01,0.38,0.068
-1.800e-01,0.38,0.076
-1.600e-01,0.42,0.068
-1.400e-01,0.46,0.036
-1.200e-01,0.42,0.068
-1.000e-01,0.54,0.084
-8.000e-02,0.42,0.076
-6.000e-02,0.5,0.084
-4.000e-02,0.5,0.084
-2.000e-02,0.46,0.076
6.176e-16,0.58,0.1
2.000e-02,0.54,0.092
4.000e-02,0.54,0.1
6.000e-02,0.58,0.092
8.000e-02,0.62,0.076
1.000e-01,0.54,0.108
1.200e-01,0.62,0.084
1.400e-01,0.66,0.092
1.600e-01,0.58,0.1
1.800e-01,0.74,0.108
2.000e-01,0.66,0.124
2.200e-01,0.7,0.116
2.400e-01,0.74,0.124
2.600e-01,0.78,0.1
2.800e-01,0.7,0.1
3.000e-01,0.74,0.108
3.200e-01,0.74,0.148
3.400e-01,0.78,0.148
3.600e-01,0.74,0.124
3.800e-01,0.82,0.14
4.000e-01,0.86,0.14
4.200e-01,0.82,0.14
4.400e-01,0.86,0.148
4.600e-01,0.86,0.148
4.800e-01,0.86,0.132
5.000e-01,0.86,0.132
5.200e-01,0.74,0.148
5.400e-01,0.86,0.148
5.600e-01,0.9,0.148
5.800e-01,0.94,0.164
6.000e-01,0.98,0.172
6.200e-01,0.94,0.164
6.400e-01,1.02,0.164
6.600e-01,0.98,0.164
6.800e-01,0.98,0.18
7.000e-01,0.98,0.164
7.200e-01,0.98,0.188
7.400e-01,1.06,0.164
7.600e-01,1.02,0.196
7.800e-01,1.06,0.172
8.000e-01,1.06,0.188
8.200e-01,1.1,0.196
8.400e-01,1.14,0.204
8.600e-01,1.1,0.204
8.800e-01,1.14,0.188
9.000e-01,1.14,0.188
9.200e-01,1.14,0.212
9.400e-01,1.18,0.212
9.600e-01,1.26,0.212
9.800e-01,1.18,0.196
1.000e+00,1.18,0.212
1.020e+00,1.22,0.212
1.040e+00,1.18,0.228
1.060e+00,1.18,0.228
1.080e+00,1.26,0.244
1.100e+00,1.3,0.244
1.120e+00,1.26,0.244
1.140e+00,1.3,0.228
1.160e+00,1.34,0.228
1.180e+00,1.3,0.244
1.200e+00,1.34,0.236
1.220e+00,1.3,0.236
1.240e+00,1.3,0.252
1.260e+00,1.26,0.228
1.280e+00,1.34,0.244
1.300e+00,1.38,0.236
1.320e+00,1.38,0.236
1.340e+00,1.26,0.228
1.360e+00,1.38,0.244
1.380e+00,1.34,0.252
1.400e+00,1.3,0.22
1.420e+00,1.26,0.244
1.440e+00,1.34,0.252
1.460e+00,1.34,0.228
1.480e+00,1.34,0.252
1.500e+00,1.34,0.244
1.520e+00,1.3,0.252
1.540e+00,1.3,0.252
1.560e+00,1.34,0.244
1.580e+00,1.34,0.26
1.600e+00,1.34,0.236
1.620e+00,1.38,0.236
1.640e+00,1.26,0.244
1.660e+00,1.3,0.26
1.680e+00,1.3,0.244
1.700e+00,1.3,0.26
1.720e+00,1.38,0.252
1.740e+00,1.3,0.244
1.760e+00,1.34,0.228
1.780e+00,1.3,0.236
1.800e+00,1.3,0.244
1.820e+00,1.3,0.236
1.840e+00,1.34,0.244
1.860e+00,1.3,0.252
1.880e+00,1.34,0.244
1.900e+00,1.34,0.236
1.920e+00,1.26,0.228
1.940e+00,1.26,0.244
1.960e+00,1.22,0.244
1.980e+00,1.34,0.26
2.000e+00,1.26,0.252
2.020e+00,1.3,0.236
2.040e+00,1.26,0.228
2.060e+00,1.34,0.252
2.080e+00,1.3,0.244
2.100e+00,1.34,0.236
2.120e+00,1.3,0.268
2.140e+00,1.38,0.244
2.160e+00,1.42,0.252
2.180e+00,1.46,0.252
2.200e+00,1.5,0.268
2.220e+00,1.5,0.3
2.240e+00,1.54,0.308
2.260e+00,1.58,0.3
2.280e+00,1.7,0.308
2.300e+00,1.62,0.324
2.320e+00,1.74,0.308
2.340e+00,1.7,0.356
2.360e+00,1.74,0.324
2.380e+00,1.74,0.34
2.400e+00,1.78,0.356
2.420e+00,1.82,0.364
2.440e+00,1.82,0.292
2.460e+00,1.94,0.372
2.480e+00,1.94,0.364
2.500e+00,2.02,0.38
2.520e+00,2.02,0.396
2.540e+00,2.06,0.396
2.560e+00,2.1,0.38
2.580e+00,2.1,0.404
2.600e+00,2.18,0.404
2.620e+00,2.14,0.42
2.640e+00,2.22,0.428
2.660e+00,2.22,0.444
2.680e+00,2.22,0.444
2.700e+00,2.3,0.46
2.720e+00,2.38,0.476
2.740e+00,2.42,0.476
2.760e+00,2.34,0.468
2.780e+00,2.42,0.492
2.800e+00,2.5,0.484
2.820e+00,2.58,0.5
2.840e+00,2.46,0.5
2.860e+00,2.62,0.516
2.880e+00,2.66,0.516
2.900e+00,2.66,0.516
2.920e+00,2.74,0.54
2.940e+00,2.66,0.532
2.960e+00,2.74,0.54
2.980e+00,2.78,0.548
3.000e+00,2.78,0.564
3.020e+00,2.86,0.58
3.040e+00,2.86,0.612
3.060e+00,2.9,0.556
3.080e+00,2.9,0.556
3.100e+00,2.9,0.588
3.120e+00,2.94,0.572
3.140e+00,3.1,0.588
3.160e+00,3.14,0.62
3.180e+00,3.18,0.604
3.200e+00,3.1,0.628
3.220e+00,3.14,0.62
3.240e+00,3.18,0.652
3.260e+00,3.3,0.644
3.280e+00,3.3,0.66
3.300e+00,3.26,0.676
3.320e+00,3.34,0.684
3.340e+00,3.3,0.684
3.360e+00,3.38,0.676
3.380e+00,3.38,0.684
3.400e+00,3.42,0.684
3.420e+00,3.42,0.716
3.440e+00,3.46,0.708
3.460e+00,3.5,0.724
3.480e+00,3.54,0.724
3.500e+00,3.58,0.732
3.520e+00,3.62,0.78
3.540e+00,3.7,0.78
3.560e+00,3.62,0.78
3.580e+00,3.7,0.772
3.600e+00,3.78,0.78
3.620e+00,3.74,0.788
3.640e+00,3.78,0.828
3.660e+00,3.9,0.82
3.680e+00,3.82,0.828
3.700e+00,3.9,0.82
3.720e+00,3.94,0.836
3.740e+00,3.9,0.828
3.760e+00,3.98,0.868
3.780e+00,4.02,0.884
3.800e+00,3.98,0.852
3.820e+00,4.02,0.908
3.840e+00,4.06,0.884
3.860e+00,4.22,0.9
3.880e+00,4.18,0.908
3.900e+00,4.14,0.908
3.920e+00,4.26,0.94
3.940e+00,4.26,0.932
3.960e+00,4.34,0.964
3.980e+00,4.34,0.956
4.000e+00,4.34,0.956
4.020e+00,4.38,0.972
4.040e+00,4.3,0.948
4.060e+00,4.42,0.948
4.080e+00,4.3,0.964
4.100e+00,4.34,0.972
4.120e+00,4.42,0.98
4.140e+00,4.42,0.972
4.160e+00,4.3,1.028
4.180e+00,4.34,1.012
4.200e+00,4.34,1.028
4.220e+00,4.3,1.036
4.240e+00,4.34,1.012
4.260e+00,4.34,1.028
4.280e+00,4.38,1.036
4.300e+00,4.38,1.02
4.320e+00,4.34,1.004
4.340e+00,4.34,1.02
4.360e+00,4.34,1.02
4.380e+00,4.3,0.908
4.400e+00,4.38,1.028
4.420e+00,4.3,1.028
4.440e+00,4.3,1.02
4.460e+00,4.42,1.02
4.480e+00,4.34,1.028
4.500e+00,4.38,1.012
4.520e+00,4.42,1.044
4.540e+00,4.3,1.028
4.560e+00,4.26,1.02
4.580e+00,4.34,1.012
4.600e+00,4.34,1.028
4.620e+00,4.34,1.02
4.640e+00,4.34,1.044
4.660e+00,4.38,1.044
4.680e+00,4.3,1.028
4.700e+00,4.38,1.02
4.720e+00,4.26,1.036
4.740e+00,4.26,1.012
4.760e+00,4.38,1.02
4.780e+00,4.26,1.02
4.800e+00,4.3,1.02
4.820e+00,4.26,1.036
4.840e+00,4.34,0.996
4.860e+00,4.34,1.004
4.880e+00,4.42,1.02
4.900e+00,4.3,0.94
4.920e+00,4.34,1.052
4.940e+00,4.34,1.052
4.960e+00,4.3,1.044
4.980e+00,4.38,1.052
5.000e+00,4.3,1.02
5.020e+00,4.38,1.02
5.040e+00,4.42,1.012
5.060e+00,4.34,1.036
5.080e+00,4.34,1.036
5.100e+00,4.38,1.028
5.120e+00,4.34,1.02
5.140e+00,4.26,1.02
5.160e+00,4.38,1.036
5.180e+00,4.34,1.02
5.200e+00,4.3,1.036
5.220e+00,4.34,1.036
5.240e+00,4.38,1.036
5.260e+00,4.34,1.036
5.280e+00,4.34,1.044
5.300e+00,4.38,1.044
5.320e+00,4.34,1.036
5.340e+00,4.26,1.02
5.360e+00,4.38,1.028
5.380e+00,4.34,1.02
5.400e+00,4.3,1.02
5.420e+00,4.3,1.028
5.440e+00,4.38,1.036
5.460e+00,4.26,1.012
5.480e+00,4.34,1.044
5.500e+00,4.3,1.052
5.520e+00,4.34,1.028
5.540e+00,4.42,1.044
5.560e+00,4.34,1.028
5.580e+00,4.3,1.036
5.600e+00,4.38,1.028
5.620e+00,4.3,1.036
5.640e+00,4.26,1.036
5.660e+00,4.3,1.028
5.680e+00,4.3,1.036
5.700e+00,4.3,1.036
5.720e+00,4.34,1.052
5.740e+00,4.3,1.028
5.760e+00,4.3,1.036
5.780e+00,4.34,1.036
5.800e+00,4.3,1.036
5.820e+00,4.34,1.028
5.840e+00,4.34,1.036
5.860e+00,4.34,1.052
5.880e+00,4.46,1.052
5.900e+00,4.34,1.036
5.920e+00,4.3,1.012
5.940e+00,4.22,1.012
5.960e+00,4.26,1.012
5.980e+00,4.22,1.012
6.000e+00,4.18,0.988
6.020e+00,4.14,0.972
6.040e+00,4.06,0.972
6.060e+00,4.06,0.972
6.080e+00,4.1,0.948
6.100e+00,3.98,0.94
6.120e+00,4.02,0.94
6.140e+00,3.98,0.924
6.160e+00,3.86,0.932
6.180e+00,3.82,0.916
6.200e+00,3.86,0.892
6.220e+00,3.86,0.916
6.240e+00,3.82,0.892
6.260e+00,3.74,0.868
6.280e+00,3.66,0.876
6.300e+00,3.66,0.868
6.320e+00,3.7,0.836
6.340e+00,3.62,0.844
6.360e+00,3.58,0.836
6.380e+00,3.62,0.82
6.400e+00,3.5,0.788
6.420e+00,3.5,0.82
6.440e+00,3.46,0.796
6.460e+00,3.5,0.78
6.480e+00,3.38,0.788
6.500e+00,3.38,0.756
6.520e+00,3.38,0.764
6.540e+00,3.38,0.74
6.560e+00,3.3,0.724
6.580e+00,3.3,0.724
6.600e+00,3.22,0.74
6.620e+00,3.3,0.724
6.640e+00,3.14,0.716
6.660e+00,3.18,0.7
6.680e+00,3.1,0.684
6.700e+00,3.02,0.7
6.720e+00,3.02,0.676
6.740e+00,3.02,0.668
6.760e+00,3.02,0.644
6.780e+00,2.9,0.652
6.800e+00,2.94,0.652
6.820e+00,2.94,0.636
6.840e+00,2.94,0.644
6.860e+00,2.82,0.62
6.880e+00,2.78,0.62
6.900e+00,2.78,0.604
6.920e+00,2.74,0.596
6.940e+00,2.7,0.588
6.960e+00,2.62,0.588
6.980e+00,2.62,0.556
7.000e+00,2.58,0.556
7.020e+00,2.62,0.572
7.040e+00,2.54,0.572
7.060e+00,2.54,0.548
7.080e+00,2.42,0.532
7.100e+00,2.5,0.508
7.120e+00,2.46,0.5
7.140e+00,2.38,0.524
7.160e+00,2.34,0.5
7.180e+00,2.3,0.492
7.200e+00,2.26,0.476
7.220e+00,2.18,0.46
7.240e+00,2.18,0.468
7.260e+00,2.14,0.468
7.280e+00,2.18,0.436
7.300e+00,2.1,0.444
7.320e+00,2.14,0.444
7.340e+00,2.06,0.428
7.360e+00,2.02,0.428
7.380e+00,2.02,0.404
7.400e+00,2.02,0.42
7.420e+00,1.9,0.38
7.440e+00,1.86,0.396
7.460e+00,1.94,0.388
7.480e+00,1.78,0.38
7.500e+00,1.78,0.396
7.520e+00,1.74,0.364
7.540e+00,1.78,0.356
7.560e+00,1.74,0.364
7.580e+00,1.62,0.332
7.600e+00,1.62,0.34
7.620e+00,1.54,0.316
7.640e+00,1.58,0.332
7.660e+00,1.54,0.316
7.680e+00,1.54,0.3
7.700e+00,1.5,0.292
7.720e+00,1.38,0.308
7.740e+00,1.38,0.276
7.760e+00,1.42,0.276
7.780e+00,1.3,0.276
7.800e+00,1.3,0.276
7.820e+00,1.34,0.268
7.840e+00,1.34,0.276
7.860e+00,1.3,0.276
7.880e+00,1.34,0.276
7.900e+00,1.34,0.276
7.920e+00,1.34,0.268
7.940e+00,1.22,0.26
7.960e+00,1.34,0.252
7.980e+00,1.26,0.236
8.000e+00,1.34,0.252
8.020e+00,1.34,0.26
8.040e+00,1.3,0.268
8.060e+00,1.26,0.26
8.080e+00,1.3,0.26
8.100e+00,1.3,0.268
8.120e+00,1.3,0.268
8.140e+00,1.38,0.284
8.160e+00,1.3,0.26
8.180e+00,1.34,0.26
8.200e+00,1.34,0.268
8.220e+00,1.38,0.26
8.240e+00,1.3,0.276
8.260e+00,1.3,0.26
8.280e+00,1.3,0.268
8.300e+00,1.3,0.268
8.320e+00,1.3,0.268
8.340e+00,1.34,0.268
8.360e+00,1.3,0.244
8.380e+00,1.26,0.244
8.400e+00,1.34,0.268
8.420e+00,1.34,0.228
8.440e+00,1.3,0.276
8.460e+00,1.34,0.268
8.480e+00,1.3,0.26
8.500e+00,1.34,0.268
8.520e+00,1.3,0.26
8.540e+00,1.3,0.26
8.560e+00,1.34,0.26
8.580e+00,1.22,0.196
8.600e+00,1.26,0.252
8.620e+00,1.34,0.252
8.640e+00,1.22,0.252
8.660e+00,1.34,0.26
8.680e+00,1.38,0.324
8.700e+00,1.3,0.26
8.720e+00,1.34,0.244
8.740e+00,1.3,0.26
8.760e+00,1.3,0.26
8.780e+00,1.3,0.252
8.800e+00,1.22,0.268
8.820e+00,1.38,0.26
8.840e+00,1.26,0.188
8.860e+00,1.34,0.268
8.880e+00,1.34,0.244
8.900e+00,1.3,0.268
8.920e+00,1.34,0.268
8.940e+00,1.18,0.268
8.960e+00,1.34,0.252
8.980e+00,1.3,0.252
9.000e+00,1.34,0.252
9.020e+00,1.34,0.228
9.040e+00,1.3,0.26
9.060e+00,1.34,0.268
9.080e+00,1.3,0.252
9.100e+00,1.26,0.292
9.120e+00,1.26,0.276
9.140e+00,1.26,0.26
9.160e+00,1.26,0.276
9.180e+00,1.34,0.276
9.200e+00,1.3,0.26
9.220e+00,1.34,0.252
9.240e+00,1.3,0.276
9.260e+00,1.26,0.268
9.280e+00,1.26,0.236
9.300e+00,1.22,0.236
9.320e+00,1.26,0.26
9.340e+00,1.38,0.284
9.360e+00,1.26,0.268
9.380e+00,1.3,0.26
9.400e+00,1.3,0.276
9.420e+00,1.34,0.252
9.440e+00,1.34,0.268
9.460e+00,1.3,0.26
9.480e+00,1.34,0.252
9.500e+00,1.34,0.276
9.520e+00,1.3,0.236
9.540e+00,1.34,0.252
9.560e+00,1.34,0.252
9.580e+00,1.3,0.292
9.600e+00,1.26,0.276
9.620e+00,1.34,0.268
9.640e+00,1.34,0.244
9.660e+00,1.3,0.268
9.680e+00,1.3,0.26
9.700e+00,1.3,0.26
9.720e+00,1.34,0.252
9.740e+00,1.26,0.252
9.760e+00,1.3,0.276
9.780e+00,1.3,0.26
9.800e+00,1.34,0.252
9.820e+00,1.34,0.252
9.840e+00,1.3,0.26
9.860e+00,1.3,0.252
9.880e+00,1.3,0.26
9.900e+00,1.26,0.236
9.920e+00,1.3,0.252
9.940e+00,1.34,0.268
9.960e+00,1.22,0.26
9.980e+00,1.26,0.268
1.000e+01,1.34,0.26
1.002e+01,1.3,0.276
1.004e+01,1.34,0.268
1.006e+01,1.3,0.268
1.008e+01,1.3,0.268
1.010e+01,1.34,0.244
1.012e+01,1.34,0.268
1.014e+01,1.3,0.268
1.016e+01,1.34,0.244
1.018e+01,1.3,0.26
1.020e+01,1.34,0.268
1.022e+01,1.3,0.26
1.024e+01,1.34,0.252
1.026e+01,1.3,0.26
1.028e+01,1.3,0.26
1.030e+01,1.26,0.252
1.032e+01,1.22,0.252
1.034e+01,1.3,0.252
1.036e+01,1.34,0.252
1.038e+01,1.34,0.26
1.040e+01,1.26,0.252
1.042e+01,1.3,0.276
1.044e+01,1.3,0.252
1.046e+01,1.38,0.268
1.048e+01,1.34,0.26
1.050e+01,1.38,0.236
1.052e+01,1.3,0.276
1.054e+01,1.34,0.252
1.056e+01,1.26,0.252
1.058e+01,1.34,0.268
1.060e+01,1.34,0.252
1.062e+01,1.26,0.26
1.064e+01,1.26,0.26
1.066e+01,1.26,0.268
1.068e+01,1.34,0.268
1.070e+01,1.26,0.252
1.072e+01,1.22,0.276
1.074e+01,1.3,0.252
1.076e+01,1.22,0.26
1.078e+01,1.3,0.268
1.080e+01,1.26,0.276
1.082e+01,1.34,0.244
1.084e+01,1.34,0.276
1.086e+01,1.3,0.26
1.088e+01,1.34,0.268
1.090e+01,1.3,0.244
1.092e+01,1.3,0.244
1.094e+01,1.34,0.252
1.096e+01,1.3,0.244
1.098e+01,1.38,0.236
1.100e+01,1.3,0.26
1.102e+01,1.3,0.252
1.104e+01,1.38,0.268
1.106e+01,1.3,0.26
1.108e+01,1.3,0.276
1.110e+01,1.3,0.26
1.112e+01,1.22,0.26
1.114e+01,1.26,0.252
1.116e+01,1.3,0.252
1.118e+01,1.34,0.26
1.120e+01,1.38,0.26
1.122e+01,1.3,0.268
1.124e+01,1.34,0.26
1.126e+01,1.22,0.276
1.128e+01,1.26,0.268
1.130e+01,1.3,0.244
1.132e+01,1.34,0.292
1.134e+01,1.3,0.276
1.136e+01,1.26,0.252
1.138e+01,1.3,0.252
1.140e+01,1.34,0.252
1.142e+01,1.26,0.284
1.144e+01,1.34,0.26
1.146e+01,1.3,0.244
1.148e+01,1.34,0.26
1.150e+01,1.3,0.252
1.152e+01,1.38,0.252
1.154e+01,1.3,0.26
1.156e+01,1.3,0.268
1.158e+01,1.3,0.26
1.160e+01,1.34,0.236
1.162e+01,1.3,0.26
1.164e+01,1.26,0.276
1.166e+01,1.26,0.276
1.168e+01,1.26,0.292
1.170e+01,1.3,0.26
1.172e+01,1.34,0.26
1.174e+01,1.26,0.268
1.176e+01,1.3,0.26
1.178e+01,1.34,0.26
1.180e+01,1.26,0.268
1.182e+01,1.38,0.276
1.184e+01,1.34,0.268
1.186e+01,1.42,0.252
1.188e+01,1.3,0.268
1.190e+01,1.3,0.252
1.192e+01,1.34,0.236
1.194e+01,1.26,0.252
1.196e+01,1.26,0.252
1.198e+01,1.26,0.252
1.200e+01,1.34,0.26
1.202e+01,1.34,0.244
1.204e+01,1.3,0.26
1.206e+01,1.26,0.252
1.208e+01,1.38,0.252
1.210e+01,1.34,0.236
1.212e+01,1.38,0.292
1.214e+01,1.38,0.26
1.216e+01,1.34,0.26
1.218e+01,1.34,0.252
1.220e+01,1.3,0.26
1.222e+01,1.26,0.276
1.224e+01,1.34,0.244
1.226e+01,1.34,0.308
1.228e+01,1.26,0.276
1.230e+01,1.3,0.276
1.232e+01,1.3,0.252
1.234e+01,1.38,0.252
1.236e+01,1.26,0.252
1.238e+01,1.3,0.268
1.240e+01,1.34,0.252
1.242e+01,1.3,0.268
1.244e+01,1.34,0.252
1.246e+01,1.26,0.26
1.248e+01,1.3,0.276
1.250e+01,1.3,0.26
1.252e+01,1.26,0.244
1.254e+01,1.3,0.252
1.256e+01,1.34,0.252
1.258e+01,1.38,0.268
1.260e+01,1.22,0.252
1.262e+01,1.34,0.26
1.264e+01,1.3,0.268
1.266e+01,1.26,0.284
1.268e+01,1.26,0.228
1.270e+01,1.26,0.26
1.272e+01,1.34,0.244
1.274e+01,1.26,0.252
1.276e+01,1.26,0.292
1.278e+01,1.3,0.276
1.280e+01,1.34,0.252
1.282e+01,1.42,0.268
1.284e+01,1.3,0.244
1.286e+01,1.34,0.26
1.288e+01,1.3,0.252
1.290e+01,1.26,0.26
1.292e+01,1.34,0.276
1.294e+01,1.34,0.244
1.296e+01,1.46,0.252
1.298e+01,1.3,0.228
1.300e+01,1.26,0.26
1.302e+01,1.38,0.268
1.304e+01,1.3,0.26
1.306e+01,1.34,0.26
1.308e+01,1.38,0.268
1.310e+01,1.3,0.26
1.312e+01,1.34,0.292
1.314e+01,1.26,0.244
1.316e+01,1.3,0.268
1.318e+01,1.34,0.268
1.320e+01,1.34,0.26
1.322e+01,1.26,0.252
1.324e+01,1.3,0.244
1.326e+01,1.34,0.252
1.328e+01,1.38,0.276
1.330e+01,1.38,0.252
1.332e+01,1.26,0.252
1.334e+01,1.38,0.268
1.336e+01,1.26,0.26
1.338e+01,1.22,0.252
1.340e+01,1.3,0.268
1.342e+01,1.26,0.268
1.344e+01,1.3,0.276
1.346e+01,1.26,0.268
1.348e+01,1.38,0.26
1.350e+01,1.38,0.268
1.352e+01,1.22,0.26
1.354e+01,1.34,0.244
1.356e+01,1.3,0.252
1.358e+01,1.3,0.268
1.360e+01,1.26,0.268
1.362e+01,1.38,0.26
1.364e+01,1.3,0.252
1.366e+01,1.26,0.252
1.368e+01,1.38,0.252
1.370e+01,1.42,0.26
1.372e+01,1.3,0.212
1.374e+01,1.34,0.26
1.376e+01,1.3,0.26
1.378e+01,1.18,0.244
1.380e+01,1.34,0.26
1.382e+01,1.3,0.292
1.384e+01,1.26,0.244
1.386e+01,1.34,0.268
1.388e+01,1.3,0.26
1.390e+01,1.26,0.252
1.392e+01,1.3,0.26
1.394e+01,1.34,0.244
1.396e+01,1.3,0.252
1.398e+01,1.3,0.244
1.400e+01,1.34,0.276
1.402e+01,1.34,0.268
1.404e+01,1.26,0.26
1.406e+01,1.34,0.244
1.408e+01,1.38,0.244
1.410e+01,1.26,0.26
1.412e+01,1.3,0.276
1.414e+01,1.34,0.252
1.416e+01,1.34,0.284
1.418e+01,1.26,0.276
1.420e+01,1.26,0.236
1.422e+01,1.34,0.244
1.424e+01,1.3,0.276
1.426e+01,1.26,0.26
1.428e+01,1.34,0.292
1.430e+01,1.34,0.252
1.432e+01,1.34,0.252
1.434e+01,1.34,0.252
1.436e+01,1.3,0.268
1.438e+01,1.26,0.26
1.440e+01,1.34,0.252
1.442e+01,1.42,0.276
1.444e+01,1.26,0.276
1.446e+01,1.3,0.276
1.448e+01,1.34,0.268
1.450e+01,1.3,0.268
1.452e+01,1.42,0.252
1.454e+01,1.26,0.26
1.456e+01,1.38,0.26
1.458e+01,1.3,0.276
1.460e+01,1.38,0.26
1.462e+01,1.34,0.276
1.464e+01,1.3,0.244
1.466e+01,1.3,0.268
1.468e+01,1.38,0.244
1.470e+01,1.3,0.236
1.472e+01,1.22,0.252
1.474e+01,1.38,0.26
1.476e+01,1.42,0.276
1.478e+01,1.38,0.26
1.480e+01,1.34,0.26
1.482e+01,1.34,0.26
1.484e+01,1.34,0.268
1.486e+01,1.26,0.244
1.488e+01,1.3,0.268
1.490e+01,1.26,0.276
1.492e+01,1.34,0.236
1.494e+01,1.3,0.252
1.496e+01,1.3,0.252
1.498e+01,1.3,0.252
1.500e+01,1.3,0.252
1.502e+01,1.3,0.268
1.504e+01,1.3,0.284
1.506e+01,1.3,0.26
1.508e+01,1.26,0.268
1.510e+01,1.3,0.252
1.512e+01,1.3,0.276
1.514e+01,1.3,0.268
1.516e+01,1.26,0.26
1.518e+01,1.3,0.244
1.520e+01,1.38,0.26
1.522e+01,1.3,0.244
1.524e+01,1.38,0.244
1.526e+01,1.38,0.276
1.528e+01,1.3,0.252
1.530e+01,1.26,0.268
1.532e+01,1.3,0.268
1.534e+01,1.3,0.244
1.536e+01,1.3,0.236
1.538e+01,1.3,0.252
1.540e+01,1.34,0.252
1.542e+01,1.38,0.252
1.544e+01,1.3,0.268
1.546e+01,1.38,0.26
1.548e+01,1.3,0.244
1.550e+01,1.3,0.252
1.552e+01,1.26,0.252
1.554e+01,1.34,0.26
1.556e+01,1.26,0.252
1.558e+01,1.26,0.26
1.560e+01,1.26,0.26
1.562e+01,1.3,0.228
1.564e+01,1.3,0.252
1.566e+01,1.3,0.26
1.568e+01,1.22,0.268
1.570e+01,1.3,0.268
1.572e+01,1.3,0.268
1.574e+01,1.22,0.252
1.576e+01,1.26,0.252
1.578e+01,1.3,0.268
1.580e+01,1.22,0.252
1.582e+01,1.3,0.236
1.584e+01,1.34,0.244
1.586e+01,1.34,0.252
1.588e+01,1.34,0.236
1.590e+01,1.34,0.276
1.592e+01,1.3,0.252
1.594e+01,1.34,0.268
1.596e+01,1.34,0.252
1.598e+01,1.38,0.252
1.600e+01,1.34,0.26
1.602e+01,1.22,0.268
1.604e+01,1.26,0.26
1.606e+01,1.34,0.26
1.608e+01,1.34,0.276
1.610e+01,1.3,0.268
1.612e+01,1.3,0.252
1.614e+01,1.3,0.26
1.616e+01,1.26,0.244
1.618e+01,1.34,0.252
1.620e+01,1.26,0.244
1.622e+01,1.3,0.26
1.624e+01,1.3,0.244
1.626e+01,1.26,0.244
1.628e+01,1.26,0.252
1.630e+01,1.26,0.252
1.632e+01,1.34,0.268
1.634e+01,1.22,0.252
1.636e+01,1.3,0.26
1.638e+01,1.3,0.252
1.640e+01,1.34,0.252
1.642e+01,1.38,0.244
1.644e+01,1.3,0.26
1.646e+01,1.34,0.252
1.648e+01,1.26,0.244
1.650e+01,1.3,0.252
1.652e+01,1.34,0.236
1.654e+01,1.34,0.26
1.656e+01,1.38,0.276
1.658e+01,1.34,0.276
1.660e+01,1.3,0.26
1.662e+01,1.26,0.26
1.664e+01,1.34,0.26
1.666e+01,1.3,0.268
1.668e+01,1.26,0.236
1.670e+01,1.3,0.236
1.672e+01,1.26,0.268
1.674e+01,1.26,0.252
1.676e+01,1.38,0.26
1.678e+01,1.3,0.268
1.680e+01,1.34,0.26
1.682e+01,1.3,0.26
1.684e+01,1.34,0.252
1.686e+01,1.3,0.244
1.688e+01,1.3,0.26
1.690e+01,1.26,0.252
1.692e+01,1.38,0.236
1.694e+01,1.34,0.252
1.696e+01,1.34,0.252
1.698e+01,1.38,0.244
1.700e+01,1.34,0.26
1.702e+01,1.3,0.268
1.704e+01,1.34,0.244
1.706e+01,1.3,0.268
1.708e+01,1.26,0.252
1.710e+01,1.38,0.276
1.712e+01,1.34,0.252
1.714e+01,1.34,0.268
1.716e+01,1.38,0.252
1.718e+01,1.38,0.252
1.720e+01,1.3,0.268
1.722e+01,1.22,0.244
1.724e+01,1.26,0.268
1.726e+01,1.3,0.268
1.728e+01,1.3,0.252
1.730e+01,1.38,0.268
1.732e+01,1.34,0.252
1.734e+01,1.18,0.252
1.736e+01,1.18,0.26
1.738e+01,1.14,0.244
1.740e+01,1.18,0.236
1.742e+01,1.18,0.212
1.744e+01,1.14,0.212
1.746e+01,1.14,0.236
1.748e+01,1.1,0.204
1.750e+01,1.02,0.204
1.752e+01,0.98,0.188
1.754e+01,0.94,0.188
1.756e+01,0.94,0.18
1.758e+01,0.94,0.164
1.760e+01,0.9,0.188
1.762e+01,0.82,0.18
1.764e+01,0.82,0.164
