Archivos Guadalupe/Data/1410-32-X3/18-08/tek0001ALL.csv

Model,DPO3034
Firmware Version,2.16

Point Format,Y,
Horizontal Units,S,
Horizontal Scale,2,
Sample Interval,0.02,
Record Length,1000,
Gating,0.0% to 100.0%,0.0% to 100.0%
Probe Attenuation,1,1
Vertical Units,V,V
Vertical Offset,0,0
Vertical Scale,1,0.2
Label,,
TIME,CH1,CH2
-1.480e+00,-0.1,0.02
-1.460e+00,-0.02,-0.004
-1.440e+00,-0.1,0.004
-1.420e+00,-0.02,-0.004
-1.400e+00,0.06,-0.004
-1.380e+00,0.02,-0.004
-1.360e+00,0.06,-0.004
-1.340e+00,0.02,0.012
-1.320e+00,0.06,0.004
-1.300e+00,0.06,0.004
-1.280e+00,0.02,0.012
-1.260e+00,-0.06,-0.004
-1.240e+00,-0.02,-0.012
-1.220e+00,0.02,-0.004
-1.200e+00,0.02,-0.02
-1.180e+00,-0.02,0.012
-1.160e+00,0.02,-0.004
-1.140e+00,-0.02,-0.004
-1.120e+00,-0.02,0.004
-1.100e+00,-0.06,0.012
-1.080e+00,0.02,-0.004
-1.060e+00,0.06,0.012
-1.040e+00,0.02,-0.004
-1.020e+00,-0.06,0.004
-1.000e+00,0.02,-0.004
-9.800e-01,-0.02,0.012
-9.600e-01,0.06,0.004
-9.400e-01,0.06,-0.004
-9.200e-01,-0.02,-0.004
-9.000e-01,-0.02,-0.012
-8.800e-01,-0.02,0.004
-8.600e-01,0.02,-0.004
-8.400e-01,-0.02,0.004
-8.200e-01,-0.06,0.012
-8.000e-01,0.06,0.012
-7.800e-01,0.06,0.012
-7.600e-01,-0.02,0.004
-7.400e-01,0.1,0.02
-7.200e-01,-0.02,0.02
-7.000e-01,0.02,0.02
-6.800e-01,0.18,0.012
-6.600e-01,0.06,0.036
-6.400e-01,0.18,0.02
-6.200e-01,0.14,0.028
-6.000e-01,0.14,0.012
-5.800e-01,0.14,0.028
-5.600e-01,0.18,0.028
-5.400e-01,0.22,0.028
-5.200e-01,0.14,0.02
-5.000e-01,0.14,0.036
-4.800e-01,0.22,0.068
-4.600e-01,0.3,0.028
-4.400e-01,0.22,0.06
-4.200e-01,0.26,0.06
-4.000e-01,0.26,0.044
-3.800e-01,0.18,0.044
-3.600e-01,0.26,0.06
-3.400e-01,0.34,0.036
-3.200e-01,0.26,0.052
-3.000e-01,0.34,0.052
-2.800e-01,0.3,0.06
-2.600e-01,0.38,0.052
-2.400e-01,0.34,0.068
-2.200e-01,0.3,0.068
-2.000e-01,0.42,0.092
-1.800e-01,0.42,0.068
-1.600e-01,0.42,0.06
-1.400e-01,0.38,0.076
-1.200e-01,0.46,0.076
-1.000e-01,0.5,0.068
-8.000e-02,0.46,0.092
-6.000e-02,0.42,0.06
-4.000e-02,0.5,0.06
-2.000e-02,0.5,0.052
6.176e-16,0.54,0.076
2.000e-02,0.5,0.068
4.000e-02,0.58,0.068
6.000e-02,0.58,0.1
8.000e-02,0.5,0.076
1.000e-01,0.58,0.092
1.200e-01,0.62,0.084
1.400e-01,0.58,0.076
1.600e-01,0.58,0.1
1.800e-01,0.62,0.084
2.000e-01,0.66,0.084
2.200e-01,0.62,0.108
2.400e-01,0.62,0.1
2.600e-01,0.7,0.116
2.800e-01,0.74,0.124
3.000e-01,0.66,0.116
3.200e-01,0.74,0.124
3.400e-01,0.7,0.116
3.600e-01,0.78,0.1
3.800e-01,0.82,0.092
4.000e-01,0.78,0.108
4.200e-01,0.78,0.132
4.400e-01,0.74,0.148
4.600e-01,0.78,0.14
4.800e-01,0.78,0.132
5.000e-01,0.82,0.124
5.200e-01,0.86,0.148
5.400e-01,0.82,0.132
5.600e-01,0.86,0.148
5.800e-01,0.9,0.148
6.000e-01,0.86,0.148
6.200e-01,0.9,0.156
6.400e-01,0.86,0.148
6.600e-01,0.82,0.156
6.800e-01,0.9,0.164
7.000e-01,0.86,0.14
7.200e-01,0.94,0.148
7.400e-01,0.94,0.14
7.600e-01,1.06,0.148
7.800e-01,0.98,0.164
8.000e-01,0.94,0.164
8.200e-01,1.06,0.164
8.400e-01,1.1,0.164
8.600e-01,1.1,0.18
8.800e-01,1.06,0.18
9.000e-01,1.02,0.172
9.200e-01,1.06,0.172
9.400e-01,1.06,0.18
9.600e-01,1.1,0.204
9.800e-01,1.14,0.204
1.000e+00,1.06,0.188
1.020e+00,1.1,0.18
1.040e+00,1.06,0.188
1.060e+00,1.14,0.188
1.080e+00,1.18,0.196
1.100e+00,1.18,0.18
1.120e+00,1.22,0.188
1.140e+00,1.14,0.188
1.160e+00,1.22,0.18
1.180e+00,1.14,0.196
1.200e+00,1.18,0.22
1.220e+00,1.1,0.188
1.240e+00,1.14,0.204
1.260e+00,1.14,0.252
1.280e+00,1.18,0.196
1.300e+00,1.18,0.18
1.320e+00,1.18,0.172
1.340e+00,1.22,0.18
1.360e+00,1.14,0.212
1.380e+00,1.14,0.188
1.400e+00,1.14,0.18
1.420e+00,1.22,0.188
1.440e+00,1.14,0.18
1.460e+00,1.18,0.204
1.480e+00,1.14,0.188
1.500e+00,1.1,0.196
1.520e+00,1.22,0.196
1.540e+00,1.14,0.172
1.560e+00,1.18,0.196
1.580e+00,1.14,0.196
1.600e+00,1.22,0.204
1.620e+00,1.14,0.188
1.640e+00,1.22,0.204
1.660e+00,1.18,0.204
1.680e+00,1.14,0.188
1.700e+00,1.22,0.188
1.720e+00,1.14,0.188
1.740e+00,1.22,0.196
1.760e+00,1.1,0.188
1.780e+00,1.14,0.196
1.800e+00,1.1,0.18
1.820e+00,1.14,0.188
1.840e+00,1.1,0.172
1.860e+00,1.14,0.196
1.880e+00,1.18,0.172
1.900e+00,1.06,0.188
1.920e+00,1.14,0.188
1.940e+00,1.18,0.196
1.960e+00,1.18,0.204
1.980e+00,1.14,0.18
2.000e+00,1.22,0.188
2.020e+00,1.14,0.18
2.040e+00,1.14,0.188
2.060e+00,1.22,0.196
2.080e+00,1.22,0.212
2.100e+00,1.3,0.188
2.120e+00,1.26,0.22
2.140e+00,1.34,0.22
2.160e+00,1.38,0.22
2.180e+00,1.3,0.236
2.200e+00,1.46,0.236
2.220e+00,1.34,0.244
2.240e+00,1.42,0.26
2.260e+00,1.46,0.26
2.280e+00,1.5,0.252
2.300e+00,1.58,0.252
2.320e+00,1.58,0.252
2.340e+00,1.62,0.276
2.360e+00,1.7,0.284
2.380e+00,1.7,0.292
2.400e+00,1.66,0.284
2.420e+00,1.7,0.3
2.440e+00,1.7,0.3
2.460e+00,1.82,0.332
2.480e+00,1.82,0.292
2.500e+00,1.86,0.308
2.520e+00,1.86,0.324
2.540e+00,1.86,0.34
2.560e+00,1.94,0.332
2.580e+00,1.94,0.34
2.600e+00,1.98,0.372
2.620e+00,2.06,0.34
2.640e+00,2.02,0.364
2.660e+00,2.06,0.396
2.680e+00,2.02,0.364
2.700e+00,2.14,0.356
2.720e+00,2.1,0.388
2.740e+00,2.18,0.38
2.760e+00,2.22,0.396
2.780e+00,2.26,0.388
2.800e+00,2.26,0.38
2.820e+00,2.3,0.396
2.840e+00,2.34,0.412
2.860e+00,2.38,0.412
2.880e+00,2.38,0.42
2.900e+00,2.38,0.436
2.920e+00,2.46,0.428
2.940e+00,2.46,0.428
2.960e+00,2.46,0.444
2.980e+00,2.54,0.46
3.000e+00,2.54,0.452
3.020e+00,2.58,0.468
3.040e+00,2.54,0.468
3.060e+00,2.7,0.484
3.080e+00,2.7,0.476
3.100e+00,2.74,0.492
3.120e+00,2.74,0.5
3.140e+00,2.78,0.516
3.160e+00,2.74,0.516
3.180e+00,2.74,0.492
3.200e+00,2.86,0.508
3.220e+00,2.86,0.524
3.240e+00,2.86,0.524
3.260e+00,2.94,0.58
3.280e+00,2.9,0.556
3.300e+00,3.02,0.556
3.320e+00,3.06,0.532
3.340e+00,3.02,0.564
3.360e+00,3.1,0.572
3.380e+00,3.06,0.572
3.400e+00,3.06,0.588
3.420e+00,3.14,0.58
3.440e+00,3.22,0.588
3.460e+00,3.18,0.612
3.480e+00,3.26,0.604
3.500e+00,3.22,0.612
3.520e+00,3.22,0.604
3.540e+00,3.3,0.62
3.560e+00,3.3,0.66
3.580e+00,3.38,0.652
3.600e+00,3.42,0.66
3.620e+00,3.38,0.684
3.640e+00,3.42,0.66
3.660e+00,3.46,0.684
3.680e+00,3.46,0.66
3.700e+00,3.5,0.684
3.720e+00,3.46,0.7
3.740e+00,3.54,0.716
3.760e+00,3.58,0.716
3.780e+00,3.58,0.732
3.800e+00,3.62,0.716
3.820e+00,3.66,0.732
3.840e+00,3.66,0.74
3.860e+00,3.78,0.772
3.880e+00,3.7,0.78
3.900e+00,3.74,0.788
3.920e+00,3.78,0.788
3.940e+00,3.82,0.788
3.960e+00,3.78,0.812
3.980e+00,3.82,0.788
4.000e+00,3.82,0.796
4.020e+00,3.82,0.788
4.040e+00,3.74,0.788
4.060e+00,3.78,0.812
4.080e+00,3.86,0.796
4.100e+00,3.78,0.796
4.120e+00,3.74,0.78
4.140e+00,3.74,0.804
4.160e+00,3.78,0.788
4.180e+00,3.78,0.804
4.200e+00,3.78,0.788
4.220e+00,3.86,0.804
4.240e+00,3.78,0.804
4.260e+00,3.78,0.788
4.280e+00,3.74,0.796
4.300e+00,3.78,0.788
4.320e+00,3.78,0.812
4.340e+00,3.74,0.788
4.360e+00,3.78,0.788
4.380e+00,3.7,0.82
4.400e+00,3.82,0.804
4.420e+00,3.7,0.812
4.440e+00,3.74,0.78
4.460e+00,3.82,0.812
4.480e+00,3.78,0.828
4.500e+00,3.78,0.804
4.520e+00,3.82,0.804
4.540e+00,3.78,0.804
4.560e+00,3.86,0.804
4.580e+00,3.78,0.788
4.600e+00,3.74,0.788
4.620e+00,3.7,0.804
4.640e+00,3.78,0.812
4.660e+00,3.74,0.804
4.680e+00,3.74,0.796
4.700e+00,3.7,0.836
4.720e+00,3.82,0.804
4.740e+00,3.74,0.804
4.760e+00,3.82,0.812
4.780e+00,3.78,0.804
4.800e+00,3.82,0.82
4.820e+00,3.82,0.812
4.840e+00,3.78,0.82
4.860e+00,3.74,0.812
4.880e+00,3.82,0.812
4.900e+00,3.74,0.828
4.920e+00,3.74,0.828
4.940e+00,3.78,0.812
4.960e+00,3.82,0.812
4.980e+00,3.78,0.812
5.000e+00,3.82,0.82
5.020e+00,3.74,0.788
5.040e+00,3.7,0.804
5.060e+00,3.74,0.796
5.080e+00,3.78,0.804
5.100e+00,3.82,0.812
5.120e+00,3.82,0.82
5.140e+00,3.7,0.788
5.160e+00,3.66,0.772
5.180e+00,3.82,0.804
5.200e+00,3.74,0.82
5.220e+00,3.78,0.804
5.240e+00,3.74,0.804
5.260e+00,3.78,0.828
5.280e+00,3.78,0.812
5.300e+00,3.78,0.804
5.320e+00,3.82,0.804
5.340e+00,3.78,0.812
5.360e+00,3.74,0.78
5.380e+00,3.74,0.828
5.400e+00,3.74,0.788
5.420e+00,3.82,0.812
5.440e+00,3.74,0.812
5.460e+00,3.7,0.82
5.480e+00,3.82,0.804
5.500e+00,3.82,0.828
5.520e+00,3.78,0.796
5.540e+00,3.78,0.812
5.560e+00,3.74,0.82
5.580e+00,3.82,0.82
5.600e+00,3.82,0.812
5.620e+00,3.74,0.852
5.640e+00,3.74,0.82
5.660e+00,3.74,0.828
5.680e+00,3.74,0.812
5.700e+00,3.78,0.804
5.720e+00,3.78,0.828
5.740e+00,3.82,0.82
5.760e+00,3.78,0.804
5.780e+00,3.74,0.828
5.800e+00,3.74,0.828
5.820e+00,3.78,0.788
5.840e+00,3.7,0.804
5.860e+00,3.7,0.804
5.880e+00,3.74,0.796
5.900e+00,3.7,0.796
5.920e+00,3.7,0.772
5.940e+00,3.58,0.772
5.960e+00,3.58,0.756
5.980e+00,3.54,0.748
6.000e+00,3.58,0.748
6.020e+00,3.46,0.756
6.040e+00,3.42,0.732
6.060e+00,3.46,0.74
6.080e+00,3.42,0.7
6.100e+00,3.42,0.724
6.120e+00,3.46,0.724
6.140e+00,3.38,0.7
6.160e+00,3.34,0.684
6.180e+00,3.3,0.7
6.200e+00,3.3,0.684
6.220e+00,3.3,0.684
6.240e+00,3.18,0.684
6.260e+00,3.14,0.676
6.280e+00,3.18,0.668
6.300e+00,3.1,0.652
6.320e+00,3.06,0.652
6.340e+00,3.14,0.644
6.360e+00,3.1,0.62
6.380e+00,3.06,0.628
6.400e+00,2.98,0.644
6.420e+00,2.98,0.612
6.440e+00,2.86,0.596
6.460e+00,2.86,0.612
6.480e+00,2.9,0.596
6.500e+00,2.86,0.572
6.520e+00,2.86,0.596
6.540e+00,2.78,0.556
6.560e+00,2.74,0.58
6.580e+00,2.74,0.564
6.600e+00,2.7,0.532
6.620e+00,2.7,0.556
6.640e+00,2.66,0.556
6.660e+00,2.62,0.532
6.680e+00,2.58,0.54
6.700e+00,2.58,0.516
6.720e+00,2.5,0.508
6.740e+00,2.54,0.524
6.760e+00,2.5,0.492
6.780e+00,2.46,0.492
6.800e+00,2.42,0.5
6.820e+00,2.34,0.484
6.840e+00,2.42,0.46
6.860e+00,2.38,0.476
6.880e+00,2.26,0.46
6.900e+00,2.26,0.444
6.920e+00,2.22,0.444
6.940e+00,2.22,0.444
6.960e+00,2.14,0.428
6.980e+00,2.18,0.436
7.000e+00,2.18,0.428
7.020e+00,2.1,0.428
7.040e+00,2.14,0.404
7.060e+00,2.1,0.396
7.080e+00,2.06,0.396
7.100e+00,1.94,0.388
7.120e+00,2.02,0.404
7.140e+00,1.98,0.38
7.160e+00,1.94,0.388
7.180e+00,1.94,0.388
7.200e+00,1.82,0.356
7.220e+00,1.9,0.356
7.240e+00,1.78,0.364
7.260e+00,1.78,0.364
7.280e+00,1.82,0.356
7.300e+00,1.78,0.34
7.320e+00,1.66,0.316
7.340e+00,1.66,0.276
7.360e+00,1.62,0.316
7.380e+00,1.62,0.3
7.400e+00,1.5,0.308
7.420e+00,1.46,0.3
7.440e+00,1.5,0.292
7.460e+00,1.5,0.292
7.480e+00,1.5,0.276
7.500e+00,1.42,0.268
7.520e+00,1.42,0.276
7.540e+00,1.38,0.292
7.560e+00,1.38,0.252
7.580e+00,1.34,0.244
7.600e+00,1.26,0.244
7.620e+00,1.26,0.236
7.640e+00,1.3,0.22
7.660e+00,1.26,0.236
7.680e+00,1.22,0.212
7.700e+00,1.14,0.228
7.720e+00,1.14,0.196
7.740e+00,1.14,0.212
7.760e+00,1.14,0.212
7.780e+00,1.14,0.22
7.800e+00,1.14,0.22
7.820e+00,1.1,0.204
7.840e+00,1.1,0.212
7.860e+00,1.14,0.196
7.880e+00,1.1,0.212
7.900e+00,1.14,0.196
7.920e+00,1.14,0.236
7.940e+00,1.14,0.228
7.960e+00,1.14,0.22
7.980e+00,1.14,0.22
8.000e+00,1.18,0.188
8.020e+00,1.22,0.204
8.040e+00,1.1,0.228
8.060e+00,1.14,0.22
8.080e+00,1.1,0.228
8.100e+00,1.14,0.188
8.120e+00,1.14,0.22
8.140e+00,1.18,0.228
8.160e+00,1.14,0.212
8.180e+00,1.18,0.204
8.200e+00,1.14,0.204
8.220e+00,1.14,0.212
8.240e+00,1.18,0.236
8.260e+00,1.06,0.156
8.280e+00,1.1,0.212
8.300e+00,1.1,0.204
8.320e+00,1.1,0.204
8.340e+00,1.14,0.196
8.360e+00,1.14,0.212
8.380e+00,1.14,0.212
8.400e+00,1.14,0.212
8.420e+00,1.22,0.22
8.440e+00,1.18,0.212
8.460e+00,1.14,0.22
8.480e+00,1.14,0.204
8.500e+00,1.18,0.188
8.520e+00,1.14,0.22
8.540e+00,1.18,0.212
8.560e+00,1.14,0.236
8.580e+00,1.1,0.212
8.600e+00,1.22,0.228
8.620e+00,1.1,0.212
8.640e+00,1.18,0.204
8.660e+00,1.14,0.22
8.680e+00,1.06,0.196
8.700e+00,1.14,0.204
8.720e+00,1.1,0.212
8.740e+00,1.18,0.212
8.760e+00,1.1,0.204
8.780e+00,1.1,0.204
8.800e+00,1.22,0.204
8.820e+00,1.14,0.212
8.840e+00,1.06,0.204
8.860e+00,1.22,0.196
8.880e+00,1.14,0.212
8.900e+00,1.14,0.196
8.920e+00,1.22,0.212
8.940e+00,1.14,0.204
8.960e+00,1.1,0.22
8.980e+00,1.1,0.22
9.000e+00,1.14,0.204
9.020e+00,1.14,0.196
9.040e+00,1.22,0.188
9.060e+00,1.14,0.212
9.080e+00,1.1,0.212
9.100e+00,1.14,0.22
9.120e+00,1.06,0.22
9.140e+00,1.14,0.212
9.160e+00,1.1,0.196
9.180e+00,1.1,0.22
9.200e+00,1.06,0.196
9.220e+00,1.14,0.188
9.240e+00,1.18,0.204
9.260e+00,1.14,0.212
9.280e+00,1.14,0.212
9.300e+00,1.14,0.196
9.320e+00,1.14,0.228
9.340e+00,1.1,0.22
9.360e+00,1.1,0.212
9.380e+00,1.06,0.196
9.400e+00,1.14,0.236
9.420e+00,1.18,0.228
9.440e+00,1.14,0.204
9.460e+00,1.1,0.212
9.480e+00,1.1,0.204
9.500e+00,1.18,0.204
9.520e+00,1.18,0.212
9.540e+00,1.14,0.276
9.560e+00,1.1,0.204
9.580e+00,1.1,0.212
9.600e+00,1.06,0.228
9.620e+00,1.06,0.204
9.640e+00,1.14,0.22
9.660e+00,1.18,0.22
9.680e+00,1.06,0.196
9.700e+00,1.1,0.196
9.720e+00,1.1,0.212
9.740e+00,1.22,0.228
9.760e+00,1.18,0.212
9.780e+00,1.22,0.188
9.800e+00,1.18,0.212
9.820e+00,1.18,0.212
9.840e+00,1.14,0.212
9.860e+00,1.18,0.196
9.880e+00,1.14,0.212
9.900e+00,1.14,0.212
9.920e+00,1.18,0.188
9.940e+00,1.06,0.212
9.960e+00,1.1,0.196
9.980e+00,1.18,0.244
1.000e+01,1.14,0.204
1.002e+01,1.22,0.188
1.004e+01,1.06,0.22
1.006e+01,1.14,0.196
1.008e+01,1.14,0.236
1.010e+01,1.18,0.188
1.012e+01,1.14,0.228
1.014e+01,1.14,0.204
1.016e+01,1.18,0.196
1.018e+01,1.18,0.196
1.020e+01,1.1,0.188
1.022e+01,1.22,0.212
1.024e+01,1.18,0.204
1.026e+01,1.1,0.204
1.028e+01,1.18,0.212
1.030e+01,1.14,0.196
1.032e+01,1.06,0.204
1.034e+01,1.18,0.196
1.036e+01,1.1,0.204
1.038e+01,1.18,0.212
1.040e+01,1.06,0.212
1.042e+01,1.18,0.204
1.044e+01,1.18,0.196
1.046e+01,1.14,0.204
1.048e+01,1.14,0.22
1.050e+01,1.06,0.212
1.052e+01,1.18,0.196
1.054e+01,1.14,0.22
1.056e+01,1.1,0.22
1.058e+01,1.14,0.22
1.060e+01,1.06,0.188
1.062e+01,1.14,0.204
1.064e+01,1.22,0.22
1.066e+01,1.18,0.196
1.068e+01,1.18,0.204
1.070e+01,1.14,0.204
1.072e+01,1.1,0.212
1.074e+01,1.14,0.212
1.076e+01,1.14,0.228
1.078e+01,1.1,0.212
1.080e+01,1.1,0.204
1.082e+01,1.06,0.196
1.084e+01,1.06,0.204
1.086e+01,1.1,0.204
1.088e+01,1.14,0.212
1.090e+01,1.14,0.212
1.092e+01,1.18,0.212
1.094e+01,1.14,0.22
1.096e+01,1.14,0.196
1.098e+01,1.14,0.22
1.100e+01,1.14,0.22
1.102e+01,1.18,0.212
1.104e+01,1.18,0.204
1.106e+01,1.18,0.228
1.108e+01,1.14,0.196
1.110e+01,1.14,0.196
1.112e+01,1.1,0.204
1.114e+01,1.18,0.212
1.116e+01,1.14,0.196
1.118e+01,1.14,0.22
1.120e+01,1.1,0.204
1.122e+01,1.14,0.196
1.124e+01,1.1,0.22
1.126e+01,1.18,0.22
1.128e+01,1.14,0.196
1.130e+01,1.14,0.212
1.132e+01,1.26,0.22
1.134e+01,1.14,0.212
1.136e+01,1.1,0.22
1.138e+01,1.18,0.204
1.140e+01,1.14,0.204
1.142e+01,1.1,0.22
1.144e+01,1.14,0.212
1.146e+01,1.14,0.204
1.148e+01,1.1,0.204
1.150e+01,1.1,0.212
1.152e+01,1.26,0.212
1.154e+01,1.14,0.172
1.156e+01,1.14,0.212
1.158e+01,1.18,0.204
1.160e+01,1.14,0.196
1.162e+01,1.1,0.204
1.164e+01,1.14,0.212
1.166e+01,1.14,0.228
1.168e+01,1.14,0.196
1.170e+01,1.1,0.172
1.172e+01,1.14,0.228
1.174e+01,1.22,0.212
1.176e+01,1.1,0.212
1.178e+01,1.18,0.196
1.180e+01,1.1,0.196
1.182e+01,1.06,0.196
1.184e+01,1.14,0.212
1.186e+01,1.14,0.196
1.188e+01,1.14,0.204
1.190e+01,1.18,0.204
1.192e+01,1.06,0.22
1.194e+01,1.1,0.22
1.196e+01,1.1,0.204
1.198e+01,1.18,0.22
1.200e+01,1.14,0.196
1.202e+01,1.06,0.212
1.204e+01,1.06,0.196
1.206e+01,1.14,0.22
1.208e+01,1.14,0.204
1.210e+01,1.1,0.22
1.212e+01,1.14,0.196
1.214e+01,1.14,0.212
1.216e+01,1.1,0.18
1.218e+01,1.14,0.212
1.220e+01,1.14,0.212
1.222e+01,1.14,0.212
1.224e+01,1.22,0.196
1.226e+01,1.06,0.236
1.228e+01,1.06,0.212
1.230e+01,1.1,0.204
1.232e+01,1.14,0.204
1.234e+01,1.06,0.204
1.236e+01,1.14,0.196
1.238e+01,1.14,0.204
1.240e+01,1.18,0.22
1.242e+01,1.14,0.22
1.244e+01,1.14,0.204
1.246e+01,1.18,0.188
1.248e+01,1.18,0.204
1.250e+01,1.1,0.204
1.252e+01,1.14,0.196
1.254e+01,1.1,0.204
1.256e+01,1.06,0.22
1.258e+01,1.14,0.18
1.260e+01,1.14,0.204
1.262e+01,1.1,0.196
1.264e+01,1.18,0.212
1.266e+01,1.14,0.204
1.268e+01,1.14,0.244
1.270e+01,1.14,0.196
1.272e+01,1.14,0.22
1.274e+01,1.06,0.204
1.276e+01,1.22,0.22
1.278e+01,1.18,0.22
1.280e+01,1.18,0.236
1.282e+01,1.06,0.196
1.284e+01,1.22,0.22
1.286e+01,1.18,0.188
1.288e+01,1.18,0.196
1.290e+01,1.14,0.22
1.292e+01,1.1,0.212
1.294e+01,1.1,0.212
1.296e+01,1.1,0.196
1.298e+01,1.14,0.188
1.300e+01,1.22,0.212
1.302e+01,1.18,0.204
1.304e+01,1.14,0.212
1.306e+01,1.18,0.228
1.308e+01,1.14,0.228
1.310e+01,1.18,0.204
1.312e+01,1.1,0.196
1.314e+01,1.18,0.204
1.316e+01,1.1,0.188
1.318e+01,1.14,0.196
1.320e+01,1.1,0.22
1.322e+01,1.14,0.212
1.324e+01,1.1,0.228
1.326e+01,1.18,0.18
1.328e+01,1.14,0.22
1.330e+01,1.14,0.22
1.332e+01,1.14,0.212
1.334e+01,1.14,0.212
1.336e+01,1.14,0.212
1.338e+01,1.1,0.204
1.340e+01,1.14,0.268
1.342e+01,1.14,0.204
1.344e+01,1.06,0.204
1.346e+01,1.18,0.212
1.348e+01,1.14,0.212
1.350e+01,1.22,0.22
1.352e+01,1.14,0.204
1.354e+01,1.18,0.196
1.356e+01,1.14,0.196
1.358e+01,1.1,0.204
1.360e+01,1.1,0.244
1.362e+01,1.22,0.212
1.364e+01,1.06,0.196
1.366e+01,1.14,0.22
1.368e+01,1.1,0.204
1.370e+01,1.18,0.204
1.372e+01,1.18,0.196
1.374e+01,1.14,0.212
1.376e+01,1.14,0.212
1.378e+01,1.18,0.212
1.380e+01,1.06,0.172
1.382e+01,1.06,0.228
1.384e+01,1.22,0.212
1.386e+01,1.06,0.212
1.388e+01,1.14,0.204
1.390e+01,1.14,0.212
1.392e+01,1.1,0.22
1.394e+01,1.14,0.244
1.396e+01,1.22,0.22
1.398e+01,1.18,0.204
1.400e+01,1.18,0.204
1.402e+01,1.06,0.212
1.404e+01,1.14,0.196
1.406e+01,1.14,0.22
1.408e+01,1.1,0.212
1.410e+01,1.06,0.212
1.412e+01,1.14,0.212
1.414e+01,1.14,0.22
1.416e+01,1.18,0.22
1.418e+01,1.06,0.196
1.420e+01,1.14,0.212
1.422e+01,1.18,0.212
1.424e+01,1.1,0.212
1.426e+01,1.14,0.204
1.428e+01,1.18,0.22
1.430e+01,1.18,0.196
1.432e+01,1.18,0.212
1.434e+01,1.1,0.212
1.436e+01,1.18,0.196
1.438e+01,1.14,0.228
1.440e+01,1.14,0.22
1.442e+01,1.14,0.228
1.444e+01,1.14,0.212
1.446e+01,1.14,0.228
1.448e+01,1.14,0.196
1.450e+01,1.14,0.204
1.452e+01,1.14,0.212
1.454e+01,1.18,0.228
1.456e+01,1.14,0.204
1.458e+01,1.14,0.204
1.460e+01,1.1,0.22
1.462e+01,1.1,0.212
1.464e+01,1.1,0.212
1.466e+01,1.1,0.204
1.468e+01,1.14,0.212
1.470e+01,1.06,0.22
1.472e+01,1.14,0.204
1.474e+01,1.18,0.196
1.476e+01,1.14,0.212
1.478e+01,1.06,0.204
1.480e+01,1.1,0.204
1.482e+01,1.14,0.212
1.484e+01,1.1,0.22
1.486e+01,1.22,0.196
1.488e+01,1.14,0.196
1.490e+01,1.1,0.196
1.492e+01,1.06,0.204
1.494e+01,1.14,0.212
1.496e+01,1.18,0.204
1.498e+01,1.14,0.204
1.500e+01,1.1,0.196
1.502e+01,1.14,0.228
1.504e+01,1.14,0.196
1.506e+01,1.1,0.196
1.508e+01,1.18,0.212
1.510e+01,1.14,0.196
1.512e+01,1.14,0.22
1.514e+01,1.18,0.212
1.516e+01,1.14,0.22
1.518e+01,1.1,0.22
1.520e+01,1.1,0.212
1.522e+01,1.1,0.22
1.524e+01,1.06,0.212
1.526e+01,1.14,0.204
1.528e+01,1.14,0.212
1.530e+01,1.14,0.188
1.532e+01,1.14,0.204
1.534e+01,1.1,0.212
1.536e+01,1.14,0.196
1.538e+01,1.14,0.22
1.540e+01,1.14,0.204
1.542e+01,1.1,0.22
1.544e+01,1.18,0.212
1.546e+01,1.18,0.212
1.548e+01,1.14,0.212
1.550e+01,1.14,0.196
1.552e+01,1.18,0.196
1.554e+01,1.18,0.196
1.556e+01,1.18,0.212
1.558e+01,1.14,0.204
1.560e+01,1.1,0.196
1.562e+01,1.18,0.212
1.564e+01,1.14,0.188
1.566e+01,1.18,0.212
1.568e+01,1.14,0.212
1.570e+01,1.18,0.204
1.572e+01,1.1,0.196
1.574e+01,1.18,0.188
1.576e+01,1.1,0.204
1.578e+01,1.06,0.196
1.580e+01,1.1,0.196
1.582e+01,1.06,0.188
1.584e+01,1.18,0.196
1.586e+01,1.18,0.196
1.588e+01,1.14,0.212
1.590e+01,1.14,0.204
1.592e+01,1.14,0.212
1.594e+01,1.1,0.22
1.596e+01,1.14,0.22
1.598e+01,1.14,0.204
1.600e+01,1.1,0.22
1.602e+01,1.1,0.196
1.604e+01,1.14,0.204
1.606e+01,1.14,0.212
1.608e+01,1.14,0.204
1.610e+01,1.14,0.204
1.612e+01,1.06,0.204
1.614e+01,1.06,0.212
1.616e+01,1.14,0.18
1.618e+01,1.18,0.22
1.620e+01,1.14,0.212
1.622e+01,1.14,0.196
1.624e+01,1.1,0.196
1.626e+01,1.1,0.212
1.628e+01,1.18,0.212
1.630e+01,1.18,0.196
1.632e+01,1.1,0.212
1.634e+01,1.14,0.196
1.636e+01,1.18,0.204
1.638e+01,1.1,0.22
1.640e+01,1.18,0.212
1.642e+01,1.14,0.196
1.644e+01,1.18,0.188
1.646e+01,1.1,0.204
1.648e+01,1.14,0.196
1.650e+01,1.14,0.196
1.652e+01,1.14,0.212
1.654e+01,1.18,0.196
1.656e+01,1.14,0.204
1.658e+01,1.14,0.204
1.660e+01,1.14,0.172
1.662e+01,1.14,0.204
1.664e+01,1.1,0.204
1.666e+01,1.06,0.22
1.668e+01,1.1,0.212
1.670e+01,1.14,0.204
1.672e+01,1.14,0.22
1.674e+01,1.18,0.188
1.676e+01,1.1,0.204
1.678e+01,1.14,0.212
1.680e+01,1.22,0.212
1.682e+01,1.14,0.236
1.684e+01,1.14,0.212
1.686e+01,1.1,0.212
1.688e+01,1.14,0.22
1.690e+01,1.22,0.188
1.692e+01,1.14,0.212
1.694e+01,1.18,0.204
1.696e+01,1.14,0.212
1.698e+01,1.14,0.22
1.700e+01,1.14,0.22
1.702e+01,1.18,0.22
1.704e+01,1.18,0.22
1.706e+01,1.26,0.204
1.708e+01,1.14,0.18
1.710e+01,1.06,0.188
1.712e+01,1.14,0.204
1.714e+01,1.1,0.228
1.716e+01,1.18,0.212
1.718e+01,1.1,0.172
1.720e+01,1.1,0.196
1.722e+01,1.14,0.18
1.724e+01,1.18,0.196
1.726e+01,1.06,0.212
1.728e+01,1.06,0.188
1.730e+01,1.02,0.172
1.732e+01,1.06,0.188
1.734e+01,1.02,0.188
1.736e+01,0.98,0.172
1.738e+01,0.98,0.164
1.740e+01,0.9,0.164
1.742e+01,0.94,0.18
1.744e+01,0.86,0.164
1.746e+01,0.9,0.164
1.748e+01,0.86,0.148
1.750e+01,0.82,0.156
1.752e+01,0.78,0.14
