Archivos Guadalupe/Data/1410-32-X4/19-10/D19-10/tek0003ALL.csv

Model,DPO3034
Firmware Version,2.16

Point Format,Y,
Horizontal Units,S,
Horizontal Scale,4e-05,
Sample Interval,4e-07,
Record Length,1000,
Gating,0.0% to 100.0%,0.0% to 100.0%
Probe Attenuation,1,1
Vertical Units,V,V
Vertical Offset,0,0
Vertical Scale,0.2,0.05
Label,,
TIME,CH1,CH2
-2.520e-05,0.008,0.002
-2.480e-05,0,-0.006
-2.440e-05,0,-0.002
-2.400e-05,0,-0.01
-2.360e-05,0,-0.034
-2.320e-05,0,-0.008
-2.280e-05,0,0.026
-2.240e-05,-0.016,0.02
-2.200e-05,0,0.01
-2.160e-05,0.008,0.02
-2.120e-05,0,-0.004
-2.080e-05,0,-0.006
-2.040e-05,0.024,0.018
-2.000e-05,-0.008,0.024
-1.960e-05,0.016,-0.004
-1.920e-05,0,0.02
-1.880e-05,0.008,-0.002
-1.840e-05,-0.008,0.026
-1.800e-05,0,0.016
-1.760e-05,0,-0.016
-1.720e-05,0.008,-0.016
-1.680e-05,-0.008,-0.02
-1.640e-05,0.008,-0.02
-1.600e-05,-0.008,0.01
-1.560e-05,0.008,0.016
-1.520e-05,-0.008,-0.004
-1.480e-05,0.008,-0.004
-1.440e-05,0,0.052
-1.400e-05,-0.008,-0.034
-1.360e-05,0.016,0.006
-1.320e-05,0.016,0.022
-1.280e-05,0,0.012
-1.240e-05,0,0.01
-1.200e-05,0,0.012
-1.160e-05,0,0.012
-1.120e-05,0,0.012
-1.080e-05,-0.016,-0.008
-1.040e-05,0,-0.006
-1.000e-05,0.008,0.026
-9.600e-06,0,0.006
-9.200e-06,0.024,0.008
-8.800e-06,0,0.012
-8.400e-06,0.008,0
-8.000e-06,0.016,-0.012
-7.600e-06,0.008,-0.032
-7.200e-06,0,-0.016
-6.800e-06,0,0
-6.400e-06,0,-0.006
-6.000e-06,0.008,-0.002
-5.600e-06,0.008,-0.006
-5.200e-06,0.072,0.022
-4.800e-06,0.328,0.102
-4.400e-06,0.608,0.19
-4.000e-06,0.6,0.196
-3.600e-06,0.6,0.188
-3.200e-06,0.6,0.196
-2.800e-06,0.608,0.182
-2.400e-06,0.6,0.2
-2.000e-06,0.6,0.188
-1.600e-06,0.6,0.194
-1.200e-06,0.68,0.212
-8.000e-07,0.976,0.27
-4.000e-07,1.256,0.368
-3.123e-20,1.536,0.404
4.000e-07,1.616,0.404
8.000e-07,1.616,0.404
1.200e-06,1.616,0.404
1.600e-06,1.616,0.404
2.000e-06,1.616,0.404
2.400e-06,1.616,0.404
2.800e-06,1.616,0.404
3.200e-06,1.616,0.404
3.600e-06,1.616,0.404
4.000e-06,1.616,0.404
4.400e-06,1.616,0.404
4.800e-06,1.616,0.404
5.200e-06,1.616,0.404
5.600e-06,1.368,0.35
6.000e-06,1.072,0.242
6.400e-06,0.768,0.164
6.800e-06,0.584,0.116
7.200e-06,0.592,0.104
7.600e-06,0.6,0.12
8.000e-06,0.592,0.108
8.400e-06,0.6,0.076
8.800e-06,0.608,0.118
9.200e-06,0.616,0.11
9.600e-06,0.592,0.106
1.000e-05,0.584,0.102
1.040e-05,0.584,0.106
1.080e-05,0.6,0.09
1.120e-05,0.6,0.09
1.160e-05,0.6,0.096
1.200e-05,0.592,0.1
1.240e-05,0.608,0.084
1.280e-05,0.592,0.078
1.320e-05,0.584,0.074
1.360e-05,0.608,0.102
1.400e-05,0.608,0.078
1.440e-05,0.584,0.07
1.480e-05,0.6,0.072
1.520e-05,0.6,0.072
1.560e-05,0.584,0.054
1.600e-05,0.592,0.066
1.640e-05,0.608,0.066
1.680e-05,0.592,0.072
1.720e-05,0.592,0.056
1.760e-05,0.592,0.052
1.800e-05,0.6,0.062
1.840e-05,0.608,0.074
1.880e-05,0.592,0.074
1.920e-05,0.6,0.066
1.960e-05,0.608,0.05
2.000e-05,0.608,0.068
2.040e-05,0.592,0.076
2.080e-05,0.6,0.074
2.120e-05,0.608,0.068
2.160e-05,0.6,0.092
2.200e-05,0.6,0.064
2.240e-05,0.592,0.066
2.280e-05,0.6,0.064
2.320e-05,0.6,0.07
2.360e-05,0.6,0.078
2.400e-05,0.6,0.056
2.440e-05,0.616,0.066
2.480e-05,0.584,0.064
2.520e-05,0.6,0.096
2.560e-05,0.6,0.084
2.600e-05,0.608,0.086
2.640e-05,0.608,0.056
2.680e-05,0.6,0.074
2.720e-05,0.592,0.072
2.760e-05,0.608,0.086
2.800e-05,0.592,0.092
2.840e-05,0.6,0.066
2.880e-05,0.6,0.066
2.920e-05,0.6,0.052
2.960e-05,0.592,0.038
3.000e-05,0.6,0.058
3.040e-05,0.608,0.082
3.080e-05,0.6,0.064
3.120e-05,0.592,0.05
3.160e-05,0.608,0.066
3.200e-05,0.6,0.046
3.240e-05,0.6,0.04
3.280e-05,0.6,0.092
3.320e-05,0.592,0.024
3.360e-05,0.616,0.068
3.400e-05,0.592,0.046
3.440e-05,0.592,0.058
3.480e-05,0.6,0.048
3.520e-05,0.6,0.044
3.560e-05,0.6,0.032
3.600e-05,0.608,0.04
3.640e-05,0.6,0.04
3.680e-05,0.592,0.052
3.720e-05,0.6,0.07
3.760e-05,0.584,0.054
3.800e-05,0.616,0.038
3.840e-05,0.608,0.058
3.880e-05,0.6,0.058
3.920e-05,0.592,0.048
3.960e-05,0.6,0.07
4.000e-05,0.6,0.054
4.040e-05,0.592,0.054
4.080e-05,0.6,0.06
4.120e-05,0.616,0.078
4.160e-05,0.608,0.074
4.200e-05,0.6,0.064
4.240e-05,0.592,0.054
4.280e-05,0.6,0.072
4.320e-05,0.6,0.056
4.360e-05,0.6,0.062
4.400e-05,0.6,0.058
4.440e-05,0.6,0.06
4.480e-05,0.592,0.064
4.520e-05,0.584,0.044
4.560e-05,0.608,0.072
4.600e-05,0.6,0.056
4.640e-05,0.592,0.026
4.680e-05,0.6,0.05
4.720e-05,0.6,0.052
4.760e-05,0.6,0.03
4.800e-05,0.608,0.056
4.840e-05,0.608,0.054
4.880e-05,0.616,0.06
4.920e-05,0.6,0.036
4.960e-05,0.6,0.044
5.000e-05,0.64,0.076
5.040e-05,0.592,0.038
5.080e-05,0.6,0.028
5.120e-05,0.608,0.052
5.160e-05,0.6,0.048
5.200e-05,0.6,0.052
5.240e-05,0.6,0.048
5.280e-05,0.616,0.06
5.320e-05,0.6,0.036
5.360e-05,0.6,0.058
5.400e-05,0.6,0.048
5.440e-05,0.608,0.05
5.480e-05,0.616,0.08
5.520e-05,0.608,0.07
5.560e-05,0.608,0.066
5.600e-05,0.592,0.052
5.640e-05,0.6,0.034
5.680e-05,0.608,0.09
5.720e-05,0.6,0.066
5.760e-05,0.6,0.058
5.800e-05,0.6,0.064
5.840e-05,0.6,0.044
5.880e-05,0.608,0.036
5.920e-05,0.6,0.05
5.960e-05,0.6,0.034
6.000e-05,0.6,0.032
6.040e-05,0.6,0.054
6.080e-05,0.6,0.04
6.120e-05,0.6,0.032
6.160e-05,0.608,0.05
6.200e-05,0.592,0.036
6.240e-05,0.6,0.048
6.280e-05,0.6,0.038
6.320e-05,0.6,0.036
6.360e-05,0.6,0.058
6.400e-05,0.592,0.06
6.440e-05,0.592,0.04
6.480e-05,0.6,0.07
6.520e-05,0.608,0.054
6.560e-05,0.592,0.056
6.600e-05,0.6,0.04
6.640e-05,0.592,0.06
6.680e-05,0.6,0.066
6.720e-05,0.6,0.04
6.760e-05,0.6,0.046
6.800e-05,0.6,0.038
6.840e-05,0.6,0.038
6.880e-05,0.608,0.048
6.920e-05,0.6,0.042
6.960e-05,0.608,0.03
7.000e-05,0.608,0.038
7.040e-05,0.6,0.018
7.080e-05,0.6,0.042
7.120e-05,0.592,0.066
7.160e-05,0.608,0.054
7.200e-05,0.592,0.042
7.240e-05,0.6,0.044
7.280e-05,0.6,0.026
7.320e-05,0.6,0.026
7.360e-05,0.6,0.066
7.400e-05,0.6,0.06
7.440e-05,0.592,0.052
7.480e-05,0.6,0.08
7.520e-05,0.6,0.062
7.560e-05,0.608,0.042
7.600e-05,0.616,0.058
7.640e-05,0.6,0.044
7.680e-05,0.6,0.048
7.720e-05,0.6,0.046
7.760e-05,0.592,0.052
7.800e-05,0.608,0.044
7.840e-05,0.592,0.034
7.880e-05,0.6,0.034
7.920e-05,0.6,0.032
7.960e-05,0.592,-0.004
8.000e-05,0.6,0.038
8.040e-05,0.6,0.042
8.080e-05,0.6,0.05
8.120e-05,0.6,0.032
8.160e-05,0.6,0.048
8.200e-05,0.6,0.04
8.240e-05,0.6,0.06
8.280e-05,0.6,0.03
8.320e-05,0.6,0.06
8.360e-05,0.6,0.072
8.400e-05,0.6,0.052
8.440e-05,0.6,0.052
8.480e-05,0.6,0.064
8.520e-05,0.6,0.052
8.560e-05,0.608,0.044
8.600e-05,0.608,0.048
8.640e-05,0.6,0.04
8.680e-05,0.592,0.03
8.720e-05,0.6,0.04
8.760e-05,0.6,0.048
8.800e-05,0.6,0.04
8.840e-05,0.6,0.034
8.880e-05,0.6,0.04
8.920e-05,0.616,0.046
8.960e-05,0.608,0.032
9.000e-05,0.6,0.032
9.040e-05,0.584,0.03
9.080e-05,0.616,0.036
9.120e-05,0.592,0.042
9.160e-05,0.608,0.038
9.200e-05,0.6,0.038
9.240e-05,0.608,0.046
9.280e-05,0.592,0.058
9.320e-05,0.592,0.044
9.360e-05,0.616,0.048
9.400e-05,0.592,0.052
9.440e-05,0.616,0.082
9.480e-05,0.608,0.078
9.520e-05,0.592,0.046
9.560e-05,0.6,0.038
9.600e-05,0.6,0.044
9.640e-05,0.6,0.044
9.680e-05,0.6,0.042
9.720e-05,0.6,0.056
9.760e-05,0.6,0.058
9.800e-05,0.6,0.034
9.840e-05,0.6,0.03
9.880e-05,0.608,0.058
9.920e-05,0.592,0.03
9.960e-05,0.608,0.046
1.000e-04,0.616,0.036
1.004e-04,0.592,0.028
1.008e-04,0.584,0.024
1.012e-04,0.6,0.026
1.016e-04,0.6,0.046
1.020e-04,0.6,0.046
1.024e-04,0.608,0.036
1.028e-04,0.6,0.034
1.032e-04,0.6,0.036
1.036e-04,0.592,0.046
1.040e-04,0.6,0.056
1.044e-04,0.592,0.058
1.048e-04,0.6,0.052
1.052e-04,0.616,0.05
1.056e-04,0.6,0.046
1.060e-04,0.6,0.042
1.064e-04,0.6,0.036
1.068e-04,0.616,0.076
1.072e-04,0.6,0.058
1.076e-04,0.6,0.058
1.080e-04,0.6,0.05
1.084e-04,0.592,0.016
1.088e-04,0.6,0.042
1.092e-04,0.6,0.036
1.096e-04,0.6,0.04
1.100e-04,0.608,0.04
1.104e-04,0.6,0.05
1.108e-04,0.608,0.044
1.112e-04,0.592,0.026
1.116e-04,0.608,0.032
1.120e-04,0.592,0.042
1.124e-04,0.592,0.016
1.128e-04,0.6,0.046
1.132e-04,0.608,0.036
1.136e-04,0.6,0.048
1.140e-04,0.6,0.03
1.144e-04,0.576,0.028
1.148e-04,0.608,0.042
1.152e-04,0.6,0.052
1.156e-04,0.616,0.056
1.160e-04,0.6,0.054
1.164e-04,0.584,0.024
1.168e-04,0.6,0.052
1.172e-04,0.608,0.056
1.176e-04,0.6,0.058
1.180e-04,0.6,0.032
1.184e-04,0.6,0.05
1.188e-04,0.608,0.046
1.192e-04,0.608,0.02
1.196e-04,0.6,0.02
1.200e-04,0.6,0.046
1.204e-04,0.6,0.024
1.208e-04,0.608,0.046
1.212e-04,0.608,0.032
1.216e-04,0.6,0.014
1.220e-04,0.592,0.026
1.224e-04,0.6,0.022
1.228e-04,0.6,0.014
1.232e-04,0.608,0.056
1.236e-04,0.6,0.048
1.240e-04,0.6,0.06
1.244e-04,0.6,0.056
1.248e-04,0.6,0.066
1.252e-04,0.592,0.038
1.256e-04,0.6,0.048
1.260e-04,0.6,0.026
1.264e-04,0.592,0.044
1.268e-04,0.616,0.066
1.272e-04,0.608,0.064
1.276e-04,0.6,0.038
1.280e-04,0.592,0.042
1.284e-04,0.592,0.024
1.288e-04,0.6,0.038
1.292e-04,0.6,0.042
1.296e-04,0.608,0.034
1.300e-04,0.608,0.034
1.304e-04,0.592,0.02
1.308e-04,0.616,0.052
1.312e-04,0.6,0.028
1.316e-04,0.608,0.036
1.320e-04,0.6,0.038
1.324e-04,0.608,0.026
1.328e-04,0.6,0.054
1.332e-04,0.6,0.054
1.336e-04,0.6,0.058
1.340e-04,0.608,0.06
1.344e-04,0.6,0.054
1.348e-04,0.624,0.042
1.352e-04,0.6,0.048
1.356e-04,0.6,0.042
1.360e-04,0.6,0.038
1.364e-04,0.6,0.034
1.368e-04,0.616,0.046
1.372e-04,0.584,-0.026
1.376e-04,0.608,0.036
1.380e-04,0.6,0.04
1.384e-04,0.608,0.03
1.388e-04,0.6,0.054
1.392e-04,0.6,0.022
1.396e-04,0.608,0.026
1.400e-04,0.616,0.082
1.404e-04,0.6,0.028
1.408e-04,0.608,0.048
1.412e-04,0.6,0.06
1.416e-04,0.592,0.058
1.420e-04,0.6,0.046
1.424e-04,0.6,0.056
1.428e-04,0.608,0.034
1.432e-04,0.608,0.042
1.436e-04,0.608,0.054
1.440e-04,0.616,0.048
1.444e-04,0.6,0.038
1.448e-04,0.6,0.044
1.452e-04,0.6,0.024
1.456e-04,0.608,0.03
1.460e-04,0.6,0.038
1.464e-04,0.608,0.046
1.468e-04,0.616,0.044
1.472e-04,0.6,0.024
1.476e-04,0.608,0.046
1.480e-04,0.592,0.08
1.484e-04,0.592,0.048
1.488e-04,0.6,0.042
1.492e-04,0.616,0.044
1.496e-04,0.6,0.048
1.500e-04,0.616,0.052
1.504e-04,0.608,0.054
1.508e-04,0.608,0.054
1.512e-04,0.608,0.05
1.516e-04,0.6,0.016
1.520e-04,0.6,0.034
1.524e-04,0.6,0.042
1.528e-04,0.6,0.028
1.532e-04,0.624,0.028
1.536e-04,0.6,0.042
1.540e-04,0.6,0.042
1.544e-04,0.6,0.056
1.548e-04,0.6,0.034
1.552e-04,0.584,0.042
1.556e-04,0.6,0.03
1.560e-04,0.6,0.052
1.564e-04,0.6,0.032
1.568e-04,0.6,0.072
1.572e-04,0.592,0.046
1.576e-04,0.6,0.042
1.580e-04,0.608,0.052
1.584e-04,0.6,0.04
1.588e-04,0.584,0.034
1.592e-04,0.608,0.046
1.596e-04,0.608,0.028
1.600e-04,0.592,0.042
1.604e-04,0.6,0.026
1.608e-04,0.6,0.03
1.612e-04,0.608,0.02
1.616e-04,0.6,0.044
1.620e-04,0.584,0.03
1.624e-04,0.592,0.02
1.628e-04,0.608,0.056
1.632e-04,0.584,0.058
1.636e-04,0.6,0.046
1.640e-04,0.592,0.054
1.644e-04,0.6,0.054
1.648e-04,0.6,0.052
1.652e-04,0.6,0.04
1.656e-04,0.6,0.052
1.660e-04,0.592,0.044
1.664e-04,0.6,0.034
1.668e-04,0.6,0.028
1.672e-04,0.592,0.028
1.676e-04,0.592,0.032
1.680e-04,0.6,0.056
1.684e-04,0.608,0.038
1.688e-04,0.608,0.044
1.692e-04,0.608,0.018
1.696e-04,0.584,0.026
1.700e-04,0.608,0.058
1.704e-04,0.6,0.038
1.708e-04,0.608,0.058
1.712e-04,0.592,0.05
1.716e-04,0.6,0.03
1.720e-04,0.584,0.056
1.724e-04,0.592,0.044
1.728e-04,0.616,0.048
1.732e-04,0.6,0.058
1.736e-04,0.6,0.052
1.740e-04,0.608,0.054
1.744e-04,0.6,0.046
1.748e-04,0.6,0.02
1.752e-04,0.608,0.03
1.756e-04,0.592,0.022
1.760e-04,0.6,0.012
1.764e-04,0.6,0.034
1.768e-04,0.592,0.046
1.772e-04,0.6,0.026
1.776e-04,0.608,0.024
1.780e-04,0.6,0.028
1.784e-04,0.6,0.034
1.788e-04,0.616,0.042
1.792e-04,0.6,0.038
1.796e-04,0.608,0.05
1.800e-04,0.608,0.054
1.804e-04,0.608,0.042
1.808e-04,0.592,0.044
1.812e-04,0.6,0.048
1.816e-04,0.6,0.054
1.820e-04,0.6,0.058
1.824e-04,0.6,0.054
1.828e-04,0.608,0.032
1.832e-04,0.608,0.068
1.836e-04,0.6,0.046
1.840e-04,0.6,0.04
1.844e-04,0.608,0.048
1.848e-04,0.608,0.058
1.852e-04,0.592,0.03
1.856e-04,0.6,0.03
1.860e-04,0.608,0.026
1.864e-04,0.6,0.046
1.868e-04,0.608,0.016
1.872e-04,0.616,0.058
1.876e-04,0.592,0.048
1.880e-04,0.608,0.042
1.884e-04,0.608,0.018
1.888e-04,0.6,0.036
1.892e-04,0.6,0.028
1.896e-04,0.592,0.038
1.900e-04,0.6,0.014
1.904e-04,0.592,0.032
1.908e-04,0.608,0.042
1.912e-04,0.6,0.054
1.916e-04,0.6,0.036
1.920e-04,0.6,0.048
1.924e-04,0.6,0.02
1.928e-04,0.6,0.03
1.932e-04,0.6,0.05
1.936e-04,0.6,0.07
1.940e-04,0.6,0.058
1.944e-04,0.6,0.062
1.948e-04,0.608,0.046
1.952e-04,0.592,0.056
1.956e-04,0.6,0.036
1.960e-04,0.6,0.05
1.964e-04,0.592,0.042
1.968e-04,0.608,0.052
1.972e-04,0.6,0.056
1.976e-04,0.592,0.038
1.980e-04,0.6,0.052
1.984e-04,0.608,0.054
1.988e-04,0.6,0.028
1.992e-04,0.6,0.038
1.996e-04,0.592,0.042
2.000e-04,0.6,0.042
2.004e-04,0.608,0.058
2.008e-04,0.6,0.05
2.012e-04,0.6,0.024
2.016e-04,0.616,0.052
2.020e-04,0.592,0.026
2.024e-04,0.6,0.02
2.028e-04,0.616,0.028
2.032e-04,0.6,0.046
2.036e-04,0.592,0.026
2.040e-04,0.6,0.03
2.044e-04,0.608,0.026
2.048e-04,0.584,0.032
2.052e-04,0.6,0.024
2.056e-04,0.6,0.03
2.060e-04,0.6,0.032
2.064e-04,0.616,0.066
2.068e-04,0.592,0.02
2.072e-04,0.6,0.028
2.076e-04,0.6,0.036
2.080e-04,0.608,0.056
2.084e-04,0.6,0.032
2.088e-04,0.6,0.05
2.092e-04,0.6,0.04
2.096e-04,0.6,0.054
2.100e-04,0.608,0.034
2.104e-04,0.592,0.05
2.108e-04,0.568,0.028
2.112e-04,0.6,0.036
2.116e-04,0.592,0.062
2.120e-04,0.608,0.052
2.124e-04,0.6,0.048
2.128e-04,0.576,0.048
2.132e-04,0.6,0.05
2.136e-04,0.6,0.058
2.140e-04,0.6,0.054
2.144e-04,0.592,0.036
2.148e-04,0.616,0.06
2.152e-04,0.592,0.036
2.156e-04,0.616,0.03
2.160e-04,0.592,0.024
2.164e-04,0.6,0.014
2.168e-04,0.584,0.026
2.172e-04,0.6,0.048
2.176e-04,0.608,0.04
2.180e-04,0.6,0
2.184e-04,0.6,0.028
2.188e-04,0.592,0.014
2.192e-04,0.6,0.018
2.196e-04,0.6,0.034
2.200e-04,0.6,0.042
2.204e-04,0.6,0.032
2.208e-04,0.6,0.046
2.212e-04,0.6,0.044
2.216e-04,0.6,0.06
2.220e-04,0.584,0.034
2.224e-04,0.6,0.026
2.228e-04,0.616,0.052
2.232e-04,0.6,0.058
2.236e-04,0.6,0.058
2.240e-04,0.592,0.07
2.244e-04,0.592,0.054
2.248e-04,0.6,0.048
2.252e-04,0.6,0.028
2.256e-04,0.6,0.038
2.260e-04,0.6,0.034
2.264e-04,0.6,0.066
2.268e-04,0.64,0.066
2.272e-04,0.608,0.054
2.276e-04,0.592,0.018
2.280e-04,0.6,0.032
2.284e-04,0.6,0.014
2.288e-04,0.592,0.032
2.292e-04,0.616,0.016
2.296e-04,0.584,0.016
2.300e-04,0.608,0.036
2.304e-04,0.592,0.03
2.308e-04,0.6,0.04
2.312e-04,0.592,0.032
2.316e-04,0.592,0.028
2.320e-04,0.6,0.054
2.324e-04,0.6,0.054
2.328e-04,0.6,0.046
2.332e-04,0.616,0.058
2.336e-04,0.584,0.034
2.340e-04,0.608,0.052
2.344e-04,0.6,0.062
2.348e-04,0.6,0.056
2.352e-04,0.6,0.068
2.356e-04,0.6,0.034
2.360e-04,0.6,0.036
2.364e-04,0.616,0.034
2.368e-04,0.592,0.054
2.372e-04,0.6,0.026
2.376e-04,0.608,0.038
2.380e-04,0.608,0.038
2.384e-04,0.584,0.024
2.388e-04,0.6,0.024
2.392e-04,0.6,0.022
2.396e-04,0.608,0.022
2.400e-04,0.6,0.044
2.404e-04,0.6,0.028
2.408e-04,0.608,0.038
2.412e-04,0.6,0.048
2.416e-04,0.608,0.048
2.420e-04,0.608,0.042
2.424e-04,0.592,0.052
2.428e-04,0.616,0.04
2.432e-04,0.616,0.034
2.436e-04,0.6,0.048
2.440e-04,0.608,0.066
2.444e-04,0.6,0.072
2.448e-04,0.584,0.066
2.452e-04,0.6,0.042
2.456e-04,0.608,0.034
2.460e-04,0.592,0.026
2.464e-04,0.592,0.028
2.468e-04,0.608,0.052
2.472e-04,0.6,0.048
2.476e-04,0.6,0.036
2.480e-04,0.6,0.038
2.484e-04,0.608,0.016
2.488e-04,0.592,0.004
2.492e-04,0.608,0.028
2.496e-04,0.592,0.03
2.500e-04,0.608,0.03
2.504e-04,0.6,0.036
2.508e-04,0.6,0.032
2.512e-04,0.6,0.05
2.516e-04,0.6,0.038
2.520e-04,0.616,0.036
2.524e-04,0.608,0.014
2.528e-04,0.6,0.026
2.532e-04,0.6,0.058
2.536e-04,0.576,0.052
2.540e-04,0.6,0.064
2.544e-04,0.608,0.068
2.548e-04,0.608,0.038
2.552e-04,0.6,0.052
2.556e-04,0.6,0.036
2.560e-04,0.6,0.046
2.564e-04,0.6,0.048
2.568e-04,0.584,0.036
2.572e-04,0.632,0.062
2.576e-04,0.608,0.048
2.580e-04,0.6,0.038
2.584e-04,0.592,0.034
2.588e-04,0.576,-0.01
2.592e-04,0.6,0.04
2.596e-04,0.608,0.046
2.600e-04,0.6,0.026
2.604e-04,0.592,0.026
2.608e-04,0.6,0.046
2.612e-04,0.6,0.032
2.616e-04,0.608,0.026
2.620e-04,0.6,0.028
2.624e-04,0.592,0.046
2.628e-04,0.6,0.044
2.632e-04,0.592,0.06
2.636e-04,0.616,0.032
2.640e-04,0.6,0.054
2.644e-04,0.6,0.028
2.648e-04,0.6,0.062
2.652e-04,0.608,0.058
2.656e-04,0.624,0.056
2.660e-04,0.592,0.034
2.664e-04,0.6,0.06
2.668e-04,0.6,0.026
2.672e-04,0.6,0.058
2.676e-04,0.6,0.044
2.680e-04,0.6,0.032
2.684e-04,0.6,0.028
2.688e-04,0.6,0.038
2.692e-04,0.6,0.016
2.696e-04,0.6,0.032
2.700e-04,0.6,0.024
2.704e-04,0.608,0.028
2.708e-04,0.6,0.05
2.712e-04,0.6,0.034
2.716e-04,0.6,0.042
2.720e-04,0.6,0.064
2.724e-04,0.6,0.044
2.728e-04,0.6,0.03
2.732e-04,0.6,0.054
2.736e-04,0.616,0.044
2.740e-04,0.576,0.034
2.744e-04,0.6,0.046
2.748e-04,0.568,0.026
2.752e-04,0.6,0.042
2.756e-04,0.608,0.044
2.760e-04,0.608,0.044
2.764e-04,0.616,0.042
2.768e-04,0.6,0.044
2.772e-04,0.6,0.054
2.776e-04,0.6,0.04
2.780e-04,0.616,0.032
2.784e-04,0.608,0.048
2.788e-04,0.608,0.022
2.792e-04,0.608,0.008
2.796e-04,0.616,0.038
2.800e-04,0.6,0.034
2.804e-04,0.608,0.032
2.808e-04,0.6,0.032
2.812e-04,0.6,0.04
2.816e-04,0.6,0.052
2.820e-04,0.6,0.032
2.824e-04,0.608,0.034
2.828e-04,0.6,0.038
2.832e-04,0.6,0.036
2.836e-04,0.592,0.032
2.840e-04,0.616,0.064
2.844e-04,0.616,0.056
2.848e-04,0.6,0.046
2.852e-04,0.6,0.064
2.856e-04,0.6,0.042
2.860e-04,0.6,0.038
2.864e-04,0.592,0.06
2.868e-04,0.6,0.046
2.872e-04,0.608,0.044
2.876e-04,0.6,0.044
2.880e-04,0.608,0.062
2.884e-04,0.6,0.052
2.888e-04,0.6,0.042
2.892e-04,0.6,0.02
2.896e-04,0.6,0.038
2.900e-04,0.6,0.016
2.904e-04,0.6,0.034
2.908e-04,0.592,0.008
2.912e-04,0.592,0.044
2.916e-04,0.608,0.036
2.920e-04,0.6,0.032
2.924e-04,0.6,0.022
2.928e-04,0.6,0.026
2.932e-04,0.6,0.04
2.936e-04,0.6,0.034
2.940e-04,0.608,0.042
2.944e-04,0.6,0.052
2.948e-04,0.608,0.05
2.952e-04,0.608,0.062
2.956e-04,0.6,0.048
2.960e-04,0.608,0.032
2.964e-04,0.6,0.052
2.968e-04,0.592,0.042
2.972e-04,0.608,0.042
2.976e-04,0.592,0.06
2.980e-04,0.592,0.034
2.984e-04,0.592,0.044
2.988e-04,0.608,0.044
2.992e-04,0.6,0.044
2.996e-04,0.6,0.042
3.000e-04,0.6,0.056
3.004e-04,0.6,0.048
3.008e-04,0.6,0.03
3.012e-04,0.6,0.024
3.016e-04,0.608,0.042
3.020e-04,0.6,0.034
3.024e-04,0.6,0.034
3.028e-04,0.6,0.022
3.032e-04,0.6,0.03
3.036e-04,0.6,0.03
3.040e-04,0.592,0.022
3.044e-04,0.6,0.044
3.048e-04,0.608,0.05
3.052e-04,0.6,0.014
3.056e-04,0.6,0.032
3.060e-04,0.6,0.044
3.064e-04,0.592,0.042
3.068e-04,0.64,0.128
3.072e-04,0.6,0.038
3.076e-04,0.6,0.034
3.080e-04,0.6,0.056
3.084e-04,0.592,0.05
3.088e-04,0.6,0.056
3.092e-04,0.6,0.048
3.096e-04,0.592,0.058
3.100e-04,0.616,0.06
3.104e-04,0.6,0.064
3.108e-04,0.592,0.048
3.112e-04,0.616,0.05
3.116e-04,0.6,0.052
3.120e-04,0.6,0.05
3.124e-04,0.6,0.038
3.128e-04,0.592,0.044
3.132e-04,0.6,0.036
3.136e-04,0.616,0.044
3.140e-04,0.6,0.036
3.144e-04,0.6,0.018
3.148e-04,0.608,0.042
3.152e-04,0.6,0.038
3.156e-04,0.608,0.044
3.160e-04,0.6,0.022
3.164e-04,0.608,0.024
3.168e-04,0.6,0.034
3.172e-04,0.608,0.032
3.176e-04,0.6,0.046
3.180e-04,0.6,0.022
3.184e-04,0.6,0.056
3.188e-04,0.6,0.04
3.192e-04,0.6,0.026
3.196e-04,0.608,0.048
3.200e-04,0.6,0.048
3.204e-04,0.6,0.034
3.208e-04,0.608,0.064
3.212e-04,0.6,0.064
3.216e-04,0.6,0.06
3.220e-04,0.6,0.05
3.224e-04,0.592,0.04
3.228e-04,0.584,0.008
3.232e-04,0.592,0.046
3.236e-04,0.592,0.052
3.240e-04,0.6,0.038
3.244e-04,0.6,0.05
3.248e-04,0.592,0.026
3.252e-04,0.6,0.036
3.256e-04,0.6,0.032
3.260e-04,0.6,0.02
3.264e-04,0.608,0.04
3.268e-04,0.616,0.04
3.272e-04,0.6,0.024
3.276e-04,0.6,0.04
3.280e-04,0.6,0.018
3.284e-04,0.592,0.02
3.288e-04,0.608,0.04
3.292e-04,0.6,0.026
3.296e-04,0.6,0.05
3.300e-04,0.584,0.034
3.304e-04,0.6,0.038
3.308e-04,0.608,0.046
3.312e-04,0.6,0.048
3.316e-04,0.584,0.02
3.320e-04,0.6,0.058
3.324e-04,0.592,0.054
3.328e-04,0.6,0.05
3.332e-04,0.6,0.036
3.336e-04,0.608,0.054
3.340e-04,0.6,0.04
3.344e-04,0.6,0.054
3.348e-04,0.616,0.042
3.352e-04,0.608,0.052
3.356e-04,0.592,0.02
3.360e-04,0.6,0.024
3.364e-04,0.616,0.034
3.368e-04,0.6,0.034
3.372e-04,0.6,0.022
3.376e-04,0.6,0.034
3.380e-04,0.6,0.03
3.384e-04,0.6,0.036
3.388e-04,0.6,0.024
3.392e-04,0.592,0.028
3.396e-04,0.6,0.022
3.400e-04,0.6,0.028
3.404e-04,0.6,0.04
3.408e-04,0.608,0.056
3.412e-04,0.6,0.064
3.416e-04,0.6,0.058
3.420e-04,0.6,0.048
3.424e-04,0.592,0.04
3.428e-04,0.6,0.038
3.432e-04,0.6,0.056
3.436e-04,0.6,0.036
3.440e-04,0.6,0.036
3.444e-04,0.6,0.052
3.448e-04,0.592,0.032
3.452e-04,0.6,0.026
3.456e-04,0.592,0.032
3.460e-04,0.6,0.016
3.464e-04,0.608,0.04
3.468e-04,0.584,0.032
3.472e-04,0.6,0.028
3.476e-04,0.6,0.052
3.480e-04,0.592,0.028
3.484e-04,0.576,0.016
3.488e-04,0.608,0.05
3.492e-04,0.6,0.02
3.496e-04,0.6,0.05
3.500e-04,0.608,0.044
3.504e-04,0.608,0.046
3.508e-04,0.6,0.05
3.512e-04,0.6,0.058
3.516e-04,0.592,0.04
3.520e-04,0.6,0.054
3.524e-04,0.6,0.044
3.528e-04,0.6,0.052
3.532e-04,0.592,0.056
