Archivos Guadalupe/Data/1410-32-X4/19-10/D19-10/tek0006CH1.csv

Model,DPO3034
Firmware Version,2.16

Point Format,Y
Horizontal Units,S
Horizontal Scale,4e-06
Sample Interval,4e-08
Record Length,1000
Gating,0.0% to 100.0%
Probe Attenuation,1
Vertical Units,V
Vertical Offset,0
Vertical Scale,0.2
Label,
TIME,CH1
-1.844e-05,0.024
-1.840e-05,-0.024
-1.836e-05,0.008
-1.832e-05,0.008
-1.828e-05,0.008
-1.824e-05,0
-1.820e-05,-0.024
-1.816e-05,0.016
-1.812e-05,0.016
-1.808e-05,0.008
-1.804e-05,0.008
-1.800e-05,0
-1.796e-05,0.016
-1.792e-05,-0.008
-1.788e-05,-0.016
-1.784e-05,0
-1.780e-05,0
-1.776e-05,0
-1.772e-05,-0.008
-1.768e-05,0.016
-1.764e-05,0.008
-1.760e-05,0.008
-1.756e-05,0.008
-1.752e-05,0
-1.748e-05,0
-1.744e-05,0
-1.740e-05,0.016
-1.736e-05,0.016
-1.732e-05,0.016
-1.728e-05,0.008
-1.724e-05,0
-1.720e-05,0
-1.716e-05,0
-1.712e-05,0.008
-1.708e-05,0
-1.704e-05,0.008
-1.700e-05,0.024
-1.696e-05,0.016
-1.692e-05,0.016
-1.688e-05,0
-1.684e-05,0.016
-1.680e-05,0
-1.676e-05,0.016
-1.672e-05,0.024
-1.668e-05,0.008
-1.664e-05,0
-1.660e-05,0
-1.656e-05,0.024
-1.652e-05,0.024
-1.648e-05,0.024
-1.644e-05,0.024
-1.640e-05,0.024
-1.636e-05,0.032
-1.632e-05,0.024
-1.628e-05,0.016
-1.624e-05,0.016
-1.620e-05,0.04
-1.616e-05,0.056
-1.612e-05,0.048
-1.608e-05,0.04
-1.604e-05,0.048
-1.600e-05,0.064
-1.596e-05,0.064
-1.592e-05,0.032
-1.588e-05,0.048
-1.584e-05,0.056
-1.580e-05,0.08
-1.576e-05,0.072
-1.572e-05,0.064
-1.568e-05,0.064
-1.564e-05,0.08
-1.560e-05,0.072
-1.556e-05,0.08
-1.552e-05,0.08
-1.548e-05,0.064
-1.544e-05,0.072
-1.540e-05,0.072
-1.536e-05,0.088
-1.532e-05,0.08
-1.528e-05,0.096
-1.524e-05,0.08
-1.520e-05,0.08
-1.516e-05,0.088
-1.512e-05,0.096
-1.508e-05,0.08
-1.504e-05,0.08
-1.500e-05,0.104
-1.496e-05,0.104
-1.492e-05,0.104
-1.488e-05,0.104
-1.484e-05,0.096
-1.480e-05,0.096
-1.476e-05,0.104
-1.472e-05,0.096
-1.468e-05,0.104
-1.464e-05,0.12
-1.460e-05,0.104
-1.456e-05,0.112
-1.452e-05,0.128
-1.448e-05,0.12
-1.444e-05,0.112
-1.440e-05,0.112
-1.436e-05,0.12
-1.432e-05,0.144
-1.428e-05,0.136
-1.424e-05,0.144
-1.420e-05,0.152
-1.416e-05,0.136
-1.412e-05,0.128
-1.408e-05,0.136
-1.404e-05,0.136
-1.400e-05,0.144
-1.396e-05,0.16
-1.392e-05,0.152
-1.388e-05,0.16
-1.384e-05,0.152
-1.380e-05,0.152
-1.376e-05,0.16
-1.372e-05,0.168
-1.368e-05,0.144
-1.364e-05,0.152
-1.360e-05,0.168
-1.356e-05,0.168
-1.352e-05,0.192
-1.348e-05,0.16
-1.344e-05,0.176
-1.340e-05,0.184
-1.336e-05,0.168
-1.332e-05,0.176
-1.328e-05,0.2
-1.324e-05,0.184
-1.320e-05,0.184
-1.316e-05,0.2
-1.312e-05,0.176
-1.308e-05,0.192
-1.304e-05,0.2
-1.300e-05,0.208
-1.296e-05,0.2
-1.292e-05,0.2
-1.288e-05,0.208
-1.284e-05,0.2
-1.280e-05,0.184
-1.276e-05,0.224
-1.272e-05,0.272
-1.268e-05,0.216
-1.264e-05,0.144
-1.260e-05,0.184
-1.256e-05,0.208
-1.252e-05,0.224
-1.248e-05,0.216
-1.244e-05,0.192
-1.240e-05,0.232
-1.236e-05,0.256
-1.232e-05,0.248
-1.228e-05,0.24
-1.224e-05,0.224
-1.220e-05,0.24
-1.216e-05,0.24
-1.212e-05,0.248
-1.208e-05,0.256
-1.204e-05,0.272
-1.200e-05,0.248
-1.196e-05,0.248
-1.192e-05,0.248
-1.188e-05,0.248
-1.184e-05,0.248
-1.180e-05,0.248
-1.176e-05,0.272
-1.172e-05,0.28
-1.168e-05,0.272
-1.164e-05,0.272
-1.160e-05,0.28
-1.156e-05,0.28
-1.152e-05,0.264
-1.148e-05,0.256
-1.144e-05,0.28
-1.140e-05,0.296
-1.136e-05,0.296
-1.132e-05,0.272
-1.128e-05,0.28
-1.124e-05,0.28
-1.120e-05,0.304
-1.116e-05,0.296
-1.112e-05,0.28
-1.108e-05,0.288
-1.104e-05,0.304
-1.100e-05,0.304
-1.096e-05,0.336
-1.092e-05,0.312
-1.088e-05,0.312
-1.084e-05,0.32
-1.080e-05,0.328
-1.076e-05,0.32
-1.072e-05,0.312
-1.068e-05,0.304
-1.064e-05,0.296
-1.060e-05,0.304
-1.056e-05,0.304
-1.052e-05,0.32
-1.048e-05,0.312
-1.044e-05,0.32
-1.040e-05,0.312
-1.036e-05,0.304
-1.032e-05,0.32
-1.028e-05,0.312
-1.024e-05,0.32
-1.020e-05,0.32
-1.016e-05,0.312
-1.012e-05,0.32
-1.008e-05,0.328
-1.004e-05,0.32
-1.000e-05,0.312
-9.960e-06,0.32
-9.920e-06,0.32
-9.880e-06,0.312
-9.840e-06,0.312
-9.800e-06,0.312
-9.760e-06,0.304
-9.720e-06,0.304
-9.680e-06,0.32
-9.640e-06,0.304
-9.600e-06,0.312
-9.560e-06,0.304
-9.520e-06,0.304
-9.480e-06,0.32
-9.440e-06,0.312
-9.400e-06,0.312
-9.360e-06,0.312
-9.320e-06,0.312
-9.280e-06,0.296
-9.240e-06,0.304
-9.200e-06,0.312
-9.160e-06,0.32
-9.120e-06,0.304
-9.080e-06,0.312
-9.040e-06,0.312
-9.000e-06,0.32
-8.960e-06,0.296
-8.920e-06,0.312
-8.880e-06,0.32
-8.840e-06,0.312
-8.800e-06,0.304
-8.760e-06,0.304
-8.720e-06,0.296
-8.680e-06,0.312
-8.640e-06,0.312
-8.600e-06,0.312
-8.560e-06,0.312
-8.520e-06,0.312
-8.480e-06,0.32
-8.440e-06,0.312
-8.400e-06,0.296
-8.360e-06,0.312
-8.320e-06,0.32
-8.280e-06,0.312
-8.240e-06,0.288
-8.200e-06,0.312
-8.160e-06,0.296
-8.120e-06,0.296
-8.080e-06,0.312
-8.040e-06,0.304
-8.000e-06,0.304
-7.960e-06,0.304
-7.920e-06,0.32
-7.880e-06,0.288
-7.840e-06,0.312
-7.800e-06,0.312
-7.760e-06,0.296
-7.720e-06,0.304
-7.680e-06,0.32
-7.640e-06,0.304
-7.600e-06,0.32
-7.560e-06,0.32
-7.520e-06,0.312
-7.480e-06,0.312
-7.440e-06,0.312
-7.400e-06,0.312
-7.360e-06,0.328
-7.320e-06,0.312
-7.280e-06,0.312
-7.240e-06,0.296
-7.200e-06,0.304
-7.160e-06,0.312
-7.120e-06,0.312
-7.080e-06,0.296
-7.040e-06,0.312
-7.000e-06,0.32
-6.960e-06,0.32
-6.920e-06,0.312
-6.880e-06,0.312
-6.840e-06,0.32
-6.800e-06,0.304
-6.760e-06,0.304
-6.720e-06,0.32
-6.680e-06,0.296
-6.640e-06,0.312
-6.600e-06,0.304
-6.560e-06,0.296
-6.520e-06,0.296
-6.480e-06,0.32
-6.440e-06,0.312
-6.400e-06,0.304
-6.360e-06,0.312
-6.320e-06,0.304
-6.280e-06,0.296
-6.240e-06,0.296
-6.200e-06,0.312
-6.160e-06,0.296
-6.120e-06,0.312
-6.080e-06,0.32
-6.040e-06,0.304
-6.000e-06,0.32
-5.960e-06,0.288
-5.920e-06,0.304
-5.880e-06,0.304
-5.840e-06,0.32
-5.800e-06,0.32
-5.760e-06,0.32
-5.720e-06,0.312
-5.680e-06,0.312
-5.640e-06,0.312
-5.600e-06,0.296
-5.560e-06,0.312
-5.520e-06,0.328
-5.480e-06,0.32
-5.440e-06,0.32
-5.400e-06,0.32
-5.360e-06,0.304
-5.320e-06,0.312
-5.280e-06,0.304
-5.240e-06,0.288
-5.200e-06,0.32
-5.160e-06,0.312
-5.120e-06,0.312
-5.080e-06,0.304
-5.040e-06,0.312
-5.000e-06,0.304
-4.960e-06,0.312
-4.920e-06,0.304
-4.880e-06,0.312
-4.840e-06,0.328
-4.800e-06,0.296
-4.760e-06,0.296
-4.720e-06,0.304
-4.680e-06,0.312
-4.640e-06,0.312
-4.600e-06,0.28
-4.560e-06,0.304
-4.520e-06,0.352
-4.480e-06,0.312
-4.440e-06,0.352
-4.400e-06,0.328
-4.360e-06,0.352
-4.320e-06,0.352
-4.280e-06,0.36
-4.240e-06,0.384
-4.200e-06,0.352
-4.160e-06,0.352
-4.120e-06,0.352
-4.080e-06,0.392
-4.040e-06,0.4
-4.000e-06,0.392
-3.960e-06,0.408
-3.920e-06,0.416
-3.880e-06,0.4
-3.840e-06,0.4
-3.800e-06,0.368
-3.760e-06,0.408
-3.720e-06,0.392
-3.680e-06,0.408
-3.640e-06,0.432
-3.600e-06,0.44
-3.560e-06,0.44
-3.520e-06,0.44
-3.480e-06,0.44
-3.440e-06,0.44
-3.400e-06,0.432
-3.360e-06,0.448
-3.320e-06,0.48
-3.280e-06,0.488
-3.240e-06,0.472
-3.200e-06,0.496
-3.160e-06,0.488
-3.120e-06,0.496
-3.080e-06,0.472
-3.040e-06,0.472
-3.000e-06,0.48
-2.960e-06,0.504
-2.920e-06,0.536
-2.880e-06,0.52
-2.840e-06,0.544
-2.800e-06,0.552
-2.760e-06,0.528
-2.720e-06,0.52
-2.680e-06,0.528
-2.640e-06,0.552
-2.600e-06,0.56
-2.560e-06,0.552
-2.520e-06,0.584
-2.480e-06,0.568
-2.440e-06,0.584
-2.400e-06,0.584
-2.360e-06,0.552
-2.320e-06,0.592
-2.280e-06,0.576
-2.240e-06,0.592
-2.200e-06,0.624
-2.160e-06,0.64
-2.120e-06,0.624
-2.080e-06,0.6
-2.040e-06,0.624
-2.000e-06,0.624
-1.960e-06,0.616
-1.920e-06,0.616
-1.880e-06,0.632
-1.840e-06,0.664
-1.800e-06,0.656
-1.760e-06,0.648
-1.720e-06,0.664
-1.680e-06,0.664
-1.640e-06,0.656
-1.600e-06,0.656
-1.560e-06,0.672
-1.520e-06,0.664
-1.480e-06,0.704
-1.440e-06,0.704
-1.400e-06,0.696
-1.360e-06,0.696
-1.320e-06,0.704
-1.280e-06,0.704
-1.240e-06,0.712
-1.200e-06,0.72
-1.160e-06,0.704
-1.120e-06,0.72
-1.080e-06,0.736
-1.040e-06,0.736
-1.000e-06,0.76
-9.600e-07,0.744
-9.200e-07,0.736
-8.800e-07,0.744
-8.400e-07,0.768
-8.000e-07,0.768
-7.600e-07,0.784
-7.200e-07,0.808
-6.800e-07,0.776
-6.400e-07,0.824
-6.000e-07,0.808
-5.600e-07,0.776
-5.200e-07,0.8
-4.800e-07,0.784
-4.400e-07,0.784
-4.000e-07,0.84
-3.600e-07,0.832
-3.200e-07,0.84
-2.800e-07,0.84
-2.400e-07,0.832
-2.000e-07,0.84
-1.600e-07,0.84
-1.200e-07,0.848
-8.000e-08,0.832
-4.000e-08,0.88
-1.361e-19,0.872
4.000e-08,0.864
8.000e-08,0.872
1.200e-07,0.896
1.600e-07,0.896
2.000e-07,0.888
2.400e-07,0.888
2.800e-07,0.88
3.200e-07,0.92
3.600e-07,0.92
4.000e-07,0.904
4.400e-07,0.936
4.800e-07,0.92
5.200e-07,0.92
5.600e-07,0.92
6.000e-07,0.936
6.400e-07,0.936
6.800e-07,0.976
7.200e-07,0.968
7.600e-07,0.968
8.000e-07,0.976
8.400e-07,0.96
8.800e-07,0.96
9.200e-07,0.976
9.600e-07,0.968
1.000e-06,0.96
1.040e-06,0.984
1.080e-06,1.016
1.120e-06,1.024
1.160e-06,1.008
1.200e-06,1.024
1.240e-06,1.008
1.280e-06,1.016
1.320e-06,1.024
1.360e-06,1.024
1.400e-06,1.024
1.440e-06,1.016
1.480e-06,1
1.520e-06,1.024
1.560e-06,1.016
1.600e-06,1.016
1.640e-06,1.024
1.680e-06,1.016
1.720e-06,1.016
1.760e-06,1.008
1.800e-06,1.032
1.840e-06,1.016
1.880e-06,1.008
1.920e-06,1.024
1.960e-06,1.016
2.000e-06,1.024
2.040e-06,1.024
2.080e-06,1.008
2.120e-06,1.024
2.160e-06,1.016
2.200e-06,1.008
2.240e-06,1.024
2.280e-06,1.024
2.320e-06,1.024
2.360e-06,1.016
2.400e-06,1.016
2.440e-06,1.008
2.480e-06,1.024
2.520e-06,1.024
2.560e-06,1.016
2.600e-06,1.016
2.640e-06,1.008
2.680e-06,1.008
2.720e-06,1.016
2.760e-06,1.032
2.800e-06,1.024
2.840e-06,1.024
2.880e-06,1.016
2.920e-06,0.984
2.960e-06,1.008
3.000e-06,1.024
3.040e-06,1
3.080e-06,1.008
3.120e-06,1.008
3.160e-06,1.032
3.200e-06,1.008
3.240e-06,1
3.280e-06,1
3.320e-06,1.008
3.360e-06,1.032
3.400e-06,1.008
3.440e-06,0.992
3.480e-06,0.992
3.520e-06,1.032
3.560e-06,1.056
3.600e-06,1.008
3.640e-06,0.992
3.680e-06,1.008
3.720e-06,1.024
3.760e-06,1.024
3.800e-06,1.016
3.840e-06,1
3.880e-06,1
3.920e-06,1.016
3.960e-06,1.024
4.000e-06,1.008
4.040e-06,1.008
4.080e-06,1
4.120e-06,0.992
4.160e-06,1.016
4.200e-06,1.032
4.240e-06,1.008
4.280e-06,1.016
4.320e-06,1.024
4.360e-06,1.016
4.400e-06,1.016
4.440e-06,1
4.480e-06,1
4.520e-06,1.008
4.560e-06,1.008
4.600e-06,1
4.640e-06,1.024
4.680e-06,1.008
4.720e-06,1
4.760e-06,0.992
4.800e-06,1
4.840e-06,1.024
4.880e-06,1.016
4.920e-06,1.016
4.960e-06,1.008
5.000e-06,1
5.040e-06,1.016
5.080e-06,1
5.120e-06,1.016
5.160e-06,1.008
5.200e-06,1.016
5.240e-06,1.024
5.280e-06,1.024
5.320e-06,1.008
5.360e-06,1.024
5.400e-06,1.024
5.440e-06,1
5.480e-06,1.016
5.520e-06,1.016
5.560e-06,1.008
5.600e-06,1.024
5.640e-06,1.016
5.680e-06,1
5.720e-06,1.016
5.760e-06,1.016
5.800e-06,1.016
5.840e-06,1.008
5.880e-06,1.024
5.920e-06,1.008
5.960e-06,0.992
6.000e-06,1.024
6.040e-06,1.016
6.080e-06,1.016
6.120e-06,1.008
6.160e-06,1
6.200e-06,1.008
6.240e-06,1.024
6.280e-06,0.992
6.320e-06,1.008
6.360e-06,1.008
6.400e-06,1.016
6.440e-06,1.024
6.480e-06,1.016
6.520e-06,1
6.560e-06,1.024
6.600e-06,1.008
6.640e-06,1.008
6.680e-06,1.008
6.720e-06,1.016
6.760e-06,1.016
6.800e-06,1.008
6.840e-06,1.016
6.880e-06,1.016
6.920e-06,1.016
6.960e-06,1.016
7.000e-06,1.016
7.040e-06,1.016
7.080e-06,1.016
7.120e-06,1.008
7.160e-06,1.016
7.200e-06,1.024
7.240e-06,1.008
7.280e-06,1.016
7.320e-06,1.008
7.360e-06,1.016
7.400e-06,1.008
7.440e-06,1.008
7.480e-06,1.016
7.520e-06,1.008
7.560e-06,1.016
7.600e-06,1
7.640e-06,0.968
7.680e-06,0.968
7.720e-06,0.976
7.760e-06,0.976
7.800e-06,0.976
7.840e-06,0.976
7.880e-06,0.952
7.920e-06,0.96
7.960e-06,0.952
8.000e-06,0.96
8.040e-06,0.928
8.080e-06,0.896
8.120e-06,0.92
8.160e-06,0.928
8.200e-06,0.928
8.240e-06,0.912
8.280e-06,0.92
8.320e-06,0.928
8.360e-06,0.92
8.400e-06,0.888
8.440e-06,0.88
8.480e-06,0.888
8.520e-06,0.888
8.560e-06,0.864
8.600e-06,0.872
8.640e-06,0.872
8.680e-06,0.88
8.720e-06,0.888
8.760e-06,0.848
8.800e-06,0.832
8.840e-06,0.856
8.880e-06,0.832
8.920e-06,0.816
8.960e-06,0.816
9.000e-06,0.84
9.040e-06,0.832
9.080e-06,0.84
9.120e-06,0.784
9.160e-06,0.792
9.200e-06,0.808
9.240e-06,0.8
9.280e-06,0.792
9.320e-06,0.792
9.360e-06,0.792
9.400e-06,0.792
9.440e-06,0.8
9.480e-06,0.736
9.520e-06,0.76
9.560e-06,0.752
9.600e-06,0.752
9.640e-06,0.744
9.680e-06,0.744
9.720e-06,0.744
9.760e-06,0.736
9.800e-06,0.736
9.840e-06,0.712
9.880e-06,0.704
9.920e-06,0.696
9.960e-06,0.712
1.000e-05,0.664
1.004e-05,0.688
1.008e-05,0.72
1.012e-05,0.68
1.016e-05,0.704
1.020e-05,0.664
1.024e-05,0.664
1.028e-05,0.64
1.032e-05,0.656
1.036e-05,0.648
1.040e-05,0.648
1.044e-05,0.648
1.048e-05,0.648
1.052e-05,0.664
1.056e-05,0.656
1.060e-05,0.632
1.064e-05,0.608
1.068e-05,0.624
1.072e-05,0.608
1.076e-05,0.608
1.080e-05,0.616
1.084e-05,0.6
1.088e-05,0.608
1.092e-05,0.616
1.096e-05,0.56
1.100e-05,0.576
1.104e-05,0.56
1.108e-05,0.56
1.112e-05,0.568
1.116e-05,0.568
1.120e-05,0.592
1.124e-05,0.544
1.128e-05,0.568
1.132e-05,0.552
1.136e-05,0.536
1.140e-05,0.56
1.144e-05,0.504
1.148e-05,0.528
1.152e-05,0.52
1.156e-05,0.528
1.160e-05,0.528
1.164e-05,0.528
1.168e-05,0.488
1.172e-05,0.48
1.176e-05,0.504
1.180e-05,0.472
1.184e-05,0.456
1.188e-05,0.456
1.192e-05,0.488
1.196e-05,0.488
1.200e-05,0.472
1.204e-05,0.448
1.208e-05,0.44
1.212e-05,0.44
1.216e-05,0.448
1.220e-05,0.432
1.224e-05,0.456
1.228e-05,0.432
1.232e-05,0.432
1.236e-05,0.44
1.240e-05,0.408
1.244e-05,0.408
1.248e-05,0.4
1.252e-05,0.4
1.256e-05,0.384
1.260e-05,0.4
1.264e-05,0.392
1.268e-05,0.4
1.272e-05,0.4
1.276e-05,0.392
1.280e-05,0.352
1.284e-05,0.344
1.288e-05,0.352
1.292e-05,0.344
1.296e-05,0.344
1.300e-05,0.344
1.304e-05,0.352
1.308e-05,0.344
1.312e-05,0.336
1.316e-05,0.304
1.320e-05,0.344
1.324e-05,0.28
1.328e-05,0.296
1.332e-05,0.328
1.336e-05,0.296
1.340e-05,0.304
1.344e-05,0.296
1.348e-05,0.288
1.352e-05,0.304
1.356e-05,0.304
1.360e-05,0.296
1.364e-05,0.296
1.368e-05,0.304
1.372e-05,0.312
1.376e-05,0.296
1.380e-05,0.296
1.384e-05,0.296
1.388e-05,0.328
1.392e-05,0.288
1.396e-05,0.28
1.400e-05,0.304
1.404e-05,0.312
1.408e-05,0.296
1.412e-05,0.312
1.416e-05,0.304
1.420e-05,0.312
1.424e-05,0.296
1.428e-05,0.328
1.432e-05,0.296
1.436e-05,0.288
1.440e-05,0.312
1.444e-05,0.32
1.448e-05,0.312
1.452e-05,0.312
1.456e-05,0.304
1.460e-05,0.304
1.464e-05,0.304
1.468e-05,0.32
1.472e-05,0.32
1.476e-05,0.32
1.480e-05,0.304
1.484e-05,0.304
1.488e-05,0.304
1.492e-05,0.312
1.496e-05,0.304
1.500e-05,0.304
1.504e-05,0.312
1.508e-05,0.296
1.512e-05,0.304
1.516e-05,0.288
1.520e-05,0.312
1.524e-05,0.304
1.528e-05,0.304
1.532e-05,0.304
1.536e-05,0.296
1.540e-05,0.304
1.544e-05,0.304
1.548e-05,0.304
1.552e-05,0.288
1.556e-05,0.32
1.560e-05,0.304
1.564e-05,0.312
1.568e-05,0.296
1.572e-05,0.296
1.576e-05,0.312
1.580e-05,0.304
1.584e-05,0.296
1.588e-05,0.312
1.592e-05,0.304
1.596e-05,0.312
1.600e-05,0.32
1.604e-05,0.296
1.608e-05,0.304
1.612e-05,0.312
1.616e-05,0.312
1.620e-05,0.312
1.624e-05,0.296
1.628e-05,0.32
1.632e-05,0.312
1.636e-05,0.312
1.640e-05,0.296
1.644e-05,0.304
1.648e-05,0.296
1.652e-05,0.32
1.656e-05,0.304
1.660e-05,0.312
1.664e-05,0.296
1.668e-05,0.296
1.672e-05,0.296
1.676e-05,0.312
1.680e-05,0.312
1.684e-05,0.296
1.688e-05,0.296
1.692e-05,0.304
1.696e-05,0.304
1.700e-05,0.312
1.704e-05,0.312
1.708e-05,0.304
1.712e-05,0.312
1.716e-05,0.304
1.720e-05,0.296
1.724e-05,0.304
1.728e-05,0.304
1.732e-05,0.312
1.736e-05,0.312
1.740e-05,0.304
1.744e-05,0.296
1.748e-05,0.304
1.752e-05,0.312
1.756e-05,0.304
1.760e-05,0.312
1.764e-05,0.304
1.768e-05,0.312
1.772e-05,0.304
1.776e-05,0.304
1.780e-05,0.304
1.784e-05,0.304
1.788e-05,0.304
1.792e-05,0.32
1.796e-05,0.304
1.800e-05,0.304
1.804e-05,0.288
1.808e-05,0.304
1.812e-05,0.304
1.816e-05,0.304
1.820e-05,0.296
1.824e-05,0.312
1.828e-05,0.312
1.832e-05,0.32
1.836e-05,0.296
1.840e-05,0.296
1.844e-05,0.296
1.848e-05,0.296
1.852e-05,0.304
1.856e-05,0.312
1.860e-05,0.304
1.864e-05,0.304
1.868e-05,0.328
1.872e-05,0.296
1.876e-05,0.304
1.880e-05,0.312
1.884e-05,0.312
1.888e-05,0.312
1.892e-05,0.328
1.896e-05,0.304
1.900e-05,0.304
1.904e-05,0.304
1.908e-05,0.304
1.912e-05,0.312
1.916e-05,0.288
1.920e-05,0.304
1.924e-05,0.304
1.928e-05,0.304
1.932e-05,0.312
1.936e-05,0.28
1.940e-05,0.32
1.944e-05,0.368
1.948e-05,0.336
1.952e-05,0.256
1.956e-05,0.28
1.960e-05,0.312
1.964e-05,0.312
1.968e-05,0.328
1.972e-05,0.296
1.976e-05,0.32
1.980e-05,0.312
1.984e-05,0.296
1.988e-05,0.296
1.992e-05,0.304
1.996e-05,0.32
2.000e-05,0.296
2.004e-05,0.32
2.008e-05,0.312
2.012e-05,0.312
2.016e-05,0.304
2.020e-05,0.296
2.024e-05,0.304
2.028e-05,0.32
2.032e-05,0.32
2.036e-05,0.304
2.040e-05,0.32
2.044e-05,0.304
2.048e-05,0.304
2.052e-05,0.296
2.056e-05,0.312
2.060e-05,0.328
2.064e-05,0.32
2.068e-05,0.312
2.072e-05,0.312
2.076e-05,0.312
2.080e-05,0.304
2.084e-05,0.304
2.088e-05,0.312
2.092e-05,0.312
2.096e-05,0.312
2.100e-05,0.304
2.104e-05,0.32
2.108e-05,0.304
2.112e-05,0.32
2.116e-05,0.312
2.120e-05,0.312
2.124e-05,0.32
2.128e-05,0.312
2.132e-05,0.32
2.136e-05,0.304
2.140e-05,0.304
2.144e-05,0.312
2.148e-05,0.304
2.152e-05,0.304

