Archivos Guadalupe/Data/1410-32-X4/19-10/D19-10/tek0002ALL.csv

Model,DPO3034
Firmware Version,2.16

Point Format,Y,
Horizontal Units,S,
Horizontal Scale,4e-05,
Sample Interval,4e-07,
Record Length,1000,
Gating,0.0% to 100.0%,0.0% to 100.0%
Probe Attenuation,1,1
Vertical Units,V,V
Vertical Offset,0,0
Vertical Scale,0.5,0.2
Label,,
TIME,CH1,CH2
-1.480e-05,0.02,0.008
-1.440e-05,0,0
-1.400e-05,0.02,0
-1.360e-05,0.02,0.016
-1.320e-05,0,0.008
-1.280e-05,0,0
-1.240e-05,0.04,0.016
-1.200e-05,0.06,0.024
-1.160e-05,0,0.04
-1.120e-05,0,0.016
-1.080e-05,-0.02,0.024
-1.040e-05,-0.02,0.008
-1.000e-05,0,-0.016
-9.600e-06,-0.04,0.008
-9.200e-06,0,0.024
-8.800e-06,0.06,0.024
-8.400e-06,0.02,0
-8.000e-06,0,-0.008
-7.600e-06,0.04,0
-7.200e-06,0.02,0.024
-6.800e-06,0.04,-0.008
-6.400e-06,0,-0.008
-6.000e-06,-0.02,0.008
-5.600e-06,0.1,-0.008
-5.200e-06,0.32,0.088
-4.800e-06,0.56,0.184
-4.400e-06,0.62,0.192
-4.000e-06,0.6,0.216
-3.600e-06,0.62,0.192
-3.200e-06,0.58,0.16
-2.800e-06,0.6,0.168
-2.400e-06,0.62,0.184
-2.000e-06,0.62,0.176
-1.600e-06,0.68,0.2
-1.200e-06,0.94,0.272
-8.000e-07,1.22,0.344
-4.000e-07,1.5,0.424
-1.091e-20,1.82,0.488
4.000e-07,2.02,0.576
8.000e-07,1.98,0.52
1.200e-06,2.02,0.52
1.600e-06,2,0.504
2.000e-06,2.02,0.488
2.400e-06,2.02,0.496
2.800e-06,2.02,0.472
3.200e-06,2.02,0.448
3.600e-06,2,0.488
4.000e-06,2.02,0.448
4.400e-06,1.94,0.44
4.800e-06,1.66,0.344
5.200e-06,1.4,0.248
5.600e-06,1.14,0.144
6.000e-06,0.84,0.064
6.400e-06,0.6,-0.032
6.800e-06,0.6,-0.016
7.200e-06,0.6,-0.008
7.600e-06,0.6,-0.024
8.000e-06,0.6,0
8.400e-06,0.56,-0.016
8.800e-06,0.6,-0.048
9.200e-06,0.58,-0.016
9.600e-06,0.6,-0.008
1.000e-05,0.6,-0.008
1.040e-05,0.62,-0.016
1.080e-05,0.56,-0.024
1.120e-05,0.58,-0.008
1.160e-05,0.6,-0.008
1.200e-05,0.64,-0.016
1.240e-05,0.6,-0.024
1.280e-05,0.58,-0.024
1.320e-05,0.6,-0.032
1.360e-05,0.6,-0.008
1.400e-05,0.58,0
1.440e-05,0.6,0.008
1.480e-05,0.62,0.016
1.520e-05,0.6,0
1.560e-05,0.6,0.016
1.600e-05,0.6,0.008
1.640e-05,0.62,0.024
1.680e-05,0.64,0.016
1.720e-05,0.6,0.016
1.760e-05,0.58,0.032
1.800e-05,0.64,0.024
1.840e-05,0.62,0.008
1.880e-05,0.6,0.04
1.920e-05,0.62,0
1.960e-05,0.6,0
2.000e-05,0.56,-0.008
2.040e-05,0.6,0.008
2.080e-05,0.62,0.008
2.120e-05,0.6,-0.008
2.160e-05,0.6,0.008
2.200e-05,0.58,0.024
2.240e-05,0.64,0.008
2.280e-05,0.6,-0.008
2.320e-05,0.56,-0.04
2.360e-05,0.6,-0.008
2.400e-05,0.6,0.032
2.440e-05,0.58,0.016
2.480e-05,0.58,0.024
2.520e-05,0.6,0.024
2.560e-05,0.6,0.024
2.600e-05,0.64,0.016
2.640e-05,0.62,0.016
2.680e-05,0.58,0.016
2.720e-05,0.62,0.024
2.760e-05,0.64,0.024
2.800e-05,0.62,0.032
2.840e-05,0.62,0.064
2.880e-05,0.62,0.024
2.920e-05,0.58,0.016
2.960e-05,0.6,0.016
3.000e-05,0.62,0
3.040e-05,0.58,0.016
3.080e-05,0.64,0.024
3.120e-05,0.6,0.024
3.160e-05,0.6,0.024
3.200e-05,0.58,0
3.240e-05,0.62,-0.016
3.280e-05,0.6,0
3.320e-05,0.62,0.024
3.360e-05,0.58,0.016
3.400e-05,0.6,0.016
3.440e-05,0.6,0.032
3.480e-05,0.6,0.016
3.520e-05,0.58,0.024
3.560e-05,0.58,0.048
3.600e-05,0.6,0.032
3.640e-05,0.6,0.016
3.680e-05,0.6,0.032
3.720e-05,0.6,0.024
3.760e-05,0.64,0.048
3.800e-05,0.62,0.032
3.840e-05,0.6,0.04
3.880e-05,0.6,0.008
3.920e-05,0.64,0.024
3.960e-05,0.62,0.008
4.000e-05,0.6,0.024
4.040e-05,0.6,0.032
4.080e-05,0.64,0
4.120e-05,0.62,0.024
4.160e-05,0.62,0.032
4.200e-05,0.6,0.024
4.240e-05,0.58,0.024
4.280e-05,0.62,0.056
4.320e-05,0.64,0.016
4.360e-05,0.6,0
4.400e-05,0.64,0.016
4.440e-05,0.58,0.056
4.480e-05,0.58,0.024
4.520e-05,0.62,0.048
4.560e-05,0.62,0.04
4.600e-05,0.62,0.024
4.640e-05,0.62,0.016
4.680e-05,0.62,0.024
4.720e-05,0.58,0.056
4.760e-05,0.6,0.056
4.800e-05,0.6,0.04
4.840e-05,0.6,0.032
4.880e-05,0.64,0.032
4.920e-05,0.62,0.032
4.960e-05,0.6,0.016
5.000e-05,0.62,0.024
5.040e-05,0.58,0.024
5.080e-05,0.6,0.008
5.120e-05,0.62,0.032
5.160e-05,0.62,0.008
5.200e-05,0.58,0.016
5.240e-05,0.62,0.04
5.280e-05,0.6,0.008
5.320e-05,0.62,0.008
5.360e-05,0.62,0.008
5.400e-05,0.62,0.024
5.440e-05,0.64,0.024
5.480e-05,0.62,0.04
5.520e-05,0.6,0.04
5.560e-05,0.58,0.024
5.600e-05,0.6,0.016
5.640e-05,0.58,0.016
5.680e-05,0.6,0.032
5.720e-05,0.64,0.016
5.760e-05,0.62,0.032
5.800e-05,0.62,0.04
5.840e-05,0.64,0.024
5.880e-05,0.6,0.016
5.920e-05,0.62,0.056
5.960e-05,0.6,0.008
6.000e-05,0.58,0.008
6.040e-05,0.6,0.024
6.080e-05,0.62,0.032
6.120e-05,0.62,0.032
6.160e-05,0.62,0.032
6.200e-05,0.62,0.024
6.240e-05,0.62,0
6.280e-05,0.6,0.008
6.320e-05,0.58,0.016
6.360e-05,0.62,0.024
6.400e-05,0.62,0.04
6.440e-05,0.62,0.048
6.480e-05,0.58,0
6.520e-05,0.6,0.032
6.560e-05,0.58,0.024
6.600e-05,0.6,0.032
6.640e-05,0.6,0.032
6.680e-05,0.6,0.04
6.720e-05,0.6,0.032
6.760e-05,0.62,0.04
6.800e-05,0.58,0.04
6.840e-05,0.6,0.056
6.880e-05,0.6,0.032
6.920e-05,0.58,0.024
6.960e-05,0.62,0.016
7.000e-05,0.6,0.032
7.040e-05,0.62,0.04
7.080e-05,0.62,0.032
7.120e-05,0.6,0.024
7.160e-05,0.58,0
7.200e-05,0.6,0.016
7.240e-05,0.62,0.016
7.280e-05,0.58,0
7.320e-05,0.64,0.032
7.360e-05,0.6,0.04
7.400e-05,0.62,0.024
7.440e-05,0.6,0.024
7.480e-05,0.58,0.024
7.520e-05,0.6,0.032
7.560e-05,0.6,0.024
7.600e-05,0.62,0.056
7.640e-05,0.64,0.024
7.680e-05,0.58,0.032
7.720e-05,0.6,0.032
7.760e-05,0.62,0.032
7.800e-05,0.6,0.04
7.840e-05,0.58,0.04
7.880e-05,0.6,0.008
7.920e-05,0.62,0.016
7.960e-05,0.62,0
8.000e-05,0.6,0.016
8.040e-05,0.6,0.032
8.080e-05,0.62,-0.024
8.120e-05,0.6,0.04
8.160e-05,0.6,0.032
8.200e-05,0.58,0.016
8.240e-05,0.6,0.024
8.280e-05,0.58,0.016
8.320e-05,0.6,0.032
8.360e-05,0.62,0.024
8.400e-05,0.62,0.024
8.440e-05,0.6,0.016
8.480e-05,0.64,0.04
8.520e-05,0.6,0.04
8.560e-05,0.6,0.048
8.600e-05,0.64,0.064
8.640e-05,0.58,0.056
8.680e-05,0.62,0.024
8.720e-05,0.62,0.048
8.760e-05,0.58,0.024
8.800e-05,0.62,0.032
8.840e-05,0.62,0.032
8.880e-05,0.58,0.04
8.920e-05,0.6,0.032
8.960e-05,0.62,0.008
9.000e-05,0.58,0.056
9.040e-05,0.58,0
9.080e-05,0.62,0.016
9.120e-05,0.58,0.024
9.160e-05,0.62,0.024
9.200e-05,0.56,0.024
9.240e-05,0.6,0.024
9.280e-05,0.62,0.008
9.320e-05,0.58,0.016
9.360e-05,0.62,0.024
9.400e-05,0.58,0.016
9.440e-05,0.6,0.032
9.480e-05,0.58,0.04
9.520e-05,0.62,0.024
9.560e-05,0.6,0.008
9.600e-05,0.58,0.04
9.640e-05,0.62,0.024
9.680e-05,0.58,0.024
9.720e-05,0.64,0.024
9.760e-05,0.62,0.048
9.800e-05,0.62,0.048
9.840e-05,0.62,0.024
9.880e-05,0.6,0.024
9.920e-05,0.64,0.032
9.960e-05,0.6,0.04
1.000e-04,0.6,0.008
1.004e-04,0.64,0.016
1.008e-04,0.64,0.016
1.012e-04,0.6,0.024
1.016e-04,0.58,0.024
1.020e-04,0.58,0
1.024e-04,0.62,0
1.028e-04,0.64,0.024
1.032e-04,0.62,0.024
1.036e-04,0.62,0.04
1.040e-04,0.6,0.04
1.044e-04,0.62,0.016
1.048e-04,0.62,0.04
1.052e-04,0.62,0.04
1.056e-04,0.6,0.024
1.060e-04,0.62,0.032
1.064e-04,0.58,0.04
1.068e-04,0.58,0.024
1.072e-04,0.6,0.032
1.076e-04,0.62,0.024
1.080e-04,0.58,0.032
1.084e-04,0.62,0.032
1.088e-04,0.62,0.032
1.092e-04,0.58,0.008
1.096e-04,0.64,0.016
1.100e-04,0.58,0.04
1.104e-04,0.56,0.016
1.108e-04,0.6,0.008
1.112e-04,0.58,0.016
1.116e-04,0.6,0.024
1.120e-04,0.58,0
1.124e-04,0.58,0.032
1.128e-04,0.6,0
1.132e-04,0.6,0.04
1.136e-04,0.6,0.048
1.140e-04,0.62,0.016
1.144e-04,0.64,0.032
1.148e-04,0.6,0.064
1.152e-04,0.6,0.056
1.156e-04,0.58,0.04
1.160e-04,0.58,0.024
1.164e-04,0.64,0.048
1.168e-04,0.58,0.032
1.172e-04,0.62,0.008
1.176e-04,0.62,0.04
1.180e-04,0.58,0.024
1.184e-04,0.6,0.024
1.188e-04,0.6,0.016
1.192e-04,0.6,0.008
1.196e-04,0.62,0.008
1.200e-04,0.58,0.04
1.204e-04,0.58,0.04
1.208e-04,0.56,0.008
1.212e-04,0.62,0.016
1.216e-04,0.6,0.008
1.220e-04,0.6,0.024
1.224e-04,0.62,0.032
1.228e-04,0.58,0.032
1.232e-04,0.64,0.04
1.236e-04,0.62,0.032
1.240e-04,0.62,0.024
1.244e-04,0.64,0.04
1.248e-04,0.62,0.048
1.252e-04,0.64,0.016
1.256e-04,0.6,0.024
1.260e-04,0.6,0.04
1.264e-04,0.62,0.032
1.268e-04,0.62,0.032
1.272e-04,0.58,0.048
1.276e-04,0.6,0.056
1.280e-04,0.6,0.024
1.284e-04,0.58,0.032
1.288e-04,0.66,0.112
1.292e-04,0.62,0.016
1.296e-04,0.58,0.024
1.300e-04,0.6,0.024
1.304e-04,0.62,0.024
1.308e-04,0.62,0
1.312e-04,0.62,0.016
1.316e-04,0.62,0.016
1.320e-04,0.62,0.008
1.324e-04,0.62,0.024
1.328e-04,0.64,0.008
1.332e-04,0.58,0.024
1.336e-04,0.6,0.024
1.340e-04,0.62,0.04
1.344e-04,0.58,0.04
1.348e-04,0.64,0.032
1.352e-04,0.6,0.032
1.356e-04,0.58,0.024
1.360e-04,0.6,0.04
1.364e-04,0.62,0.032
1.368e-04,0.58,0.024
1.372e-04,0.62,0.048
1.376e-04,0.6,0.04
1.380e-04,0.6,0.04
1.384e-04,0.6,0.04
1.388e-04,0.62,0.024
1.392e-04,0.58,0.016
1.396e-04,0.62,0.008
1.400e-04,0.6,0.016
1.404e-04,0.58,0.032
1.408e-04,0.62,0.024
1.412e-04,0.58,0.016
1.416e-04,0.58,0.016
1.420e-04,0.6,0.032
1.424e-04,0.6,0.024
1.428e-04,0.62,0.008
1.432e-04,0.62,0.032
1.436e-04,0.6,0.04
1.440e-04,0.6,0.032
1.444e-04,0.62,0.024
1.448e-04,0.58,0
1.452e-04,0.6,0.024
1.456e-04,0.62,0.048
1.460e-04,0.58,0.056
1.464e-04,0.64,0.056
1.468e-04,0.58,0.024
1.472e-04,0.6,0
1.476e-04,0.6,0.016
1.480e-04,0.64,0.056
1.484e-04,0.62,0.016
1.488e-04,0.62,0.032
1.492e-04,0.58,0.016
1.496e-04,0.6,0.016
1.500e-04,0.62,0.016
1.504e-04,0.6,0.016
1.508e-04,0.6,0.024
1.512e-04,0.58,0.024
1.516e-04,0.58,0.016
1.520e-04,0.64,0.016
1.524e-04,0.58,0.008
1.528e-04,0.58,0.016
1.532e-04,0.6,0.04
1.536e-04,0.62,0.024
1.540e-04,0.62,0.032
1.544e-04,0.6,0.04
1.548e-04,0.62,0.032
1.552e-04,0.58,0.024
1.556e-04,0.62,0.04
1.560e-04,0.62,0.032
1.564e-04,0.6,0.032
1.568e-04,0.58,0.024
1.572e-04,0.6,0.024
1.576e-04,0.54,0.016
1.580e-04,0.6,0.024
1.584e-04,0.6,0.024
1.588e-04,0.62,-0.008
1.592e-04,0.62,0.008
1.596e-04,0.58,0.04
1.600e-04,0.6,0.024
1.604e-04,0.56,-0.008
1.608e-04,0.6,0.008
1.612e-04,0.58,0.024
1.616e-04,0.62,0.04
1.620e-04,0.6,0.04
1.624e-04,0.58,0.016
1.628e-04,0.64,0.016
1.632e-04,0.58,0.008
1.636e-04,0.62,0.056
1.640e-04,0.6,0.032
1.644e-04,0.62,0.024
1.648e-04,0.6,0.016
1.652e-04,0.62,0.04
1.656e-04,0.62,0.032
1.660e-04,0.62,0.016
1.664e-04,0.6,0.032
1.668e-04,0.64,0.056
1.672e-04,0.6,0.024
1.676e-04,0.6,0.032
1.680e-04,0.6,0.008
1.684e-04,0.6,0
1.688e-04,0.58,0
1.692e-04,0.6,-0.008
1.696e-04,0.6,0.032
1.700e-04,0.6,0.032
1.704e-04,0.6,0.024
1.708e-04,0.58,0.008
1.712e-04,0.58,0.016
1.716e-04,0.62,0.016
1.720e-04,0.62,0.016
1.724e-04,0.62,0.04
1.728e-04,0.62,0.016
1.732e-04,0.58,0.032
1.736e-04,0.62,0.04
1.740e-04,0.62,0.032
1.744e-04,0.62,0.04
1.748e-04,0.6,0.04
1.752e-04,0.62,0.048
1.756e-04,0.6,0.032
1.760e-04,0.6,0.024
1.764e-04,0.58,0.032
1.768e-04,0.6,0
1.772e-04,0.62,0.008
1.776e-04,0.58,0.032
1.780e-04,0.58,0.008
1.784e-04,0.64,0.024
1.788e-04,0.58,-0.04
1.792e-04,0.58,0.016
1.796e-04,0.62,0.024
1.800e-04,0.62,0.016
1.804e-04,0.58,0.016
1.808e-04,0.64,0.04
1.812e-04,0.62,0.016
1.816e-04,0.56,0
1.820e-04,0.64,0.024
1.824e-04,0.6,0.032
1.828e-04,0.6,0.016
1.832e-04,0.6,0.04
1.836e-04,0.62,0.08
1.840e-04,0.6,0.016
1.844e-04,0.6,0.048
1.848e-04,0.62,0.032
1.852e-04,0.62,0.056
1.856e-04,0.62,0.016
1.860e-04,0.6,0.032
1.864e-04,0.6,0.024
1.868e-04,0.58,0.024
1.872e-04,0.58,0.032
1.876e-04,0.58,0.008
1.880e-04,0.6,0.04
1.884e-04,0.62,0.008
1.888e-04,0.6,0.008
1.892e-04,0.6,0.008
1.896e-04,0.58,0.016
1.900e-04,0.6,0.024
1.904e-04,0.58,0.032
1.908e-04,0.64,0.024
1.912e-04,0.62,0.016
1.916e-04,0.64,0.024
1.920e-04,0.58,0.016
1.924e-04,0.6,0.016
1.928e-04,0.62,0.024
1.932e-04,0.6,0.04
1.936e-04,0.58,0.048
1.940e-04,0.62,0.048
1.944e-04,0.6,0.024
1.948e-04,0.62,0.04
1.952e-04,0.62,0.032
1.956e-04,0.62,0.016
1.960e-04,0.58,0.032
1.964e-04,0.62,0.032
1.968e-04,0.62,0.032
1.972e-04,0.6,0.024
1.976e-04,0.62,0.04
1.980e-04,0.58,0.024
1.984e-04,0.62,0.016
1.988e-04,0.6,0.008
1.992e-04,0.6,0.008
1.996e-04,0.62,0.008
2.000e-04,0.62,0.024
2.004e-04,0.62,0.032
2.008e-04,0.62,0.032
2.012e-04,0.62,0.008
2.016e-04,0.6,0.016
2.020e-04,0.6,0.008
2.024e-04,0.62,0.032
2.028e-04,0.6,0.024
2.032e-04,0.64,0.072
2.036e-04,0.6,0.048
2.040e-04,0.6,0.04
2.044e-04,0.62,0.032
2.048e-04,0.62,0.04
2.052e-04,0.6,0.024
2.056e-04,0.58,0.032
2.060e-04,0.66,0.032
2.064e-04,0.62,0.024
2.068e-04,0.6,0.016
2.072e-04,0.54,0
2.076e-04,0.6,0
2.080e-04,0.6,0.016
2.084e-04,0.62,0.016
2.088e-04,0.58,0.016
2.092e-04,0.7,0.032
2.096e-04,0.62,0.048
2.100e-04,0.62,0.024
2.104e-04,0.58,0.032
2.108e-04,0.62,0.024
2.112e-04,0.58,0.024
2.116e-04,0.6,0.024
2.120e-04,0.64,0.024
2.124e-04,0.62,0.024
2.128e-04,0.6,0.048
2.132e-04,0.62,0.04
2.136e-04,0.6,0.032
2.140e-04,0.58,0.024
2.144e-04,0.6,0.024
2.148e-04,0.6,0.024
2.152e-04,0.56,0.032
2.156e-04,0.58,0.016
2.160e-04,0.62,0.024
2.164e-04,0.6,0.024
2.168e-04,0.58,0.016
2.172e-04,0.6,0.024
2.176e-04,0.62,0.008
2.180e-04,0.62,0.008
2.184e-04,0.6,0.024
2.188e-04,0.62,0.016
2.192e-04,0.6,0.008
2.196e-04,0.58,0.024
2.200e-04,0.6,0.024
2.204e-04,0.62,0.024
2.208e-04,0.6,0.032
2.212e-04,0.6,0.032
2.216e-04,0.58,0.032
2.220e-04,0.6,0.032
2.224e-04,0.58,0.032
2.228e-04,0.62,0.048
2.232e-04,0.62,0.032
2.236e-04,0.62,0.04
2.240e-04,0.62,0.04
2.244e-04,0.62,0.064
2.248e-04,0.6,0.024
2.252e-04,0.6,0.048
2.256e-04,0.6,0
2.260e-04,0.6,0.024
2.264e-04,0.6,0.008
2.268e-04,0.62,0.04
2.272e-04,0.64,0.008
2.276e-04,0.62,0.024
2.280e-04,0.58,0.024
2.284e-04,0.6,0.016
2.288e-04,0.62,0.024
2.292e-04,0.6,0.024
2.296e-04,0.6,0.04
2.300e-04,0.6,0.024
2.304e-04,0.58,0.032
2.308e-04,0.6,0.016
2.312e-04,0.58,0.024
2.316e-04,0.64,0.04
2.320e-04,0.6,0.04
2.324e-04,0.62,0.032
2.328e-04,0.62,0.04
2.332e-04,0.6,0.008
2.336e-04,0.6,0.048
2.340e-04,0.6,0.064
2.344e-04,0.6,0.04
2.348e-04,0.6,0.032
2.352e-04,0.58,0.008
2.356e-04,0.6,0.024
2.360e-04,0.6,0.032
2.364e-04,0.62,0.04
2.368e-04,0.6,0.024
2.372e-04,0.6,0.024
2.376e-04,0.6,0.008
2.380e-04,0.6,0.008
2.384e-04,0.58,0.016
2.388e-04,0.58,0.008
2.392e-04,0.6,0.008
2.396e-04,0.58,-0.008
2.400e-04,0.62,0.024
2.404e-04,0.6,0.008
2.408e-04,0.6,0.04
2.412e-04,0.58,-0.024
2.416e-04,0.62,0.056
2.420e-04,0.6,0.008
2.424e-04,0.62,0.016
2.428e-04,0.6,0.04
2.432e-04,0.58,0.032
2.436e-04,0.58,0.056
2.440e-04,0.58,0.032
2.444e-04,0.6,0.024
2.448e-04,0.62,0.016
2.452e-04,0.6,0.024
2.456e-04,0.58,0.016
2.460e-04,0.62,0.032
2.464e-04,0.62,0.024
2.468e-04,0.62,0.056
2.472e-04,0.62,0.024
2.476e-04,0.62,0.008
2.480e-04,0.62,0.008
2.484e-04,0.58,0.032
2.488e-04,0.62,0.016
2.492e-04,0.64,0.024
2.496e-04,0.6,0.04
2.500e-04,0.62,0.032
2.504e-04,0.62,0.024
2.508e-04,0.6,0.032
2.512e-04,0.58,0.024
2.516e-04,0.64,0.024
2.520e-04,0.6,0.024
2.524e-04,0.58,0.016
2.528e-04,0.58,0.04
2.532e-04,0.58,0.056
2.536e-04,0.6,0.032
2.540e-04,0.62,0.032
2.544e-04,0.6,0.016
2.548e-04,0.6,0.032
2.552e-04,0.56,0.024
2.556e-04,0.62,0.04
2.560e-04,0.6,0
2.564e-04,0.64,0.024
2.568e-04,0.62,0.04
2.572e-04,0.54,0.032
2.576e-04,0.58,0.016
2.580e-04,0.62,0.008
2.584e-04,0.6,0.016
2.588e-04,0.62,-0.016
2.592e-04,0.62,0.008
2.596e-04,0.6,0.04
2.600e-04,0.56,0.024
2.604e-04,0.64,0.016
2.608e-04,0.62,0.056
2.612e-04,0.62,0.024
2.616e-04,0.58,0.04
2.620e-04,0.58,0.024
2.624e-04,0.6,0.024
2.628e-04,0.6,0.04
2.632e-04,0.62,0.032
2.636e-04,0.64,0.024
2.640e-04,0.62,0.04
2.644e-04,0.58,0.048
2.648e-04,0.6,0.032
2.652e-04,0.62,0.024
2.656e-04,0.62,0.024
2.660e-04,0.62,0.016
2.664e-04,0.62,0.04
2.668e-04,0.58,0.04
2.672e-04,0.6,0.016
2.676e-04,0.6,0.024
2.680e-04,0.6,0.016
2.684e-04,0.6,-0.008
2.688e-04,0.6,0.008
2.692e-04,0.62,0.032
2.696e-04,0.6,0.04
2.700e-04,0.64,0.032
2.704e-04,0.62,0.032
2.708e-04,0.58,0.016
2.712e-04,0.62,0.024
2.716e-04,0.58,0.04
2.720e-04,0.58,0.024
2.724e-04,0.6,0.032
2.728e-04,0.62,0.032
2.732e-04,0.56,-0.008
2.736e-04,0.58,0.056
2.740e-04,0.58,0.048
2.744e-04,0.58,0.04
2.748e-04,0.62,0.016
2.752e-04,0.62,0.048
2.756e-04,0.6,0.008
2.760e-04,0.62,0.016
2.764e-04,0.64,0.016
2.768e-04,0.62,0.04
2.772e-04,0.6,0.016
2.776e-04,0.64,0.032
2.780e-04,0.62,0.016
2.784e-04,0.62,0.024
2.788e-04,0.6,0.024
2.792e-04,0.6,0.016
2.796e-04,0.62,0.008
2.800e-04,0.58,-0.008
2.804e-04,0.62,0.056
2.808e-04,0.58,0.04
2.812e-04,0.58,0.032
2.816e-04,0.62,0.04
2.820e-04,0.62,0.008
2.824e-04,0.62,0.016
2.828e-04,0.62,0.032
2.832e-04,0.62,0.04
2.836e-04,0.58,0.056
2.840e-04,0.58,0.04
2.844e-04,0.6,0.04
2.848e-04,0.6,0.032
2.852e-04,0.62,0.032
2.856e-04,0.58,-0.016
2.860e-04,0.62,0.016
2.864e-04,0.62,0.032
2.868e-04,0.6,0.016
2.872e-04,0.62,0.032
2.876e-04,0.62,0.032
2.880e-04,0.62,0.04
2.884e-04,0.58,0.016
2.888e-04,0.6,0.008
2.892e-04,0.6,0.008
2.896e-04,0.62,0.024
2.900e-04,0.62,0.016
2.904e-04,0.62,0.04
2.908e-04,0.62,0.032
2.912e-04,0.58,0.024
2.916e-04,0.6,0.032
2.920e-04,0.62,0.032
2.924e-04,0.6,0.048
2.928e-04,0.62,0.04
2.932e-04,0.6,0.032
2.936e-04,0.62,0.032
2.940e-04,0.58,0.024
2.944e-04,0.6,0.048
2.948e-04,0.58,0.04
2.952e-04,0.6,0.024
2.956e-04,0.56,0
2.960e-04,0.6,0.008
2.964e-04,0.62,0.024
2.968e-04,0.58,0.024
2.972e-04,0.64,0.032
2.976e-04,0.62,0.024
2.980e-04,0.6,0.032
2.984e-04,0.6,0.008
2.988e-04,0.6,0.008
2.992e-04,0.62,0.024
2.996e-04,0.62,0.024
3.000e-04,0.6,0.016
3.004e-04,0.62,0.032
3.008e-04,0.6,0.032
3.012e-04,0.6,0.024
3.016e-04,0.6,0.032
3.020e-04,0.56,0.048
3.024e-04,0.58,0.024
3.028e-04,0.56,0.048
3.032e-04,0.6,0.04
3.036e-04,0.6,0.056
3.040e-04,0.6,0.056
3.044e-04,0.6,0.048
3.048e-04,0.6,0.016
3.052e-04,0.6,-0.016
3.056e-04,0.62,0.024
3.060e-04,0.58,0.016
3.064e-04,0.58,0.024
3.068e-04,0.62,0.032
3.072e-04,0.58,0.024
3.076e-04,0.62,0.008
3.080e-04,0.6,0.008
3.084e-04,0.62,-0.008
3.088e-04,0.64,0.016
3.092e-04,0.58,0.032
3.096e-04,0.6,0.056
3.100e-04,0.58,0.032
3.104e-04,0.58,0.024
3.108e-04,0.6,0.016
3.112e-04,0.6,0.024
3.116e-04,0.62,0.064
3.120e-04,0.58,-0.008
3.124e-04,0.62,0.032
3.128e-04,0.6,0.024
3.132e-04,0.62,0.04
3.136e-04,0.6,0.056
3.140e-04,0.62,0.04
3.144e-04,0.62,0.064
3.148e-04,0.62,0.008
3.152e-04,0.62,0.008
3.156e-04,0.6,0.008
3.160e-04,0.58,0.016
3.164e-04,0.64,0.04
3.168e-04,0.64,0.04
3.172e-04,0.6,0.016
3.176e-04,0.56,0.008
3.180e-04,0.62,0.008
3.184e-04,0.64,0.032
3.188e-04,0.6,0.016
3.192e-04,0.62,0.016
3.196e-04,0.62,0.04
3.200e-04,0.6,0.024
3.204e-04,0.62,0.024
3.208e-04,0.62,0.032
3.212e-04,0.6,0.024
3.216e-04,0.6,0.04
3.220e-04,0.62,0.032
3.224e-04,0.62,0.032
3.228e-04,0.6,0.04
3.232e-04,0.56,0.016
3.236e-04,0.62,0.04
3.240e-04,0.62,0.048
3.244e-04,0.62,0.048
3.248e-04,0.64,0.008
3.252e-04,0.6,0.008
3.256e-04,0.6,0.016
3.260e-04,0.58,0.032
3.264e-04,0.58,0.024
3.268e-04,0.64,0.032
3.272e-04,0.6,0.024
3.276e-04,0.6,0.016
3.280e-04,0.6,0.04
3.284e-04,0.62,0.016
3.288e-04,0.58,0.008
3.292e-04,0.64,0.024
3.296e-04,0.64,0.032
3.300e-04,0.6,0.008
3.304e-04,0.58,0.064
3.308e-04,0.58,0.048
3.312e-04,0.62,0.04
3.316e-04,0.58,0.016
3.320e-04,0.62,0.032
3.324e-04,0.6,0
3.328e-04,0.6,0.024
3.332e-04,0.62,0.04
3.336e-04,0.6,0.04
3.340e-04,0.58,0.008
3.344e-04,0.6,0.04
3.348e-04,0.62,0.008
3.352e-04,0.6,0.016
3.356e-04,0.62,0.016
3.360e-04,0.58,0.024
3.364e-04,0.58,0.008
3.368e-04,0.64,0.032
3.372e-04,0.6,0.04
3.376e-04,0.62,0.016
3.380e-04,0.62,0.032
3.384e-04,0.62,0
3.388e-04,0.58,0.008
3.392e-04,0.58,0
3.396e-04,0.64,0.04
3.400e-04,0.58,0.048
3.404e-04,0.6,0.016
3.408e-04,0.62,0.04
3.412e-04,0.6,0.04
3.416e-04,0.58,0.032
3.420e-04,0.6,0.032
3.424e-04,0.6,0.032
3.428e-04,0.6,0.008
3.432e-04,0.58,0.04
3.436e-04,0.62,0.04
3.440e-04,0.64,0
3.444e-04,0.58,0.04
3.448e-04,0.6,0.032
3.452e-04,0.6,0.016
3.456e-04,0.62,0
3.460e-04,0.6,0
3.464e-04,0.58,0.008
3.468e-04,0.6,0.016
3.472e-04,0.62,0.056
3.476e-04,0.6,0.024
3.480e-04,0.62,0.008
3.484e-04,0.62,0.016
3.488e-04,0.58,0.008
3.492e-04,0.6,0.024
3.496e-04,0.58,0.04
3.500e-04,0.62,0.024
3.504e-04,0.58,0.04
3.508e-04,0.6,0.032
3.512e-04,0.6,0.024
3.516e-04,0.62,0.056
3.520e-04,0.58,0.024
3.524e-04,0.62,0.016
3.528e-04,0.62,0.048
3.532e-04,0.6,0.016
3.536e-04,0.6,0.008
3.540e-04,0.62,0.032
3.544e-04,0.6,0.04
3.548e-04,0.58,0.032
3.552e-04,0.6,0.016
3.556e-04,0.58,0.024
3.560e-04,0.6,0.016
3.564e-04,0.64,0
3.568e-04,0.6,0.016
3.572e-04,0.62,0.016
3.576e-04,0.6,0.016
3.580e-04,0.62,0.016
3.584e-04,0.58,0.008
3.588e-04,0.62,0.016
3.592e-04,0.62,0.032
3.596e-04,0.58,0
3.600e-04,0.6,0.032
3.604e-04,0.58,0.032
3.608e-04,0.62,0.024
3.612e-04,0.6,0.024
3.616e-04,0.62,0.032
3.620e-04,0.58,0.032
3.624e-04,0.62,0.056
3.628e-04,0.62,0.024
3.632e-04,0.62,0.024
3.636e-04,0.6,0.016
3.640e-04,0.64,0.048
3.644e-04,0.6,0.016
3.648e-04,0.6,0.016
3.652e-04,0.6,0.032
3.656e-04,0.62,0.008
3.660e-04,0.64,0.016
3.664e-04,0.58,0.008
3.668e-04,0.64,0.024
3.672e-04,0.6,0.032
3.676e-04,0.58,0.016
3.680e-04,0.62,0
3.684e-04,0.62,0.048
3.688e-04,0.6,0.032
3.692e-04,0.6,0.016
3.696e-04,0.6,0.048
3.700e-04,0.64,0.048
3.704e-04,0.58,0.04
3.708e-04,0.58,0.032
3.712e-04,0.62,0.056
3.716e-04,0.62,0.032
