Archivos Guadalupe/Data/1410-32-X4/19-10/D19-10/tek0030ALL.csv

Model,DPO3034
Firmware Version,2.16

Point Format,Y,
Horizontal Units,S,
Horizontal Scale,1e-06,
Sample Interval,1e-08,
Record Length,1000,
Gating,0.0% to 100.0%,0.0% to 100.0%
Probe Attenuation,1,1
Vertical Units,V,V
Vertical Offset,0,0
Vertical Scale,2,0.5
Label,,
TIME,CH1,CH2
-3.240e-06,0.16,0.02
-3.230e-06,0,0.04
-3.220e-06,0.16,0.02
-3.210e-06,0.08,0.02
-3.200e-06,0,0.06
-3.190e-06,0,0.06
-3.180e-06,0.08,0.04
-3.170e-06,-0.08,0.06
-3.160e-06,0,0.06
-3.150e-06,0.16,0.02
-3.140e-06,-0.08,0
-3.130e-06,0.16,-0.02
-3.120e-06,0.08,0
-3.110e-06,-0.08,0.04
-3.100e-06,0,0.04
-3.090e-06,-0.08,0.04
-3.080e-06,0,0
-3.070e-06,-0.08,0.02
-3.060e-06,0,0
-3.050e-06,0.16,0.02
-3.040e-06,0,0.02
-3.030e-06,0.24,0
-3.020e-06,0.16,0.06
-3.010e-06,-0.08,0.02
-3.000e-06,0,0.02
-2.990e-06,-0.08,0
-2.980e-06,0.08,0.02
-2.970e-06,0,0.04
-2.960e-06,0,0.06
-2.950e-06,0,0
-2.940e-06,0.08,0
-2.930e-06,0.08,0
-2.920e-06,0,0.04
-2.910e-06,0,0.02
-2.900e-06,0,0.02
-2.890e-06,0.08,0.04
-2.880e-06,0.24,0.02
-2.870e-06,0.16,0.04
-2.860e-06,0.08,0.06
-2.850e-06,0.08,0.04
-2.840e-06,0.24,0.04
-2.830e-06,0.24,0.1
-2.820e-06,0.24,0.1
-2.810e-06,0.4,0.04
-2.800e-06,0.24,0.08
-2.790e-06,0.4,0.14
-2.780e-06,0.32,0.12
-2.770e-06,0.24,0.12
-2.760e-06,0.24,0.08
-2.750e-06,0.4,0.1
-2.740e-06,0.32,0.1
-2.730e-06,0.48,0.12
-2.720e-06,0.48,0.16
-2.710e-06,0.24,0.14
-2.700e-06,0.48,0.16
-2.690e-06,0.56,0.16
-2.680e-06,0.64,0.16
-2.670e-06,0.48,0.12
-2.660e-06,0.64,0.18
-2.650e-06,0.48,0.16
-2.640e-06,0.64,0.18
-2.630e-06,0.48,0.16
-2.620e-06,0.64,0.18
-2.610e-06,0.56,0.14
-2.600e-06,0.64,0.2
-2.590e-06,0.48,0.2
-2.580e-06,0.72,0.2
-2.570e-06,0.72,0.22
-2.560e-06,0.72,0.2
-2.550e-06,0.64,0.2
-2.540e-06,0.8,0.2
-2.530e-06,0.8,0.24
-2.520e-06,0.72,0.24
-2.510e-06,0.72,0.26
-2.500e-06,0.64,0.26
-2.490e-06,0.8,0.26
-2.480e-06,0.96,0.24
-2.470e-06,0.88,0.24
-2.460e-06,0.88,0.3
-2.450e-06,0.8,0.28
-2.440e-06,0.8,0.3
-2.430e-06,0.88,0.28
-2.420e-06,0.88,0.3
-2.410e-06,0.96,0.28
-2.400e-06,1.04,0.3
-2.390e-06,0.88,0.32
-2.380e-06,0.96,0.32
-2.370e-06,0.96,0.3
-2.360e-06,0.96,0.32
-2.350e-06,0.88,0.32
-2.340e-06,1.28,0.36
-2.330e-06,0.96,0.34
-2.320e-06,1.04,0.36
-2.310e-06,1.04,0.4
-2.300e-06,1.12,0.34
-2.290e-06,1.2,0.36
-2.280e-06,1.36,0.36
-2.270e-06,1.04,0.32
-2.260e-06,1.28,0.42
-2.250e-06,1.28,0.42
-2.240e-06,1.28,0.36
-2.230e-06,1.2,0.38
-2.220e-06,1.28,0.38
-2.210e-06,1.28,0.38
-2.200e-06,1.28,0.4
-2.190e-06,1.36,0.46
-2.180e-06,1.44,0.44
-2.170e-06,1.28,0.48
-2.160e-06,1.44,0.42
-2.150e-06,1.44,0.42
-2.140e-06,1.44,0.44
-2.130e-06,1.52,0.44
-2.120e-06,1.44,0.48
-2.110e-06,1.52,0.5
-2.100e-06,1.44,0.5
-2.090e-06,1.52,0.48
-2.080e-06,1.52,0.48
-2.070e-06,1.68,0.48
-2.060e-06,1.68,0.48
-2.050e-06,1.68,0.52
-2.040e-06,1.76,0.54
-2.030e-06,1.52,0.52
-2.020e-06,1.76,0.52
-2.010e-06,1.68,0.52
-2.000e-06,1.6,0.52
-1.990e-06,1.76,0.52
-1.980e-06,1.76,0.52
-1.970e-06,1.76,0.54
-1.960e-06,1.76,0.56
-1.950e-06,1.84,0.54
-1.940e-06,1.76,0.58
-1.930e-06,1.76,0.58
-1.920e-06,1.92,0.58
-1.910e-06,1.84,0.6
-1.900e-06,1.92,0.58
-1.890e-06,2.08,0.56
-1.880e-06,2,0.58
-1.870e-06,2,0.58
-1.860e-06,2.08,0.56
-1.850e-06,1.92,0.64
-1.840e-06,1.92,0.64
-1.830e-06,1.92,0.64
-1.820e-06,1.92,0.6
-1.810e-06,2,0.58
-1.800e-06,2.08,0.6
-1.790e-06,2,0.58
-1.780e-06,2,0.6
-1.770e-06,2.08,0.6
-1.760e-06,2,0.62
-1.750e-06,2.16,0.64
-1.740e-06,2.08,0.64
-1.730e-06,2,0.58
-1.720e-06,2.08,0.62
-1.710e-06,2.08,0.58
-1.700e-06,2.08,0.64
-1.690e-06,2.24,0.62
-1.680e-06,2.08,0.62
-1.670e-06,1.92,0.6
-1.660e-06,1.92,0.6
-1.650e-06,1.92,0.6
-1.640e-06,1.92,0.58
-1.630e-06,1.92,0.56
-1.620e-06,2.08,0.54
-1.610e-06,1.92,0.58
-1.600e-06,1.92,0.6
-1.590e-06,2.08,0.56
-1.580e-06,1.92,0.62
-1.570e-06,1.92,0.56
-1.560e-06,2,0.6
-1.550e-06,2.08,0.58
-1.540e-06,2.08,0.58
-1.530e-06,1.84,0.56
-1.520e-06,2,0.6
-1.510e-06,1.84,0.58
-1.500e-06,1.92,0.62
-1.490e-06,1.84,0.6
-1.480e-06,2.08,0.56
-1.470e-06,1.92,0.54
-1.460e-06,2.08,0.6
-1.450e-06,2,0.56
-1.440e-06,2.08,0.56
-1.430e-06,2,0.56
-1.420e-06,2.08,0.58
-1.410e-06,2.08,0.54
-1.400e-06,2,0.56
-1.390e-06,2,0.56
-1.380e-06,2.08,0.52
-1.370e-06,1.92,0.56
-1.360e-06,2,0.56
-1.350e-06,2,0.58
-1.340e-06,2.16,0.58
-1.330e-06,2,0.56
-1.320e-06,2,0.58
-1.310e-06,2,0.58
-1.300e-06,2.08,0.58
-1.290e-06,2,0.58
-1.280e-06,2,0.56
-1.270e-06,2,0.58
-1.260e-06,2,0.52
-1.250e-06,2,0.56
-1.240e-06,2,0.56
-1.230e-06,2,0.54
-1.220e-06,2.08,0.54
-1.210e-06,2.08,0.54
-1.200e-06,2,0.54
-1.190e-06,2,0.54
-1.180e-06,1.92,0.54
-1.170e-06,1.92,0.56
-1.160e-06,2.08,0.54
-1.150e-06,2,0.56
-1.140e-06,2.16,0.56
-1.130e-06,2.08,0.58
-1.120e-06,1.92,0.54
-1.110e-06,2,0.54
-1.100e-06,1.92,0.54
-1.090e-06,1.92,0.58
-1.080e-06,2,0.54
-1.070e-06,2.08,0.52
-1.060e-06,1.84,0.54
-1.050e-06,2,0.56
-1.040e-06,2,0.54
-1.030e-06,2.16,0.54
-1.020e-06,1.92,0.58
-1.010e-06,2.08,0.54
-1.000e-06,2.08,0.58
-9.900e-07,2,0.54
-9.800e-07,2.08,0.52
-9.700e-07,2.08,0.56
-9.600e-07,1.92,0.58
-9.500e-07,1.84,0.54
-9.400e-07,2,0.56
-9.300e-07,2,0.56
-9.200e-07,2.16,0.58
-9.100e-07,2,0.56
-9.000e-07,2.08,0.56
-8.900e-07,2,0.58
-8.800e-07,2.24,0.56
-8.700e-07,2,0.54
-8.600e-07,2.16,0.52
-8.500e-07,2,0.54
-8.400e-07,2.08,0.54
-8.300e-07,1.84,0.54
-8.200e-07,1.92,0.52
-8.100e-07,2.08,0.52
-8.000e-07,2.08,0.54
-7.900e-07,2.08,0.52
-7.800e-07,2,0.56
-7.700e-07,1.92,0.54
-7.600e-07,2,0.54
-7.500e-07,2,0.48
-7.400e-07,2,0.52
-7.300e-07,1.92,0.54
-7.200e-07,2,0.54
-7.100e-07,2,0.54
-7.000e-07,1.92,0.56
-6.900e-07,2,0.54
-6.800e-07,2.08,0.56
-6.700e-07,2.4,0.56
-6.600e-07,2.4,0.6
-6.500e-07,2.32,0.64
-6.400e-07,2.32,0.72
-6.300e-07,2.4,0.74
-6.200e-07,2.56,0.72
-6.100e-07,2.64,0.74
-6.000e-07,3.04,0.7
-5.900e-07,2.88,0.7
-5.800e-07,2.72,0.84
-5.700e-07,2.8,0.86
-5.600e-07,3.12,0.86
-5.500e-07,3.2,0.9
-5.400e-07,3.36,0.9
-5.300e-07,3.36,0.88
-5.200e-07,3.36,1
-5.100e-07,3.44,0.98
-5.000e-07,3.44,0.98
-4.900e-07,3.52,1.04
-4.800e-07,3.6,0.96
-4.700e-07,3.84,0.96
-4.600e-07,3.92,1.02
-4.500e-07,3.84,1.04
-4.400e-07,3.76,1.18
-4.300e-07,4,1.26
-4.200e-07,3.92,1.22
-4.100e-07,4.24,1.22
-4.000e-07,4.48,1.16
-3.900e-07,4.24,1.16
-3.800e-07,4.32,1.26
-3.700e-07,4.4,1.32
-3.600e-07,4.48,1.34
-3.500e-07,4.64,1.36
-3.400e-07,4.88,1.4
-3.300e-07,4.88,1.38
-3.200e-07,4.96,1.48
-3.100e-07,4.96,1.44
-3.000e-07,4.88,1.44
-2.900e-07,4.88,1.48
-2.800e-07,5.12,1.44
-2.700e-07,5.36,1.4
-2.600e-07,5.52,1.48
-2.500e-07,5.36,1.52
-2.400e-07,5.36,1.62
-2.300e-07,5.52,1.68
-2.200e-07,5.52,1.62
-2.100e-07,5.68,1.62
-2.000e-07,5.76,1.6
-1.900e-07,5.92,1.6
-1.800e-07,5.92,1.72
-1.700e-07,5.92,1.76
-1.600e-07,5.84,1.76
-1.500e-07,6.08,1.8
-1.400e-07,6.32,1.82
-1.300e-07,6.24,1.76
-1.200e-07,6.32,1.88
-1.100e-07,6.4,1.84
-1.000e-07,6.32,1.84
-9.000e-08,6.4,1.9
-8.000e-08,6.48,1.86
-7.000e-08,6.64,1.84
-6.000e-08,6.8,1.94
-5.000e-08,6.96,1.94
-4.000e-08,6.8,2.04
-3.000e-08,6.88,2.12
-2.000e-08,6.96,2.08
-1.000e-08,7.28,2.08
-2.091e-20,7.36,2.08
1.000e-08,7.28,2.08
2.000e-08,7.28,2.14
3.000e-08,7.36,2.2
4.000e-08,7.44,2.18
5.000e-08,7.36,2.24
6.000e-08,7.44,2.14
7.000e-08,7.76,2.12
8.000e-08,7.84,2.18
9.000e-08,7.84,2.22
1.000e-07,7.76,2.32
1.100e-07,7.76,2.4
1.200e-07,8,2.38
1.300e-07,8.24,2.36
1.400e-07,8.48,2.32
1.500e-07,8.4,2.32
1.600e-07,8.32,2.42
1.700e-07,8.32,2.48
1.800e-07,8.48,2.44
1.900e-07,8.64,2.52
2.000e-07,8.72,2.56
2.100e-07,8.8,2.52
2.200e-07,8.72,2.6
2.300e-07,8.72,2.64
2.400e-07,8.88,2.6
2.500e-07,8.88,2.62
2.600e-07,8.96,2.56
2.700e-07,9.12,2.54
2.800e-07,9.2,2.64
2.900e-07,9.12,2.66
3.000e-07,9.2,2.78
3.100e-07,9.44,2.86
3.200e-07,9.36,2.78
3.300e-07,9.76,2.8
3.400e-07,9.92,2.76
3.500e-07,9.84,2.78
3.600e-07,9.76,2.88
3.700e-07,9.76,2.92
3.800e-07,9.84,2.96
3.900e-07,9.84,2.92
4.000e-07,9.92,2.9
4.100e-07,9.92,2.8
4.200e-07,9.92,2.84
4.300e-07,9.92,2.8
4.400e-07,9.92,2.82
4.500e-07,9.84,2.88
4.600e-07,9.76,2.92
4.700e-07,10,2.9
4.800e-07,10,2.9
4.900e-07,9.92,2.88
5.000e-07,10,2.86
5.100e-07,9.84,2.92
5.200e-07,9.92,2.9
5.300e-07,9.92,2.92
5.400e-07,10.16,2.92
5.500e-07,10,2.94
5.600e-07,10,2.9
5.700e-07,10,2.88
5.800e-07,9.84,2.84
5.900e-07,9.92,2.84
6.000e-07,9.84,2.82
6.100e-07,9.92,2.86
6.200e-07,9.92,2.88
6.300e-07,9.84,2.9
6.400e-07,10,2.88
6.500e-07,9.92,2.84
6.600e-07,9.92,2.84
6.700e-07,10,2.82
6.800e-07,9.92,2.88
6.900e-07,9.92,2.86
7.000e-07,10,2.9
7.100e-07,10.08,2.9
7.200e-07,10,2.88
7.300e-07,10,2.9
7.400e-07,10,2.88
7.500e-07,10,2.86
7.600e-07,10,2.82
7.700e-07,9.84,2.82
7.800e-07,10,2.86
7.900e-07,9.84,2.86
8.000e-07,9.84,2.86
8.100e-07,10,2.86
8.200e-07,9.92,2.86
8.300e-07,10,2.84
8.400e-07,10,2.84
8.500e-07,9.84,2.86
8.600e-07,9.92,2.84
8.700e-07,10,2.88
8.800e-07,9.84,2.82
8.900e-07,9.92,2.86
9.000e-07,10,2.86
9.100e-07,9.92,2.88
9.200e-07,9.92,2.86
9.300e-07,9.92,2.84
9.400e-07,9.92,2.86
9.500e-07,9.92,2.82
9.600e-07,10,2.86
9.700e-07,10,2.84
9.800e-07,10.08,2.84
9.900e-07,9.92,2.8
1.000e-06,9.92,2.82
1.010e-06,9.84,2.82
1.020e-06,9.92,2.84
1.030e-06,9.92,2.8
1.040e-06,10,2.84
1.050e-06,9.92,2.8
1.060e-06,9.92,2.8
1.070e-06,9.84,2.84
1.080e-06,10.08,2.82
1.090e-06,9.92,2.84
1.100e-06,9.92,2.82
1.110e-06,10,2.84
1.120e-06,10,2.88
1.130e-06,10,2.84
1.140e-06,10,2.84
1.150e-06,9.92,2.86
1.160e-06,10,2.86
1.170e-06,9.92,2.82
1.180e-06,9.84,2.82
1.190e-06,9.92,2.8
1.200e-06,9.92,2.82
1.210e-06,9.92,2.82
1.220e-06,9.92,2.78
1.230e-06,10,2.8
1.240e-06,10,2.84
1.250e-06,9.92,2.8
1.260e-06,9.92,2.82
1.270e-06,9.92,2.82
1.280e-06,10.08,2.8
1.290e-06,9.92,2.82
1.300e-06,9.92,2.86
1.310e-06,9.84,2.82
1.320e-06,9.76,2.84
1.330e-06,9.92,2.78
1.340e-06,9.92,2.8
1.350e-06,9.92,2.86
1.360e-06,10,2.86
1.370e-06,9.84,2.8
1.380e-06,9.92,2.82
1.390e-06,10,2.8
1.400e-06,10.08,2.78
1.410e-06,10,2.78
1.420e-06,9.92,2.8
1.430e-06,9.84,2.78
1.440e-06,10,2.78
1.450e-06,9.92,2.82
1.460e-06,10.08,2.82
1.470e-06,10,2.78
1.480e-06,9.92,2.8
1.490e-06,10.08,2.78
1.500e-06,9.92,2.8
1.510e-06,9.84,2.78
1.520e-06,9.92,2.82
1.530e-06,9.68,2.76
1.540e-06,9.6,2.74
1.550e-06,9.6,2.7
1.560e-06,9.68,2.58
1.570e-06,9.52,2.56
1.580e-06,9.6,2.58
1.590e-06,9.52,2.62
1.600e-06,9.36,2.7
1.610e-06,9.2,2.68
1.620e-06,9.04,2.58
1.630e-06,9.12,2.54
1.640e-06,9.12,2.44
1.650e-06,8.96,2.34
1.660e-06,9.04,2.4
1.670e-06,8.72,2.42
1.680e-06,8.56,2.44
1.690e-06,8.48,2.46
1.700e-06,8.56,2.34
1.710e-06,8.48,2.28
1.720e-06,8.4,2.28
1.730e-06,8.32,2.18
1.740e-06,8.08,2.22
1.750e-06,8.08,2.22
1.760e-06,8,2.16
1.770e-06,8,2.12
1.780e-06,8.08,2.14
1.790e-06,8,2.1
1.800e-06,8.08,2.14
1.810e-06,7.68,2.12
1.820e-06,7.6,2.04
1.830e-06,7.6,2
1.840e-06,7.68,1.94
1.850e-06,7.6,1.84
1.860e-06,7.68,1.88
1.870e-06,7.2,1.88
1.880e-06,7.04,1.92
1.890e-06,7.04,1.9
1.900e-06,7.04,1.82
1.910e-06,6.96,1.76
1.920e-06,7.04,1.74
1.930e-06,7.04,1.74
1.940e-06,6.8,1.8
1.950e-06,6.64,1.8
1.960e-06,6.48,1.78
1.970e-06,6.4,1.7
1.980e-06,6.56,1.62
1.990e-06,6.48,1.54
2.000e-06,6.56,1.5
2.010e-06,6.24,1.52
2.020e-06,6,1.54
2.030e-06,6.08,1.6
2.040e-06,6.08,1.48
2.050e-06,6.08,1.44
2.060e-06,6,1.42
2.070e-06,5.92,1.38
2.080e-06,5.6,1.38
2.090e-06,5.52,1.38
2.100e-06,5.68,1.26
2.110e-06,5.6,1.3
2.120e-06,5.6,1.28
2.130e-06,5.52,1.26
2.140e-06,5.52,1.34
2.150e-06,5.36,1.34
2.160e-06,5.04,1.26
2.170e-06,5.28,1.2
2.180e-06,5.28,1.1
2.190e-06,5.12,1.04
2.200e-06,4.96,1.06
2.210e-06,4.8,1.02
2.220e-06,4.72,1.06
2.230e-06,4.72,1.06
2.240e-06,4.72,0.94
2.250e-06,4.64,0.9
2.260e-06,4.56,0.94
2.270e-06,4.32,0.86
2.280e-06,4.08,0.9
2.290e-06,4,0.82
2.300e-06,4,0.74
2.310e-06,4,0.74
2.320e-06,4,0.76
2.330e-06,4.08,0.74
2.340e-06,4,0.84
2.350e-06,3.68,0.86
2.360e-06,3.6,0.78
2.370e-06,3.76,0.72
2.380e-06,3.68,0.62
2.390e-06,3.68,0.48
2.400e-06,3.6,0.52
2.410e-06,3.28,0.52
2.420e-06,2.96,0.54
2.430e-06,3.2,0.56
2.440e-06,3.2,0.46
2.450e-06,3.28,0.4
2.460e-06,3.2,0.44
2.470e-06,2.88,0.34
2.480e-06,2.72,0.38
2.490e-06,2.72,0.4
2.500e-06,2.72,0.32
2.510e-06,2.64,0.32
2.520e-06,2.48,0.32
2.530e-06,2.72,0.3
2.540e-06,2.48,0.32
2.550e-06,2.32,0.36
2.560e-06,2.24,0.26
2.570e-06,2.16,0.2
2.580e-06,2.24,0.12
2.590e-06,2.08,0.04
2.600e-06,2.08,0.08
2.610e-06,2.08,0.1
2.620e-06,1.92,0.16
2.630e-06,1.92,0.16
2.640e-06,2,0.18
2.650e-06,2.08,0.16
2.660e-06,2.08,0.12
2.670e-06,2.08,0.1
2.680e-06,1.92,0.08
2.690e-06,2,0.12
2.700e-06,2,0.12
2.710e-06,2.08,0.18
2.720e-06,2,0.18
2.730e-06,2,0.16
2.740e-06,1.92,0.12
2.750e-06,2,0.1
2.760e-06,2.16,0.08
2.770e-06,1.92,0.08
2.780e-06,1.92,0.12
2.790e-06,2,0.12
2.800e-06,1.92,0.16
2.810e-06,2.08,0.16
2.820e-06,1.92,0.14
2.830e-06,2.08,0.16
2.840e-06,2.16,0.1
2.850e-06,2,0.12
2.860e-06,2.08,0.14
2.870e-06,2.08,0.12
2.880e-06,2.08,0.14
2.890e-06,2,0.12
2.900e-06,2,0.1
2.910e-06,2.08,0.12
2.920e-06,2.16,0.1
2.930e-06,2.08,0.12
2.940e-06,2,0.08
2.950e-06,2.08,0.16
2.960e-06,2.16,0.14
2.970e-06,2.08,0.12
2.980e-06,1.92,0.14
2.990e-06,2.08,0.12
3.000e-06,2,0.12
3.010e-06,1.92,0.1
3.020e-06,2.16,0.1
3.030e-06,1.92,0.1
3.040e-06,2.08,0.12
3.050e-06,2,0.12
3.060e-06,2.08,0.1
3.070e-06,2,0.14
3.080e-06,2.24,0.12
3.090e-06,2.16,0.12
3.100e-06,2.08,0.12
3.110e-06,2.08,0.14
3.120e-06,2.16,0.16
3.130e-06,2.08,0.1
3.140e-06,2.08,0.12
3.150e-06,2.08,0.14
3.160e-06,2,0.1
3.170e-06,2.08,0.1
3.180e-06,2.08,0.14
3.190e-06,2.08,0.12
3.200e-06,2.16,0.12
3.210e-06,2.08,0.14
3.220e-06,2.16,0.12
3.230e-06,2.16,0.14
3.240e-06,2.16,0.08
3.250e-06,2.08,0.12
3.260e-06,2,0.08
3.270e-06,2.16,0.12
3.280e-06,2,0.12
3.290e-06,2,0.1
3.300e-06,2.16,0.14
3.310e-06,2.08,0.12
3.320e-06,1.92,0.1
3.330e-06,2.08,0.12
3.340e-06,2.08,0.12
3.350e-06,2.08,0.12
3.360e-06,2,0.08
3.370e-06,2,0.1
3.380e-06,2.08,0.14
3.390e-06,2.08,0.1
3.400e-06,1.92,0.12
3.410e-06,2.08,0.12
3.420e-06,2.08,0.12
3.430e-06,1.92,0.12
3.440e-06,2,0.08
3.450e-06,2.08,0.08
3.460e-06,2.08,0.08
3.470e-06,2,0.12
3.480e-06,2.08,0.1
3.490e-06,2.16,0.12
3.500e-06,2,0.1
3.510e-06,2.16,0.12
3.520e-06,2,0.08
3.530e-06,2,0.12
3.540e-06,2,0.12
3.550e-06,2.08,0.14
3.560e-06,2,0.12
3.570e-06,2,0.16
3.580e-06,2,0.16
3.590e-06,2,0.14
3.600e-06,2.08,0.16
3.610e-06,2.16,0.1
3.620e-06,2.08,0.12
3.630e-06,2,0.12
3.640e-06,2.24,0.16
3.650e-06,2,0.1
3.660e-06,2.08,0.12
3.670e-06,2,0.1
3.680e-06,2.08,0.12
3.690e-06,2,0.08
3.700e-06,2.08,0.1
3.710e-06,2,0.12
3.720e-06,2,0.1
3.730e-06,2,0.14
3.740e-06,2.08,0.14
3.750e-06,2.08,0.12
3.760e-06,2,0.1
3.770e-06,2,0.12
3.780e-06,2,0.12
3.790e-06,2,0.14
3.800e-06,2.08,0.16
3.810e-06,2.08,0.14
3.820e-06,2,0.14
3.830e-06,1.92,0.14
3.840e-06,2.08,0.1
3.850e-06,2.08,0.1
3.860e-06,2.08,0.12
3.870e-06,2.16,0.06
3.880e-06,2.24,0.12
3.890e-06,1.92,0.12
3.900e-06,2,0.1
3.910e-06,2.16,0.1
3.920e-06,2.08,0.14
3.930e-06,2,0.14
3.940e-06,2.08,0.12
3.950e-06,2.16,0.12
3.960e-06,2.08,0.14
3.970e-06,2,0.12
3.980e-06,2.24,0.14
3.990e-06,2.16,0.12
4.000e-06,2.08,0.1
4.010e-06,1.92,0.12
4.020e-06,2.24,0.12
4.030e-06,2,0.12
4.040e-06,2.08,0.12
4.050e-06,2,0.1
4.060e-06,2,0.1
4.070e-06,2.08,0.08
4.080e-06,2.08,0.1
4.090e-06,1.84,0.1
4.100e-06,2,0.12
4.110e-06,2.08,0.1
4.120e-06,2.08,0.1
4.130e-06,2.08,0.12
4.140e-06,2.16,0.1
4.150e-06,2,0.1
4.160e-06,2.16,0.08
4.170e-06,2.08,0.16
4.180e-06,2.08,0.18
4.190e-06,2.08,0.14
4.200e-06,2,0.14
4.210e-06,2.16,0.12
4.220e-06,2,0.14
4.230e-06,2.16,0.14
4.240e-06,2.08,0.1
4.250e-06,2,0.08
4.260e-06,1.92,0.12
4.270e-06,2.08,0.1
4.280e-06,1.92,0.12
4.290e-06,2.08,0.1
4.300e-06,2,0.08
4.310e-06,2.16,0.08
4.320e-06,2,0.1
4.330e-06,2.16,0.08
4.340e-06,2,0.1
4.350e-06,2,0.14
4.360e-06,1.92,0.14
4.370e-06,2.24,0.12
4.380e-06,2.16,0.12
4.390e-06,2,0.1
4.400e-06,2,0.1
4.410e-06,2.08,0.12
4.420e-06,2.16,0.1
4.430e-06,1.92,0.1
4.440e-06,2.16,0.06
4.450e-06,2.08,0.08
4.460e-06,2.08,0.1
4.470e-06,2.24,0.1
4.480e-06,2,0.1
4.490e-06,2.08,0.1
4.500e-06,2.08,0.1
4.510e-06,2.16,0.12
4.520e-06,1.92,0.14
4.530e-06,2.08,0.1
4.540e-06,2.08,0.1
4.550e-06,2.08,0.1
4.560e-06,2,0.1
4.570e-06,2,0.1
4.580e-06,2.08,0.14
4.590e-06,2,0.14
4.600e-06,2.08,0.1
4.610e-06,1.92,0.12
4.620e-06,2.08,0.1
4.630e-06,2.16,0.1
4.640e-06,2.16,0.1
4.650e-06,2,0.1
4.660e-06,2.08,0.08
4.670e-06,2.08,0.1
4.680e-06,2,0.1
4.690e-06,2,0.08
4.700e-06,2.08,0.08
4.710e-06,2,0.1
4.720e-06,1.92,0.12
4.730e-06,2.08,0.12
4.740e-06,2.08,0.1
4.750e-06,2.08,0.12
4.760e-06,2.16,0.12
4.770e-06,1.92,0.1
4.780e-06,2.08,0.12
4.790e-06,2.08,0.12
4.800e-06,2,0.1
4.810e-06,2,0.12
4.820e-06,2.08,0.16
4.830e-06,2.08,0.1
4.840e-06,2.08,0.1
4.850e-06,2,0.12
4.860e-06,2.08,0.12
4.870e-06,2.08,0.08
4.880e-06,2.16,0.1
4.890e-06,2,0.08
4.900e-06,2.16,0.08
4.910e-06,2.08,0.08
4.920e-06,2.08,0.1
4.930e-06,1.92,0.1
4.940e-06,2.16,0.1
4.950e-06,2,0.1
4.960e-06,2.08,0.12
4.970e-06,2,0.06
4.980e-06,2.16,0.16
4.990e-06,2.08,0.14
5.000e-06,2.08,0.1
5.010e-06,2,0.12
5.020e-06,2,0.08
5.030e-06,2.08,0.12
5.040e-06,2.08,0.12
5.050e-06,1.92,0.1
5.060e-06,2.16,0.1
5.070e-06,2,0.1
5.080e-06,2.08,0.1
5.090e-06,2,0.14
5.100e-06,1.84,0.1
5.110e-06,2,0.08
5.120e-06,2.08,0.1
5.130e-06,2.08,0.1
5.140e-06,2.08,0.08
5.150e-06,2.08,0.1
5.160e-06,2.08,0.1
5.170e-06,2.08,0.1
5.180e-06,2.08,0.1
5.190e-06,2.08,0.1
5.200e-06,2.16,0.1
5.210e-06,2,0.06
5.220e-06,2.08,0.1
5.230e-06,2.08,0.1
5.240e-06,2.08,0.1
5.250e-06,2.24,0.06
5.260e-06,2,0.1
5.270e-06,2,0.08
5.280e-06,2.16,0.12
5.290e-06,1.92,0.1
5.300e-06,2.08,0.08
5.310e-06,2,0.08
5.320e-06,2.08,0.1
5.330e-06,2.08,0.1
5.340e-06,2.08,0.12
5.350e-06,2,0.1
5.360e-06,1.92,0.08
5.370e-06,2.08,0.08
5.380e-06,2.16,0.1
5.390e-06,2,0.1
5.400e-06,2.08,0.1
5.410e-06,2.08,0.1
5.420e-06,2.16,0.14
5.430e-06,2,0.12
5.440e-06,2.08,0.12
5.450e-06,2.16,0.12
5.460e-06,2.16,0.1
5.470e-06,2.08,0.08
5.480e-06,2,0.1
5.490e-06,2.08,0.1
5.500e-06,2.16,0.14
5.510e-06,2.08,0.08
5.520e-06,2.08,0.1
5.530e-06,1.92,0.08
5.540e-06,1.92,0.08
5.550e-06,2.08,0.1
5.560e-06,2,0.12
5.570e-06,2,0.1
5.580e-06,2,0.1
5.590e-06,2,0.12
5.600e-06,2.08,0.1
5.610e-06,2.08,0.06
5.620e-06,2.16,0.1
5.630e-06,2.08,0.08
5.640e-06,2.08,0.08
5.650e-06,2,0.1
5.660e-06,2.08,0.08
5.670e-06,2.08,0.1
5.680e-06,2.08,0.1
5.690e-06,2.08,0.08
5.700e-06,2,0.08
5.710e-06,2.16,0.08
5.720e-06,2.08,0.08
5.730e-06,2,0.1
5.740e-06,2.08,0.1
5.750e-06,1.92,0.1
5.760e-06,2,0.1
5.770e-06,2.08,0.1
5.780e-06,2.08,0.12
5.790e-06,2,0.1
5.800e-06,2.08,0.08
5.810e-06,2.08,0.08
5.820e-06,2.08,0.1
5.830e-06,2.08,0.08
5.840e-06,1.92,0.1
5.850e-06,2,0.1
5.860e-06,2,0.1
5.870e-06,2,0.08
5.880e-06,2,0.1
5.890e-06,2.08,0.08
5.900e-06,2.16,0.1
5.910e-06,2.08,0.1
5.920e-06,2.16,0.08
5.930e-06,2.08,0.06
5.940e-06,2.08,0.04
5.950e-06,2.08,0.06
5.960e-06,2.08,0.08
5.970e-06,2.08,0.12
5.980e-06,2.08,0.12
5.990e-06,1.92,0.1
6.000e-06,2,0.1
6.010e-06,2,0.12
6.020e-06,2.16,0.12
6.030e-06,2.16,0.08
6.040e-06,2.16,0.08
6.050e-06,2.08,0.1
6.060e-06,2.08,0.08
6.070e-06,2.16,0.1
6.080e-06,2.08,0.06
6.090e-06,2.08,0.12
6.100e-06,2,0.08
6.110e-06,2.08,0.06
6.120e-06,2.08,0.06
6.130e-06,2,0.06
6.140e-06,2.08,0.1
6.150e-06,1.92,0.06
6.160e-06,2,0.1
6.170e-06,2.08,0.08
6.180e-06,2,0.12
6.190e-06,2.08,0.12
6.200e-06,2.08,0.08
6.210e-06,2,0.08
6.220e-06,1.92,0.12
6.230e-06,2.16,0.1
6.240e-06,2.16,0.08
6.250e-06,2.08,0.1
6.260e-06,2.16,0.1
6.270e-06,2.08,0.08
6.280e-06,2.08,0.1
6.290e-06,2.16,0.06
6.300e-06,2.16,0.08
6.310e-06,2.08,0.08
6.320e-06,1.92,0.08
6.330e-06,2.08,0.06
6.340e-06,2,0.1
6.350e-06,1.92,0.14
6.360e-06,2.08,0.06
6.370e-06,2.16,0.08
6.380e-06,1.92,0.08
6.390e-06,2.08,0.1
6.400e-06,2.08,0.16
6.410e-06,2.16,0.06
6.420e-06,2,0.12
6.430e-06,2,0.1
6.440e-06,2,0.08
6.450e-06,1.92,0.1
6.460e-06,2,0.08
6.470e-06,2,0.06
6.480e-06,2,0.04
6.490e-06,2,0.1
6.500e-06,1.92,0.12
6.510e-06,2.08,0.08
6.520e-06,2.08,0.12
6.530e-06,1.92,0.12
6.540e-06,2.16,0.08
6.550e-06,2,0.04
6.560e-06,2.08,0.08
6.570e-06,2.08,0.08
6.580e-06,2.08,0.08
6.590e-06,2.16,0.12
6.600e-06,2.16,0.12
6.610e-06,2,0.1
6.620e-06,2.08,0.1
6.630e-06,2,0.08
6.640e-06,1.84,0.08
6.650e-06,1.92,0.1
6.660e-06,2.08,0.14
6.670e-06,2,0.12
6.680e-06,2.08,0.12
6.690e-06,2,0.1
6.700e-06,2,0.1
6.710e-06,2.16,0.1
6.720e-06,2,0.1
6.730e-06,2.08,0.08
6.740e-06,2.08,0.12
6.750e-06,2.08,0.08

