Archivos Guadalupe/Data/1410-32-X3/18-07/tek0011ALL.csv

Model,DPO3034
Firmware Version,2.16

Point Format,Y,
Horizontal Units,S,
Horizontal Scale,1e-06,
Sample Interval,1e-08,
Record Length,1000,
Gating,0.0% to 100.0%,0.0% to 100.0%
Probe Attenuation,1,1
Vertical Units,V,V
Vertical Offset,0,0
Vertical Scale,2,1
Label,,
TIME,CH1,CH3
-1.570e-06,-0.04,0.02
-1.560e-06,0.04,0.02
-1.550e-06,0.04,0.02
-1.540e-06,-0.04,-0.02
-1.530e-06,0.12,0.02
-1.520e-06,0.04,0.02
-1.510e-06,-0.04,-0.02
-1.500e-06,0.04,-0.02
-1.490e-06,-0.04,-0.02
-1.480e-06,-0.04,0.02
-1.470e-06,-0.04,0.02
-1.460e-06,0.04,0.02
-1.450e-06,0.04,0.02
-1.440e-06,-0.04,0.02
-1.430e-06,-0.04,0.02
-1.420e-06,-0.04,0.02
-1.410e-06,0.12,-0.02
-1.400e-06,0.04,-0.02
-1.390e-06,-0.04,0.02
-1.380e-06,0.04,0.02
-1.370e-06,-0.04,-0.02
-1.360e-06,-0.04,0.02
-1.350e-06,0.12,0.02
-1.340e-06,-0.04,0.02
-1.330e-06,0.04,0.02
-1.320e-06,-0.04,-0.02
-1.310e-06,-0.04,0.1
-1.300e-06,0.04,-0.02
-1.290e-06,-0.04,0.06
-1.280e-06,0.04,0.06
-1.270e-06,0.12,0.02
-1.260e-06,0.04,0.02
-1.250e-06,0.12,0.02
-1.240e-06,0.04,0.02
-1.230e-06,-0.04,-0.02
-1.220e-06,0.12,0.02
-1.210e-06,0.04,0.02
-1.200e-06,0.04,0.1
-1.190e-06,-0.04,-0.02
-1.180e-06,0.04,0.02
-1.170e-06,-0.04,-0.02
-1.160e-06,-0.04,-0.02
-1.150e-06,0.2,-0.02
-1.140e-06,-0.04,0.02
-1.130e-06,-0.04,-0.02
-1.120e-06,-0.04,-0.02
-1.110e-06,0.12,0.02
-1.100e-06,-0.04,0.02
-1.090e-06,-0.04,0.02
-1.080e-06,-0.04,0.02
-1.070e-06,0.04,-0.02
-1.060e-06,-0.04,0.02
-1.050e-06,0.12,-0.02
-1.040e-06,-0.04,0.06
-1.030e-06,0.12,-0.02
-1.020e-06,0.04,0.06
-1.010e-06,-0.04,0.02
-1.000e-06,-0.04,-0.02
-9.900e-07,0.04,0.06
-9.800e-07,0.04,0.1
-9.700e-07,-0.04,0.02
-9.600e-07,-0.04,-0.06
-9.500e-07,0.04,0.02
-9.400e-07,-0.04,-0.02
-9.300e-07,0.12,0.02
-9.200e-07,-0.04,-0.02
-9.100e-07,-0.04,0.02
-9.000e-07,0.04,-0.02
-8.900e-07,-0.04,-0.02
-8.800e-07,-0.04,0.1
-8.700e-07,0.04,-0.02
-8.600e-07,0.04,-0.02
-8.500e-07,0.04,-0.02
-8.400e-07,0.04,-0.02
-8.300e-07,-0.04,-0.02
-8.200e-07,-0.04,-0.02
-8.100e-07,-0.04,-0.02
-8.000e-07,-0.04,0.02
-7.900e-07,-0.04,0.02
-7.800e-07,-0.04,-0.02
-7.700e-07,-0.04,0.02
-7.600e-07,-0.04,-0.02
-7.500e-07,-0.04,0.06
-7.400e-07,0.04,0.02
-7.300e-07,-0.04,0.02
-7.200e-07,0.04,0.02
-7.100e-07,0.04,0.02
-7.000e-07,-0.12,0.02
-6.900e-07,0.12,0.02
-6.800e-07,-0.04,0.02
-6.700e-07,0.04,0.1
-6.600e-07,0.04,0.02
-6.500e-07,-0.04,0.02
-6.400e-07,-0.04,0.02
-6.300e-07,0.12,0.1
-6.200e-07,-0.04,0.02
-6.100e-07,0.04,0.02
-6.000e-07,-0.04,-0.02
-5.900e-07,-0.04,0.02
-5.800e-07,0.04,0.02
-5.700e-07,-0.04,0.06
-5.600e-07,0.04,0.02
-5.500e-07,0.12,-0.02
-5.400e-07,0.04,0.02
-5.300e-07,-0.04,0.02
-5.200e-07,0.04,0.02
-5.100e-07,0.04,0.02
-5.000e-07,0.04,0.06
-4.900e-07,0.04,0.02
-4.800e-07,0.04,0.02
-4.700e-07,-0.04,0.02
-4.600e-07,-0.04,0.06
-4.500e-07,0.04,0.06
-4.400e-07,-0.04,0.02
-4.300e-07,0.04,0.1
-4.200e-07,0.04,0.06
-4.100e-07,0.12,0.06
-4.000e-07,0.12,0.02
-3.900e-07,0.04,0.06
-3.800e-07,0.04,0.02
-3.700e-07,-0.12,-0.02
-3.600e-07,0.12,0.02
-3.500e-07,0.04,0.06
-3.400e-07,-0.04,-0.02
-3.300e-07,-0.04,0.06
-3.200e-07,0.12,-0.06
-3.100e-07,0.04,-0.06
-3.000e-07,-0.04,-0.02
-2.900e-07,0.04,-0.02
-2.800e-07,0.04,0.1
-2.700e-07,0.04,0.02
-2.600e-07,0.12,0.02
-2.500e-07,0.04,-0.02
-2.400e-07,0.12,0.06
-2.300e-07,0.12,0.02
-2.200e-07,0.04,0.14
-2.100e-07,0.2,0.06
-2.000e-07,0.2,0.1
-1.900e-07,0.12,0.02
-1.800e-07,0.2,0.06
-1.700e-07,0.12,0.02
-1.600e-07,0.2,0.02
-1.500e-07,0.28,-0.02
-1.400e-07,0.2,0.1
-1.300e-07,0.36,0.06
-1.200e-07,0.36,0.02
-1.100e-07,0.36,0.1
-1.000e-07,0.28,0.14
-9.000e-08,0.52,0.14
-8.000e-08,0.52,0.22
-7.000e-08,0.52,0.14
-6.000e-08,0.68,0.22
-5.000e-08,0.52,0.22
-4.000e-08,0.68,0.22
-3.000e-08,0.68,0.26
-2.000e-08,0.52,0.3
-1.000e-08,0.68,0.3
-5.238e-21,0.52,0.34
1.000e-08,0.6,0.26
2.000e-08,0.6,0.3
3.000e-08,0.76,0.22
4.000e-08,0.6,0.22
5.000e-08,0.68,0.26
6.000e-08,0.76,0.22
7.000e-08,0.68,0.22
8.000e-08,0.52,0.22
9.000e-08,0.92,0.26
1.000e-07,0.92,0.3
1.100e-07,0.84,0.34
1.200e-07,0.92,0.3
1.300e-07,1,0.38
1.400e-07,1,0.34
1.500e-07,1,0.54
1.600e-07,0.92,0.5
1.700e-07,1.16,0.5
1.800e-07,1.16,0.5
1.900e-07,1.08,0.5
2.000e-07,1.16,0.46
2.100e-07,1.16,0.46
2.200e-07,1.16,0.46
2.300e-07,1,0.54
2.400e-07,1.24,0.46
2.500e-07,1.08,0.5
2.600e-07,1.16,0.5
2.700e-07,1.24,0.58
2.800e-07,1.4,0.54
2.900e-07,1.24,0.46
3.000e-07,1.4,0.46
3.100e-07,1.24,0.5
3.200e-07,1.48,0.54
3.300e-07,1.48,0.54
3.400e-07,1.32,0.62
3.500e-07,1.4,0.62
3.600e-07,1.48,0.66
3.700e-07,1.48,0.62
3.800e-07,1.48,0.74
3.900e-07,1.72,0.7
4.000e-07,1.56,0.7
4.100e-07,1.56,0.66
4.200e-07,1.64,0.74
4.300e-07,1.64,0.74
4.400e-07,1.64,0.7
4.500e-07,1.64,0.74
4.600e-07,1.64,0.66
4.700e-07,1.64,0.78
4.800e-07,1.8,0.7
4.900e-07,1.64,0.74
5.000e-07,1.72,0.66
5.100e-07,1.72,0.7
5.200e-07,1.88,0.78
5.300e-07,1.64,0.78
5.400e-07,1.8,0.82
5.500e-07,1.96,0.86
5.600e-07,1.88,0.94
5.700e-07,2.04,0.9
5.800e-07,1.96,0.86
5.900e-07,2.12,0.9
6.000e-07,2.04,0.98
6.100e-07,2.04,0.9
6.200e-07,1.96,0.9
6.300e-07,2.04,0.94
6.400e-07,2.04,0.9
6.500e-07,2.12,1.06
6.600e-07,2.2,0.94
6.700e-07,2.12,0.94
6.800e-07,2.12,1.02
6.900e-07,2.12,0.98
7.000e-07,2.12,0.9
7.100e-07,2.28,0.9
7.200e-07,2.36,1.06
7.300e-07,2.36,1.06
7.400e-07,2.36,0.98
7.500e-07,2.44,1.02
7.600e-07,2.44,1.06
7.700e-07,2.44,1.06
7.800e-07,2.52,1.1
7.900e-07,2.44,1.1
8.000e-07,2.36,1.18
8.100e-07,2.6,1.14
8.200e-07,2.52,1.18
8.300e-07,2.52,1.14
8.400e-07,2.52,1.1
8.500e-07,2.52,1.18
8.600e-07,2.52,1.18
8.700e-07,2.68,1.14
8.800e-07,2.68,1.26
8.900e-07,2.76,1.18
9.000e-07,2.68,1.26
9.100e-07,2.76,1.18
9.200e-07,2.68,1.26
9.300e-07,2.84,1.22
9.400e-07,2.84,1.3
9.500e-07,2.84,1.3
9.600e-07,2.84,1.26
9.700e-07,2.84,1.38
9.800e-07,3,1.3
9.900e-07,3,1.38
1.000e-06,3,1.38
1.010e-06,2.84,1.34
1.020e-06,3.08,1.42
1.030e-06,3.08,1.34
1.040e-06,3,1.46
1.050e-06,3.08,1.38
1.060e-06,3.08,1.42
1.070e-06,3.16,1.38
1.080e-06,3.16,1.38
1.090e-06,3.16,1.5
1.100e-06,3.16,1.42
1.110e-06,3.24,1.42
1.120e-06,3.24,1.5
1.130e-06,3.32,1.5
1.140e-06,3.48,1.46
1.150e-06,3.32,1.5
1.160e-06,3.4,1.5
1.170e-06,3.48,1.54
1.180e-06,3.4,1.58
1.190e-06,3.32,1.66
1.200e-06,3.4,1.58
1.210e-06,3.48,1.62
1.220e-06,3.4,1.62
1.230e-06,3.48,1.58
1.240e-06,3.4,1.62
1.250e-06,3.72,1.5
1.260e-06,3.56,1.7
1.270e-06,3.48,1.66
1.280e-06,3.56,1.7
1.290e-06,3.64,1.7
1.300e-06,3.72,1.66
1.310e-06,3.64,1.78
1.320e-06,3.8,1.74
1.330e-06,3.8,1.7
1.340e-06,3.72,1.74
1.350e-06,3.88,1.74
1.360e-06,3.8,1.82
1.370e-06,3.88,1.9
1.380e-06,3.88,1.78
1.390e-06,3.88,1.78
1.400e-06,3.96,1.82
1.410e-06,3.96,1.82
1.420e-06,3.88,1.78
1.430e-06,3.96,1.9
1.440e-06,4.04,1.86
1.450e-06,3.96,1.9
1.460e-06,3.96,1.9
1.470e-06,4.04,1.9
1.480e-06,4.04,1.9
1.490e-06,3.96,1.9
1.500e-06,4.2,1.94
1.510e-06,4.04,1.94
1.520e-06,4.2,2.02
1.530e-06,4.36,2.02
1.540e-06,4.28,2.02
1.550e-06,4.36,2.02
1.560e-06,4.2,2.02
1.570e-06,4.2,2.06
1.580e-06,4.44,2.06
1.590e-06,4.36,2.06
1.600e-06,4.36,2.1
1.610e-06,4.36,2.06
1.620e-06,4.52,2.06
1.630e-06,4.44,2.06
1.640e-06,4.36,2.14
1.650e-06,4.36,2.14
1.660e-06,4.6,2.14
1.670e-06,4.6,2.14
1.680e-06,4.68,2.14
1.690e-06,4.68,2.18
1.700e-06,4.52,2.14
1.710e-06,4.6,2.18
1.720e-06,4.6,2.22
1.730e-06,4.68,2.22
1.740e-06,4.76,2.3
1.750e-06,4.68,2.26
1.760e-06,4.68,2.26
1.770e-06,4.76,2.3
1.780e-06,4.84,2.42
1.790e-06,4.84,2.3
1.800e-06,4.84,2.34
1.810e-06,4.92,2.38
1.820e-06,4.84,2.38
1.830e-06,5,2.38
1.840e-06,4.84,2.34
1.850e-06,4.92,2.26
1.860e-06,5.08,2.38
1.870e-06,4.92,2.38
1.880e-06,4.92,2.34
1.890e-06,5,2.34
1.900e-06,5.08,2.34
1.910e-06,5.08,2.46
1.920e-06,5.08,2.5
1.930e-06,5.08,2.46
1.940e-06,5.24,2.46
1.950e-06,5.08,2.46
1.960e-06,5.32,2.46
1.970e-06,5.16,2.5
1.980e-06,5.32,2.58
1.990e-06,5.32,2.54
2.000e-06,5.16,2.58
2.010e-06,5.32,2.54
2.020e-06,5.4,2.58
2.030e-06,5.32,2.58
2.040e-06,5.4,2.54
2.050e-06,5.4,2.62
2.060e-06,5.4,2.66
2.070e-06,5.64,2.66
2.080e-06,5.48,2.62
2.090e-06,5.48,2.66
2.100e-06,5.64,2.7
2.110e-06,5.48,2.7
2.120e-06,5.48,2.66
2.130e-06,5.64,2.74
2.140e-06,5.56,2.74
2.150e-06,5.56,2.66
2.160e-06,5.72,2.78
2.170e-06,5.8,2.7
2.180e-06,5.64,2.78
2.190e-06,5.88,2.78
2.200e-06,5.72,2.78
2.210e-06,5.88,2.82
2.220e-06,5.72,2.86
2.230e-06,5.72,2.78
2.240e-06,5.72,2.86
2.250e-06,5.8,2.86
2.260e-06,5.72,2.86
2.270e-06,5.72,2.78
2.280e-06,5.8,2.78
2.290e-06,5.56,2.7
2.300e-06,5.64,2.78
2.310e-06,5.72,2.66
2.320e-06,5.56,2.7
2.330e-06,5.56,2.78
2.340e-06,5.72,2.7
2.350e-06,5.64,2.86
2.360e-06,5.56,2.74
2.370e-06,5.48,2.74
2.380e-06,5.48,2.82
2.390e-06,5.48,2.78
2.400e-06,5.4,2.78
2.410e-06,5.56,2.74
2.420e-06,5.48,2.74
2.430e-06,5.4,2.74
2.440e-06,5.24,2.7
2.450e-06,5.48,2.74
2.460e-06,5.32,2.66
2.470e-06,5.24,2.62
2.480e-06,5.16,2.7
2.490e-06,5.24,2.66
2.500e-06,5.32,2.62
2.510e-06,5.08,2.58
2.520e-06,5.08,2.62
2.530e-06,5.08,2.66
2.540e-06,5.08,2.66
2.550e-06,5.08,2.54
2.560e-06,5.08,2.58
2.570e-06,5.08,2.5
2.580e-06,5.08,2.58
2.590e-06,4.84,2.5
2.600e-06,5.08,2.58
2.610e-06,5,2.54
2.620e-06,4.76,2.58
2.630e-06,4.92,2.5
2.640e-06,5,2.5
2.650e-06,4.84,2.46
2.660e-06,4.84,2.58
2.670e-06,4.84,2.46
2.680e-06,4.68,2.5
2.690e-06,4.76,2.46
2.700e-06,4.84,2.46
2.710e-06,4.6,2.46
2.720e-06,4.68,2.42
2.730e-06,4.68,2.38
2.740e-06,4.6,2.42
2.750e-06,4.6,2.42
2.760e-06,4.6,2.34
2.770e-06,4.6,2.3
2.780e-06,4.52,2.34
2.790e-06,4.44,2.3
2.800e-06,4.52,2.34
2.810e-06,4.6,2.3
2.820e-06,4.52,2.34
2.830e-06,4.36,2.26
2.840e-06,4.44,2.3
2.850e-06,4.44,2.18
2.860e-06,4.28,2.22
2.870e-06,4.52,2.22
2.880e-06,4.28,2.22
2.890e-06,4.36,2.22
2.900e-06,4.2,2.22
2.910e-06,4.36,2.18
2.920e-06,4.12,2.14
2.930e-06,4.28,2.14
2.940e-06,4.2,2.18
2.950e-06,4.12,2.14
2.960e-06,4.2,2.18
2.970e-06,4.12,2.1
2.980e-06,4.12,2.1
2.990e-06,3.96,2.14
3.000e-06,4.04,2.1
3.010e-06,3.96,2.1
3.020e-06,4.04,2.1
3.030e-06,4.04,2.06
3.040e-06,3.88,2.02
3.050e-06,3.88,2.02
3.060e-06,3.96,2.1
3.070e-06,3.96,1.98
3.080e-06,3.8,1.98
3.090e-06,3.88,1.94
3.100e-06,3.88,1.9
3.110e-06,3.64,1.9
3.120e-06,3.88,2.02
3.130e-06,3.8,1.94
3.140e-06,3.8,1.94
3.150e-06,3.64,1.9
3.160e-06,3.72,1.94
3.170e-06,3.72,1.94
3.180e-06,3.56,1.86
3.190e-06,3.64,1.9
3.200e-06,3.72,1.86
3.210e-06,3.56,1.86
3.220e-06,3.56,1.9
3.230e-06,3.48,1.82
3.240e-06,3.48,1.86
3.250e-06,3.4,1.82
3.260e-06,3.4,1.78
3.270e-06,3.64,1.74
3.280e-06,3.4,1.82
3.290e-06,3.56,1.74
3.300e-06,3.16,1.7
3.310e-06,3.56,1.74
3.320e-06,3.24,1.58
3.330e-06,3.24,1.66
3.340e-06,3.24,1.7
3.350e-06,3.24,1.7
3.360e-06,3.24,1.66
3.370e-06,3.08,1.66
3.380e-06,3,1.54
3.390e-06,3.24,1.54
3.400e-06,3.16,1.62
3.410e-06,3.16,1.62
3.420e-06,3.16,1.58
3.430e-06,3,1.62
3.440e-06,3,1.58
3.450e-06,3,1.58
3.460e-06,3,1.5
3.470e-06,2.92,1.58
3.480e-06,2.92,1.5
3.490e-06,3,1.54
3.500e-06,2.84,1.42
3.510e-06,2.92,1.54
3.520e-06,2.84,1.5
3.530e-06,2.84,1.42
3.540e-06,2.84,1.46
3.550e-06,2.76,1.46
3.560e-06,2.68,1.38
3.570e-06,2.76,1.34
3.580e-06,2.6,1.38
3.590e-06,2.68,1.38
3.600e-06,2.68,1.38
3.610e-06,2.68,1.42
3.620e-06,2.6,1.38
3.630e-06,2.6,1.42
3.640e-06,2.6,1.34
3.650e-06,2.6,1.34
3.660e-06,2.6,1.26
3.670e-06,2.6,1.26
3.680e-06,2.6,1.26
3.690e-06,2.52,1.34
3.700e-06,2.36,1.26
3.710e-06,2.52,1.18
3.720e-06,2.36,1.3
3.730e-06,2.36,1.18
3.740e-06,2.36,1.26
3.750e-06,2.36,1.14
3.760e-06,2.36,1.18
3.770e-06,2.2,1.18
3.780e-06,2.28,1.22
3.790e-06,2.28,1.26
3.800e-06,2.28,1.18
3.810e-06,2.28,1.1
3.820e-06,2.12,1.14
3.830e-06,2.12,1.14
3.840e-06,2.12,1.18
3.850e-06,2.04,1.14
3.860e-06,1.88,1.02
3.870e-06,2.12,1.14
3.880e-06,1.96,1.06
3.890e-06,1.88,1.02
3.900e-06,2.04,1.06
3.910e-06,1.96,1.02
3.920e-06,1.88,0.98
3.930e-06,2.04,0.94
3.940e-06,1.8,0.98
3.950e-06,1.8,0.9
3.960e-06,1.88,1.02
3.970e-06,1.8,0.86
3.980e-06,1.72,0.94
3.990e-06,1.72,0.9
4.000e-06,1.64,0.82
4.010e-06,1.64,0.86
4.020e-06,1.72,0.9
4.030e-06,1.64,0.94
4.040e-06,1.56,0.98
4.050e-06,1.64,0.86
4.060e-06,1.48,0.74
4.070e-06,1.64,0.74
4.080e-06,1.56,0.86
4.090e-06,1.48,0.82
4.100e-06,1.48,0.78
4.110e-06,1.48,0.78
4.120e-06,1.32,0.74
4.130e-06,1.24,0.78
4.140e-06,1.4,0.74
4.150e-06,1.32,0.74
4.160e-06,1.32,0.74
4.170e-06,1.32,0.7
4.180e-06,1.24,0.7
4.190e-06,1.24,0.66
4.200e-06,1.32,0.66
4.210e-06,1.16,0.66
4.220e-06,1.08,0.66
4.230e-06,1.32,0.66
4.240e-06,1.08,0.7
4.250e-06,1.16,0.66
4.260e-06,1,0.62
4.270e-06,1.08,0.62
4.280e-06,1,0.62
4.290e-06,1.16,0.62
4.300e-06,1,0.62
4.310e-06,1.08,0.54
4.320e-06,1.08,0.54
4.330e-06,1,0.5
4.340e-06,1,0.5
4.350e-06,0.92,0.42
4.360e-06,0.92,0.46
4.370e-06,0.84,0.46
4.380e-06,0.76,0.46
4.390e-06,0.76,0.42
4.400e-06,0.76,0.42
4.410e-06,0.84,0.46
4.420e-06,0.76,0.42
4.430e-06,0.76,0.42
4.440e-06,0.6,0.46
4.450e-06,0.76,0.38
4.460e-06,0.6,0.42
4.470e-06,0.6,0.42
4.480e-06,0.6,0.38
4.490e-06,0.6,0.26
4.500e-06,0.6,0.3
4.510e-06,0.44,0.34
4.520e-06,0.6,0.34
4.530e-06,0.52,0.26
4.540e-06,0.36,0.26
4.550e-06,0.36,0.3
4.560e-06,0.36,0.22
4.570e-06,0.36,0.3
4.580e-06,0.36,0.22
4.590e-06,0.36,0.22
4.600e-06,0.36,0.22
4.610e-06,0.36,0.22
4.620e-06,0.36,0.22
4.630e-06,0.2,0.26
4.640e-06,0.28,0.22
4.650e-06,0.2,0.18
4.660e-06,0.2,0.22
4.670e-06,0.2,0.18
4.680e-06,0.12,0.22
4.690e-06,0.12,0.14
4.700e-06,-0.04,0.18
4.710e-06,0.12,0.18
4.720e-06,0.12,0.1
4.730e-06,0.04,0.06
4.740e-06,0.04,0.06
4.750e-06,-0.12,0.1
4.760e-06,-0.04,0.1
4.770e-06,0.04,0.02
4.780e-06,-0.04,0.02
4.790e-06,-0.12,0.02
4.800e-06,-0.12,0.02
4.810e-06,-0.12,-0.02
4.820e-06,-0.04,-0.02
4.830e-06,-0.12,0.02
4.840e-06,-0.2,-0.06
4.850e-06,-0.2,-0.02
4.860e-06,-0.28,0.02
4.870e-06,-0.28,-0.02
4.880e-06,-0.52,-0.02
4.890e-06,-0.2,-0.06
4.900e-06,-0.36,-0.06
4.910e-06,-0.44,-0.1
4.920e-06,-0.44,-0.06
4.930e-06,-0.36,-0.02
4.940e-06,-0.44,-0.14
4.950e-06,-0.36,-0.1
4.960e-06,-0.36,-0.14
4.970e-06,-0.44,-0.14
4.980e-06,-0.6,-0.22
4.990e-06,-0.52,-0.14
5.000e-06,-0.52,-0.22
5.010e-06,-0.44,-0.22
5.020e-06,-0.68,-0.22
5.030e-06,-0.52,-0.26
5.040e-06,-0.68,-0.26
5.050e-06,-0.76,-0.18
5.060e-06,-0.76,-0.22
5.070e-06,-0.6,-0.3
5.080e-06,-0.76,-0.26
5.090e-06,-0.68,-0.3
5.100e-06,-0.84,-0.22
5.110e-06,-0.84,-0.26
5.120e-06,-0.76,-0.34
5.130e-06,-0.76,-0.34
5.140e-06,-0.92,-0.38
5.150e-06,-0.92,-0.3
5.160e-06,-0.76,-0.34
5.170e-06,-0.92,-0.38
5.180e-06,-1.08,-0.38
5.190e-06,-0.92,-0.34
5.200e-06,-0.92,-0.42
5.210e-06,-1.16,-0.42
5.220e-06,-0.92,-0.46
5.230e-06,-1.16,-0.46
5.240e-06,-1.24,-0.42
5.250e-06,-1.08,-0.46
5.260e-06,-1.16,-0.46
5.270e-06,-1.24,-0.54
5.280e-06,-1.32,-0.54
5.290e-06,-1.32,-0.46
5.300e-06,-1.4,-0.54
5.310e-06,-1.24,-0.54
5.320e-06,-1.24,-0.58
5.330e-06,-1.16,-0.66
5.340e-06,-1.32,-0.54
5.350e-06,-1.32,-0.62
5.360e-06,-1.4,-0.66
5.370e-06,-1.32,-0.62
5.380e-06,-1.4,-0.62
5.390e-06,-1.48,-0.62
5.400e-06,-1.4,-0.62
5.410e-06,-1.56,-0.54
5.420e-06,-1.48,-0.7
5.430e-06,-1.4,-0.66
5.440e-06,-1.56,-0.62
5.450e-06,-1.72,-0.66
5.460e-06,-1.56,-0.66
5.470e-06,-1.56,-0.74
5.480e-06,-1.64,-0.74
5.490e-06,-1.72,-0.78
5.500e-06,-1.72,-0.74
5.510e-06,-1.96,-0.74
5.520e-06,-1.8,-0.78
5.530e-06,-1.8,-0.74
5.540e-06,-1.8,-0.9
5.550e-06,-1.96,-0.94
5.560e-06,-1.96,-0.78
5.570e-06,-1.96,-0.86
5.580e-06,-1.8,-0.82
5.590e-06,-1.88,-0.9
5.600e-06,-1.96,-0.82
5.610e-06,-1.88,-0.82
5.620e-06,-1.96,-0.82
5.630e-06,-1.96,-0.9
5.640e-06,-1.96,-0.86
5.650e-06,-2.04,-0.86
5.660e-06,-2.2,-0.94
5.670e-06,-2.04,-0.94
5.680e-06,-2.28,-0.86
5.690e-06,-2.2,-0.94
5.700e-06,-2.04,-0.94
5.710e-06,-2.28,-0.98
5.720e-06,-2.2,-0.98
5.730e-06,-2.28,-1.02
5.740e-06,-2.28,-1.06
5.750e-06,-2.44,-1.02
5.760e-06,-2.36,-1.02
5.770e-06,-2.28,-1.02
5.780e-06,-2.36,-1.14
5.790e-06,-2.44,-1.06
5.800e-06,-2.52,-1.06
5.810e-06,-2.44,-1.22
5.820e-06,-2.6,-1.1
5.830e-06,-2.52,-1.14
5.840e-06,-2.6,-1.06
5.850e-06,-2.52,-1.18
5.860e-06,-2.44,-1.1
5.870e-06,-2.52,-1.1
5.880e-06,-2.68,-1.18
5.890e-06,-2.68,-1.14
5.900e-06,-2.76,-1.26
5.910e-06,-2.6,-1.26
5.920e-06,-2.76,-1.22
5.930e-06,-2.68,-1.22
5.940e-06,-2.68,-1.26
5.950e-06,-2.76,-1.22
5.960e-06,-2.84,-1.26
5.970e-06,-2.76,-1.22
5.980e-06,-2.92,-1.3
5.990e-06,-3,-1.26
6.000e-06,-2.84,-1.34
6.010e-06,-2.92,-1.34
6.020e-06,-2.92,-1.38
6.030e-06,-3,-1.3
6.040e-06,-2.92,-1.34
6.050e-06,-3.08,-1.34
6.060e-06,-2.92,-1.34
6.070e-06,-3.08,-1.38
6.080e-06,-3.08,-1.38
6.090e-06,-3.24,-1.38
6.100e-06,-3.24,-1.46
6.110e-06,-3.24,-1.46
6.120e-06,-3.08,-1.5
6.130e-06,-3.24,-1.42
6.140e-06,-3.32,-1.46
6.150e-06,-3.08,-1.42
6.160e-06,-3.32,-1.46
6.170e-06,-3.32,-1.58
6.180e-06,-3.24,-1.54
6.190e-06,-3.24,-1.58
6.200e-06,-3.32,-1.58
6.210e-06,-3.24,-1.58
6.220e-06,-3.32,-1.58
6.230e-06,-3.32,-1.54
6.240e-06,-3.4,-1.58
6.250e-06,-3.56,-1.54
6.260e-06,-3.48,-1.58
6.270e-06,-3.4,-1.62
6.280e-06,-3.48,-1.58
6.290e-06,-3.56,-1.66
6.300e-06,-3.56,-1.66
6.310e-06,-3.72,-1.7
6.320e-06,-3.72,-1.7
6.330e-06,-3.64,-1.66
6.340e-06,-3.72,-1.7
6.350e-06,-3.72,-1.74
6.360e-06,-3.8,-1.7
6.370e-06,-3.8,-1.78
6.380e-06,-3.72,-1.78
6.390e-06,-3.8,-1.66
6.400e-06,-4.04,-1.82
6.410e-06,-3.88,-1.82
6.420e-06,-3.88,-1.78
6.430e-06,-3.96,-1.82
6.440e-06,-3.96,-1.74
6.450e-06,-3.88,-1.86
6.460e-06,-3.96,-1.86
6.470e-06,-3.96,-1.86
6.480e-06,-3.96,-1.9
6.490e-06,-4.04,-1.82
6.500e-06,-4.2,-1.86
6.510e-06,-4.04,-1.9
6.520e-06,-3.96,-1.9
6.530e-06,-4.2,-1.94
6.540e-06,-4.12,-1.9
6.550e-06,-4.2,-2.02
6.560e-06,-4.28,-2.06
6.570e-06,-4.28,-2.06
6.580e-06,-4.28,-1.98
6.590e-06,-4.36,-2.02
6.600e-06,-4.28,-1.94
6.610e-06,-4.36,-2.02
6.620e-06,-4.36,-1.98
6.630e-06,-4.36,-1.94
6.640e-06,-4.36,-2.02
6.650e-06,-4.36,-2.1
6.660e-06,-4.44,-2.18
6.670e-06,-4.52,-2.14
6.680e-06,-4.52,-2.14
6.690e-06,-4.52,-2.22
6.700e-06,-4.76,-2.14
6.710e-06,-4.6,-2.26
6.720e-06,-4.52,-2.18
6.730e-06,-4.76,-2.34
6.740e-06,-4.6,-2.26
6.750e-06,-4.6,-2.22
6.760e-06,-4.76,-2.22
6.770e-06,-4.68,-2.18
6.780e-06,-4.68,-2.26
6.790e-06,-4.6,-2.3
6.800e-06,-4.76,-2.22
6.810e-06,-4.68,-2.26
6.820e-06,-4.84,-2.22
6.830e-06,-4.76,-2.26
6.840e-06,-4.76,-2.26
6.850e-06,-5,-2.26
6.860e-06,-4.92,-2.34
6.870e-06,-4.92,-2.3
6.880e-06,-5,-2.3
6.890e-06,-4.84,-2.34
6.900e-06,-5.08,-2.38
6.910e-06,-5.08,-2.34
6.920e-06,-5.08,-2.46
6.930e-06,-5.08,-2.46
6.940e-06,-5.08,-2.42
6.950e-06,-5.08,-2.46
6.960e-06,-5.16,-2.46
6.970e-06,-5.24,-2.46
6.980e-06,-5.16,-2.5
6.990e-06,-5.16,-2.54
7.000e-06,-5.24,-2.54
7.010e-06,-5.16,-2.46
7.020e-06,-5.16,-2.58
7.030e-06,-5.16,-2.5
7.040e-06,-5.32,-2.54
7.050e-06,-5.24,-2.58
7.060e-06,-5.24,-2.58
7.070e-06,-5.24,-2.5
7.080e-06,-5.24,-2.58
7.090e-06,-5.32,-2.58
7.100e-06,-5.32,-2.58
7.110e-06,-5.4,-2.62
7.120e-06,-5.56,-2.58
7.130e-06,-5.56,-2.62
7.140e-06,-5.64,-2.66
7.150e-06,-5.56,-2.66
7.160e-06,-5.64,-2.74
7.170e-06,-5.64,-2.74
7.180e-06,-5.64,-2.7
7.190e-06,-5.64,-2.74
7.200e-06,-5.64,-2.7
7.210e-06,-5.64,-2.82
7.220e-06,-5.8,-2.78
7.230e-06,-5.72,-2.78
7.240e-06,-5.64,-2.78
7.250e-06,-5.56,-2.78
7.260e-06,-5.64,-2.78
7.270e-06,-5.56,-2.82
7.280e-06,-5.72,-2.74
7.290e-06,-5.64,-2.78
7.300e-06,-5.4,-2.7
7.310e-06,-5.56,-2.74
7.320e-06,-5.64,-2.7
7.330e-06,-5.64,-2.74
7.340e-06,-5.56,-2.66
7.350e-06,-5.56,-2.74
7.360e-06,-5.48,-2.78
7.370e-06,-5.4,-2.7
7.380e-06,-5.4,-2.78
7.390e-06,-5.48,-2.66
7.400e-06,-5.4,-2.74
7.410e-06,-5.24,-2.62
7.420e-06,-5.32,-2.62
7.430e-06,-5.24,-2.7
7.440e-06,-5.4,-2.66
7.450e-06,-5.08,-2.66
7.460e-06,-5.32,-2.62
7.470e-06,-5.24,-2.62
7.480e-06,-5.24,-2.58
7.490e-06,-5.16,-2.58
7.500e-06,-5,-2.58
7.510e-06,-5.24,-2.5
7.520e-06,-5.16,-2.58
7.530e-06,-5.16,-2.58
7.540e-06,-5.08,-2.58
7.550e-06,-5.08,-2.58
7.560e-06,-4.92,-2.54
7.570e-06,-5.16,-2.58
7.580e-06,-5.08,-2.42
7.590e-06,-4.92,-2.58
7.600e-06,-5.08,-2.5
7.610e-06,-4.92,-2.54
7.620e-06,-5,-2.46
7.630e-06,-4.92,-2.46
7.640e-06,-4.84,-2.34
7.650e-06,-4.84,-2.46
7.660e-06,-4.92,-2.42
7.670e-06,-4.76,-2.46
7.680e-06,-4.76,-2.42
7.690e-06,-4.76,-2.38
7.700e-06,-4.84,-2.26
7.710e-06,-4.68,-2.3
7.720e-06,-4.68,-2.38
7.730e-06,-4.6,-2.3
7.740e-06,-4.52,-2.34
7.750e-06,-4.52,-2.3
7.760e-06,-4.6,-2.3
7.770e-06,-4.6,-2.3
7.780e-06,-4.44,-2.3
7.790e-06,-4.44,-2.22
7.800e-06,-4.44,-2.3
7.810e-06,-4.44,-2.26
7.820e-06,-4.52,-2.26
7.830e-06,-4.36,-2.26
7.840e-06,-4.36,-2.22
7.850e-06,-4.36,-2.22
7.860e-06,-4.36,-2.26
7.870e-06,-4.28,-2.22
7.880e-06,-4.28,-2.14
7.890e-06,-4.36,-2.26
7.900e-06,-4.2,-2.14
7.910e-06,-4.28,-2.14
7.920e-06,-4.04,-2.14
7.930e-06,-4.12,-2.06
7.940e-06,-4.2,-2.1
7.950e-06,-4.12,-2.14
7.960e-06,-4.2,-2.02
7.970e-06,-3.96,-2.1
7.980e-06,-4.12,-2.06
7.990e-06,-3.96,-2.06
8.000e-06,-3.96,-1.98
8.010e-06,-3.88,-2.06
