Archivos Guadalupe/Data/1410-32-X3/18-07/tek0006ALL.csv

Model,DPO3034
Firmware Version,2.16

Point Format,Y,
Horizontal Units,S,
Horizontal Scale,1e-06,
Sample Interval,1e-08,
Record Length,1000,
Gating,0.0% to 100.0%,0.0% to 100.0%
Probe Attenuation,1,1
Vertical Units,V,V
Vertical Offset,0,0
Vertical Scale,1,0.5
Label,,
TIME,CH1,CH3
-1.570e-06,0.02,0.01
-1.560e-06,0.02,0.01
-1.550e-06,0.02,-0.01
-1.540e-06,-0.02,-0.01
-1.530e-06,-0.02,-0.01
-1.520e-06,-0.02,0.01
-1.510e-06,-0.02,0.01
-1.500e-06,-0.02,0.03
-1.490e-06,-0.02,0.01
-1.480e-06,-0.02,0.01
-1.470e-06,0.02,0.01
-1.460e-06,-0.02,0.01
-1.450e-06,-0.02,0.01
-1.440e-06,0.02,-0.01
-1.430e-06,-0.02,-0.01
-1.420e-06,-0.06,-0.01
-1.410e-06,0.06,-0.01
-1.400e-06,0.06,0.01
-1.390e-06,-0.06,-0.01
-1.380e-06,-0.02,0.01
-1.370e-06,0.06,-0.01
-1.360e-06,0.02,0.03
-1.350e-06,-0.02,0.01
-1.340e-06,-0.02,0.01
-1.330e-06,-0.02,-0.01
-1.320e-06,-0.02,0.05
-1.310e-06,-0.02,0.01
-1.300e-06,0.06,0.01
-1.290e-06,0.02,-0.01
-1.280e-06,0.02,0.01
-1.270e-06,-0.1,0.01
-1.260e-06,-0.02,0.01
-1.250e-06,-0.02,-0.01
-1.240e-06,-0.02,0.01
-1.230e-06,-0.02,-0.01
-1.220e-06,-0.02,-0.01
-1.210e-06,-0.02,0.01
-1.200e-06,-0.02,-0.03
-1.190e-06,-0.1,0.01
-1.180e-06,-0.02,-0.01
-1.170e-06,0.1,-0.01
-1.160e-06,-0.02,0.01
-1.150e-06,0.02,0.01
-1.140e-06,-0.02,0.01
-1.130e-06,-0.02,0.01
-1.120e-06,-0.02,0.01
-1.110e-06,-0.1,0.03
-1.100e-06,-0.02,0.03
-1.090e-06,0.02,-0.01
-1.080e-06,0.02,-0.01
-1.070e-06,-0.02,0.01
-1.060e-06,0.02,-0.01
-1.050e-06,-0.06,-0.01
-1.040e-06,-0.02,-0.01
-1.030e-06,0.06,-0.01
-1.020e-06,-0.02,-0.01
-1.010e-06,-0.02,0.01
-1.000e-06,0.02,0.01
-9.900e-07,-0.1,-0.01
-9.800e-07,-0.06,-0.01
-9.700e-07,-0.06,0.01
-9.600e-07,-0.02,-0.01
-9.500e-07,-0.02,0.01
-9.400e-07,-0.02,0.01
-9.300e-07,0.02,0.01
-9.200e-07,0.02,-0.01
-9.100e-07,-0.02,-0.01
-9.000e-07,-0.02,0.01
-8.900e-07,-0.02,-0.01
-8.800e-07,-0.02,0.01
-8.700e-07,-0.02,-0.03
-8.600e-07,-0.02,0.01
-8.500e-07,-0.02,0.01
-8.400e-07,-0.02,0.01
-8.300e-07,-0.02,0.01
-8.200e-07,-0.02,0.01
-8.100e-07,-0.02,-0.01
-8.000e-07,-0.02,0.01
-7.900e-07,-0.02,-0.01
-7.800e-07,-0.02,-0.01
-7.700e-07,-0.02,0.01
-7.600e-07,0.06,-0.03
-7.500e-07,0.02,-0.03
-7.400e-07,0.06,0.01
-7.300e-07,-0.02,0.01
-7.200e-07,-0.02,0.01
-7.100e-07,-0.06,0.01
-7.000e-07,-0.02,-0.01
-6.900e-07,-0.02,-0.01
-6.800e-07,-0.02,0.01
-6.700e-07,0.02,-0.01
-6.600e-07,0.02,-0.01
-6.500e-07,-0.1,0.01
-6.400e-07,-0.02,0.03
-6.300e-07,0.02,-0.01
-6.200e-07,0.02,0.01
-6.100e-07,0.06,-0.01
-6.000e-07,-0.02,0.01
-5.900e-07,-0.02,0.01
-5.800e-07,-0.02,-0.01
-5.700e-07,-0.06,0.01
-5.600e-07,-0.02,-0.01
-5.500e-07,-0.02,0.01
-5.400e-07,-0.02,0.01
-5.300e-07,-0.02,0.01
-5.200e-07,0.06,0.01
-5.100e-07,-0.02,0.03
-5.000e-07,-0.02,0.03
-4.900e-07,-0.02,0.01
-4.800e-07,0.06,0.03
-4.700e-07,-0.02,0.03
-4.600e-07,0.06,0.01
-4.500e-07,0.02,0.03
-4.400e-07,0.14,0.05
-4.300e-07,0.02,0.07
-4.200e-07,0.06,0.09
-4.100e-07,0.06,0.17
-4.000e-07,0.14,0.17
-3.900e-07,0.18,0.19
-3.800e-07,0.14,0.17
-3.700e-07,0.26,0.15
-3.600e-07,0.18,0.11
-3.500e-07,0.18,0.11
-3.400e-07,0.18,0.07
-3.300e-07,0.18,0.03
-3.200e-07,0.14,0.01
-3.100e-07,0.14,0.03
-3.000e-07,0.1,0.01
-2.900e-07,0.18,0.01
-2.800e-07,0.22,0.05
-2.700e-07,0.26,0.07
-2.600e-07,0.26,0.09
-2.500e-07,0.26,0.11
-2.400e-07,0.38,0.15
-2.300e-07,0.34,0.15
-2.200e-07,0.46,0.19
-2.100e-07,0.38,0.19
-2.000e-07,0.5,0.21
-1.900e-07,0.42,0.23
-1.800e-07,0.42,0.25
-1.700e-07,0.42,0.23
-1.600e-07,0.42,0.21
-1.500e-07,0.38,0.23
-1.400e-07,0.42,0.25
-1.300e-07,0.42,0.21
-1.200e-07,0.5,0.19
-1.100e-07,0.34,0.15
-1.000e-07,0.46,0.15
-9.000e-08,0.5,0.15
-8.000e-08,0.46,0.13
-7.000e-08,0.46,0.15
-6.000e-08,0.54,0.19
-5.000e-08,0.54,0.19
-4.000e-08,0.58,0.23
-3.000e-08,0.58,0.23
-2.000e-08,0.74,0.23
-1.000e-08,0.66,0.25
-5.238e-21,0.62,0.29
1.000e-08,0.74,0.27
2.000e-08,0.7,0.31
3.000e-08,0.74,0.33
4.000e-08,0.78,0.31
5.000e-08,0.74,0.37
6.000e-08,0.7,0.37
7.000e-08,0.78,0.33
8.000e-08,0.7,0.37
9.000e-08,0.74,0.35
1.000e-07,0.74,0.33
1.100e-07,0.78,0.33
1.200e-07,0.74,0.33
1.300e-07,0.74,0.31
1.400e-07,0.82,0.33
1.500e-07,0.78,0.33
1.600e-07,0.86,0.33
1.700e-07,0.86,0.33
1.800e-07,0.94,0.33
1.900e-07,0.86,0.35
2.000e-07,0.94,0.35
2.100e-07,1.02,0.37
2.200e-07,0.94,0.41
2.300e-07,1.02,0.41
2.400e-07,1.02,0.45
2.500e-07,1.06,0.45
2.600e-07,1.1,0.47
2.700e-07,1.06,0.47
2.800e-07,1.06,0.47
2.900e-07,1.02,0.51
3.000e-07,1.06,0.49
3.100e-07,1.02,0.47
3.200e-07,1.1,0.49
3.300e-07,1.1,0.49
3.400e-07,1.06,0.51
3.500e-07,1.1,0.47
3.600e-07,1.14,0.49
3.700e-07,1.06,0.53
3.800e-07,1.14,0.53
3.900e-07,1.18,0.49
4.000e-07,1.14,0.51
4.100e-07,1.22,0.49
4.200e-07,1.22,0.55
4.300e-07,1.26,0.53
4.400e-07,1.26,0.53
4.500e-07,1.3,0.53
4.600e-07,1.26,0.57
4.700e-07,1.26,0.57
4.800e-07,1.26,0.61
4.900e-07,1.34,0.63
5.000e-07,1.38,0.63
5.100e-07,1.38,0.63
5.200e-07,1.34,0.63
5.300e-07,1.34,0.63
5.400e-07,1.38,0.65
5.500e-07,1.34,0.67
5.600e-07,1.5,0.67
5.700e-07,1.42,0.67
5.800e-07,1.38,0.65
5.900e-07,1.42,0.65
6.000e-07,1.46,0.65
6.100e-07,1.46,0.69
6.200e-07,1.46,0.69
6.300e-07,1.46,0.67
6.400e-07,1.5,0.69
6.500e-07,1.5,0.69
6.600e-07,1.5,0.71
6.700e-07,1.54,0.71
6.800e-07,1.54,0.69
6.900e-07,1.54,0.67
7.000e-07,1.58,0.69
7.100e-07,1.66,0.73
7.200e-07,1.74,0.77
7.300e-07,1.7,0.81
7.400e-07,1.7,0.81
7.500e-07,1.7,0.81
7.600e-07,1.7,0.83
7.700e-07,1.74,0.83
7.800e-07,1.78,0.83
7.900e-07,1.7,0.83
8.000e-07,1.66,0.85
8.100e-07,1.7,0.85
8.200e-07,1.78,0.83
8.300e-07,1.7,0.85
8.400e-07,1.74,0.83
8.500e-07,1.78,0.81
8.600e-07,1.78,0.83
8.700e-07,1.82,0.83
8.800e-07,1.78,0.83
8.900e-07,1.82,0.83
9.000e-07,1.78,0.87
9.100e-07,1.9,0.85
9.200e-07,1.94,0.85
9.300e-07,1.98,0.87
9.400e-07,1.94,0.89
9.500e-07,1.9,0.95
9.600e-07,2.06,0.95
9.700e-07,2.06,0.97
9.800e-07,2.1,0.99
9.900e-07,2.14,1.01
1.000e-06,2.06,1.03
1.010e-06,2.06,1.03
1.020e-06,2.06,1.03
1.030e-06,2.06,1.01
1.040e-06,2.1,1.01
1.050e-06,2.1,1.01
1.060e-06,2.1,1.01
1.070e-06,2.06,1.03
1.080e-06,2.1,0.99
1.090e-06,2.1,1.01
1.100e-06,2.14,1.01
1.110e-06,2.1,0.99
1.120e-06,2.22,1.01
1.130e-06,2.26,1.03
1.140e-06,2.22,1.01
1.150e-06,2.22,1.07
1.160e-06,2.26,1.03
1.170e-06,2.3,1.07
1.180e-06,2.34,1.13
1.190e-06,2.3,1.09
1.200e-06,2.3,1.13
1.210e-06,2.26,1.07
1.220e-06,2.38,1.13
1.230e-06,2.3,1.13
1.240e-06,2.38,1.13
1.250e-06,2.38,1.13
1.260e-06,2.34,1.15
1.270e-06,2.42,1.17
1.280e-06,2.34,1.17
1.290e-06,2.42,1.15
1.300e-06,2.42,1.17
1.310e-06,2.38,1.13
1.320e-06,2.46,1.15
1.330e-06,2.5,1.17
1.340e-06,2.5,1.19
1.350e-06,2.46,1.17
1.360e-06,2.5,1.21
1.370e-06,2.54,1.19
1.380e-06,2.58,1.19
1.390e-06,2.62,1.27
1.400e-06,2.62,1.21
1.410e-06,2.54,1.21
1.420e-06,2.62,1.23
1.430e-06,2.62,1.23
1.440e-06,2.54,1.23
1.450e-06,2.58,1.27
1.460e-06,2.62,1.23
1.470e-06,2.62,1.23
1.480e-06,2.7,1.25
1.490e-06,2.62,1.27
1.500e-06,2.66,1.29
1.510e-06,2.74,1.27
1.520e-06,2.74,1.29
1.530e-06,2.66,1.29
1.540e-06,2.86,1.31
1.550e-06,2.74,1.29
1.560e-06,2.74,1.31
1.570e-06,2.74,1.31
1.580e-06,2.86,1.33
1.590e-06,2.78,1.35
1.600e-06,2.78,1.35
1.610e-06,2.82,1.37
1.620e-06,2.82,1.37
1.630e-06,2.9,1.37
1.640e-06,2.9,1.37
1.650e-06,2.94,1.39
1.660e-06,2.86,1.41
1.670e-06,2.86,1.39
1.680e-06,2.94,1.39
1.690e-06,2.98,1.41
1.700e-06,2.98,1.45
1.710e-06,2.98,1.39
1.720e-06,2.98,1.39
1.730e-06,2.98,1.43
1.740e-06,2.98,1.43
1.750e-06,2.94,1.45
1.760e-06,3.06,1.43
1.770e-06,3.1,1.47
1.780e-06,3.02,1.47
1.790e-06,3.02,1.49
1.800e-06,3.1,1.47
1.810e-06,3.14,1.49
1.820e-06,3.22,1.49
1.830e-06,3.1,1.49
1.840e-06,3.1,1.49
1.850e-06,3.22,1.53
1.860e-06,3.26,1.59
1.870e-06,3.22,1.53
1.880e-06,3.22,1.53
1.890e-06,3.22,1.55
1.900e-06,3.22,1.59
1.910e-06,3.3,1.59
1.920e-06,3.3,1.61
1.930e-06,3.26,1.61
1.940e-06,3.26,1.63
1.950e-06,3.3,1.59
1.960e-06,3.38,1.61
1.970e-06,3.34,1.65
1.980e-06,3.3,1.61
1.990e-06,3.38,1.61
2.000e-06,3.38,1.63
2.010e-06,3.3,1.59
2.020e-06,3.34,1.59
2.030e-06,3.3,1.63
2.040e-06,3.3,1.61
2.050e-06,3.34,1.59
2.060e-06,3.26,1.57
2.070e-06,3.26,1.59
2.080e-06,3.3,1.59
2.090e-06,3.3,1.59
2.100e-06,3.26,1.59
2.110e-06,3.26,1.61
2.120e-06,3.26,1.65
2.130e-06,3.26,1.63
2.140e-06,3.26,1.61
2.150e-06,3.14,1.61
2.160e-06,3.22,1.59
2.170e-06,3.18,1.61
2.180e-06,3.22,1.63
2.190e-06,3.18,1.61
2.200e-06,3.22,1.61
2.210e-06,3.1,1.59
2.220e-06,3.14,1.57
2.230e-06,3.06,1.57
2.240e-06,3.06,1.57
2.250e-06,3.06,1.55
2.260e-06,3.02,1.53
2.270e-06,3.02,1.49
2.280e-06,3.1,1.53
2.290e-06,2.98,1.51
2.300e-06,2.94,1.51
2.310e-06,3.02,1.49
2.320e-06,2.98,1.49
2.330e-06,2.94,1.45
2.340e-06,3.02,1.45
2.350e-06,2.9,1.45
2.360e-06,2.86,1.49
2.370e-06,2.86,1.47
2.380e-06,2.98,1.45
2.390e-06,2.9,1.47
2.400e-06,2.82,1.49
2.410e-06,2.82,1.49
2.420e-06,2.74,1.45
2.430e-06,2.82,1.45
2.440e-06,2.82,1.41
2.450e-06,2.82,1.41
2.460e-06,2.82,1.39
2.470e-06,2.78,1.43
2.480e-06,2.78,1.39
2.490e-06,2.66,1.39
2.500e-06,2.74,1.39
2.510e-06,2.7,1.41
2.520e-06,2.7,1.39
2.530e-06,2.62,1.37
2.540e-06,2.66,1.35
2.550e-06,2.7,1.37
2.560e-06,2.62,1.33
2.570e-06,2.58,1.31
2.580e-06,2.62,1.29
2.590e-06,2.54,1.31
2.600e-06,2.62,1.29
2.610e-06,2.58,1.29
2.620e-06,2.62,1.29
2.630e-06,2.5,1.31
2.640e-06,2.58,1.31
2.650e-06,2.46,1.31
2.660e-06,2.54,1.29
2.670e-06,2.5,1.27
2.680e-06,2.46,1.29
2.690e-06,2.46,1.29
2.700e-06,2.42,1.29
2.710e-06,2.5,1.25
2.720e-06,2.42,1.27
2.730e-06,2.42,1.27
2.740e-06,2.42,1.23
2.750e-06,2.42,1.27
2.760e-06,2.38,1.23
2.770e-06,2.42,1.21
2.780e-06,2.38,1.23
2.790e-06,2.3,1.23
2.800e-06,2.3,1.23
2.810e-06,2.26,1.21
2.820e-06,2.3,1.19
2.830e-06,2.26,1.17
2.840e-06,2.26,1.17
2.850e-06,2.26,1.17
2.860e-06,2.26,1.17
2.870e-06,2.26,1.13
2.880e-06,2.18,1.13
2.890e-06,2.26,1.15
2.900e-06,2.22,1.13
2.910e-06,2.18,1.13
2.920e-06,2.22,1.11
2.930e-06,2.18,1.13
2.940e-06,2.18,1.09
2.950e-06,2.18,1.09
2.960e-06,2.06,1.09
2.970e-06,2.14,1.09
2.980e-06,2.1,1.07
2.990e-06,2.14,1.07
3.000e-06,2.06,1.05
3.010e-06,1.98,1.03
3.020e-06,2.1,1.03
3.030e-06,2.02,1.03
3.040e-06,2.02,1.07
3.050e-06,2.02,1.01
3.060e-06,1.94,0.99
3.070e-06,2.02,1.01
3.080e-06,2.06,0.95
3.090e-06,1.94,0.97
3.100e-06,1.94,0.99
3.110e-06,1.94,0.99
3.120e-06,1.94,0.97
3.130e-06,1.9,0.95
3.140e-06,1.9,0.95
3.150e-06,1.82,0.97
3.160e-06,1.9,0.95
3.170e-06,1.86,0.91
3.180e-06,1.78,0.93
3.190e-06,1.82,0.89
3.200e-06,1.74,0.93
3.210e-06,1.82,0.91
3.220e-06,1.78,0.89
3.230e-06,1.66,0.89
3.240e-06,1.7,0.87
3.250e-06,1.74,0.85
3.260e-06,1.7,0.83
3.270e-06,1.62,0.85
3.280e-06,1.7,0.85
3.290e-06,1.7,0.83
3.300e-06,1.66,0.83
3.310e-06,1.66,0.83
3.320e-06,1.54,0.81
3.330e-06,1.62,0.83
3.340e-06,1.54,0.81
3.350e-06,1.5,0.79
3.360e-06,1.54,0.81
3.370e-06,1.54,0.79
3.380e-06,1.46,0.75
3.390e-06,1.54,0.77
3.400e-06,1.5,0.75
3.410e-06,1.54,0.79
3.420e-06,1.46,0.75
3.430e-06,1.46,0.75
3.440e-06,1.54,0.73
3.450e-06,1.46,0.71
3.460e-06,1.38,0.73
3.470e-06,1.38,0.71
3.480e-06,1.46,0.71
3.490e-06,1.38,0.69
3.500e-06,1.34,0.69
3.510e-06,1.3,0.67
3.520e-06,1.38,0.65
3.530e-06,1.3,0.67
3.540e-06,1.3,0.65
3.550e-06,1.3,0.65
3.560e-06,1.34,0.63
3.570e-06,1.26,0.65
3.580e-06,1.22,0.67
3.590e-06,1.26,0.65
3.600e-06,1.34,0.65
3.610e-06,1.26,0.67
3.620e-06,1.22,0.59
3.630e-06,1.18,0.61
3.640e-06,1.1,0.61
3.650e-06,1.26,0.61
3.660e-06,1.18,0.59
3.670e-06,1.14,0.63
3.680e-06,1.14,0.61
3.690e-06,1.06,0.61
3.700e-06,1.1,0.59
3.710e-06,1.1,0.57
3.720e-06,1.02,0.53
3.730e-06,1.1,0.57
3.740e-06,1.06,0.53
3.750e-06,1.02,0.57
3.760e-06,0.9,0.51
3.770e-06,1.06,0.53
3.780e-06,1.06,0.55
3.790e-06,0.9,0.53
3.800e-06,0.98,0.51
3.810e-06,0.94,0.51
3.820e-06,0.9,0.49
3.830e-06,0.9,0.51
3.840e-06,0.94,0.49
3.850e-06,0.9,0.47
3.860e-06,0.78,0.47
3.870e-06,0.86,0.45
3.880e-06,0.86,0.43
3.890e-06,0.82,0.45
3.900e-06,0.78,0.45
3.910e-06,0.82,0.43
3.920e-06,0.82,0.49
3.930e-06,0.82,0.43
3.940e-06,0.82,0.43
3.950e-06,0.78,0.41
3.960e-06,0.74,0.41
3.970e-06,0.7,0.41
3.980e-06,0.7,0.39
3.990e-06,0.74,0.39
4.000e-06,0.7,0.37
4.010e-06,0.7,0.35
4.020e-06,0.74,0.37
4.030e-06,0.7,0.37
4.040e-06,0.62,0.37
4.050e-06,0.62,0.39
4.060e-06,0.62,0.33
4.070e-06,0.66,0.31
4.080e-06,0.54,0.31
4.090e-06,0.58,0.33
4.100e-06,0.58,0.31
4.110e-06,0.5,0.33
4.120e-06,0.54,0.31
4.130e-06,0.54,0.29
4.140e-06,0.5,0.27
4.150e-06,0.5,0.27
4.160e-06,0.54,0.27
4.170e-06,0.46,0.27
4.180e-06,0.38,0.25
4.190e-06,0.42,0.27
4.200e-06,0.58,0.23
4.210e-06,0.5,0.23
4.220e-06,0.42,0.23
4.230e-06,0.34,0.25
4.240e-06,0.34,0.23
4.250e-06,0.34,0.21
4.260e-06,0.34,0.19
4.270e-06,0.26,0.21
4.280e-06,0.3,0.19
4.290e-06,0.26,0.19
4.300e-06,0.38,0.17
4.310e-06,0.26,0.15
4.320e-06,0.22,0.15
4.330e-06,0.22,0.15
4.340e-06,0.26,0.17
4.350e-06,0.18,0.13
4.360e-06,0.18,0.13
4.370e-06,0.26,0.13
4.380e-06,0.22,0.15
4.390e-06,0.18,0.11
4.400e-06,0.14,0.11
4.410e-06,0.18,0.09
4.420e-06,0.18,0.11
4.430e-06,0.14,0.11
4.440e-06,0.14,0.09
4.450e-06,0.06,0.07
4.460e-06,0.02,0.05
4.470e-06,0.02,0.05
4.480e-06,0.06,0.03
4.490e-06,0.1,0.05
4.500e-06,0.02,0.03
4.510e-06,0.02,0.01
4.520e-06,-0.02,0.01
4.530e-06,-0.06,0.01
4.540e-06,-0.02,0.01
4.550e-06,-0.02,0.01
4.560e-06,-0.02,0.07
4.570e-06,-0.14,0.05
4.580e-06,-0.1,0.03
4.590e-06,-0.06,0.05
4.600e-06,-0.06,0.01
4.610e-06,-0.02,0.01
4.620e-06,-0.02,0.01
4.630e-06,-0.1,0.01
4.640e-06,-0.1,-0.01
4.650e-06,-0.14,-0.05
4.660e-06,-0.18,-0.05
4.670e-06,-0.18,-0.07
4.680e-06,-0.22,-0.11
4.690e-06,-0.26,-0.09
4.700e-06,-0.26,-0.07
4.710e-06,-0.3,-0.13
4.720e-06,-0.34,-0.15
4.730e-06,-0.22,-0.17
4.740e-06,-0.34,-0.13
4.750e-06,-0.3,-0.13
4.760e-06,-0.34,-0.13
4.770e-06,-0.26,-0.13
4.780e-06,-0.26,-0.13
4.790e-06,-0.34,-0.07
4.800e-06,-0.34,-0.11
4.810e-06,-0.38,-0.13
4.820e-06,-0.38,-0.13
4.830e-06,-0.38,-0.13
4.840e-06,-0.42,-0.13
4.850e-06,-0.42,-0.17
4.860e-06,-0.38,-0.19
4.870e-06,-0.54,-0.21
4.880e-06,-0.54,-0.21
4.890e-06,-0.5,-0.23
4.900e-06,-0.46,-0.25
4.910e-06,-0.54,-0.25
4.920e-06,-0.5,-0.27
4.930e-06,-0.58,-0.25
4.940e-06,-0.58,-0.27
4.950e-06,-0.54,-0.25
4.960e-06,-0.58,-0.25
4.970e-06,-0.62,-0.29
4.980e-06,-0.66,-0.27
4.990e-06,-0.7,-0.27
5.000e-06,-0.62,-0.25
5.010e-06,-0.62,-0.31
5.020e-06,-0.62,-0.27
5.030e-06,-0.66,-0.27
5.040e-06,-0.62,-0.29
5.050e-06,-0.7,-0.27
5.060e-06,-0.7,-0.29
5.070e-06,-0.66,-0.31
5.080e-06,-0.74,-0.33
5.090e-06,-0.74,-0.33
5.100e-06,-0.78,-0.35
5.110e-06,-0.86,-0.37
5.120e-06,-0.82,-0.37
5.130e-06,-0.82,-0.35
5.140e-06,-0.78,-0.39
5.150e-06,-0.82,-0.39
5.160e-06,-0.86,-0.35
5.170e-06,-0.9,-0.35
5.180e-06,-0.78,-0.35
5.190e-06,-0.94,-0.39
5.200e-06,-0.94,-0.39
5.210e-06,-0.94,-0.41
5.220e-06,-0.98,-0.41
5.230e-06,-0.9,-0.45
5.240e-06,-0.9,-0.41
5.250e-06,-0.98,-0.41
5.260e-06,-0.94,-0.45
5.270e-06,-1.02,-0.45
5.280e-06,-1.06,-0.43
5.290e-06,-1.06,-0.49
5.300e-06,-1.1,-0.47
5.310e-06,-1.1,-0.49
5.320e-06,-1.06,-0.51
5.330e-06,-1.1,-0.47
5.340e-06,-1.14,-0.51
5.350e-06,-1.06,-0.49
5.360e-06,-1.18,-0.45
5.370e-06,-1.14,-0.51
5.380e-06,-1.18,-0.51
5.390e-06,-1.1,-0.55
5.400e-06,-1.18,-0.53
5.410e-06,-1.22,-0.53
5.420e-06,-1.18,-0.59
5.430e-06,-1.22,-0.53
5.440e-06,-1.22,-0.55
5.450e-06,-1.26,-0.57
5.460e-06,-1.26,-0.57
5.470e-06,-1.3,-0.55
5.480e-06,-1.3,-0.59
5.490e-06,-1.38,-0.59
5.500e-06,-1.34,-0.61
5.510e-06,-1.34,-0.57
5.520e-06,-1.3,-0.59
5.530e-06,-1.34,-0.61
5.540e-06,-1.42,-0.61
5.550e-06,-1.34,-0.61
5.560e-06,-1.46,-0.61
5.570e-06,-1.42,-0.63
5.580e-06,-1.42,-0.65
5.590e-06,-1.42,-0.63
5.600e-06,-1.54,-0.67
5.610e-06,-1.42,-0.67
5.620e-06,-1.5,-0.69
5.630e-06,-1.5,-0.69
5.640e-06,-1.46,-0.73
5.650e-06,-1.5,-0.73
5.660e-06,-1.5,-0.75
5.670e-06,-1.62,-0.75
5.680e-06,-1.58,-0.75
5.690e-06,-1.62,-0.77
5.700e-06,-1.62,-0.73
5.710e-06,-1.62,-0.73
5.720e-06,-1.62,-0.73
5.730e-06,-1.58,-0.71
5.740e-06,-1.62,-0.71
5.750e-06,-1.66,-0.75
5.760e-06,-1.66,-0.71
5.770e-06,-1.7,-0.79
5.780e-06,-1.7,-0.75
5.790e-06,-1.74,-0.79
5.800e-06,-1.66,-0.79
5.810e-06,-1.74,-0.79
5.820e-06,-1.82,-0.77
5.830e-06,-1.9,-0.81
5.840e-06,-1.82,-0.83
5.850e-06,-1.78,-0.85
5.860e-06,-1.86,-0.87
5.870e-06,-1.86,-0.89
5.880e-06,-1.82,-0.89
5.890e-06,-1.9,-0.91
5.900e-06,-1.94,-0.89
5.910e-06,-1.9,-0.89
5.920e-06,-1.86,-0.91
5.930e-06,-1.9,-0.89
5.940e-06,-1.9,-0.87
5.950e-06,-2.02,-0.89
5.960e-06,-1.94,-0.89
5.970e-06,-1.98,-0.87
5.980e-06,-1.86,-0.87
5.990e-06,-1.94,-0.89
6.000e-06,-2.02,-0.87
6.010e-06,-1.94,-0.91
6.020e-06,-2.06,-0.91
6.030e-06,-2.06,-0.91
6.040e-06,-2.1,-0.95
6.050e-06,-2.02,-0.95
6.060e-06,-2.06,-0.97
6.070e-06,-2.1,-0.97
6.080e-06,-2.14,-0.99
6.090e-06,-2.14,-1.01
6.100e-06,-2.1,-1.05
6.110e-06,-2.14,-1.01
6.120e-06,-2.18,-1.03
6.130e-06,-2.14,-1.03
6.140e-06,-2.14,-1.05
6.150e-06,-2.18,-1.03
6.160e-06,-2.26,-1.01
6.170e-06,-2.22,-0.99
6.180e-06,-2.18,-1.05
6.190e-06,-2.26,-1.05
6.200e-06,-2.34,-1.05
6.210e-06,-2.34,-1.07
6.220e-06,-2.34,-1.09
6.230e-06,-2.42,-1.09
6.240e-06,-2.38,-1.11
6.250e-06,-2.54,-1.17
6.260e-06,-2.42,-1.15
6.270e-06,-2.42,-1.13
6.280e-06,-2.42,-1.13
6.290e-06,-2.5,-1.15
6.300e-06,-2.38,-1.13
6.310e-06,-2.42,-1.15
6.320e-06,-2.38,-1.13
6.330e-06,-2.46,-1.13
6.340e-06,-2.46,-1.17
6.350e-06,-2.46,-1.17
6.360e-06,-2.5,-1.19
6.370e-06,-2.46,-1.21
6.380e-06,-2.54,-1.19
6.390e-06,-2.54,-1.17
6.400e-06,-2.54,-1.17
6.410e-06,-2.58,-1.21
6.420e-06,-2.54,-1.21
6.430e-06,-2.58,-1.23
6.440e-06,-2.58,-1.23
6.450e-06,-2.62,-1.27
6.460e-06,-2.66,-1.27
6.470e-06,-2.62,-1.31
6.480e-06,-2.7,-1.27
6.490e-06,-2.7,-1.27
6.500e-06,-2.7,-1.25
6.510e-06,-2.66,-1.27
6.520e-06,-2.7,-1.31
6.530e-06,-2.74,-1.29
6.540e-06,-2.66,-1.31
6.550e-06,-2.7,-1.33
6.560e-06,-2.82,-1.29
6.570e-06,-2.7,-1.33
6.580e-06,-2.78,-1.33
6.590e-06,-2.82,-1.33
6.600e-06,-2.78,-1.31
6.610e-06,-2.86,-1.31
6.620e-06,-2.82,-1.35
6.630e-06,-2.82,-1.35
6.640e-06,-2.86,-1.37
6.650e-06,-2.86,-1.37
6.660e-06,-2.94,-1.39
6.670e-06,-2.94,-1.37
6.680e-06,-2.94,-1.39
6.690e-06,-3.02,-1.39
6.700e-06,-3.02,-1.41
6.710e-06,-2.98,-1.43
6.720e-06,-3.02,-1.49
6.730e-06,-2.94,-1.45
6.740e-06,-3.06,-1.49
6.750e-06,-3.02,-1.51
6.760e-06,-3.1,-1.49
6.770e-06,-3.02,-1.49
6.780e-06,-3.06,-1.45
6.790e-06,-3.06,-1.43
6.800e-06,-3.06,-1.47
6.810e-06,-3.06,-1.49
6.820e-06,-3.1,-1.49
6.830e-06,-3.14,-1.47
6.840e-06,-3.14,-1.47
6.850e-06,-3.14,-1.49
6.860e-06,-3.14,-1.47
6.870e-06,-3.26,-1.47
6.880e-06,-3.22,-1.51
6.890e-06,-3.18,-1.51
6.900e-06,-3.18,-1.53
6.910e-06,-3.26,-1.53
6.920e-06,-3.22,-1.57
6.930e-06,-3.26,-1.55
6.940e-06,-3.26,-1.57
6.950e-06,-3.3,-1.59
6.960e-06,-3.3,-1.59
6.970e-06,-3.3,-1.61
6.980e-06,-3.26,-1.59
6.990e-06,-3.34,-1.63
7.000e-06,-3.34,-1.63
7.010e-06,-3.3,-1.61
7.020e-06,-3.34,-1.65
7.030e-06,-3.34,-1.65
7.040e-06,-3.42,-1.61
7.050e-06,-3.26,-1.59
7.060e-06,-3.26,-1.61
7.070e-06,-3.26,-1.57
7.080e-06,-3.26,-1.61
7.090e-06,-3.26,-1.55
7.100e-06,-3.26,-1.61
7.110e-06,-3.3,-1.61
7.120e-06,-3.22,-1.61
7.130e-06,-3.18,-1.59
7.140e-06,-3.18,-1.59
7.150e-06,-3.18,-1.61
7.160e-06,-3.22,-1.61
7.170e-06,-3.18,-1.57
7.180e-06,-3.14,-1.59
7.190e-06,-3.18,-1.55
7.200e-06,-3.14,-1.57
7.210e-06,-3.1,-1.53
7.220e-06,-3.18,-1.55
7.230e-06,-3.06,-1.53
7.240e-06,-3.1,-1.53
7.250e-06,-3.1,-1.53
7.260e-06,-3.02,-1.53
7.270e-06,-3.06,-1.53
7.280e-06,-3.06,-1.55
7.290e-06,-3.02,-1.55
7.300e-06,-2.98,-1.49
7.310e-06,-2.9,-1.49
7.320e-06,-2.94,-1.49
7.330e-06,-3.06,-1.51
7.340e-06,-2.94,-1.47
7.350e-06,-2.9,-1.51
7.360e-06,-2.86,-1.47
7.370e-06,-2.98,-1.47
7.380e-06,-2.82,-1.45
7.390e-06,-2.82,-1.43
7.400e-06,-2.82,-1.43
7.410e-06,-2.82,-1.43
7.420e-06,-2.78,-1.39
7.430e-06,-2.78,-1.39
7.440e-06,-2.78,-1.37
7.450e-06,-2.78,-1.37
7.460e-06,-2.82,-1.39
7.470e-06,-2.78,-1.37
7.480e-06,-2.7,-1.35
7.490e-06,-2.7,-1.37
7.500e-06,-2.7,-1.33
7.510e-06,-2.66,-1.33
7.520e-06,-2.7,-1.33
7.530e-06,-2.62,-1.33
7.540e-06,-2.7,-1.35
7.550e-06,-2.74,-1.37
7.560e-06,-2.62,-1.29
7.570e-06,-2.62,-1.33
7.580e-06,-2.62,-1.35
7.590e-06,-2.62,-1.27
7.600e-06,-2.62,-1.29
7.610e-06,-2.54,-1.29
7.620e-06,-2.58,-1.29
7.630e-06,-2.54,-1.29
7.640e-06,-2.46,-1.29
7.650e-06,-2.58,-1.29
7.660e-06,-2.5,-1.25
7.670e-06,-2.5,-1.27
7.680e-06,-2.42,-1.25
7.690e-06,-2.5,-1.25
7.700e-06,-2.46,-1.25
7.710e-06,-2.46,-1.21
7.720e-06,-2.34,-1.23
7.730e-06,-2.38,-1.25
7.740e-06,-2.46,-1.21
7.750e-06,-2.38,-1.21
7.760e-06,-2.3,-1.21
7.770e-06,-2.38,-1.19
7.780e-06,-2.34,-1.19
7.790e-06,-2.26,-1.23
7.800e-06,-2.34,-1.23
7.810e-06,-2.38,-1.17
7.820e-06,-2.34,-1.17
7.830e-06,-2.3,-1.13
7.840e-06,-2.18,-1.15
7.850e-06,-2.22,-1.17
7.860e-06,-2.26,-1.15
7.870e-06,-2.22,-1.13
7.880e-06,-2.22,-1.13
7.890e-06,-2.18,-1.13
