Archivos Guadalupe/Data/1410-32-X4/06-11/D-06-11/tek0032ALL.csv

Model,DPO3034
Firmware Version,2.16

Point Format,Y,
Horizontal Units,S,
Horizontal Scale,0.004,
Sample Interval,4e-05,
Record Length,1000,
Gating,0.0% to 100.0%,0.0% to 100.0%
Probe Attenuation,1,1
Vertical Units,V,V
Vertical Offset,0,0
Vertical Scale,2,1
Label,,
TIME,CH1,CH2
-6.800e-03,0.96,0.16
-6.760e-03,1.04,0.24
-6.720e-03,1.04,0.24
-6.680e-03,1.04,0.24
-6.640e-03,0.96,0.24
-6.600e-03,0.96,0.24
-6.560e-03,0.96,0.24
-6.520e-03,1.04,0.2
-6.480e-03,0.96,0.2
-6.440e-03,0.96,0.28
-6.400e-03,0.96,0.24
-6.360e-03,1.12,0.2
-6.320e-03,1.04,0.24
-6.280e-03,0.96,0.28
-6.240e-03,0.96,0.24
-6.200e-03,0.96,0.2
-6.160e-03,1.04,0.24
-6.120e-03,1.04,0.2
-6.080e-03,0.96,0.2
-6.040e-03,1.04,0.24
-6.000e-03,0.96,0.24
-5.960e-03,1.04,0.2
-5.920e-03,0.8,0.24
-5.880e-03,1.04,0.24
-5.840e-03,0.88,0.2
-5.800e-03,1.04,0.2
-5.760e-03,0.96,0.24
-5.720e-03,1.04,0.2
-5.680e-03,0.96,0.16
-5.640e-03,0.96,0.2
-5.600e-03,1.12,0.2
-5.560e-03,0.96,0.16
-5.520e-03,0.96,0.2
-5.480e-03,1.12,0.2
-5.440e-03,1.12,0.28
-5.400e-03,0.96,0.2
-5.360e-03,0.96,0.16
-5.320e-03,0.96,0.28
-5.280e-03,1.04,0.12
-5.240e-03,1.04,0.12
-5.200e-03,1.04,0.2
-5.160e-03,0.96,0.16
-5.120e-03,1.04,0.28
-5.080e-03,1.12,0.24
-5.040e-03,1.04,0.2
-5.000e-03,0.96,0.2
-4.960e-03,0.96,0.2
-4.920e-03,0.96,0.24
-4.880e-03,0.96,0.2
-4.840e-03,0.96,0.24
-4.800e-03,1.12,0.24
-4.760e-03,1.04,0.16
-4.720e-03,0.96,0.24
-4.680e-03,0.96,0.28
-4.640e-03,1.04,0.2
-4.600e-03,1.04,0.24
-4.560e-03,1.12,0.16
-4.520e-03,0.96,0.24
-4.480e-03,1.12,0.24
-4.440e-03,0.96,0.16
-4.400e-03,1.04,0.2
-4.360e-03,1.04,0.24
-4.320e-03,0.88,0.16
-4.280e-03,0.88,0.2
-4.240e-03,1.04,0.2
-4.200e-03,1.04,0.2
-4.160e-03,1.2,0.12
-4.120e-03,1.04,0.24
-4.080e-03,1.12,0.16
-4.040e-03,0.96,0.24
-4.000e-03,1.04,0.24
-3.960e-03,1.12,0.2
-3.920e-03,0.96,0.2
-3.880e-03,0.96,0.12
-3.840e-03,0.96,0.2
-3.800e-03,1.12,0.28
-3.760e-03,1.04,0.2
-3.720e-03,1.12,0.28
-3.680e-03,1.04,0.2
-3.640e-03,1.04,0.32
-3.600e-03,1.04,0.24
-3.560e-03,0.88,0.24
-3.520e-03,0.96,0.2
-3.480e-03,0.96,0.16
-3.440e-03,0.96,0.2
-3.400e-03,1.04,0.12
-3.360e-03,1.04,0.16
-3.320e-03,1.12,0.2
-3.280e-03,1.12,0.2
-3.240e-03,0.88,0.12
-3.200e-03,1.12,0.28
-3.160e-03,0.96,0.2
-3.120e-03,1.04,0.2
-3.080e-03,1.04,0.24
-3.040e-03,0.96,0.24
-3.000e-03,1.04,0.16
-2.960e-03,0.96,0.2
-2.920e-03,1.04,0.24
-2.880e-03,1.12,0.2
-2.840e-03,1.04,0.28
-2.800e-03,0.96,0.16
-2.760e-03,0.96,0.2
-2.720e-03,1.04,0.28
-2.680e-03,0.96,0.2
-2.640e-03,0.96,0.24
-2.600e-03,1.04,0.2
-2.560e-03,0.96,0.28
-2.520e-03,0.96,0.2
-2.480e-03,0.96,0.28
-2.440e-03,1.04,0.28
-2.400e-03,1.04,0.2
-2.360e-03,0.96,0.2
-2.320e-03,1.04,0.2
-2.280e-03,1.04,0.24
-2.240e-03,0.96,0.16
-2.200e-03,1.04,0.2
-2.160e-03,1.04,0.2
-2.120e-03,1.04,0.16
-2.080e-03,0.96,0.16
-2.040e-03,0.96,0.2
-2.000e-03,1.04,0.16
-1.960e-03,0.96,0.12
-1.920e-03,0.96,0.2
-1.880e-03,1.04,0.24
-1.840e-03,0.88,0.2
-1.800e-03,1.04,0.24
-1.760e-03,1.04,0.2
-1.720e-03,1.04,0.2
-1.680e-03,0.96,0.2
-1.640e-03,1.04,0.2
-1.600e-03,0.96,0.28
-1.560e-03,0.96,0.24
-1.520e-03,0.96,0.16
-1.480e-03,1.12,0.16
-1.440e-03,0.96,0.2
-1.400e-03,1.04,0.16
-1.360e-03,1.04,0.12
-1.320e-03,1.04,0.2
-1.280e-03,1.04,0.28
-1.240e-03,1.04,0.12
-1.200e-03,0.96,0.24
-1.160e-03,0.96,0.2
-1.120e-03,1.04,0.2
-1.080e-03,1.04,0.2
-1.040e-03,1.04,0.2
-1.000e-03,0.96,0.2
-9.600e-04,0.88,0.2
-9.200e-04,1.04,0.2
-8.800e-04,0.88,0.12
-8.400e-04,0.8,0.24
-8.000e-04,0.96,0.12
-7.600e-04,1.04,0.28
-7.200e-04,0.96,0.2
-6.800e-04,1.04,0.24
-6.400e-04,1.12,0.16
-6.000e-04,1.68,0.32
-5.600e-04,1.6,0.4
-5.200e-04,1.52,0.32
-4.800e-04,1.52,0.4
-4.400e-04,1.52,0.36
-4.000e-04,1.68,0.36
-3.600e-04,1.52,0.32
-3.200e-04,1.6,0.32
-2.800e-04,1.6,0.36
-2.400e-04,1.68,0.36
-2.000e-04,1.68,0.4
-1.600e-04,1.68,0.36
-1.200e-04,1.6,0.36
-8.000e-05,1.52,0.4
-4.000e-05,1.52,0.36
1.639e-17,2.24,0.4
4.000e-05,2.16,0.4
8.000e-05,2.24,0.52
1.200e-04,2.16,0.44
1.600e-04,2.16,0.44
2.000e-04,2.08,0.4
2.400e-04,2.08,0.48
2.800e-04,2.24,0.4
3.200e-04,2.16,0.44
3.600e-04,2.08,0.44
4.000e-04,2.16,0.4
4.400e-04,1.92,0.4
4.800e-04,2.08,0.52
5.200e-04,2.24,0.4
5.600e-04,2.08,0.44
6.000e-04,2.8,0.56
6.400e-04,2.72,0.64
6.800e-04,2.8,0.56
7.200e-04,2.64,0.6
7.600e-04,2.72,0.56
8.000e-04,2.72,0.56
8.400e-04,2.88,0.6
8.800e-04,2.72,0.64
9.200e-04,2.8,0.56
9.600e-04,2.72,0.68
1.000e-03,2.64,0.56
1.040e-03,2.72,0.64
1.080e-03,2.64,0.6
1.120e-03,2.72,0.56
1.160e-03,2.64,0.56
1.200e-03,3.28,0.76
1.240e-03,3.44,0.76
1.280e-03,3.44,0.76
1.320e-03,3.28,0.72
1.360e-03,3.12,0.76
1.400e-03,3.28,0.68
1.440e-03,3.2,0.72
1.480e-03,3.2,0.8
1.520e-03,3.28,0.68
1.560e-03,3.2,0.72
1.600e-03,3.36,0.8
1.640e-03,3.2,0.64
1.680e-03,3.28,0.8
1.720e-03,3.28,0.76
1.760e-03,3.28,0.8
1.800e-03,3.2,0.8
1.840e-03,3.76,0.96
1.880e-03,4,0.96
1.920e-03,3.84,0.92
1.960e-03,3.76,0.92
2.000e-03,3.92,0.88
2.040e-03,3.92,0.88
2.080e-03,3.92,0.92
2.120e-03,3.84,0.96
2.160e-03,3.76,0.96
2.200e-03,3.76,0.96
2.240e-03,3.92,0.92
2.280e-03,3.84,1
2.320e-03,3.84,0.92
2.360e-03,3.84,0.92
2.400e-03,3.92,0.96
2.440e-03,4.32,1.08
2.480e-03,4.4,1.12
2.520e-03,4.48,1.04
2.560e-03,4.48,1.08
2.600e-03,4.4,1.12
2.640e-03,4.4,1.12
2.680e-03,4.4,1.12
2.720e-03,4.32,1.04
2.760e-03,4.64,1.08
2.800e-03,4.4,1.04
2.840e-03,4.4,1.08
2.880e-03,4.48,1.12
2.920e-03,4.32,1.08
2.960e-03,4.4,1.08
3.000e-03,4.32,1.12
3.040e-03,4.96,1.36
3.080e-03,4.96,1.32
3.120e-03,4.88,1.24
3.160e-03,5.04,1.28
3.200e-03,5.12,1.32
3.240e-03,4.96,1.28
3.280e-03,4.88,1.36
3.320e-03,4.96,1.28
3.360e-03,4.88,1.28
3.400e-03,4.96,1.28
3.440e-03,5.12,1.32
3.480e-03,4.88,1.28
3.520e-03,5.04,1.32
3.560e-03,4.96,1.36
3.600e-03,4.88,1.24
3.640e-03,5.6,1.48
3.680e-03,5.52,1.44
3.720e-03,5.44,1.44
3.760e-03,5.52,1.48
3.800e-03,5.44,1.44
3.840e-03,5.52,1.48
3.880e-03,5.52,1.52
3.920e-03,5.52,1.48
3.960e-03,5.52,1.56
4.000e-03,5.52,1.44
4.040e-03,5.52,1.44
4.080e-03,5.52,1.56
4.120e-03,5.52,1.48
4.160e-03,5.52,1.48
4.200e-03,5.52,1.56
4.240e-03,5.6,1.48
4.280e-03,5.92,1.76
4.320e-03,6.24,1.64
4.360e-03,6.08,1.64
4.400e-03,6,1.72
4.440e-03,6.16,1.68
4.480e-03,6,1.72
4.520e-03,6.08,1.68
4.560e-03,6,1.68
4.600e-03,6,1.72
4.640e-03,6.08,1.72
4.680e-03,5.92,1.72
4.720e-03,5.92,1.68
4.760e-03,6.16,1.76
4.800e-03,5.92,1.68
4.840e-03,5.92,1.72
4.880e-03,6.64,1.88
4.920e-03,6.56,1.92
4.960e-03,6.64,1.96
5.000e-03,6.72,1.88
5.040e-03,6.48,1.92
5.080e-03,6.64,1.92
5.120e-03,6.4,1.96
5.160e-03,6.56,1.88
5.200e-03,6.64,2.04
5.240e-03,6.48,1.96
5.280e-03,6.56,1.92
5.320e-03,6.64,1.84
5.360e-03,6.64,1.88
5.400e-03,6.48,1.96
5.440e-03,6.56,1.96
5.480e-03,7.2,2.12
5.520e-03,7.12,2.12
5.560e-03,7.12,2.2
5.600e-03,7.12,2.12
5.640e-03,7.2,2.16
5.680e-03,6.96,2.16
5.720e-03,7.12,2.16
5.760e-03,7.12,2.2
5.800e-03,7.04,2.12
5.840e-03,7.2,2.12
5.880e-03,7.04,2.16
5.920e-03,7.2,2.12
5.960e-03,7.12,2.2
6.000e-03,7.12,2.12
6.040e-03,7.12,2.24
6.080e-03,7.76,2.4
6.120e-03,7.76,2.44
6.160e-03,7.6,2.48
6.200e-03,7.76,2.32
6.240e-03,7.76,2.48
6.280e-03,7.76,2.4
6.320e-03,7.68,2.48
6.360e-03,7.84,2.36
6.400e-03,7.68,2.44
6.440e-03,7.76,2.48
6.480e-03,7.68,2.44
6.520e-03,7.76,2.44
6.560e-03,7.52,2.36
6.600e-03,7.76,2.48
6.640e-03,7.76,2.44
6.680e-03,7.84,2.48
6.720e-03,8.32,2.68
6.760e-03,8.24,2.72
6.800e-03,8.24,2.64
6.840e-03,8.24,2.64
6.880e-03,8.32,2.64
6.920e-03,8.24,2.72
6.960e-03,8.24,2.68
7.000e-03,8.32,2.64
7.040e-03,8.32,2.68
7.080e-03,8.24,2.68
7.120e-03,8.08,2.76
7.160e-03,8.24,2.76
7.200e-03,8.24,2.72
7.240e-03,8.24,2.68
7.280e-03,8.24,2.6
7.320e-03,8.64,2.96
7.360e-03,8.88,2.88
7.400e-03,8.88,2.96
7.440e-03,8.64,2.96
7.480e-03,8.8,2.96
7.520e-03,8.72,2.92
7.560e-03,8.8,2.96
7.600e-03,8.8,2.96
7.640e-03,8.72,2.88
7.680e-03,8.8,2.92
7.720e-03,8.72,2.96
7.760e-03,8.88,2.96
7.800e-03,8.72,3
7.840e-03,8.8,2.92
7.880e-03,8.8,2.96
7.920e-03,9.36,3.2
7.960e-03,9.28,3.24
8.000e-03,9.36,3.08
8.040e-03,9.36,3.16
8.080e-03,9.52,3.2
8.120e-03,9.36,3.2
8.160e-03,9.44,3.16
8.200e-03,9.36,3.24
8.240e-03,9.52,3.16
8.280e-03,9.44,3.28
8.320e-03,9.52,3.16
8.360e-03,9.36,3.16
8.400e-03,9.36,3.2
8.440e-03,9.28,3.2
8.480e-03,9.28,3.32
8.520e-03,9.84,3.48
8.560e-03,9.92,3.44
8.600e-03,9.92,3.52
8.640e-03,9.92,3.44
8.680e-03,10,3.56
8.720e-03,9.76,3.48
8.760e-03,10.08,3.52
8.800e-03,9.92,3.4
8.840e-03,9.84,3.48
8.880e-03,9.92,3.52
8.920e-03,9.92,3.48
8.960e-03,9.84,3.48
9.000e-03,10.08,3.48
9.040e-03,10,3.4
9.080e-03,9.92,3.52
9.120e-03,10,3.48
9.160e-03,9.92,3.48
9.200e-03,10.08,3.56
9.240e-03,10,3.52
9.280e-03,10.08,3.56
9.320e-03,10,3.56
9.360e-03,10,3.52
9.400e-03,9.92,3.56
9.440e-03,10,3.56
9.480e-03,9.92,3.52
9.520e-03,9.92,3.52
9.560e-03,9.92,3.52
9.600e-03,9.92,3.52
9.640e-03,9.84,3.56
9.680e-03,10,3.52
9.720e-03,10,3.48
9.760e-03,10,3.52
9.800e-03,9.92,3.44
9.840e-03,9.92,3.56
9.880e-03,10,3.56
9.920e-03,9.76,3.52
9.960e-03,9.92,3.52
1.000e-02,10,3.52
1.004e-02,9.76,3.48
1.008e-02,9.92,3.56
1.012e-02,9.84,3.48
1.016e-02,10.08,3.52
1.020e-02,9.76,3.48
1.024e-02,10,3.44
1.028e-02,9.84,3.56
1.032e-02,9.92,3.48
1.036e-02,9.92,3.56
1.040e-02,9.76,3.52
1.044e-02,10,3.52
1.048e-02,9.92,3.52
1.052e-02,10,3.52
1.056e-02,9.92,3.52
1.060e-02,9.92,3.56
1.064e-02,9.92,3.44
1.068e-02,10,3.52
1.072e-02,10,3.52
1.076e-02,9.92,3.56
1.080e-02,10,3.56
1.084e-02,10,3.52
1.088e-02,9.92,3.6
1.092e-02,9.92,3.6
1.096e-02,9.76,3.52
1.100e-02,9.92,3.48
1.104e-02,10,3.56
1.108e-02,9.84,3.6
1.112e-02,9.84,3.6
1.116e-02,9.92,3.6
1.120e-02,10,3.52
1.124e-02,9.92,3.56
1.128e-02,10.08,3.48
1.132e-02,9.84,3.56
1.136e-02,9.92,3.56
1.140e-02,10,3.6
1.144e-02,10,3.52
1.148e-02,10.08,3.52
1.152e-02,9.84,3.6
1.156e-02,10.08,3.52
1.160e-02,9.92,3.6
1.164e-02,9.92,3.52
1.168e-02,9.92,3.48
1.172e-02,10,3.56
1.176e-02,9.84,3.52
1.180e-02,9.92,3.56
1.184e-02,10.08,3.56
1.188e-02,9.92,3.56
1.192e-02,9.84,3.52
1.196e-02,9.76,3.56
1.200e-02,9.92,3.52
1.204e-02,10,3.48
1.208e-02,9.92,3.56
1.212e-02,10,3.48
1.216e-02,9.92,3.52
1.220e-02,10,3.6
1.224e-02,10.08,3.52
1.228e-02,10.08,3.56
1.232e-02,10,3.52
1.236e-02,9.84,3.56
1.240e-02,9.92,3.52
1.244e-02,9.92,3.52
1.248e-02,9.84,3.52
1.252e-02,9.92,3.48
1.256e-02,9.84,3.64
1.260e-02,10,3.52
1.264e-02,9.92,3.52
1.268e-02,9.92,3.52
1.272e-02,10,3.52
1.276e-02,9.92,3.6
1.280e-02,9.92,3.56
1.284e-02,9.92,3.52
1.288e-02,9.92,3.48
1.292e-02,10,3.56
1.296e-02,10,3.52
1.300e-02,10,3.56
1.304e-02,9.92,3.56
1.308e-02,9.92,3.64
1.312e-02,10,3.52
1.316e-02,9.92,3.52
1.320e-02,9.76,3.6
1.324e-02,9.84,3.56
1.328e-02,9.92,3.52
1.332e-02,9.92,3.64
1.336e-02,9.84,3.52
1.340e-02,9.84,3.56
1.344e-02,9.92,3.64
1.348e-02,9.92,3.6
1.352e-02,9.92,3.6
1.356e-02,9.76,3.6
1.360e-02,10,3.6
1.364e-02,9.76,3.56
1.368e-02,9.92,3.6
1.372e-02,9.84,3.56
1.376e-02,10,3.56
1.380e-02,10,3.6
1.384e-02,10,3.52
1.388e-02,9.92,3.52
1.392e-02,9.92,3.52
1.396e-02,9.84,3.6
1.400e-02,10,3.44
1.404e-02,9.92,3.6
1.408e-02,9.84,3.52
1.412e-02,9.92,3.56
1.416e-02,10,3.52
1.420e-02,9.92,3.52
1.424e-02,9.84,3.52
1.428e-02,9.92,3.52
1.432e-02,9.92,3.6
1.436e-02,9.68,3.52
1.440e-02,10,3.56
1.444e-02,9.92,3.52
1.448e-02,9.92,3.6
1.452e-02,10,3.56
1.456e-02,9.92,3.52
1.460e-02,9.92,3.6
1.464e-02,9.92,3.6
1.468e-02,9.92,3.56
1.472e-02,9.92,3.48
1.476e-02,9.92,3.6
1.480e-02,10,3.6
1.484e-02,10.08,3.48
1.488e-02,9.92,3.56
1.492e-02,9.84,3.56
1.496e-02,9.92,3.56
1.500e-02,10,3.6
1.504e-02,9.92,3.64
1.508e-02,9.92,3.52
1.512e-02,10,3.56
1.516e-02,9.92,3.52
1.520e-02,9.92,3.6
1.524e-02,9.92,3.56
1.528e-02,10,3.64
1.532e-02,9.92,3.56
1.536e-02,9.92,3.6
1.540e-02,9.84,3.6
1.544e-02,9.84,3.52
1.548e-02,9.84,3.56
1.552e-02,10,3.56
1.556e-02,9.92,3.52
1.560e-02,9.84,3.56
1.564e-02,9.92,3.6
1.568e-02,9.84,3.52
1.572e-02,10,3.52
1.576e-02,9.92,3.52
1.580e-02,9.84,3.64
1.584e-02,9.84,3.56
1.588e-02,9.92,3.6
1.592e-02,9.92,3.56
1.596e-02,9.92,3.6
1.600e-02,9.92,3.6
1.604e-02,10,3.52
1.608e-02,10.08,3.52
1.612e-02,9.76,3.6
1.616e-02,10,3.52
1.620e-02,10,3.56
1.624e-02,9.92,3.68
1.628e-02,9.92,3.52
1.632e-02,9.84,3.6
1.636e-02,9.92,3.6
1.640e-02,9.92,3.6
1.644e-02,10,3.52
1.648e-02,9.84,3.52
1.652e-02,10,3.64
1.656e-02,10,3.64
1.660e-02,9.92,3.6
1.664e-02,9.76,3.56
1.668e-02,9.84,3.52
1.672e-02,10,3.52
1.676e-02,9.76,3.56
1.680e-02,9.92,3.64
1.684e-02,9.84,3.6
1.688e-02,9.92,3.6
1.692e-02,9.92,3.56
1.696e-02,9.84,3.56
1.700e-02,9.76,3.56
1.704e-02,9.92,3.6
1.708e-02,10,3.6
1.712e-02,9.92,3.6
1.716e-02,9.84,3.56
1.720e-02,9.84,3.6
1.724e-02,9.92,3.56
1.728e-02,10,3.6
1.732e-02,9.92,3.56
1.736e-02,10,3.52
1.740e-02,9.92,3.48
1.744e-02,9.84,3.56
1.748e-02,9.92,3.6
1.752e-02,9.92,3.6
1.756e-02,9.84,3.6
1.760e-02,10.08,3.52
1.764e-02,9.76,3.56
1.768e-02,10,3.56
1.772e-02,10,3.52
1.776e-02,9.84,3.52
1.780e-02,9.92,3.56
1.784e-02,9.84,3.52
1.788e-02,9.76,3.56
1.792e-02,9.92,3.6
1.796e-02,10,3.64
1.800e-02,9.92,3.6
1.804e-02,9.92,3.56
1.808e-02,9.92,3.6
1.812e-02,9.92,3.56
1.816e-02,9.92,3.52
1.820e-02,10,3.56
1.824e-02,9.92,3.64
1.828e-02,9.92,3.64
1.832e-02,9.92,3.52
1.836e-02,10,3.52
1.840e-02,9.92,3.56
1.844e-02,9.92,3.6
1.848e-02,9.92,3.56
1.852e-02,9.92,3.52
1.856e-02,9.92,3.64
1.860e-02,10,3.52
1.864e-02,9.84,3.6
1.868e-02,9.92,3.6
1.872e-02,9.92,3.52
1.876e-02,10,3.6
1.880e-02,10,3.6
1.884e-02,9.92,3.6
1.888e-02,9.92,3.52
1.892e-02,10.08,3.6
1.896e-02,9.92,3.56
1.900e-02,9.92,3.56
1.904e-02,9.92,3.6
1.908e-02,9.92,3.56
1.912e-02,10,3.6
1.916e-02,10,3.56
1.920e-02,9.84,3.48
1.924e-02,9.92,3.56
1.928e-02,9.92,3.52
1.932e-02,9.92,3.6
1.936e-02,10,3.6
1.940e-02,10,3.56
1.944e-02,9.84,3.52
1.948e-02,10,3.56
1.952e-02,9.36,3.32
1.956e-02,9.36,3.32
1.960e-02,9.36,3.2
1.964e-02,9.52,3.32
1.968e-02,9.36,3.28
1.972e-02,9.44,3.28
1.976e-02,9.2,3.36
1.980e-02,9.52,3.36
1.984e-02,9.36,3.36
1.988e-02,9.36,3.32
1.992e-02,9.52,3.32
1.996e-02,9.36,3.36
2.000e-02,9.28,3.32
2.004e-02,9.28,3.32
2.008e-02,9.36,3.32
2.012e-02,8.88,3.04
2.016e-02,8.72,3.08
2.020e-02,9.04,3.04
2.024e-02,8.8,3.04
2.028e-02,8.8,3.08
2.032e-02,8.88,3.08
2.036e-02,8.88,3.04
2.040e-02,8.8,3
2.044e-02,8.8,3
2.048e-02,8.88,3.04
2.052e-02,8.8,3
2.056e-02,8.72,3.08
2.060e-02,8.72,3.08
2.064e-02,8.8,3.12
2.068e-02,8.72,3.08
2.072e-02,8.96,3.04
2.076e-02,8.24,2.8
2.080e-02,8.32,2.8
2.084e-02,8.24,2.76
2.088e-02,8.16,2.76
2.092e-02,8.16,2.76
2.096e-02,8.16,2.76
2.100e-02,8.24,2.8
2.104e-02,8.24,2.84
2.108e-02,8.16,2.88
2.112e-02,8.32,2.8
2.116e-02,8.24,2.84
2.120e-02,8.24,2.8
2.124e-02,8.32,2.8
2.128e-02,8.08,2.8
2.132e-02,8.32,2.8
2.136e-02,7.76,2.64
2.140e-02,7.76,2.6
2.144e-02,7.76,2.52
2.148e-02,7.76,2.48
2.152e-02,7.68,2.52
2.156e-02,7.6,2.48
2.160e-02,7.76,2.6
2.164e-02,7.92,2.56
2.168e-02,7.68,2.48
2.172e-02,7.76,2.56
2.176e-02,7.68,2.68
2.180e-02,7.6,2.52
2.184e-02,7.76,2.56
2.188e-02,7.6,2.68
2.192e-02,7.84,2.6
2.196e-02,7.12,2.36
2.200e-02,7.04,2.24
2.204e-02,7.12,2.32
2.208e-02,7.04,2.32
2.212e-02,7.28,2.24
2.216e-02,7.12,2.24
2.220e-02,7.12,2.36
2.224e-02,7.12,2.32
2.228e-02,7.12,2.36
2.232e-02,7.2,2.28
2.236e-02,7.12,2.28
2.240e-02,7.12,2.32
2.244e-02,7.12,2.28
2.248e-02,7.04,2.36
2.252e-02,7.2,2.36
2.256e-02,6.56,2.04
2.260e-02,6.56,2
2.264e-02,6.48,2.04
2.268e-02,6.48,2.12
2.272e-02,6.56,2.08
2.276e-02,6.56,2.04
2.280e-02,6.56,2
2.284e-02,6.56,2.08
2.288e-02,6.72,2.04
2.292e-02,6.56,2.16
2.296e-02,6.64,2.12
2.300e-02,6.56,2.04
2.304e-02,6.48,2.04
2.308e-02,6.64,2.08
2.312e-02,6.48,2.12
2.316e-02,6.56,2.08
2.320e-02,6,1.88
2.324e-02,6.08,1.84
2.328e-02,6,1.88
2.332e-02,5.92,1.88
2.336e-02,5.92,1.88
2.340e-02,5.92,1.8
2.344e-02,6,1.84
2.348e-02,6,1.8
2.352e-02,5.92,1.88
2.356e-02,6.16,1.84
2.360e-02,6,1.84
2.364e-02,6,1.8
2.368e-02,6.08,1.84
2.372e-02,6.08,1.92
2.376e-02,5.92,1.8
2.380e-02,5.6,1.6
2.384e-02,5.68,1.64
2.388e-02,5.52,1.6
2.392e-02,5.44,1.64
2.396e-02,5.44,1.56
2.400e-02,5.44,1.68
2.404e-02,5.52,1.72
2.408e-02,5.6,1.6
2.412e-02,5.6,1.6
2.416e-02,5.68,1.64
2.420e-02,5.6,1.64
2.424e-02,5.52,1.64
2.428e-02,5.44,1.68
2.432e-02,5.52,1.56
2.436e-02,5.6,1.68
2.440e-02,4.96,1.44
2.444e-02,4.88,1.44
2.448e-02,4.8,1.4
2.452e-02,5.04,1.52
2.456e-02,4.88,1.44
2.460e-02,4.96,1.36
2.464e-02,4.88,1.48
2.468e-02,4.96,1.44
2.472e-02,5.04,1.4
2.476e-02,4.96,1.32
2.480e-02,4.96,1.44
2.484e-02,4.88,1.44
2.488e-02,5.04,1.44
2.492e-02,5.12,1.4
2.496e-02,5.04,1.44
2.500e-02,4.4,1.2
2.504e-02,4.4,1.16
2.508e-02,4.24,1.28
2.512e-02,4.48,1.28
2.516e-02,4.4,1.2
2.520e-02,4.4,1.2
2.524e-02,4.4,1.24
2.528e-02,4.48,1.2
2.532e-02,4.4,1.16
2.536e-02,4.32,1.28
2.540e-02,4.4,1.24
2.544e-02,4.24,1.24
2.548e-02,4.4,1.2
2.552e-02,4.4,1.16
2.556e-02,4.56,1.24
2.560e-02,4.32,1.2
2.564e-02,3.76,1.08
2.568e-02,4,1
2.572e-02,3.92,1
2.576e-02,3.76,1.04
2.580e-02,4,1.08
2.584e-02,3.92,1.04
2.588e-02,3.84,1.04
2.592e-02,3.76,1
2.596e-02,3.76,1.08
2.600e-02,3.84,1.04
2.604e-02,3.76,1.04
2.608e-02,3.92,1.04
2.612e-02,3.76,1.08
2.616e-02,3.76,1.04
2.620e-02,3.76,1.04
2.624e-02,3.2,0.8
2.628e-02,3.28,0.88
2.632e-02,3.2,0.88
2.636e-02,3.28,0.84
2.640e-02,3.12,0.88
2.644e-02,3.36,0.88
2.648e-02,3.28,0.84
2.652e-02,3.36,0.92
2.656e-02,3.36,0.8
2.660e-02,3.28,0.88
2.664e-02,3.36,0.84
2.668e-02,3.28,0.84
2.672e-02,3.36,0.84
2.676e-02,3.36,0.84
2.680e-02,3.28,0.92
2.684e-02,2.72,0.64
2.688e-02,2.72,0.68
2.692e-02,2.72,0.68
2.696e-02,2.8,0.64
2.700e-02,2.72,0.72
2.704e-02,2.56,0.6
2.708e-02,2.56,0.64
2.712e-02,2.72,0.68
2.716e-02,2.72,0.6
2.720e-02,2.72,0.64
2.724e-02,2.8,0.6
2.728e-02,2.72,0.68
2.732e-02,2.8,0.6
2.736e-02,2.72,0.68
2.740e-02,2.72,0.64
2.744e-02,2.24,0.52
2.748e-02,2.08,0.52
2.752e-02,2.24,0.56
2.756e-02,2.16,0.52
2.760e-02,2.16,0.56
2.764e-02,2.24,0.52
2.768e-02,2.16,0.48
2.772e-02,2.16,0.52
2.776e-02,2.24,0.48
2.780e-02,2.16,0.52
2.784e-02,2,0.52
2.788e-02,2.24,0.56
2.792e-02,2.24,0.44
2.796e-02,2.24,0.52
2.800e-02,2.08,0.52
2.804e-02,2.08,0.56
2.808e-02,1.52,0.36
2.812e-02,1.52,0.4
2.816e-02,1.68,0.4
2.820e-02,1.6,0.4
2.824e-02,1.68,0.44
2.828e-02,1.68,0.36
2.832e-02,1.6,0.36
2.836e-02,1.44,0.32
2.840e-02,1.44,0.4
2.844e-02,1.44,0.4
2.848e-02,1.6,0.4
2.852e-02,1.68,0.32
2.856e-02,1.68,0.4
2.860e-02,1.68,0.48
2.864e-02,1.52,0.4
2.868e-02,0.96,0.24
2.872e-02,1.04,0.24
2.876e-02,1.04,0.28
2.880e-02,1.12,0.28
2.884e-02,0.88,0.24
2.888e-02,0.96,0.28
2.892e-02,0.96,0.2
2.896e-02,1.04,0.32
2.900e-02,0.96,0.32
2.904e-02,1.2,0.24
2.908e-02,1.12,0.28
2.912e-02,0.96,0.2
2.916e-02,1.12,0.2
2.920e-02,1.12,0.28
2.924e-02,1.04,0.2
2.928e-02,0.96,0.24
2.932e-02,1.2,0.24
2.936e-02,1.04,0.12
2.940e-02,0.88,0.24
2.944e-02,0.96,0.24
2.948e-02,1.04,0.2
2.952e-02,1.04,0.28
2.956e-02,1.04,0.32
2.960e-02,1.12,0.24
2.964e-02,0.96,0.16
2.968e-02,0.88,0.12
2.972e-02,1.12,0.32
2.976e-02,1.04,0.28
2.980e-02,0.96,0.12
2.984e-02,1.04,0.28
2.988e-02,0.88,0.28
2.992e-02,0.88,0.2
2.996e-02,1.04,0.16
3.000e-02,1.04,0.24
3.004e-02,0.96,0.28
3.008e-02,0.96,0.28
3.012e-02,1.12,0.2
3.016e-02,0.96,0.24
3.020e-02,1.12,0.2
3.024e-02,0.96,0.28
3.028e-02,0.96,0.28
3.032e-02,0.96,0.2
3.036e-02,1.12,0.28
3.040e-02,1.04,0.28
3.044e-02,0.96,0.24
3.048e-02,0.96,0.24
3.052e-02,1.04,0.2
3.056e-02,1.04,0.28
3.060e-02,1.12,0.24
3.064e-02,1.04,0.24
3.068e-02,1.12,0.28
3.072e-02,1.04,0.28
3.076e-02,1.04,0.28
3.080e-02,1.12,0.2
3.084e-02,0.96,0.32
3.088e-02,1.2,0.32
3.092e-02,0.96,0.28
3.096e-02,0.96,0.28
3.100e-02,1.12,0.24
3.104e-02,0.96,0.28
3.108e-02,1.12,0.2
3.112e-02,0.96,0.2
3.116e-02,1.2,0.24
3.120e-02,0.88,0.2
3.124e-02,0.88,0.2
3.128e-02,1.12,0.2
3.132e-02,0.96,0.16
3.136e-02,1.04,0.24
3.140e-02,0.96,0.24
3.144e-02,0.96,0.24
3.148e-02,1.04,0.24
3.152e-02,1.04,0.24
3.156e-02,1.04,0.16
3.160e-02,1.04,0.24
3.164e-02,1.04,0.32
3.168e-02,0.96,0.28
3.172e-02,1.04,0.2
3.176e-02,0.96,0.16
3.180e-02,0.96,0.28
3.184e-02,0.96,0.24
3.188e-02,0.96,0.28
3.192e-02,1.12,0.24
3.196e-02,0.96,0.28
3.200e-02,1.04,0.32
3.204e-02,1.12,0.16
3.208e-02,0.96,0.24
3.212e-02,0.96,0.2
3.216e-02,1.04,0.24
3.220e-02,1.04,0.24
3.224e-02,0.96,0.2
3.228e-02,0.96,0.16
3.232e-02,1.04,0.2
3.236e-02,0.96,0.28
3.240e-02,1.04,0.32
3.244e-02,0.88,0.2
3.248e-02,0.88,0.28
3.252e-02,0.96,0.28
3.256e-02,1.12,0.28
3.260e-02,0.96,0.28
3.264e-02,1.12,0.28
3.268e-02,1.04,0.24
3.272e-02,1.04,0.24
3.276e-02,0.88,0.28
3.280e-02,1.12,0.28
3.284e-02,1.04,0.24
3.288e-02,0.96,0.2
3.292e-02,0.96,0.24
3.296e-02,0.96,0.32
3.300e-02,0.96,0.28
3.304e-02,0.96,0.2
3.308e-02,1.12,0.24
3.312e-02,1.12,0.2
3.316e-02,0.96,0.2

