Archivos Guadalupe/Data/1410-32-X2a/18-04/tek0001ALL.csv

Model,DPO3034
Firmware Version,2.16

Point Format,Y,,,Point Format,Y
Horizontal Units,S,,,Horizontal Units,S
Horizontal Scale,0.004,,,Horizontal Scale,0.004
Sample Interval,4e-05,,,Sample Interval,4e-05
Record Length,1000,,,Record Length,1000
Gating,0.0% to 100.0%,0.0% to 100.0%,,Gating,0.0% to 100.0%
Probe Attenuation,1,1,,Probe Attenuation,1
Vertical Units,V,V,,Vertical Units,V
Vertical Offset,0,0,,Vertical Offset,0
Vertical Scale,2,0.5,,Vertical Scale,1
Label,,,,Label,
TIME,CH1,CH2,,TIME,REF1
-4.520e-03,0.04,-0.02,,-4.520e-03,-0.02
-4.480e-03,0.04,0,,-4.480e-03,0
-4.440e-03,-0.04,0,,-4.440e-03,0
-4.400e-03,0.04,-0.02,,-4.400e-03,-0.02
-4.360e-03,-0.04,0,,-4.360e-03,0
-4.320e-03,0.12,0.02,,-4.320e-03,0.02
-4.280e-03,0.12,-0.02,,-4.280e-03,-0.02
-4.240e-03,0.04,0,,-4.240e-03,0
-4.200e-03,-0.04,0,,-4.200e-03,0
-4.160e-03,-0.04,0,,-4.160e-03,0
-4.120e-03,0.04,0,,-4.120e-03,0
-4.080e-03,0.04,0,,-4.080e-03,0
-4.040e-03,0.04,0,,-4.040e-03,0
-4.000e-03,0.12,0.02,,-4.000e-03,0.02
-3.960e-03,0.12,0,,-3.960e-03,0
-3.920e-03,0.04,0,,-3.920e-03,0
-3.880e-03,0.12,0,,-3.880e-03,0
-3.840e-03,0.04,-0.02,,-3.840e-03,-0.02
-3.800e-03,0.12,0,,-3.800e-03,0
-3.760e-03,-0.04,0,,-3.760e-03,0
-3.720e-03,0.04,0,,-3.720e-03,0
-3.680e-03,0.12,0.02,,-3.680e-03,0.02
-3.640e-03,0.04,-0.02,,-3.640e-03,-0.02
-3.600e-03,0.04,0.02,,-3.600e-03,0.02
-3.560e-03,0.04,0.02,,-3.560e-03,0.02
-3.520e-03,0.12,0.04,,-3.520e-03,0.04
-3.480e-03,0.04,0.02,,-3.480e-03,0.02
-3.440e-03,0.12,0,,-3.440e-03,0
-3.400e-03,0.04,-0.02,,-3.400e-03,-0.02
-3.360e-03,0.12,0,,-3.360e-03,0
-3.320e-03,0.2,0.06,,-3.320e-03,0.06
-3.280e-03,0.04,0.02,,-3.280e-03,0.02
-3.240e-03,0.04,0,,-3.240e-03,0
-3.200e-03,-0.04,0,,-3.200e-03,0
-3.160e-03,0.04,0.04,,-3.160e-03,0.04
-3.120e-03,0.12,0,,-3.120e-03,0
-3.080e-03,-0.12,0.02,,-3.080e-03,0.02
-3.040e-03,-0.12,0.02,,-3.040e-03,0.02
-3.000e-03,0.12,0.02,,-3.000e-03,0.02
-2.960e-03,0.04,0.02,,-2.960e-03,0.02
-2.920e-03,-0.04,0.02,,-2.920e-03,0.02
-2.880e-03,0.04,0,,-2.880e-03,0
-2.840e-03,-0.04,0,,-2.840e-03,0
-2.800e-03,-0.04,0.02,,-2.800e-03,0.02
-2.760e-03,0.04,0.02,,-2.760e-03,0.02
-2.720e-03,0.04,-0.04,,-2.720e-03,-0.04
-2.680e-03,0.04,-0.02,,-2.680e-03,-0.02
-2.640e-03,0.04,0.02,,-2.640e-03,0.02
-2.600e-03,0.12,-0.02,,-2.600e-03,-0.02
-2.560e-03,-0.04,-0.02,,-2.560e-03,-0.02
-2.520e-03,0.28,0,,-2.520e-03,0
-2.480e-03,0.12,0.02,,-2.480e-03,0.02
-2.440e-03,0.04,0.02,,-2.440e-03,0.02
-2.400e-03,0.04,0,,-2.400e-03,0
-2.360e-03,0.12,0.02,,-2.360e-03,0.02
-2.320e-03,-0.12,0.02,,-2.320e-03,0.02
-2.280e-03,0.04,0,,-2.280e-03,0
-2.240e-03,-0.04,0,,-2.240e-03,0
-2.200e-03,-0.04,0,,-2.200e-03,0
-2.160e-03,0.12,0.02,,-2.160e-03,0.02
-2.120e-03,0.04,0,,-2.120e-03,0
-2.080e-03,-0.04,0,,-2.080e-03,0
-2.040e-03,-0.04,-0.02,,-2.040e-03,-0.02
-2.000e-03,0.12,0,,-2.000e-03,0
-1.960e-03,0.04,0.02,,-1.960e-03,0.02
-1.920e-03,0.04,0,,-1.920e-03,0
-1.880e-03,0.04,-0.04,,-1.880e-03,-0.04
-1.840e-03,0.04,0.02,,-1.840e-03,0.02
-1.800e-03,0.12,0,,-1.800e-03,0
-1.760e-03,0.04,0,,-1.760e-03,0
-1.720e-03,0.12,0.02,,-1.720e-03,0.02
-1.680e-03,-0.12,0.04,,-1.680e-03,0.04
-1.640e-03,0.12,-0.04,,-1.640e-03,-0.04
-1.600e-03,0.04,0.02,,-1.600e-03,0.02
-1.560e-03,0.12,0.02,,-1.560e-03,0.02
-1.520e-03,0.12,0,,-1.520e-03,0
-1.480e-03,-0.04,0.02,,-1.480e-03,0.02
-1.440e-03,0.12,0.02,,-1.440e-03,0.02
-1.400e-03,0.12,-0.02,,-1.400e-03,-0.02
-1.360e-03,-0.04,0,,-1.360e-03,0
-1.320e-03,0.12,-0.02,,-1.320e-03,-0.02
-1.280e-03,0.04,0,,-1.280e-03,0
-1.240e-03,0.12,0.04,,-1.240e-03,0.04
-1.200e-03,0.04,0,,-1.200e-03,0
-1.160e-03,0.04,0,,-1.160e-03,0
-1.120e-03,0.04,-0.02,,-1.120e-03,-0.02
-1.080e-03,-0.04,0,,-1.080e-03,0
-1.040e-03,0.04,-0.04,,-1.040e-03,-0.04
-1.000e-03,0.12,0.02,,-1.000e-03,0.02
-9.600e-04,0.12,0,,-9.600e-04,0
-9.200e-04,0.12,0.02,,-9.200e-04,0.02
-8.800e-04,-0.12,0,,-8.800e-04,0
-8.400e-04,-0.04,0.02,,-8.400e-04,0.02
-8.000e-04,0.2,0,,-8.000e-04,0
-7.600e-04,0.04,0,,-7.600e-04,0
-7.200e-04,0.04,-0.02,,-7.200e-04,-0.02
-6.800e-04,-0.04,0,,-6.800e-04,0
-6.400e-04,0.12,0.04,,-6.400e-04,0.04
-6.000e-04,0.04,0.02,,-6.000e-04,0.02
-5.600e-04,0.04,0,,-5.600e-04,0
-5.200e-04,0.12,0.02,,-5.200e-04,0.02
-4.800e-04,-0.04,0,,-4.800e-04,0
-4.400e-04,0.04,0.04,,-4.400e-04,0.04
-4.000e-04,0.12,0,,-4.000e-04,0
-3.600e-04,0.04,0,,-3.600e-04,0
-3.200e-04,0.12,0,,-3.200e-04,0
-2.800e-04,0.2,0.02,,-2.800e-04,0.02
-2.400e-04,0.04,0.04,,-2.400e-04,0.04
-2.000e-04,0.12,0,,-2.000e-04,0
-1.600e-04,-0.04,0,,-1.600e-04,0
-1.200e-04,0.04,0.04,,-1.200e-04,0.04
-8.000e-05,0.12,0,,-8.000e-05,0
-4.000e-05,-0.04,0,,-4.000e-05,0
9.446e-18,7.72,2.08,,9.446e-18,2.08
4.000e-05,7.88,2.12,,4.000e-05,2.12
8.000e-05,7.8,2.12,,8.000e-05,2.12
1.200e-04,7.8,2.1,,1.200e-04,2.1
1.600e-04,7.8,2.14,,1.600e-04,2.14
2.000e-04,7.8,2.14,,2.000e-04,2.14
2.400e-04,7.8,2.14,,2.400e-04,2.14
2.800e-04,7.72,2.18,,2.800e-04,2.18
3.200e-04,7.8,2.16,,3.200e-04,2.16
3.600e-04,7.72,2.16,,3.600e-04,2.16
4.000e-04,7.8,2.18,,4.000e-04,2.18
4.400e-04,7.8,2.16,,4.400e-04,2.16
4.800e-04,7.72,2.16,,4.800e-04,2.16
5.200e-04,7.72,2.18,,5.200e-04,2.18
5.600e-04,7.8,2.2,,5.600e-04,2.2
6.000e-04,7.8,2.16,,6.000e-04,2.16
6.400e-04,7.72,2.18,,6.400e-04,2.18
6.800e-04,7.72,2.16,,6.800e-04,2.16
7.200e-04,7.8,2.16,,7.200e-04,2.16
7.600e-04,7.72,2.18,,7.600e-04,2.18
8.000e-04,7.72,2.2,,8.000e-04,2.2
8.400e-04,7.72,2.18,,8.400e-04,2.18
8.800e-04,7.8,2.2,,8.800e-04,2.2
9.200e-04,7.72,2.24,,9.200e-04,2.24
9.600e-04,7.72,2.18,,9.600e-04,2.18
1.000e-03,7.64,2.2,,1.000e-03,2.2
1.040e-03,7.64,2.2,,1.040e-03,2.2
1.080e-03,7.8,2.18,,1.080e-03,2.18
1.120e-03,7.72,2.2,,1.120e-03,2.2
1.160e-03,7.72,2.24,,1.160e-03,2.24
1.200e-03,7.64,2.22,,1.200e-03,2.22
1.240e-03,7.64,2.2,,1.240e-03,2.2
1.280e-03,7.72,2.2,,1.280e-03,2.2
1.320e-03,7.72,2.22,,1.320e-03,2.22
1.360e-03,7.72,2.22,,1.360e-03,2.22
1.400e-03,7.8,2.24,,1.400e-03,2.24
1.440e-03,7.56,2.26,,1.440e-03,2.26
1.480e-03,7.72,2.26,,1.480e-03,2.26
1.520e-03,7.72,2.22,,1.520e-03,2.22
1.560e-03,7.64,2.28,,1.560e-03,2.28
1.600e-03,7.72,2.26,,1.600e-03,2.26
1.640e-03,7.64,2.26,,1.640e-03,2.26
1.680e-03,7.64,2.2,,1.680e-03,2.2
1.720e-03,7.72,2.24,,1.720e-03,2.24
1.760e-03,7.64,2.2,,1.760e-03,2.2
1.800e-03,7.64,2.22,,1.800e-03,2.22
1.840e-03,7.72,2.26,,1.840e-03,2.26
1.880e-03,7.64,2.24,,1.880e-03,2.24
1.920e-03,7.8,2.28,,1.920e-03,2.28
1.960e-03,7.64,2.24,,1.960e-03,2.24
2.000e-03,7.72,2.24,,2.000e-03,2.24
2.040e-03,7.72,2.24,,2.040e-03,2.24
2.080e-03,7.72,2.26,,2.080e-03,2.26
2.120e-03,7.64,2.28,,2.120e-03,2.28
2.160e-03,7.72,2.26,,2.160e-03,2.26
2.200e-03,7.64,2.28,,2.200e-03,2.28
2.240e-03,7.56,2.28,,2.240e-03,2.28
2.280e-03,7.64,2.24,,2.280e-03,2.24
2.320e-03,7.72,2.28,,2.320e-03,2.28
2.360e-03,7.64,2.28,,2.360e-03,2.28
2.400e-03,7.72,2.22,,2.400e-03,2.22
2.440e-03,7.72,2.28,,2.440e-03,2.28
2.480e-03,7.64,2.28,,2.480e-03,2.28
2.520e-03,7.56,2.28,,2.520e-03,2.28
2.560e-03,7.64,2.28,,2.560e-03,2.28
2.600e-03,7.64,2.28,,2.600e-03,2.28
2.640e-03,7.8,2.26,,2.640e-03,2.26
2.680e-03,7.64,2.3,,2.680e-03,2.3
2.720e-03,7.64,2.3,,2.720e-03,2.3
2.760e-03,7.72,2.3,,2.760e-03,2.3
2.800e-03,7.72,2.26,,2.800e-03,2.26
2.840e-03,7.72,2.3,,2.840e-03,2.3
2.880e-03,7.56,2.3,,2.880e-03,2.3
2.920e-03,7.56,2.32,,2.920e-03,2.32
2.960e-03,7.72,2.32,,2.960e-03,2.32
3.000e-03,7.56,2.28,,3.000e-03,2.28
3.040e-03,7.64,2.3,,3.040e-03,2.3
3.080e-03,7.64,2.34,,3.080e-03,2.34
3.120e-03,7.72,2.32,,3.120e-03,2.32
3.160e-03,7.64,2.3,,3.160e-03,2.3
3.200e-03,7.56,2.32,,3.200e-03,2.32
3.240e-03,7.48,2.24,,3.240e-03,2.24
3.280e-03,7.48,2.28,,3.280e-03,2.28
3.320e-03,7.72,2.32,,3.320e-03,2.32
3.360e-03,7.64,2.28,,3.360e-03,2.28
3.400e-03,7.56,2.36,,3.400e-03,2.36
3.440e-03,7.72,2.32,,3.440e-03,2.32
3.480e-03,7.72,2.36,,3.480e-03,2.36
3.520e-03,7.56,2.32,,3.520e-03,2.32
3.560e-03,7.56,2.34,,3.560e-03,2.34
3.600e-03,7.56,2.36,,3.600e-03,2.36
3.640e-03,7.56,2.3,,3.640e-03,2.3
3.680e-03,7.64,2.32,,3.680e-03,2.32
3.720e-03,7.64,2.32,,3.720e-03,2.32
3.760e-03,7.56,2.34,,3.760e-03,2.34
3.800e-03,7.8,2.32,,3.800e-03,2.32
3.840e-03,7.56,2.34,,3.840e-03,2.34
3.880e-03,7.48,2.3,,3.880e-03,2.3
3.920e-03,7.72,2.34,,3.920e-03,2.34
3.960e-03,7.56,2.34,,3.960e-03,2.34
4.000e-03,7.56,2.34,,4.000e-03,2.34
4.040e-03,7.72,2.3,,4.040e-03,2.3
4.080e-03,7.64,2.3,,4.080e-03,2.3
4.120e-03,7.48,2.32,,4.120e-03,2.32
4.160e-03,7.64,2.36,,4.160e-03,2.36
4.200e-03,7.64,2.32,,4.200e-03,2.32
4.240e-03,7.64,2.34,,4.240e-03,2.34
4.280e-03,7.56,2.32,,4.280e-03,2.32
4.320e-03,7.72,2.36,,4.320e-03,2.36
4.360e-03,7.56,2.34,,4.360e-03,2.34
4.400e-03,7.64,2.34,,4.400e-03,2.34
4.440e-03,7.48,2.4,,4.440e-03,2.4
4.480e-03,7.56,2.34,,4.480e-03,2.34
4.520e-03,7.56,2.32,,4.520e-03,2.32
4.560e-03,7.64,2.34,,4.560e-03,2.34
4.600e-03,7.56,2.34,,4.600e-03,2.34
4.640e-03,7.48,2.34,,4.640e-03,2.34
4.680e-03,7.48,2.36,,4.680e-03,2.36
4.720e-03,7.56,2.38,,4.720e-03,2.38
4.760e-03,7.48,2.34,,4.760e-03,2.34
4.800e-03,7.56,2.32,,4.800e-03,2.32
4.840e-03,7.64,2.3,,4.840e-03,2.3
4.880e-03,7.48,2.34,,4.880e-03,2.34
4.920e-03,7.64,2.4,,4.920e-03,2.4
4.960e-03,7.64,2.36,,4.960e-03,2.36
5.000e-03,7.56,2.34,,5.000e-03,2.34
5.040e-03,7.64,2.34,,5.040e-03,2.34
5.080e-03,7.56,2.38,,5.080e-03,2.38
5.120e-03,7.48,2.36,,5.120e-03,2.36
5.160e-03,7.56,2.36,,5.160e-03,2.36
5.200e-03,7.56,2.36,,5.200e-03,2.36
5.240e-03,7.48,2.38,,5.240e-03,2.38
5.280e-03,7.48,2.36,,5.280e-03,2.36
5.320e-03,7.56,2.36,,5.320e-03,2.36
5.360e-03,7.56,2.38,,5.360e-03,2.38
5.400e-03,7.56,2.36,,5.400e-03,2.36
5.440e-03,7.64,2.36,,5.440e-03,2.36
5.480e-03,7.64,2.36,,5.480e-03,2.36
5.520e-03,7.48,2.36,,5.520e-03,2.36
5.560e-03,7.56,2.38,,5.560e-03,2.38
5.600e-03,7.48,2.38,,5.600e-03,2.38
5.640e-03,7.48,2.36,,5.640e-03,2.36
5.680e-03,7.64,2.38,,5.680e-03,2.38
5.720e-03,7.48,2.36,,5.720e-03,2.36
5.760e-03,7.72,2.38,,5.760e-03,2.38
5.800e-03,7.4,2.38,,5.800e-03,2.38
5.840e-03,7.56,2.36,,5.840e-03,2.36
5.880e-03,7.56,2.38,,5.880e-03,2.38
5.920e-03,7.56,2.36,,5.920e-03,2.36
5.960e-03,7.56,2.38,,5.960e-03,2.38
6.000e-03,7.48,2.34,,6.000e-03,2.34
6.040e-03,7.48,2.36,,6.040e-03,2.36
6.080e-03,7.64,2.4,,6.080e-03,2.4
6.120e-03,7.64,2.38,,6.120e-03,2.38
6.160e-03,7.48,2.36,,6.160e-03,2.36
6.200e-03,7.56,2.42,,6.200e-03,2.42
6.240e-03,7.64,2.38,,6.240e-03,2.38
6.280e-03,7.56,2.4,,6.280e-03,2.4
6.320e-03,7.56,2.38,,6.320e-03,2.38
6.360e-03,7.64,2.4,,6.360e-03,2.4
6.400e-03,7.56,2.42,,6.400e-03,2.42
6.440e-03,7.56,2.38,,6.440e-03,2.38
6.480e-03,7.64,2.5,,6.480e-03,2.5
6.520e-03,7.48,2.36,,6.520e-03,2.36
6.560e-03,7.56,2.42,,6.560e-03,2.42
6.600e-03,7.64,2.38,,6.600e-03,2.38
6.640e-03,7.4,2.4,,6.640e-03,2.4
6.680e-03,7.48,2.38,,6.680e-03,2.38
6.720e-03,7.72,2.34,,6.720e-03,2.34
6.760e-03,7.48,2.36,,6.760e-03,2.36
6.800e-03,7.64,2.42,,6.800e-03,2.42
6.840e-03,7.64,2.38,,6.840e-03,2.38
6.880e-03,7.48,2.42,,6.880e-03,2.42
6.920e-03,7.64,2.4,,6.920e-03,2.4
6.960e-03,7.56,2.4,,6.960e-03,2.4
7.000e-03,7.56,2.38,,7.000e-03,2.38
7.040e-03,7.56,2.42,,7.040e-03,2.42
7.080e-03,7.56,2.4,,7.080e-03,2.4
7.120e-03,7.4,2.36,,7.120e-03,2.36
7.160e-03,7.56,2.38,,7.160e-03,2.38
7.200e-03,7.56,2.4,,7.200e-03,2.4
7.240e-03,7.56,2.42,,7.240e-03,2.42
7.280e-03,7.48,2.42,,7.280e-03,2.42
7.320e-03,7.48,2.42,,7.320e-03,2.42
7.360e-03,7.4,2.4,,7.360e-03,2.4
7.400e-03,7.48,2.4,,7.400e-03,2.4
7.440e-03,7.48,2.38,,7.440e-03,2.38
7.480e-03,7.48,2.42,,7.480e-03,2.42
7.520e-03,7.4,2.4,,7.520e-03,2.4
7.560e-03,7.56,2.42,,7.560e-03,2.42
7.600e-03,7.72,2.42,,7.600e-03,2.42
7.640e-03,7.56,2.4,,7.640e-03,2.4
7.680e-03,7.56,2.44,,7.680e-03,2.44
7.720e-03,7.4,2.4,,7.720e-03,2.4
7.760e-03,7.48,2.4,,7.760e-03,2.4
7.800e-03,7.56,2.42,,7.800e-03,2.42
7.840e-03,7.56,2.4,,7.840e-03,2.4
7.880e-03,7.48,2.42,,7.880e-03,2.42
7.920e-03,7.56,2.42,,7.920e-03,2.42
7.960e-03,7.48,2.42,,7.960e-03,2.42
8.000e-03,7.56,2.42,,8.000e-03,2.42
8.040e-03,7.48,2.44,,8.040e-03,2.44
8.080e-03,7.56,2.4,,8.080e-03,2.4
8.120e-03,7.48,2.42,,8.120e-03,2.42
8.160e-03,7.48,2.42,,8.160e-03,2.42
8.200e-03,7.48,2.42,,8.200e-03,2.42
8.240e-03,7.4,2.42,,8.240e-03,2.42
8.280e-03,7.56,2.42,,8.280e-03,2.42
8.320e-03,7.48,2.4,,8.320e-03,2.4
8.360e-03,7.56,2.44,,8.360e-03,2.44
8.400e-03,7.56,2.42,,8.400e-03,2.42
8.440e-03,7.48,2.4,,8.440e-03,2.4
8.480e-03,7.48,2.42,,8.480e-03,2.42
8.520e-03,7.48,2.42,,8.520e-03,2.42
8.560e-03,7.56,2.42,,8.560e-03,2.42
8.600e-03,7.56,2.46,,8.600e-03,2.46
8.640e-03,7.56,2.42,,8.640e-03,2.42
8.680e-03,7.56,2.42,,8.680e-03,2.42
8.720e-03,7.48,2.4,,8.720e-03,2.4
8.760e-03,7.56,2.44,,8.760e-03,2.44
8.800e-03,7.56,2.42,,8.800e-03,2.42
8.840e-03,7.48,2.44,,8.840e-03,2.44
8.880e-03,7.48,2.42,,8.880e-03,2.42
8.920e-03,7.56,2.44,,8.920e-03,2.44
8.960e-03,7.56,2.46,,8.960e-03,2.46
9.000e-03,7.48,2.46,,9.000e-03,2.46
9.040e-03,7.48,2.42,,9.040e-03,2.42
9.080e-03,7.72,2.4,,9.080e-03,2.4
9.120e-03,7.48,2.42,,9.120e-03,2.42
9.160e-03,7.56,2.42,,9.160e-03,2.42
9.200e-03,7.4,2.42,,9.200e-03,2.42
9.240e-03,7.56,2.44,,9.240e-03,2.44
9.280e-03,7.56,2.46,,9.280e-03,2.46
9.320e-03,7.48,2.44,,9.320e-03,2.44
9.360e-03,7.56,2.44,,9.360e-03,2.44
9.400e-03,7.56,2.44,,9.400e-03,2.44
9.440e-03,7.56,2.44,,9.440e-03,2.44
9.480e-03,7.64,2.46,,9.480e-03,2.46
9.520e-03,7.48,2.46,,9.520e-03,2.46
9.560e-03,7.56,2.46,,9.560e-03,2.46
9.600e-03,7.56,2.48,,9.600e-03,2.48
9.640e-03,7.56,2.42,,9.640e-03,2.42
9.680e-03,7.32,2.44,,9.680e-03,2.44
9.720e-03,7.48,2.44,,9.720e-03,2.44
9.760e-03,7.56,2.46,,9.760e-03,2.46
9.800e-03,7.48,2.44,,9.800e-03,2.44
9.840e-03,7.48,2.42,,9.840e-03,2.42
9.880e-03,7.4,2.42,,9.880e-03,2.42
9.920e-03,7.64,2.44,,9.920e-03,2.44
9.960e-03,7.48,2.46,,9.960e-03,2.46
1.000e-02,7.32,2.48,,1.000e-02,2.48
1.004e-02,7.56,2.42,,1.004e-02,2.42
1.008e-02,7.48,2.44,,1.008e-02,2.44
1.012e-02,7.4,2.42,,1.012e-02,2.42
1.016e-02,7.48,2.42,,1.016e-02,2.42
1.020e-02,7.48,2.48,,1.020e-02,2.48
1.024e-02,7.48,2.44,,1.024e-02,2.44
1.028e-02,7.4,2.44,,1.028e-02,2.44
1.032e-02,7.56,2.46,,1.032e-02,2.46
1.036e-02,7.4,2.46,,1.036e-02,2.46
1.040e-02,7.48,2.46,,1.040e-02,2.46
1.044e-02,7.56,2.48,,1.044e-02,2.48
1.048e-02,7.4,2.5,,1.048e-02,2.5
1.052e-02,7.48,2.46,,1.052e-02,2.46
1.056e-02,7.56,2.44,,1.056e-02,2.44
1.060e-02,7.56,2.42,,1.060e-02,2.42
1.064e-02,7.56,2.44,,1.064e-02,2.44
1.068e-02,7.48,2.46,,1.068e-02,2.46
1.072e-02,7.32,2.48,,1.072e-02,2.48
1.076e-02,7.4,2.46,,1.076e-02,2.46
1.080e-02,7.56,2.44,,1.080e-02,2.44
1.084e-02,7.56,2.48,,1.084e-02,2.48
1.088e-02,7.48,2.44,,1.088e-02,2.44
1.092e-02,7.48,2.44,,1.092e-02,2.44
1.096e-02,7.4,2.46,,1.096e-02,2.46
1.100e-02,7.56,2.46,,1.100e-02,2.46
1.104e-02,7.48,2.46,,1.104e-02,2.46
1.108e-02,7.48,2.46,,1.108e-02,2.46
1.112e-02,7.48,2.46,,1.112e-02,2.46
1.116e-02,7.64,2.48,,1.116e-02,2.48
1.120e-02,7.48,2.46,,1.120e-02,2.46
1.124e-02,7.48,2.5,,1.124e-02,2.5
1.128e-02,7.4,2.46,,1.128e-02,2.46
1.132e-02,7.48,2.46,,1.132e-02,2.46
1.136e-02,7.56,2.48,,1.136e-02,2.48
1.140e-02,7.4,2.5,,1.140e-02,2.5
1.144e-02,7.4,2.46,,1.144e-02,2.46
1.148e-02,7.48,2.48,,1.148e-02,2.48
1.152e-02,7.56,2.44,,1.152e-02,2.44
1.156e-02,7.48,2.48,,1.156e-02,2.48
1.160e-02,7.48,2.44,,1.160e-02,2.44
1.164e-02,7.4,2.48,,1.164e-02,2.48
1.168e-02,7.56,2.48,,1.168e-02,2.48
1.172e-02,7.56,2.48,,1.172e-02,2.48
1.176e-02,7.48,2.5,,1.176e-02,2.5
1.180e-02,7.48,2.46,,1.180e-02,2.46
1.184e-02,7.48,2.48,,1.184e-02,2.48
1.188e-02,7.48,2.46,,1.188e-02,2.46
1.192e-02,7.48,2.48,,1.192e-02,2.48
1.196e-02,7.4,2.48,,1.196e-02,2.48
1.200e-02,7.4,2.48,,1.200e-02,2.48
1.204e-02,7.48,2.48,,1.204e-02,2.48
1.208e-02,7.56,2.46,,1.208e-02,2.46
1.212e-02,7.56,2.46,,1.212e-02,2.46
1.216e-02,7.4,2.48,,1.216e-02,2.48
1.220e-02,7.48,2.48,,1.220e-02,2.48
1.224e-02,7.48,2.46,,1.224e-02,2.46
1.228e-02,7.48,2.44,,1.228e-02,2.44
1.232e-02,7.4,2.48,,1.232e-02,2.48
1.236e-02,7.48,2.46,,1.236e-02,2.46
1.240e-02,7.4,2.48,,1.240e-02,2.48
1.244e-02,7.48,2.48,,1.244e-02,2.48
1.248e-02,7.4,2.48,,1.248e-02,2.48
1.252e-02,7.48,2.48,,1.252e-02,2.48
1.256e-02,7.4,2.52,,1.256e-02,2.52
1.260e-02,7.4,2.5,,1.260e-02,2.5
1.264e-02,7.32,2.46,,1.264e-02,2.46
1.268e-02,7.32,2.48,,1.268e-02,2.48
1.272e-02,7.4,2.48,,1.272e-02,2.48
1.276e-02,7.4,2.48,,1.276e-02,2.48
1.280e-02,7.4,2.46,,1.280e-02,2.46
1.284e-02,7.48,2.48,,1.284e-02,2.48
1.288e-02,7.32,2.46,,1.288e-02,2.46
1.292e-02,7.4,2.48,,1.292e-02,2.48
1.296e-02,7.32,2.48,,1.296e-02,2.48
1.300e-02,7.4,2.46,,1.300e-02,2.46
1.304e-02,7.48,2.52,,1.304e-02,2.52
1.308e-02,7.4,2.46,,1.308e-02,2.46
1.312e-02,7.48,2.52,,1.312e-02,2.52
1.316e-02,7.48,2.46,,1.316e-02,2.46
1.320e-02,7.56,2.46,,1.320e-02,2.46
1.324e-02,7.48,2.48,,1.324e-02,2.48
1.328e-02,7.4,2.52,,1.328e-02,2.52
1.332e-02,7.48,2.48,,1.332e-02,2.48
1.336e-02,7.56,2.5,,1.336e-02,2.5
1.340e-02,7.4,2.52,,1.340e-02,2.52
1.344e-02,7.4,2.46,,1.344e-02,2.46
1.348e-02,7.48,2.58,,1.348e-02,2.58
1.352e-02,7.4,2.48,,1.352e-02,2.48
1.356e-02,7.56,2.48,,1.356e-02,2.48
1.360e-02,7.4,2.48,,1.360e-02,2.48
1.364e-02,7.4,2.5,,1.364e-02,2.5
1.368e-02,7.4,2.48,,1.368e-02,2.48
1.372e-02,7.4,2.48,,1.372e-02,2.48
1.376e-02,7.56,2.5,,1.376e-02,2.5
1.380e-02,7.56,2.46,,1.380e-02,2.46
1.384e-02,7.4,2.52,,1.384e-02,2.52
1.388e-02,7.4,2.48,,1.388e-02,2.48
1.392e-02,7.4,2.5,,1.392e-02,2.5
1.396e-02,7.4,2.5,,1.396e-02,2.5
1.400e-02,7.4,2.5,,1.400e-02,2.5
1.404e-02,7.48,2.46,,1.404e-02,2.46
1.408e-02,7.48,2.48,,1.408e-02,2.48
1.412e-02,7.24,2.52,,1.412e-02,2.52
1.416e-02,7.48,2.5,,1.416e-02,2.5
1.420e-02,7.4,2.48,,1.420e-02,2.48
1.424e-02,7.4,2.46,,1.424e-02,2.46
1.428e-02,7.48,2.5,,1.428e-02,2.5
1.432e-02,7.4,2.46,,1.432e-02,2.46
1.436e-02,7.56,2.52,,1.436e-02,2.52
1.440e-02,7.32,2.5,,1.440e-02,2.5
1.444e-02,7.48,2.48,,1.444e-02,2.48
1.448e-02,7.4,2.5,,1.448e-02,2.5
1.452e-02,7.48,2.5,,1.452e-02,2.5
1.456e-02,7.48,2.5,,1.456e-02,2.5
1.460e-02,7.4,2.46,,1.460e-02,2.46
1.464e-02,7.48,2.52,,1.464e-02,2.52
1.468e-02,7.32,2.5,,1.468e-02,2.5
1.472e-02,7.48,2.48,,1.472e-02,2.48
1.476e-02,7.48,2.48,,1.476e-02,2.48
1.480e-02,7.48,2.48,,1.480e-02,2.48
1.484e-02,7.4,2.46,,1.484e-02,2.46
1.488e-02,7.32,2.46,,1.488e-02,2.46
1.492e-02,7.48,2.5,,1.492e-02,2.5
1.496e-02,7.32,2.52,,1.496e-02,2.52
1.500e-02,7.4,2.5,,1.500e-02,2.5
1.504e-02,7.32,2.48,,1.504e-02,2.48
1.508e-02,7.4,2.52,,1.508e-02,2.52
1.512e-02,7.32,2.52,,1.512e-02,2.52
1.516e-02,7.32,2.46,,1.516e-02,2.46
1.520e-02,7.48,2.52,,1.520e-02,2.52
1.524e-02,7.32,2.52,,1.524e-02,2.52
1.528e-02,7.32,2.54,,1.528e-02,2.54
1.532e-02,7.56,2.5,,1.532e-02,2.5
1.536e-02,7.48,2.5,,1.536e-02,2.5
1.540e-02,7.32,2.52,,1.540e-02,2.52
1.544e-02,7.32,2.52,,1.544e-02,2.52
1.548e-02,7.48,2.46,,1.548e-02,2.46
1.552e-02,7.4,2.5,,1.552e-02,2.5
1.556e-02,7.24,2.54,,1.556e-02,2.54
1.560e-02,7.48,2.56,,1.560e-02,2.56
1.564e-02,7.4,2.48,,1.564e-02,2.48
1.568e-02,7.4,2.48,,1.568e-02,2.48
1.572e-02,7.32,2.54,,1.572e-02,2.54
1.576e-02,7.48,2.48,,1.576e-02,2.48
1.580e-02,7.56,2.52,,1.580e-02,2.52
1.584e-02,7.4,2.5,,1.584e-02,2.5
1.588e-02,7.4,2.48,,1.588e-02,2.48
1.592e-02,7.4,2.58,,1.592e-02,2.58
1.596e-02,7.32,2.52,,1.596e-02,2.52
1.600e-02,7.48,2.5,,1.600e-02,2.5
1.604e-02,7.24,2.5,,1.604e-02,2.5
1.608e-02,7.4,2.52,,1.608e-02,2.52
1.612e-02,7.32,2.52,,1.612e-02,2.52
1.616e-02,7.48,2.46,,1.616e-02,2.46
1.620e-02,7.4,2.54,,1.620e-02,2.54
1.624e-02,7.4,2.52,,1.624e-02,2.52
1.628e-02,7.48,2.54,,1.628e-02,2.54
1.632e-02,7.4,2.5,,1.632e-02,2.5
1.636e-02,7.56,2.54,,1.636e-02,2.54
1.640e-02,7.48,2.52,,1.640e-02,2.52
1.644e-02,7.32,2.52,,1.644e-02,2.52
1.648e-02,7.32,2.52,,1.648e-02,2.52
1.652e-02,7.48,2.46,,1.652e-02,2.46
1.656e-02,7.56,2.52,,1.656e-02,2.52
1.660e-02,7.4,2.48,,1.660e-02,2.48
1.664e-02,7.32,2.5,,1.664e-02,2.5
1.668e-02,7.4,2.52,,1.668e-02,2.52
1.672e-02,7.32,2.54,,1.672e-02,2.54
1.676e-02,7.48,2.56,,1.676e-02,2.56
1.680e-02,7.4,2.52,,1.680e-02,2.52
1.684e-02,7.4,2.52,,1.684e-02,2.52
1.688e-02,7.4,2.52,,1.688e-02,2.52
1.692e-02,7.4,2.52,,1.692e-02,2.52
1.696e-02,7.32,2.54,,1.696e-02,2.54
1.700e-02,7.4,2.52,,1.700e-02,2.52
1.704e-02,7.4,2.5,,1.704e-02,2.5
1.708e-02,7.4,2.52,,1.708e-02,2.52
1.712e-02,7.48,2.54,,1.712e-02,2.54
1.716e-02,7.4,2.56,,1.716e-02,2.56
1.720e-02,7.32,2.54,,1.720e-02,2.54
1.724e-02,7.48,2.54,,1.724e-02,2.54
1.728e-02,7.4,2.5,,1.728e-02,2.5
1.732e-02,7.32,2.54,,1.732e-02,2.54
1.736e-02,7.4,2.54,,1.736e-02,2.54
1.740e-02,7.4,2.52,,1.740e-02,2.52
