Archivos Guadalupe/Data/Kaleid_IDL/IDL-labo/12-05/tek0008ALL.csv

Model,DPO3034
Firmware Version,2.16

Point Format,Y,
Horizontal Units,S,
Horizontal Scale,4e-07,
Sample Interval,4e-09,
Record Length,1000,
Gating,0.0% to 100.0%,0.0% to 100.0%
Probe Attenuation,1,1
Vertical Units,V,V
Vertical Offset,0,0
Vertical Scale,5,5
Label,,
TIME,CH1,CH2
-2.640e-07,-0.3,-0.1
-2.600e-07,0.1,0.1
-2.560e-07,0.1,-0.1
-2.520e-07,0.1,-0.1
-2.480e-07,-0.1,-0.1
-2.440e-07,0.1,-0.1
-2.400e-07,-0.5,-0.1
-2.360e-07,-0.3,0.3
-2.320e-07,-0.1,0.5
-2.280e-07,-0.1,0.3
-2.240e-07,0.1,-0.1
-2.200e-07,0.1,0.1
-2.160e-07,-0.1,0.1
-2.120e-07,0.1,-0.1
-2.080e-07,-0.3,0.1
-2.040e-07,-0.5,0.1
-2.000e-07,0.1,-0.3
-1.960e-07,-0.5,0.1
-1.920e-07,0.1,-0.1
-1.880e-07,-0.5,-0.1
-1.840e-07,-0.3,0.1
-1.800e-07,-0.3,0.1
-1.760e-07,-0.3,-0.3
-1.720e-07,-0.1,0.1
-1.680e-07,0.1,-0.1
-1.640e-07,-0.1,-0.1
-1.600e-07,0.3,-0.1
-1.560e-07,-0.3,0.1
-1.520e-07,-0.1,-0.1
-1.480e-07,0.1,-0.1
-1.440e-07,0.1,-0.3
-1.400e-07,-0.1,-0.3
-1.360e-07,0.1,0.1
-1.320e-07,-0.1,-0.3
-1.280e-07,0.3,-0.1
-1.240e-07,-0.1,0.1
-1.200e-07,0.1,0.1
-1.160e-07,-0.1,-0.1
-1.120e-07,-0.3,-0.1
-1.080e-07,-0.3,0.1
-1.040e-07,0.3,-0.1
-1.000e-07,0.1,-0.1
-9.600e-08,-0.1,-0.1
-9.200e-08,0.1,0.3
-8.800e-08,0.1,-0.3
-8.400e-08,0.1,-0.1
-8.000e-08,0.3,0.1
-7.600e-08,0.3,-0.1
-7.200e-08,0.1,-0.1
-6.800e-08,0.1,0.3
-6.400e-08,0.3,0.3
-6.000e-08,0.3,-0.1
-5.600e-08,0.7,-0.1
-5.200e-08,1.3,0.5
-4.800e-08,0.9,0.1
-4.400e-08,1.5,0.3
-4.000e-08,1.5,0.5
-3.600e-08,1.5,0.5
-3.200e-08,2.1,0.5
-2.800e-08,2.3,1.1
-2.400e-08,2.3,1.3
-2.000e-08,2.5,1.1
-1.600e-08,3.1,1.3
-1.200e-08,3.5,1.7
-8.000e-09,3.7,1.7
-4.000e-09,3.9,1.7
3.706e-22,4.5,2.1
4.000e-09,5.1,2.3
8.000e-09,5.7,2.3
1.200e-08,6.3,2.5
1.600e-08,6.5,2.5
2.000e-08,7.3,2.7
2.400e-08,7.9,3.3
2.800e-08,8.1,3.1
3.200e-08,8.9,3.7
3.600e-08,9.3,3.7
4.000e-08,9.7,3.7
4.400e-08,10.3,4.3
4.800e-08,11.1,4.5
5.200e-08,11.7,4.9
5.600e-08,11.9,5.1
6.000e-08,12.7,5.5
6.400e-08,13.3,5.5
6.800e-08,13.9,5.5
7.200e-08,14.1,5.7
7.600e-08,14.9,6.3
8.000e-08,15.5,6.1
8.400e-08,16.1,6.3
8.800e-08,16.3,6.3
9.200e-08,17.1,6.5
9.600e-08,17.7,6.5
1.000e-07,17.9,6.5
1.040e-07,18.3,6.9
1.080e-07,18.9,6.5
1.120e-07,19.5,7.3
1.160e-07,19.9,7.3
1.200e-07,19.9,7.5
1.240e-07,20.9,7.9
1.280e-07,20.9,8.1
1.320e-07,21.1,8.1
1.360e-07,21.3,8.1
1.400e-07,21.5,8.3
1.440e-07,21.7,8.7
1.480e-07,21.9,8.7
1.520e-07,22.5,8.7
1.560e-07,22.1,8.5
1.600e-07,22.7,8.7
1.640e-07,22.1,8.7
1.680e-07,22.7,8.9
1.720e-07,22.9,8.7
1.760e-07,23.3,8.5
1.800e-07,23.1,8.7
1.840e-07,23.5,8.5
1.880e-07,23.7,8.5
1.920e-07,23.7,8.7
1.960e-07,23.5,8.7
2.000e-07,23.9,8.9
2.040e-07,24.1,8.7
2.080e-07,24.1,9.1
2.120e-07,24.5,9.3
2.160e-07,24.5,9.7
2.200e-07,25.1,9.5
2.240e-07,24.5,9.9
2.280e-07,25.1,10.1
2.320e-07,24.9,10.1
2.360e-07,25.3,10.5
2.400e-07,25.1,10.7
2.440e-07,25.1,10.7
2.480e-07,25.9,10.9
2.520e-07,25.7,10.7
2.560e-07,26.1,11.1
2.600e-07,26.3,11.1
2.640e-07,26.3,11.1
2.680e-07,26.7,11.3
2.720e-07,26.7,11.3
2.760e-07,26.5,11.3
2.800e-07,26.7,11.3
2.840e-07,26.7,11.5
2.880e-07,26.3,11.5
2.920e-07,26.7,11.3
2.960e-07,26.9,11.3
3.000e-07,26.7,11.3
3.040e-07,26.9,11.3
3.080e-07,26.9,11.3
3.120e-07,26.9,11.3
3.160e-07,27.3,11.1
3.200e-07,27.1,11.3
3.240e-07,26.9,11.3
3.280e-07,27.7,11.3
3.320e-07,27.3,11.3
3.360e-07,27.5,10.9
3.400e-07,27.5,11.5
3.440e-07,27.5,11.1
3.480e-07,27.9,11.3
3.520e-07,27.7,11.1
3.560e-07,28.1,11.5
3.600e-07,28.1,11.5
3.640e-07,28.5,11.7
3.680e-07,28.3,11.5
3.720e-07,28.3,11.5
3.760e-07,28.5,11.9
3.800e-07,28.7,11.9
3.840e-07,28.7,12.1
3.880e-07,29.1,12.5
3.920e-07,28.9,11.9
3.960e-07,29.3,11.9
4.000e-07,29.1,12.1
4.040e-07,29.1,12.1
4.080e-07,29.3,11.9
4.120e-07,29.5,12.1
4.160e-07,29.5,12.1
4.200e-07,29.3,12.5
4.240e-07,29.3,12.5
4.280e-07,29.1,12.3
4.320e-07,29.3,12.1
4.360e-07,29.1,12.5
4.400e-07,28.9,12.5
4.440e-07,28.9,12.5
4.480e-07,29.1,12.5
4.520e-07,29.1,12.3
4.560e-07,29.1,12.9
4.600e-07,29.3,12.7
4.640e-07,29.3,12.7
4.680e-07,29.1,12.7
4.720e-07,29.1,12.5
4.760e-07,29.3,12.5
4.800e-07,29.3,12.5
4.840e-07,29.3,12.7
4.880e-07,29.3,12.9
4.920e-07,28.9,12.7
4.960e-07,29.3,12.9
5.000e-07,29.5,13.1
5.040e-07,29.3,12.9
5.080e-07,28.9,13.1
5.120e-07,29.3,13.1
5.160e-07,29.3,13.1
5.200e-07,28.9,13.5
5.240e-07,29.5,12.9
5.280e-07,29.3,13.3
5.320e-07,29.3,13.1
5.360e-07,29.1,13.1
5.400e-07,28.9,13.1
5.440e-07,29.1,13.1
5.480e-07,28.9,12.9
5.520e-07,29.3,12.9
5.560e-07,29.3,13.1
5.600e-07,29.1,13.3
5.640e-07,29.3,13.1
5.680e-07,29.3,12.9
5.720e-07,29.1,13.3
5.760e-07,29.5,12.9
5.800e-07,29.3,13.3
5.840e-07,29.3,13.1
5.880e-07,29.5,13.1
5.920e-07,29.7,13.3
5.960e-07,29.7,13.3
6.000e-07,29.3,13.1
6.040e-07,29.5,13.3
6.080e-07,29.7,13.5
6.120e-07,29.5,13.5
6.160e-07,29.3,13.5
6.200e-07,29.5,13.1
6.240e-07,29.5,13.5
6.280e-07,29.9,13.3
6.320e-07,29.9,13.5
6.360e-07,29.3,13.5
6.400e-07,29.9,13.5
6.440e-07,30.1,13.7
6.480e-07,29.5,13.7
6.520e-07,29.9,13.5
6.560e-07,29.9,13.5
6.600e-07,29.9,13.7
6.640e-07,29.7,13.7
6.680e-07,29.7,13.7
6.720e-07,29.5,13.5
6.760e-07,29.7,13.5
6.800e-07,29.7,13.7
6.840e-07,29.5,13.7
6.880e-07,30.1,13.7
6.920e-07,29.9,13.5
6.960e-07,29.7,13.7
7.000e-07,29.9,13.5
7.040e-07,29.7,13.5
7.080e-07,29.9,13.9
7.120e-07,29.7,13.9
7.160e-07,29.7,13.7
7.200e-07,29.5,13.9
7.240e-07,29.5,13.7
7.280e-07,29.9,13.7
7.320e-07,29.7,13.9
7.360e-07,30.3,13.9
7.400e-07,29.9,13.7
7.440e-07,29.9,13.7
7.480e-07,29.7,13.9
7.520e-07,30.1,13.7
7.560e-07,29.9,13.9
7.600e-07,29.9,14.1
7.640e-07,29.9,14.1
7.680e-07,29.9,13.7
7.720e-07,29.9,13.9
7.760e-07,29.9,14.1
7.800e-07,29.9,14.1
7.840e-07,29.9,13.9
7.880e-07,30.1,14.1
7.920e-07,30.1,13.9
7.960e-07,29.9,14.3
8.000e-07,30.1,14.3
8.040e-07,30.1,13.9
8.080e-07,29.9,13.9
8.120e-07,30.3,14.3
8.160e-07,29.9,14.3
8.200e-07,29.9,14.3
8.240e-07,30.1,14.5
8.280e-07,30.3,13.9
8.320e-07,30.1,14.1
8.360e-07,30.3,14.3
8.400e-07,30.3,14.7
8.440e-07,30.5,14.3
8.480e-07,30.3,14.1
8.520e-07,30.3,14.1
8.560e-07,30.5,14.3
8.600e-07,30.5,14.1
8.640e-07,30.5,14.5
8.680e-07,30.1,14.5
8.720e-07,30.1,14.1
8.760e-07,30.5,14.3
8.800e-07,30.5,14.3
8.840e-07,30.3,14.5
8.880e-07,30.3,14.5
8.920e-07,30.5,14.1
8.960e-07,30.5,14.5
9.000e-07,30.3,14.3
9.040e-07,29.9,14.5
9.080e-07,30.5,14.3
9.120e-07,30.5,14.3
9.160e-07,30.3,14.1
9.200e-07,30.1,14.3
9.240e-07,30.5,14.3
9.280e-07,30.1,14.5
9.320e-07,30.5,14.5
9.360e-07,30.3,14.7
9.400e-07,30.3,14.5
9.440e-07,30.5,14.7
9.480e-07,30.3,14.3
9.520e-07,30.5,14.5
9.560e-07,30.5,14.7
9.600e-07,30.5,14.3
9.640e-07,30.1,14.5
9.680e-07,29.9,14.3
9.720e-07,30.1,14.7
9.760e-07,30.1,14.5
9.800e-07,30.3,14.7
9.840e-07,29.9,14.7
9.880e-07,30.3,14.9
9.920e-07,30.3,14.7
9.960e-07,30.5,14.5
1.000e-06,30.7,14.7
1.004e-06,30.3,14.7
1.008e-06,30.5,14.7
1.012e-06,30.3,14.7
1.016e-06,29.9,14.5
1.020e-06,30.3,14.7
1.024e-06,30.1,14.7
1.028e-06,30.1,14.7
1.032e-06,30.1,14.5
1.036e-06,30.3,14.7
1.040e-06,30.1,14.9
1.044e-06,30.1,14.7
1.048e-06,29.9,14.7
1.052e-06,30.1,14.7
1.056e-06,30.3,14.9
1.060e-06,30.3,14.5
1.064e-06,30.1,14.5
1.068e-06,30.3,14.5
1.072e-06,29.9,14.7
1.076e-06,30.5,14.5
1.080e-06,30.1,14.5
1.084e-06,29.7,14.7
1.088e-06,30.1,14.7
1.092e-06,30.3,14.5
1.096e-06,30.1,14.7
1.100e-06,30.3,14.5
1.104e-06,30.3,14.9
1.108e-06,30.1,14.7
1.112e-06,30.3,14.3
1.116e-06,29.9,14.7
1.120e-06,30.1,14.5
1.124e-06,30.1,14.7
1.128e-06,30.1,14.7
1.132e-06,30.1,14.3
1.136e-06,29.9,14.7
1.140e-06,30.1,14.7
1.144e-06,29.9,14.9
1.148e-06,29.7,14.7
1.152e-06,29.9,14.5
1.156e-06,30.5,15.1
1.160e-06,30.1,15.1
1.164e-06,30.1,14.7
1.168e-06,30.1,14.9
1.172e-06,30.1,14.9
1.176e-06,30.1,15.1
1.180e-06,30.5,14.9
1.184e-06,30.3,14.7
1.188e-06,29.9,14.7
1.192e-06,30.1,14.7
1.196e-06,29.9,14.7
1.200e-06,29.9,14.7
1.204e-06,30.3,15.1
1.208e-06,30.5,14.7
1.212e-06,30.3,14.9
1.216e-06,30.1,14.7
1.220e-06,30.3,15.1
1.224e-06,30.1,14.9
1.228e-06,30.3,14.9
1.232e-06,29.9,14.9
1.236e-06,30.1,14.7
1.240e-06,30.3,15.1
1.244e-06,30.3,14.9
1.248e-06,30.5,15.1
1.252e-06,30.3,15.1
1.256e-06,30.5,15.1
1.260e-06,30.3,15.1
1.264e-06,30.3,15.1
1.268e-06,30.5,14.9
1.272e-06,30.3,15.1
1.276e-06,30.1,15.1
1.280e-06,30.1,15.1
1.284e-06,30.1,14.9
1.288e-06,30.5,15.3
1.292e-06,30.3,15.1
1.296e-06,30.1,14.9
1.300e-06,30.5,14.9
1.304e-06,30.1,15.1
1.308e-06,30.5,15.1
1.312e-06,30.3,15.1
1.316e-06,30.3,14.9
1.320e-06,30.5,15.1
1.324e-06,30.3,15.1
1.328e-06,30.3,15.1
1.332e-06,30.5,14.7
1.336e-06,30.3,15.1
1.340e-06,30.1,15.1
1.344e-06,30.5,14.9
1.348e-06,30.7,15.3
1.352e-06,30.3,15.1
1.356e-06,30.7,15.3
1.360e-06,30.5,15.1
1.364e-06,30.5,15.1
1.368e-06,30.5,15.1
1.372e-06,30.7,15.1
1.376e-06,30.5,14.9
1.380e-06,30.5,15.1
1.384e-06,30.3,14.9
1.388e-06,30.7,15.3
1.392e-06,30.5,15.3
1.396e-06,30.3,15.3
1.400e-06,30.5,15.1
1.404e-06,30.1,15.5
1.408e-06,30.3,15.1
1.412e-06,30.3,15.3
1.416e-06,30.7,15.1
1.420e-06,30.3,15.1
1.424e-06,30.3,15.3
1.428e-06,30.3,15.1
1.432e-06,30.3,15.1
1.436e-06,30.1,15.3
1.440e-06,30.5,15.1
1.444e-06,30.1,15.3
1.448e-06,30.5,14.9
1.452e-06,30.5,15.5
1.456e-06,30.5,15.3
1.460e-06,30.5,15.3
1.464e-06,30.1,15.3
1.468e-06,30.5,15.3
1.472e-06,30.3,15.3
1.476e-06,30.3,15.1
1.480e-06,30.3,15.3
1.484e-06,30.5,14.9
1.488e-06,30.7,15.3
1.492e-06,30.3,15.1
1.496e-06,30.3,15.3
1.500e-06,30.5,15.1
1.504e-06,29.9,14.9
1.508e-06,30.5,15.5
1.512e-06,30.1,15.3
1.516e-06,30.5,15.3
1.520e-06,30.5,14.9
1.524e-06,30.3,15.3
1.528e-06,30.5,15.1
1.532e-06,30.1,15.1
1.536e-06,30.3,15.5
1.540e-06,30.1,14.9
1.544e-06,30.5,15.3
1.548e-06,30.5,15.3
1.552e-06,30.1,14.9
1.556e-06,30.5,15.1
1.560e-06,30.3,14.9
1.564e-06,30.3,15.3
1.568e-06,30.3,15.3
1.572e-06,30.5,15.1
1.576e-06,30.5,15.1
1.580e-06,30.5,15.3
1.584e-06,29.9,15.1
1.588e-06,30.5,15.5
1.592e-06,30.3,15.1
1.596e-06,30.3,15.1
1.600e-06,30.3,15.3
1.604e-06,30.1,15.3
1.608e-06,29.9,15.3
1.612e-06,30.3,15.3
1.616e-06,30.3,15.1
1.620e-06,30.3,15.3
1.624e-06,30.1,15.3
1.628e-06,30.1,15.3
1.632e-06,30.3,15.5
1.636e-06,30.3,15.3
1.640e-06,30.3,15.5
1.644e-06,30.1,15.3
1.648e-06,30.1,15.1
1.652e-06,30.5,15.5
1.656e-06,30.3,15.3
1.660e-06,30.3,15.1
1.664e-06,30.1,15.3
1.668e-06,30.1,15.1
1.672e-06,29.9,15.3
1.676e-06,30.1,15.5
1.680e-06,29.9,15.3
1.684e-06,30.5,15.3
1.688e-06,30.3,15.1
1.692e-06,30.3,15.1
1.696e-06,30.1,15.3
1.700e-06,30.5,15.1
1.704e-06,29.9,15.5
1.708e-06,30.5,15.3
1.712e-06,30.3,15.3
1.716e-06,29.9,15.3
1.720e-06,30.5,15.3
1.724e-06,30.1,15.3
1.728e-06,30.1,15.3
1.732e-06,30.5,15.3
1.736e-06,30.3,15.5
1.740e-06,30.3,15.3
1.744e-06,29.9,15.3
1.748e-06,30.5,15.5
1.752e-06,30.5,15.3
1.756e-06,30.3,15.5
1.760e-06,30.5,15.3
1.764e-06,30.1,15.1
1.768e-06,30.5,15.3
1.772e-06,30.5,15.3
1.776e-06,30.3,15.3
1.780e-06,30.3,15.3
1.784e-06,30.7,15.3
1.788e-06,30.1,15.7
1.792e-06,30.5,15.3
1.796e-06,30.3,15.3
1.800e-06,30.3,15.3
1.804e-06,30.1,15.3
1.808e-06,30.1,15.5
1.812e-06,30.5,15.3
1.816e-06,30.1,15.3
1.820e-06,30.3,15.5
1.824e-06,30.1,15.3
1.828e-06,30.3,15.3
1.832e-06,30.5,15.5
1.836e-06,30.3,15.3
1.840e-06,30.3,15.7
1.844e-06,30.1,15.5
1.848e-06,30.1,15.3
1.852e-06,30.1,15.5
1.856e-06,30.3,15.3
1.860e-06,30.3,15.7
1.864e-06,30.3,15.3
1.868e-06,30.1,15.7
1.872e-06,30.3,15.3
1.876e-06,30.1,15.3
1.880e-06,30.1,15.5
1.884e-06,30.3,15.3
1.888e-06,30.5,15.5
1.892e-06,30.1,15.3
1.896e-06,30.5,15.1
1.900e-06,30.5,15.5
1.904e-06,30.3,15.5
1.908e-06,30.3,15.3
1.912e-06,30.5,15.3
1.916e-06,30.5,15.5
1.920e-06,30.5,15.3
1.924e-06,29.9,15.5
1.928e-06,30.1,15.5
1.932e-06,29.9,15.3
1.936e-06,30.1,15.3
1.940e-06,30.3,15.3
1.944e-06,30.3,15.5
1.948e-06,30.3,15.3
1.952e-06,30.3,15.3
1.956e-06,30.3,15.5
1.960e-06,30.1,15.5
1.964e-06,30.3,15.7
1.968e-06,30.1,15.3
1.972e-06,30.5,15.5
1.976e-06,30.3,15.3
1.980e-06,30.5,15.3
1.984e-06,30.5,15.5
1.988e-06,30.1,15.3
1.992e-06,30.1,15.3
1.996e-06,29.9,15.5
2.000e-06,30.3,15.5
2.004e-06,30.5,15.5
2.008e-06,30.5,15.5
2.012e-06,30.5,15.7
2.016e-06,29.7,15.3
2.020e-06,30.1,15.7
2.024e-06,30.1,15.3
2.028e-06,30.1,15.5
2.032e-06,30.1,15.3
2.036e-06,30.3,15.3
2.040e-06,30.3,15.3
2.044e-06,30.3,15.1
2.048e-06,30.5,15.5
2.052e-06,30.1,15.1
2.056e-06,30.5,15.5
2.060e-06,30.1,15.3
2.064e-06,30.5,15.3
2.068e-06,30.3,15.3
2.072e-06,30.1,15.3
2.076e-06,29.9,15.3
2.080e-06,30.1,15.3
2.084e-06,29.9,15.7
2.088e-06,30.5,15.3
2.092e-06,30.1,15.5
2.096e-06,30.3,15.5
2.100e-06,30.5,15.7
2.104e-06,30.1,15.7
2.108e-06,30.3,15.3
2.112e-06,30.5,15.3
2.116e-06,30.3,15.3
2.120e-06,30.5,15.3
2.124e-06,30.5,15.3
2.128e-06,30.1,15.7
2.132e-06,30.3,15.3
2.136e-06,30.3,15.1
2.140e-06,30.1,15.5
2.144e-06,30.3,15.3
2.148e-06,30.1,15.5
2.152e-06,30.1,15.3
2.156e-06,30.3,15.3
2.160e-06,30.1,15.3
2.164e-06,30.3,15.7
2.168e-06,30.1,15.5
2.172e-06,30.1,15.5
2.176e-06,30.1,15.5
2.180e-06,30.1,15.5
2.184e-06,30.1,15.7
2.188e-06,29.9,15.7
2.192e-06,30.3,15.5
2.196e-06,29.5,15.3
2.200e-06,30.1,15.3
2.204e-06,30.3,15.3
2.208e-06,29.9,15.3
2.212e-06,29.9,15.3
2.216e-06,30.1,15.9
2.220e-06,29.7,15.7
2.224e-06,30.3,15.5
2.228e-06,30.1,15.3
2.232e-06,30.1,15.5
2.236e-06,30.1,15.7
2.240e-06,30.1,15.5
2.244e-06,29.7,15.7
2.248e-06,30.3,15.3
2.252e-06,29.9,15.3
2.256e-06,30.1,15.5
2.260e-06,30.3,15.3
2.264e-06,30.3,15.7
2.268e-06,30.1,15.5
2.272e-06,30.1,15.7
2.276e-06,30.3,15.7
2.280e-06,29.9,15.5
2.284e-06,30.1,15.3
2.288e-06,30.1,15.3
2.292e-06,29.9,15.7
2.296e-06,30.3,15.3
2.300e-06,30.1,15.5
2.304e-06,30.1,15.3
2.308e-06,29.9,15.5
2.312e-06,30.3,15.7
2.316e-06,30.5,15.7
2.320e-06,30.3,15.3
2.324e-06,30.1,15.5
2.328e-06,30.3,15.3
2.332e-06,30.1,15.5
2.336e-06,30.1,15.7
2.340e-06,30.1,15.3
2.344e-06,30.1,15.7
2.348e-06,30.3,15.5
2.352e-06,29.9,15.5
2.356e-06,30.1,15.3
2.360e-06,30.3,15.5
2.364e-06,29.9,15.5
2.368e-06,29.9,15.3
2.372e-06,30.5,15.7
2.376e-06,30.1,15.5
2.380e-06,30.3,15.7
2.384e-06,29.9,15.7
2.388e-06,30.5,15.5
2.392e-06,30.5,15.3
2.396e-06,30.3,15.5
2.400e-06,30.1,15.3
2.404e-06,30.1,15.9
2.408e-06,30.1,15.5
2.412e-06,30.3,15.7
2.416e-06,29.9,15.5
2.420e-06,30.1,15.3
2.424e-06,30.1,15.7
2.428e-06,30.5,15.5
2.432e-06,30.1,15.7
2.436e-06,30.1,15.7
2.440e-06,30.3,15.7
2.444e-06,30.5,15.3
2.448e-06,30.1,15.7
2.452e-06,30.1,15.5
2.456e-06,30.1,15.5
2.460e-06,30.5,15.7
2.464e-06,30.1,15.3
2.468e-06,30.3,15.7
2.472e-06,30.3,15.5
2.476e-06,30.3,15.7
2.480e-06,30.1,15.7
2.484e-06,30.1,15.7
2.488e-06,30.1,15.3
2.492e-06,30.1,15.5
2.496e-06,30.1,15.3
2.500e-06,29.9,15.5
2.504e-06,30.3,15.5
2.508e-06,30.5,15.5
2.512e-06,29.9,15.5
2.516e-06,30.3,15.7
2.520e-06,30.1,15.7
2.524e-06,30.3,15.3
2.528e-06,30.1,15.7
2.532e-06,30.5,15.5
2.536e-06,30.3,15.5
2.540e-06,30.3,15.7
2.544e-06,30.3,15.3
2.548e-06,30.3,15.3
2.552e-06,30.3,15.7
2.556e-06,29.9,15.5
2.560e-06,29.9,15.7
2.564e-06,30.1,15.9
2.568e-06,29.9,15.7
2.572e-06,30.3,15.7
2.576e-06,30.1,15.5
2.580e-06,30.1,15.3
2.584e-06,30.3,15.7
2.588e-06,29.9,15.3
2.592e-06,30.1,15.7
2.596e-06,30.1,15.5
2.600e-06,29.9,15.5
2.604e-06,30.3,15.5
2.608e-06,30.3,15.5
2.612e-06,29.9,15.7
2.616e-06,29.9,15.7
2.620e-06,30.3,15.5
2.624e-06,30.1,15.5
2.628e-06,30.1,15.7
2.632e-06,30.1,15.3
2.636e-06,30.1,15.5
2.640e-06,30.3,15.5
2.644e-06,29.9,15.5
2.648e-06,30.3,15.5
2.652e-06,29.9,15.7
2.656e-06,29.9,15.9
2.660e-06,30.1,15.3
2.664e-06,30.1,15.7
2.668e-06,30.1,15.3
2.672e-06,30.3,15.7
2.676e-06,30.3,15.3
2.680e-06,30.5,15.7
2.684e-06,30.1,15.5
2.688e-06,29.9,15.3
2.692e-06,29.9,15.3
2.696e-06,30.1,15.7
2.700e-06,29.9,15.3
2.704e-06,30.5,15.5
2.708e-06,30.1,15.7
2.712e-06,29.9,15.7
2.716e-06,30.1,15.3
2.720e-06,30.3,15.7
2.724e-06,29.9,15.7
2.728e-06,30.1,15.7
2.732e-06,30.1,15.3
2.736e-06,29.9,15.7
2.740e-06,29.9,15.7
2.744e-06,30.1,15.5
2.748e-06,30.1,15.5
2.752e-06,29.9,15.7
2.756e-06,30.1,15.3
2.760e-06,30.3,15.3
2.764e-06,29.9,15.3
2.768e-06,29.9,15.3
2.772e-06,29.9,15.7
2.776e-06,30.1,15.5
2.780e-06,30.5,15.5
2.784e-06,30.5,15.9
2.788e-06,29.9,15.5
2.792e-06,30.1,15.7
2.796e-06,30.1,15.7
2.800e-06,29.9,15.7
2.804e-06,29.9,15.7
2.808e-06,30.1,15.7
2.812e-06,29.9,15.3
2.816e-06,30.3,15.7
2.820e-06,29.7,15.9
2.824e-06,30.1,15.5
2.828e-06,30.5,15.7
2.832e-06,30.3,15.7
2.836e-06,30.1,15.9
2.840e-06,30.1,15.3
2.844e-06,29.9,15.9
2.848e-06,30.3,15.7
2.852e-06,29.9,15.9
2.856e-06,30.3,15.5
2.860e-06,30.1,15.9
2.864e-06,30.1,15.7
2.868e-06,30.3,15.7
2.872e-06,30.3,15.7
2.876e-06,30.3,15.9
2.880e-06,30.1,15.5
2.884e-06,30.1,15.3
2.888e-06,30.1,16.1
2.892e-06,30.3,15.9
2.896e-06,30.3,15.5
2.900e-06,29.9,15.7
2.904e-06,30.1,15.7
2.908e-06,29.9,15.9
2.912e-06,29.9,15.7
2.916e-06,30.1,15.7
2.920e-06,29.9,15.7
2.924e-06,29.9,15.7
2.928e-06,29.7,15.7
2.932e-06,29.5,15.5
2.936e-06,28.9,15.7
2.940e-06,29.1,15.9
2.944e-06,28.5,15.3
2.948e-06,27.9,15.5
2.952e-06,27.3,15.3
2.956e-06,27.1,15.1
2.960e-06,26.7,14.9
2.964e-06,25.5,14.7
2.968e-06,25.1,14.3
2.972e-06,24.3,14.1
2.976e-06,23.3,13.7
2.980e-06,22.9,13.1
2.984e-06,22.1,12.5
2.988e-06,21.7,12.1
2.992e-06,21.3,11.3
2.996e-06,20.9,11.1
3.000e-06,20.9,10.3
3.004e-06,20.5,10.1
3.008e-06,20.5,9.7
3.012e-06,20.5,9.3
3.016e-06,20.7,9.5
3.020e-06,20.3,9.7
3.024e-06,20.3,9.5
3.028e-06,20.7,9.9
3.032e-06,20.3,10.5
3.036e-06,20.5,11.3
3.040e-06,20.3,11.7
3.044e-06,20.3,12.3
3.048e-06,20.5,12.9
3.052e-06,20.1,13.1
3.056e-06,20.7,13.9
3.060e-06,20.3,14.3
3.064e-06,20.3,14.5
3.068e-06,19.9,14.3
3.072e-06,19.5,14.3
3.076e-06,19.1,14.1
3.080e-06,18.7,13.7
3.084e-06,18.3,13.3
3.088e-06,17.7,12.7
3.092e-06,16.5,12.1
3.096e-06,15.9,11.3
3.100e-06,15.1,10.3
3.104e-06,14.1,9.1
3.108e-06,13.1,8.5
3.112e-06,12.3,7.7
3.116e-06,11.5,6.7
3.120e-06,10.7,6.1
3.124e-06,10.1,5.5
3.128e-06,9.7,4.7
3.132e-06,9.1,4.3
3.136e-06,9.5,3.7
3.140e-06,9.1,3.5
3.144e-06,9.1,3.9
3.148e-06,9.3,3.5
3.152e-06,9.3,4.1
3.156e-06,9.3,4.5
3.160e-06,9.7,5.3
3.164e-06,10.1,6.1
3.168e-06,10.3,6.7
3.172e-06,10.1,7.3
3.176e-06,10.3,7.9
3.180e-06,10.3,8.9
3.184e-06,11.1,9.5
3.188e-06,10.7,9.9
3.192e-06,10.3,10.3
3.196e-06,10.3,9.9
3.200e-06,10.1,9.9
3.204e-06,9.7,9.9
3.208e-06,9.5,9.5
3.212e-06,8.9,8.9
3.216e-06,8.3,8.3
3.220e-06,7.7,7.7
3.224e-06,6.7,6.5
3.228e-06,5.9,6.1
3.232e-06,5.7,5.1
3.236e-06,5.1,4.3
3.240e-06,4.7,3.1
3.244e-06,3.9,2.5
3.248e-06,3.7,2.1
3.252e-06,3.1,1.7
3.256e-06,3.1,1.3
3.260e-06,2.7,0.9
3.264e-06,2.9,0.9
3.268e-06,2.9,1.3
3.272e-06,3.1,1.5
3.276e-06,2.9,2.1
3.280e-06,3.3,2.3
3.284e-06,3.9,2.9
3.288e-06,3.9,3.7
3.292e-06,4.1,4.3
3.296e-06,4.3,4.9
3.300e-06,4.7,5.5
3.304e-06,4.9,5.9
3.308e-06,5.3,6.5
3.312e-06,5.7,6.7
3.316e-06,5.9,7.3
3.320e-06,5.9,6.9
3.324e-06,6.3,6.9
3.328e-06,5.9,6.7
3.332e-06,5.9,6.5
3.336e-06,5.5,6.1
3.340e-06,5.5,5.9
3.344e-06,5.1,5.1
3.348e-06,4.7,4.9
3.352e-06,4.5,3.9
3.356e-06,3.7,4.1
3.360e-06,3.7,2.9
3.364e-06,2.9,2.9
3.368e-06,3.1,2.3
3.372e-06,2.3,1.9
3.376e-06,2.1,1.3
3.380e-06,1.9,1.3
3.384e-06,1.7,1.1
3.388e-06,1.5,0.9
3.392e-06,1.5,1.1
3.396e-06,1.3,0.9
3.400e-06,1.3,0.9
3.404e-06,1.5,1.3
3.408e-06,1.5,1.5
3.412e-06,1.3,2.1
3.416e-06,1.5,2.3
3.420e-06,2.1,2.3
3.424e-06,1.9,2.3
3.428e-06,2.1,3.3
3.432e-06,2.1,3.1
3.436e-06,2.5,3.5
3.440e-06,2.3,3.9
3.444e-06,2.5,3.7
3.448e-06,2.3,3.7
3.452e-06,2.3,3.5
3.456e-06,2.7,3.9
3.460e-06,2.5,3.7
3.464e-06,2.5,3.3
3.468e-06,2.5,3.5
3.472e-06,2.5,3.1
3.476e-06,2.3,3.1
3.480e-06,1.9,2.9
3.484e-06,1.7,2.3
3.488e-06,1.7,2.3
3.492e-06,1.7,2.3
3.496e-06,1.3,2.3
3.500e-06,1.1,1.9
3.504e-06,1.1,1.9
3.508e-06,1.3,1.7
3.512e-06,0.9,1.5
3.516e-06,0.7,1.5
3.520e-06,0.7,1.3
3.524e-06,0.7,1.7
3.528e-06,1.1,1.3
3.532e-06,0.7,1.7
3.536e-06,0.7,1.7
3.540e-06,0.5,1.7
3.544e-06,0.5,1.9
3.548e-06,0.7,1.9
3.552e-06,0.7,1.9
3.556e-06,0.7,1.9
3.560e-06,0.7,1.7
3.564e-06,0.7,1.9
3.568e-06,0.7,1.9
3.572e-06,0.9,1.9
3.576e-06,0.7,1.7
3.580e-06,0.9,1.7
3.584e-06,0.7,1.9
3.588e-06,0.5,1.7
3.592e-06,0.5,1.7
3.596e-06,0.7,1.5
3.600e-06,0.7,1.5
3.604e-06,0.7,1.5
3.608e-06,0.9,1.3
3.612e-06,0.5,1.3
3.616e-06,0.7,1.3
3.620e-06,0.9,1.1
3.624e-06,0.7,1.3
3.628e-06,0.7,1.1
3.632e-06,0.7,1.1
3.636e-06,0.7,1.3
3.640e-06,0.7,1.1
3.644e-06,1.1,1.5
3.648e-06,0.5,1.5
3.652e-06,0.3,1.1
3.656e-06,0.9,1.5
3.660e-06,0.7,1.5
3.664e-06,0.7,1.5
3.668e-06,0.9,1.5
3.672e-06,0.9,1.7
3.676e-06,0.7,1.9
3.680e-06,0.9,1.7
3.684e-06,0.7,1.7
3.688e-06,0.7,1.7
3.692e-06,0.7,1.7
3.696e-06,0.7,1.3
3.700e-06,0.5,1.7
3.704e-06,0.7,1.3
3.708e-06,0.5,1.3
3.712e-06,0.7,1.1
3.716e-06,0.7,1.5
3.720e-06,0.5,1.7
3.724e-06,0.3,0.9
3.728e-06,0.5,0.9
3.732e-06,0.1,1.3

